{
    "aries": {
        "main": "Sice na to nejste zvyklí, ale pokuste se dnes odpoutat od svých předsudků o špatném konci. Není vše tak, na co jste byli zvyklí. Věci se mění k lepšímu a svítá vám naděje na krásné zážitky v milostné oblasti, ale také na pracovní úspěchy. Není to špatné.",
        "love": "Planeta Venuše stále pracuje ve váš prospěch a vy si tak můžete dopřát krásné zážitky, na které budete ještě dlouho vzpomínat.",
        "work": "Váš nadřízený vás dnes může zaskočit slovy chvály, až z toho budete nesví. Nemáte však důvod pochybovat a nevěřit mu.",
        "relationships": "Snažte se chodit více do společnosti nebo se pohybovat mezi oblíbenými kamarády. Prospěje vám to po psychické stránce.",
        "health": "Nepřehánějte to dnes s pitím alkoholu a ponocováním, ubralo by vám to dost sil na nadcházející víkend. Raději včas ulehněte.",
        "tips": "Celodenní výlet na kolech na vzdálené místo, nákupy v hobbymarketu, digitální detox, venčení psa u vody, sbírání hub."
    },
    "taurus": {
        "main": "Vaše povaha vám nedovoluje být v centru zájmu větší společnosti lidí. Vy máte rádi svůj klid a pevné místo mezi přáteli, cizí lidi nevyhledáváte. Tím víc vám může dnes vadit chování vašeho protějšku, který je vaším přesným opakem. Jste opravdu spokojení?",
        "love": "Být centrem pozornosti ve společnosti je zřejmě hlavním zájmem vašeho partnera. Vám se to ale dnes vůbec nemusí líbit.",
        "work": "Planeta Merkur vnáší do vašeho kreativního světa nové nápady, které umíte skvěle zpracovat a přivést je do života.",
        "relationships": "Umíte si dnes najít spoustu zajímavých informací, které si nejen budete dobře pamatovat, ale také je dokážete zužitkovat.",
        "health": "Zvláště ženy si dnes mohou dopřát příjemné kosmetické ošetření. Ať už v kosmetickém salonu, nebo v domácím prostředí.",
        "tips": "Oběd v pizzerii, procházka přírodou, vědomostní a deskové hry s kamarády, pořízení vybavení pro kempování a stanování."
    },
    "gemini": {
        "main": "Nemáte někdy dojem, že vaše nároky na partnera jsou přehnané? Snažte se na situaci podívat jeho očima a možná vám dojde, že jisté požadavky z vaší strany nejsou dosažitelné. Také v zaměstnání hledáte chyby na ostatních, přitom to je nespravedlivé.",
        "love": "S partnerem si dnes nebudete vůbec rozumět, protože se stále snažíte, aby se vztah ubíral podle vašich potřeb a přání.",
        "work": "Budete od rána bojovat s nejistotou a nervozitou, kterou se vám nebude dařit skrývat. To vaší snaze vůbec nepomůže.",
        "relationships": "Neriskujte zbytečně zdraví své nebo vašich blízkých při adrenalinových aktivitách. Především hlídejte svoje děti.",
        "health": "Divokými kombinacemi jídel může trpět váš zažívací systém. Pokud nestojíte o střevní problémy, jezte střídměji.",
        "tips": "Příprava pohoštění pro přátele, odpočinek u letního románu a příjemné hudby, pokerový turnaj s přáteli, wellness."
    },
    "cancer": {
        "main": "Pokud se, jako stále nezadaní, chcete poohlédnout po novém partnerovi, musíte se také podívat na to, jaké životní hodnoty zastává. Neměli byste ze svých nároků teď slevovat, naopak se držte svého, jinak byste se mohl opět splést a litovat toho.",
        "love": "Hledat byste k sobě měli osůbku, se kterou máte stejné názory na život, jinak budete po fázi zamilování se dost zklamaní.",
        "work": "Konec pracovního týdne vám přinese úlevu, protože i přesto, že se vám dařilo, jste unavení a vyčerpaní. Chce to odpočívat.",
        "relationships": "Rádi byste rozšířili své aktivity, takže se budete porozhlížet po novém hobby nebo vzdělávacím kurzu, který by vás zaujal.",
        "health": "Jídlo jezte pomalu a pořádně kousejte. Hltání a velké porce vám přidělají opět problémy s trávením a nadýmáním.",
        "tips": "Snídaně v oblíbeném bistru, práce na zahradě, hraní karetních a casino her s přáteli, divadelní představení pod širým nebem."
    },
    "leo": {
        "main": "Začíná se obracet karta a v práci se můžete pomalu, ale jistě dostávat zpět do svého tempa a stylu. I přestože to budou malé krůčky, nenechte se tempem odradit a držte se ho. Díky tomu budete všechno plnit přesně a bez nejmenší chybičky.",
        "love": "Pokud vás někdo v minulých dnech nebo týdnech odmítl, dnes to konečně přestanete řešit a hodíte to za hlavu. Je to dobře.",
        "work": "Motivovat vás mohou dílčí úspěchy, který dosahujete pomalu, ale přesně. I na vaše nadřízené to udělá velký dojem.",
        "relationships": "Zveličováním věcí a podléháním emocím si moc nepomůžete. Naopak se nakonec můžete zlobit jen sami na sebe za své chování.",
        "health": "Užívejte si rekreačního pohybu, co vám jen fyzická kondice dovolí. Při procházce se soustřeďte na to, abyste měli rovná záda.",
        "tips": "Den s dětmi v aquaparku nebo na koupališti, nákup ovoce a zeleniny na trhu, kontrola cestovních dokladů před odletem."
    },
    "virgo": {
        "main": "Jakékoliv nehezké věci, drby a pomluvy vás dnes mohou zaskočit. I když se nebudou týkat vás, ale někoho blízkého nebo známého, zamrzí vás to i tak a budete to chtít uvést na pravou míru. Zatím se ale držte stranou, protože neznáte všechny souvislosti.",
        "love": "V dlouhodobém vztahu bude nyní více tolerance a respektu k názoru druhého. Zřejmě jste také přestali komunikovat.",
        "work": "Dnes rozhodně nezůstávejte za ostatními schovaní a nenápadní. Naopak! Buďte v popředí a snažte se být vidět. Je to na vás.",
        "relationships": "Nepříjemně by vás mohly zaskočit nějaké pomluvy, které se k vám donesou. Nemusí se ale týkat přímo vaší osoby.",
        "health": "Jestliže máte trápení a zlobí vás nervy, požádejte o pomoc u odborného lékaře. Není to ostuda.",
        "tips": "Plánované renovace domova nebo chalupy, zahradničení, nákupy na bleším trhu, odpoledne na plovárně, ruční mytí automobilu."
    },
    "libra": {
        "main": "Kolegové dnes ocení to, že se v zaměstnání opět objevíte se širokým úsměvem na tváři a nějakým vtípkem, který jim zlepší náladu. V posledních dnech jste pro ně zdrojem pozitivní energie, a tak se na to budou spoléhat i dnes. A vy je určitě nezklamete.",
        "love": "Mohl by si vás všimnout někdo velmi výrazný, kdo po svém boku touží mít tak výjimečnou osobu, jako jste vy sami.",
        "work": "Máte tendence dnes vnést na pracoviště dobrou náladu, a tak nakráčíte do zaměstnání s úsměvem a vlídným slovem. To se cení.",
        "relationships": "Pokud jste si ještě neužili dovolené u moře, není nač čekat. Sedněte k internetu a sáhněte po skvělém last minute zájezdu.",
        "health": "Prospějí vám regenerační masáže, zvlášť pokud máte namožené tělo ze cvičení nebo z práce. Uvidíte, jak báječně se vám uleví.",
        "tips": "Půjčení knížek z městské knihovny, studium cizích jazyků, sušení léčivých bylinek, odpolední sportování s kamarády."
    },
    "scorpio": {
        "main": "V milostné oblasti brzy nastane zlomové období, na které se musíte pomalu začít připravovat. Jde o to, že bude nutné zrekapitulovat vše, co se odehrálo, a vyvodit z toho nějaké rozhodnutí. Nebude to jednoduché, ale vy se s tím poperete se ctí.",
        "love": "Netrapte se tím, co evidentně nemůžete změnit, protože chyba není na vaší straně. Budete se muset brzy rozhodnout.",
        "work": "Buďte opatrní na náladovost vašeho nadřízeného. Jeho rozmary nechte být a přejděte je s mávnutím ruky. Za chvíli to zapomene.",
        "relationships": "Investice do drahých spotřebičů a interiérových doplňků si ještě nechte projít hlavou. Za pár dní můžete najít lepší ceny.",
        "health": "Měli byste se zamyslet na nějakou pohybovou aktivitou, která by se zasadila o zhubnutí. Začněte hledat vhodné fitness centrum.",
        "tips": "Dopolední pochůzky po úřadech nebo bankách, nákup veganského občerstvení, péče o starší příbuzné, večerní letní kino."
    },
    "sagittarius": {
        "main": "Ani v pátek si neodpočinete od náročných pracovních povinností, na které se musíte opravdu hodně soustředit. Pokud to neuděláte, čekají vás chyby a z nich plynoucí postihy. Bude lepší dnes dbát na kvalitu práce než na tempo a kvantitu úkolů.",
        "love": "Přitahovat vás může někdo, kdo je ohnivé znamení, stejně jako vy. V tomto člověku můžete najít spřízněnou duši.",
        "work": "Opět bude dnes na pořadu dne koncentrace na běžné denní záležitosti. Snažte se tedy postupovat pomaleji, abyste předešli chybám.",
        "relationships": "Jistí členové rodiny vás mohou dnes zklamat svým chováním. Nesmíte se k tomu však více upínat, svůj názor si udržte.",
        "health": "Vyvážená strava zajistí rovnováhu ve střevech, která jsou samozřejmě důležitá pro výbornou imunitu. Snažte se správně jíst.",
        "tips": "Rekreační běh v lese, sbírání ostružin a lesních jahod, návštěva nejbližší botanické zahrady, nákup elektrokoloběžky."
    },
    "capricorn": {
        "main": "Konečně v sobě najdete tolik odvahy, abyste začali pomalu rozvíjet něco nového a velmi zajímavého v milostné oblasti. Uvidíte, že i přes počáteční obavy si povedete velmi dobře, a tak jste na prahu nové lásky. Vložte do toho celé své upřímné srdce.",
        "love": "Pokud si dnes dodáte odvahy a svůj tajný idol oslovíte, uvidíte, že jste udělali pro svůj milostný život dobře.",
        "work": "Kreativitu umíte přetavit do každého projektu, který vám přistane na stole. I dnes si s úkoly poradíte díky nápaditosti.",
        "relationships": "Udělejte si dnes dostatek času pro svou rodinu. Možná jste je během týdne trochu zanedbávali a je třeba to napravit.",
        "health": "Správný opalovací krém vám zajistí krásné opálení, ale také správnou péči o pokožku a předejde nepříjemnému spálení.",
        "tips": "Celodenní výlet na kolech s přáteli, hraní golfu, ping-pong s dětmi, luštění křížovek, opalování se, digitální detox."
    },
    "aquarius": {
        "main": "Pokud váš miláček stále hledá příležitosti, jak si do vás rýpnout, bude nutné se ho zeptat, proč to vlastně dělá. Možná objevíte škodolibou radost, ale také dost možná zjistíte, že to dělá podvědomě a bez zlého úmyslu. Obojí bude nepříjemné.",
        "love": "Dnes nabydete dojmu, že na vás váš partner hledá jen samou chybu. Možná to ale tak je. Zkuste se ho zeptat přímo.",
        "work": "Požadavky nadřízených na vaši práci jsou naprosto odlišné od toho, co jste nyní schopni vytvořit. Budete se muset víc snažit.",
        "relationships": "V těchto dnech vám velmi prospěje pohyb. Zkuste si najít nový sport, který vás přivede k pravidelnému cvičení.",
        "health": "Místo toho, abyste se dnes prolévali alkoholem až do rána, jděte dřív spát a předtím vypijte sklenici čisté vody.",
        "tips": "Minigolf s dětmi, návštěva starších příbuzných, houbaření, slunění se na zahradě, plánování nových výletů po Evropě."
    },
    "pisces": {
        "main": "Budete mít všeho po náročném týdnu opravdu dost, a tak zatoužíte po společnosti lidí, se kterými je vám příjemně. Pravděpodobně to budou vaši dlouhodobí přátelé, se kterými vyrazíte do víru města, nočních barů nebo hudebních klubů, a budete se bavit.",
        "love": "Zdá se, že vaše druhá polovička značně podceňuje vaše potřeby. Především jde o láskyplné projevy a romantické aktivity.",
        "work": "Od rána budete mít v hlavě jen nadcházející víkend a to vašim pracovním výkonům také zrovna nepřidá. Musíte se soustředit.",
        "relationships": "Abyste se trochu rozptýlili a přišli na jiné myšlenky, měli byste se dnes připojit ke svým přátelům a vyjít si do společnosti.",
        "health": "V tomto období vám hrozí poranění dolních končetin. Vyhněte se rizikovým aktivitám a sportům. Noste vhodnou obuv.",
        "tips": "Výroba rodinného herbáře, sušení léčivých bylinek, výroba likéru z ovoce, grilování na terase, četba cizojazyčné poezie."
    }
}