{
    "aries": {
        "main": "Sobotu věnujte zážitkům, které si dopřejete ve společnosti svých milovaných a blízkých. Především to ale musí být společný program, kdy se budete bavit všichni a který ve vás zanechá krásné vzpomínky. Takže na poletování po obchodním domě zapomeňte.",
        "love": "S partnerem budete mít oba pěkný víkend, jelikož hvězdy přejí naplnění vašich přání a představ o společném volném čase.",
        "work": "Riskantní kroky v oblasti investic nejsou nyní vůbec doporučovány. Pokud o to ale stále stojíte, je třeba velké opatrnosti.",
        "relationships": "Pokud se dnes vydáte s rodinou ještě na nějakou letní pouť, budete se skvěle bavit a domů půjdete s rozvernou náladou.",
        "health": "Nic vám nebrání v tom, abyste si dnes na farmářských trzích vyzkoušeli nějaké nové pokrmy a lahůdky. Může to být zajímavé.",
        "tips": "Nákup lokálních surovin a lahůdek na farmářském trhu, odpolední koupání u řeky, hraní na hudební nástroje s přáteli."
    },
    "taurus": {
        "main": "Jestliže jste se znovu ocitli v životě bez partnera a bojíte se, že budete dlouho single, tak můžete obavy pustit z hlavy. Hvězdy vám do života posílají někoho, s kým si budete moc dobře rozumět, a konečně to bude člověk podle vašich představ.",
        "love": "Hlavou se vám sice budou honit obavy z toho, že budete opět sami, ale nebojte se. Kdosi nový je na cestě k vám.",
        "work": "Ještě dnes máte šanci vymanit se z nějakých nesnází, které jste si způsobili sami svou vlastní nezkušeností v oboru investic.",
        "relationships": "Čeká vás příjemný sobotní den, ve kterém si můžete dopřát péči hlavně sami sobě a svému vzhledu. Nepospíchejte a relaxujte.",
        "health": "Není od věci si dnes udělat čas jen pro sebe a připravit si doma takové malé lázně, s aromatickou koupelí a zábalem vlasů.",
        "tips": "Příprava jídla na odpolední rodinný piknik v parku, zpívání a hraní na hudební nástroje, procházka s pejskem u řeky."
    },
    "gemini": {
        "main": "Dostanete se z finančních obtíží a spadne vám kámen ze srdce. Vezměte si ale z této situace ponaučení a již se k ničemu podobnému v budoucnu neupisujte, protože podruhé takové štěstí mít nemusíte. Raději se věnujte něčemu, z čeho budete mít radost.",
        "love": "Již od brzkého rána se mezi vámi a vaším partnerem může rozhostit pohoda po uplynulých náročných dnech. Víkend se vydaří.",
        "work": "Ve finanční oblasti se počínaje dneškem mohou objevit pozitivní změny. Ale přesto si dávejte pozor a k ničemu se nezavazujte.",
        "relationships": "Co takhle vyrazit si na oblíbený farmářský trh a dát si něco dobrého k jídlu? I vy potřebujete kulinářské experimenty.",
        "health": "Stále můžou vaši pohodu ohrožovat klíšťata a jiní paraziti. Proto si připravte pro pohyb v přírodě vhodné repelenty.",
        "tips": "Nákupy pro nemocné příbuzné, zpracovávání ovoce a zeleniny z vlastní zahrádky, pořízení nového kávovaru do domácnosti."
    },
    "cancer": {
        "main": "Vaše finance jsou nyní v ohrožení, protože máte tendence s nimi zacházet dost lehkomyslně a dávat je všanc nevýhodným, nebo dokonce podvodným obchodům. Bude lepší, když se podobným věcem budete vyhýbat a odmítat na první pohled výnosné nabídky.",
        "love": "Ne vše se dnes bude odvíjet podle vašich představ, a to i přesto, že si žádné velké plány do budoucna neděláte a čekáte.",
        "work": "Hlídejte si své peníze a kontrolujte investice. Ne vše, co je lákavé na první pohled, je opravdu tak výhodné.",
        "relationships": "Roztržitost a uspěchanost budou strašáky dnešního a možná i zítřejšího dne. Nenuťte sebe ani ostatní do heroických výkonů.",
        "health": "Jestli si dnes chcete na farmářských trzích ve městě vyhodit z kopýtka a ochutnávat, myslete ale také na možné následky.",
        "tips": "Hraní deskových a vědomostních her, výlet do nejbližší zoologické zahrady, oběd ve výletní hospůdce, relax s knihou."
    },
    "leo": {
        "main": "Pokud se přestanete trápit nepodařenými vztahy, uleví se vám. Berte to tak, že jsou to jen životní lekce, ze kterých si kromě pár ran, odnesete také poučení. Navíc máte silnou intuici, které by bylo dobré opět začít věřit, naslouchat jí a také se jí řídit.",
        "love": "Naslouchejte své intuici a řiďte se podle toho. Zjistíte, že nakonec vás dobře provede jistou situací, ze které budete těžit.",
        "work": "Pokud jste se počátkem srpna upsali k nějaké nevýhodné půjčce nebo zakoupili něco, co nepotřebujete, měli byste to řešit nyní.",
        "relationships": "Záležitosti doma se mohou pomalu obracet k lepšímu. Našlapujte tedy opatrně, ať znovu něco nepokazíte, byla by to škoda.",
        "health": "Nejen nedostatečný pohyb je příčinou vašich bolestí kloubů a především zad. Může za to také matrace v posteli.",
        "tips": "Výtvarné práce a výroba interiérových dekorací, úklid domácího ateliéru nebo dílny, projížďka na horském kole v terénu."
    },
    "virgo": {
        "main": "Dnes se vás může někdo pokusit nalákat na něco, co vypadá na první pohled velmi atraktivně a zajímavě, ale ve skutečnosti půjde jen o dobře zakrytý podvod. Na vás si ale dotyčná osoba nepřijde, vy podvodníka odhalíte na první dobrou a budete v klidu.",
        "love": "Možná budete i dnes rádi jen ve společnosti svého nového miláčka, se kterým si stále máte co povídat a sdílet.",
        "work": "Díky skvělé intuici se vám podaří odhalit dopředu podvodníka, který bude mít eminentní zájem o vaše peníze. Buďte ve střehu.",
        "relationships": "Z farmářského trhu můžete domů přinést samé laskominy a svým nejbližším z nich vyčarovat luxusní sobotní oběd.",
        "health": "Přes týden jste mohli být pod opravdu velkým stresem, a tak není zbytí a vy si musíte dopřát zasloužený a vhodný odpočinek.",
        "tips": "Péče o čtyřnohé kamarády, výlet mimo domov, den s dětmi ve sportovním parku, houbaření, lenošení u oblíbeného seriálu."
    },
    "libra": {
        "main": "Bude vám dělat radost, když dnes dostanete příležitost vydat se do společnosti se svou novou láskou, protože je to atraktivní osoba, po jejímž boku se cítíte skvěle. Navíc se díky svému novému protějšku můžete podívat mezi další zajímavé lidi.",
        "love": "Pohybovat se po boku někoho, kdo má jisté postavení a jméno ve společnosti, se vám bude hodně zamlouvat. Není se čemu divit.",
        "work": "Plánované úpravy domácnosti vás nebudou stát mnoho, když se do nich pustíte sami a nebudete využívat služeb řemeslníků.",
        "relationships": "Velmi dobrý nápad je vyrazit si na víkend nebo alespoň den mimo město, do příjemného hotýlku ukrytého v srdci přírody.",
        "health": "Není důvod, proč byste si dnes měli dávat hodně do těla při sportování, i když jste při síle. Zkuste naopak více relaxovat.",
        "tips": "Romantická procházka s novým partnerem po městě, sledování oblíbeného seriálu, setkání se sourozenci u kávy, meditace."
    },
    "scorpio": {
        "main": "S potížemi v milostné oblasti si zřejmě sami neporadíte, a tak se budete muset vydat pro radu za někým, koho si vážíte a věříte mu. Je důležité umět se takové osůbce upřímně svěřit, aby se vám dostalo rady, kterou opravdu v této situaci potřebujete.",
        "love": "Pro radu s potížemi v lásce si zajděte za někým, kdo je vám blízký a věříte mu. Jedině tak se vám dostane té správné pomoci.",
        "work": "Budete-li dnes chtít něco vyreklamovat, dobře se na to připravte. Nesmíte zaváhat při vracení zboží ani na chvilinku.",
        "relationships": "Dobře vám rozhodně bude někde v přírodě, kam se vydáte na krásnou procházku nebo lehčí túru. Zapomeňte na davy lidí ve městě.",
        "health": "Od cvičení ve fitness centru vás může odradit mnoho věcí. Ale to nebrání v tom, abyste si šli třeba zaběhat do lesa.",
        "tips": "Sportovní aktivity pod širým nebem, příprava lehkého oběda na grilu, kontrola školních potřeb pro děti, ruční mytí auta."
    },
    "sagittarius": {
        "main": "Máte pravděpodobně zálusk na nové spotřebiče nebo zajímavý kousek nábytku do domácnosti, ale také máte omezené finanční možnosti. Podrobně si spočítejte zamýšlené náklady a snažte se zůstat nohama na zemi. Ne vše je potřebné a nutné mít hned.",
        "love": "Hazardujete, když si dnes budete pouštět pusu na špacír a s ostatními jednat dosti pofidérně. Může se vám to vymstít.",
        "work": "Pokud uvažujete o výměně věcí v domácnosti, bude nutné si připravit předem důkladný rozpočet, abyste si nevyčerpali své konto.",
        "relationships": "Nesmíte se stále do něčeho nutit a to samé dělat ostatním doma. Pokud se vám chce lenošit, nebraňte se tomu a dopřejte si to.",
        "health": "Bouřlivé večírky, které se protáhnou do ranních hodin, nejsou to, co byste měli praktikovat každý týden. Tělu to ubližuje.",
        "tips": "Wellness procedury, kosmetické ošetření, pořízení dermokosmetiky, večer v rockovém klubu, tanec, pozdní večeře ve městě."
    },
    "capricorn": {
        "main": "Vaše představa o tom, jak fungují milostné vztahy, může být poněkud zkostnatělá. Jestliže nejste ve vážném vztahu, ale i přesto si budete odpírat i jen nevinné flirtování, sami sebe okrádáte o krásné a romantické zážitky a chvilky. Není to škoda?",
        "love": "Možná se bráníte i obyčejnému flirtování, protože máte utkvělou představu, že musíte mít vážný vztah. To je ale škoda.",
        "work": "Uděláte skvělé rozhodnutí a odmítnete investovat do všeho, co se tváří jako výhodná koupě. Raději si korunky budete šetřit.",
        "relationships": "Dávejte před koncem prázdnin pozor na své ratolesti, které se snaží dělat neplechu za každou cenu. Mohou se zranit.",
        "health": "Do teplé koupele si dnes přidejte aromatické koupelové soli nebo esenciální oleje, které pomohou celkovému uvolnění.",
        "tips": "Pořízení nového sportovní náčiní, zápis do nejbližšího fitness centra, grilování na zahradě, příjemná procházka po okolí."
    },
    "aquarius": {
        "main": "Blíží se závěr letních prázdnin a vy budete zřejmě muset s vašimi malými dětmi do obchodu pro nové školní potřeby. Nenechte se ale unést a zatím vybírejte jen to, co obvykle, protože jinak vás vaše ratolesti připraví o dost velký finanční obnos.",
        "love": "Malá lekce by vašemu partnerovi možná udělala dobře. Ukažte mu, jaké to je, když před ním budete něco tajit a nic neříkat.",
        "work": "Vaše finanční možnosti jsou nyní opravdu dost omezené, a tak bude potřeba vymyslet nějaký záložní plán pro případ krize.",
        "relationships": "Zaměřte se dnes na své děti, se kterými bude nutné se pomalu začít připravovat na nový školní rok. Vyrazte pro školní potřeby.",
        "health": "Můžete nyní být v pohodě a mít energie na rozdávání, ale i přesto byste se svými silami měli nakládat uvážlivě.",
        "tips": "Výroba domácího ovocného vína, houbaření v blízkém lese, renovace zahradního nábytku po létě, luštění švédských křížovek."
    },
    "pisces": {
        "main": "Máte-li dnes volný den, zřejmě se vám nebude chtít zbytečně vysedávat doma, nýbrž se velmi rádi sejdete s přáteli a podniknete něco zábavného. Ať už jste nadšenci do sportu, nebo se vydáte za poznávacím výletem, důležitá bude především společnost.",
        "love": "Vyjděte si zasportovat nebo s přáteli na nějakou zajímavou exkurzi. Není od věci se bavit a ještě se něco zajímavého dozvědět.",
        "work": "Vyděsit vás může pohled na stav vašeho bankovního účtu, protože jste si zřejmě přes léto nedávali žádná omezení a je to znát.",
        "relationships": "Snažte se dnes doma o zachování klidného a příjemného klimatu. Večer si s rodinkou uspořádejte turnaj v karetních hrách.",
        "health": "Není od věci zatěžovat nožky nějakým pohybem, ale není nutné je úplně zničit zbytečnými aktivitami. Vnímejte své tělo.",
        "tips": "Účast na rodinné sešlosti, příprava s dětmi na nový školní rok, masáže v oblíbeném wellness centru, telefonát s rodiči."
    }
}