{
    "aries": {
        "main": "Nezadaní Berani mohou narazit na svůj vysněný protějšek. Objevíte ho na místě, kde byste se jindy po životní lásce nerozhlíželi. Rozhodně se nevyplatí zůstat sedět v teple domova, jedině mezi lidmi se můžete seznámit. Pošťák vám nový vztah nepřinese.",
        "love": "S partnerem si na sebe uděláte čas a prožijete skvělé odpoledne. Vašemu vztahu to prospěje. Začínali jste se oddalovat.",
        "work": "Bude třeba uskromnit se kvůli zážitkům, jež máte za sebou. Za vydané finance vám to ovšem stálo. Nejednali byste jinak.",
        "relationships": "K neznámým lidem budete dnes nedůvěřiví. Raději si dáváte pozor na ústa a nebudete na sebe prozrazovat nic zásadního.",
        "health": "Nedostatek energie vám v pondělí nehrozí. Jste odpočatí z dovolené nebo víkendu a těšíte se na nové pracovní aktivity.",
        "tips": "Dopolední něžnosti s partnerem, vyprávění historek z dovolené, profesionální masáž, wellness centrum, bowling s přáteli."
    },
    "taurus": {
        "main": "Vzpomínky na letní dovolenou vás budou provázet po celé pondělí. Přátelům se budete chlubit příjemně strávenými dny, o kterých se jim ani nezdá. Dejte si pozor na to, abyste je početnými fotkami a historkami neznechutili. Mohli by vám začít závidět.",
        "love": "Láska má v těchto dnech zelenou. S druhými lidmi umíte komunikovat a své city dáváte najevo. To vám seznámení usnadní.",
        "work": "Oproti kolegům máte dnes jednu obrovskou výhodu: dostatek energie. Jim tato maličkost schází a nejsou s to to překonat.",
        "relationships": "Jakmile se někdo začne plést do vašich soukromých záležitostí, budete řádně rozčilení. Všechno si zařídíte nejlíp sami.",
        "health": "Láska je pro vás momentálně nejúčinnější lék na všechny neduhy. Všechno hned funguje, jak má. Budete opět jako rybička.",
        "tips": "Pomoc nováčkům v práci, oběd s kamarády v oblíbené hospůdce, omezení kouření, zdravý životní styl, technická kontrola"
    },
    "gemini": {
        "main": "Merkur stojící v Panně na vás nebude mít nejlepší vliv. Poznamenaný bude hlavně váš citový život, kterému není příliš přáno. Na milostná vyznání a vylepšení partnerského vztahu dnes nebude čas ani vhodná příležitost. Raději se věnujte jiným věcem.",
        "love": "Romantická slova šeptaná do ouška nebudou v pondělí ničím výjimečným. V partnerovi opět probudíte ztracenou jiskru.",
        "work": "Dávejte si pozor na to, před kým pomlouváte nadřízené. Ne všichni kolegové jsou tak spolehliví, jak se naoko staví.",
        "relationships": "Uděláte si čas na své sourozence a pomůžete jim se záležitostmi, s nimiž si nevědí rady. O své pravdě jste přesvědčeni.",
        "health": "Psychicky byste na tom dnes mohli být o píď lépe. Něco se vám nedaří podle plánu, a tak zbytečně propadáte rozmrzelosti.",
        "tips": "Posílání dvojsmyslných SMS, hra na hudební nástroj, umělecké činnosti, rekonstrukce bydlení, dopolední jogging, zumba."
    },
    "cancer": {
        "main": "Saturn vám usnadní vážné rozhovory ohledně budoucnosti. Není důležité, zda půjde o pracovní záležitosti, nebo nejasnosti v soukromí. Jste otevření a nedělá vám problém vyjádřit své potřeby i obavy. To vás do budoucna ušetří mnoha zbytečných starostí.",
        "love": "Masáž z rukou partnera i společná horká koupel vás dostanou opět do formy. Musíte na to jít pěkně pozvolna a nespěchat.",
        "work": "Dnes by vám slušel den volna. Necítíte se na žádné významnější úkoly a také do rutinních záležitostí se musíte nutit.",
        "relationships": "Nejvíce energie si vyžádá péče o nejmladší členy domácnosti. Bude třeba věnovat se jejich výchově a mít pevnou ruku.",
        "health": "Sami si uvědomíte, že takhle to dál nejde. Zdraví máte pouze jedno a nehodláte ho tímto způsobem donekonečna huntovat.",
        "tips": "Pomoc méně zkušeným kolegům, čištění počítače, zálohování dat, žehlení, úklid šatníku, návštěva veterináře, turistika."
    },
    "leo": {
        "main": "Partnerovi můžete nasadit brouka do hlavy. V oblasti lásky mu nedáváte jednoznačně najevo, že je pro vás tím jediným pravým. Snadno pak propadne panice a uvažuje nad tím, zda mu jste věrní. Větší upřímností byste oběma ušetřili spoustu nepříjemností.",
        "love": "Flirtování před zraky partnera vám pohodovou domácnost nezajistí. Nedivte se, že se mu vaše společenské jednání nelíbí.",
        "work": "Na pracovišti jste dnes schopni lecčeho. Oběd s nadřízeným, nebo dokonce trocha flirtování vám nedělají žádné potíže.",
        "relationships": "Dnes vám vyhovuje bujará společnost, která je složená především z atraktivních protějšků. V ní jste nejspokojenější.",
        "health": "Nestálost v partnerstvích by vám dnes mohla přidělat vrásky na čele. Myslete na svoje zdraví také při intimnostech.",
        "tips": "Pozvání partnera na večeři, vylepšování vztahu, investice do interiéru, rekonstrukce bydlení, míčové hry s ratolestmi."
    },
    "virgo": {
        "main": "Na pracovišti byste si měli dávat pozor na ústa. Neuvážená slova by se vám nemusela vyplatit. Vládne tu dusná atmosféra a ke konfliktu stačí málo. Raději si hleďte svého a nestrkejte nos do věcí, které se vás netýkají. Bude to tak pro všechny lepší.",
        "love": "Při navazování nového vztahu netlačte na pilu. Mohli byste čerstvého partnera zastrašit a těžko byste to napravovali.",
        "work": "S kolegy si dnes nebudete moc rozumět. Každý si děláte na svém písečku a bojíte se o teplé místo. Jde o konkurenční boj!",
        "relationships": "Domácnost dnes zafunguje jako vaše bezpečné útočiště. Mezi příbuznými se konečně oprostíte od negativních myšlenek.",
        "health": "Rozčilováním se vám zvedne tlak. Nedivte se, že se vám bude točit hlava a necítíte se nejlépe. Potřebujete se zklidnit.",
        "tips": "Výběr volnočasových aktivit pro potomky, návštěva kina, ruční práce, zálohování dat v počítači, posezení v čajovně."
    },
    "libra": {
        "main": "V začátku týdne se nebudete cítit právě nejlépe. Po víkendu si připadáte unavení a marně v sobě lovíte alespoň minimální chuť do práce. Závěr měsíce není vhodný pro zásadní kroky v kariéře a bude lepší, když úkoly nenápadně přesunete na někoho jiného.",
        "love": "Pondělí vám ukáže, zda jste si s partnerem skutečně souzeni. Veškeré otazníky ohledně společné budoucnosti budou pryč.",
        "work": "Najednou máte jasno v tom, kudy by se měl váš profesní život ubírat. Nechcete dělat podřadnou a špatně hodnocenou práci.",
        "relationships": "Dnes není vyloučeno, že zauvažujete nad založením vlastní rodiny nebo domácnosti. Potřebujete se v mnohém osamostatnit.",
        "health": "Začátkem týdne se vám sice nechce z postele, ale závažnější důvod k tomu mít nebudete. Tady jde pouze o nedostatek vůle.",
        "tips": "Jazykový kurz, školení, neprozkoumané sportovní aktivity, návštěva přátel, surfování po internetu, karaoke s kamarády."
    },
    "scorpio": {
        "main": "Práce vám dnes půjde snadno od ruky a nebudete se do ní muset dvakrát nutit. Veškeré povinnosti stihnete v předstihu, díky čemuž si budete moci odpoledne trochu zalenošit. Méně schopným kolegům budou vaše úspěchy trnem v oku. Moc se jimi nechlubte.",
        "love": "Partner na vás bude pyšný. Líbí se mu, že se může pochlubit atraktivním a úspěšným protějškem. Bezmezně vás obdivuje.",
        "work": "V práci si jedete své přirozené tempo a i přesto budete nejlepším zaměstnancem. Kolegové vám tiše závidí vaši pohodu.",
        "relationships": "Dnes dokonale ovládáte řečnické i manipulační schopnosti. Proto pro vás není žádný problém získat okolí na svou stranu.",
        "health": "V pondělí pro vás nebude žádná překážka nepřekonatelná. Vaše tělo jede na plné obrátky a psychicky jste také zcela fit.",
        "tips": "Dokončení restů v zaměstnání, záskok za nemocného kolegu, oběd s nadřízeným, třídění složek v počítači, zálohování dat."
    },
    "sagittarius": {
        "main": "Nové povinnosti vám nepůjdou tak lehce, jak jste si původně mysleli, a dají vám psychicky i fyzicky zabrat. Hvězdy slibují lepší výsledky při týmové práci, tak se nebojte požádat kolegy o pomoc. Pokud z toho kouká nějaká odměna, jistě vás neodmítnou.",
        "love": "Jestliže budete svého partnera zanedbávat, můžete si být jistí, že ho to časem přestane bavit a poohlédne se třeba i jinde.",
        "work": "Pondělí je ve znamení profesního rozvoje. Sebevzdělávání a rozšiřování současné kvalifikace vás dnes baví a naplňuje.",
        "relationships": "Náročné úkoly budete zvládat hlavně díky rodině. Blízcí vás ve všem maximálně podpoří a umožní vám pracovat naplno.",
        "health": "Nejvíce vás bude vyčerpávat neustálá péče o čerstvě narozeného potomka. Tomu během dne předáte všechnu svou energii.",
        "tips": "Koketování na pracovišti, pozvánka na rodinný oběd, deskové hry s dětmi, nákup ochranných pomůcek pro potomky, fotbal."
    },
    "capricorn": {
        "main": "Pondělí je ideální pro rozkvět vašeho vztahu. Čerstvá partnerství o sobě zjistí spoustu cenných informací a ztratí zbytečné zábrany v komunikaci i v posteli. U dlouholetých párů dochází k renesanci vzájemných citů. Jste si náhle ve všem mnohem blíž.",
        "love": "Odpoledne si budete partnera rozmazlovat a pondělní plány přizpůsobíte jeho potřebám. Značně si tím vylepšíte kredit.",
        "work": "V zaměstnání se dnes rozhodně nepředřete. Dáte si pozor na to, aby vám zbyl dostatek energie na příjemnější činnosti.",
        "relationships": "Psychická pohoda vašich blízkých je pro vás přednější než pracovní úspěchy. Podle toho zařídíte své celodenní plány.",
        "health": "Láska vás v pondělí vrátí do psychické pohody. Nemáte problém téměř s ničím, protože každou potíž berete s nadhledem.",
        "tips": "Seznamka přes inzerát, vylepšení vztahů mezi sousedy, péče o nehty, bylinkářství, administrativa, odlehčené stravování."
    },
    "aquarius": {
        "main": "Pokud se ve vás pere pokušení změnit pracovní působiště nebo opustit dlouholetého partnera, nedělejte k tomu dnes žádné zásadní kroky. Mohli byste jednat unáhleně a později si své rozhodnutí vyčítat. Na výrazné změny přijde ideální čas až později.",
        "love": "Rozhádaná partnerství by si měla dát pauzu. Dusná atmosféra by vám nedovolila učinit rozumné rozhodnutí. Chce to čas.",
        "work": "Na pracovišti se vám něco nezdá a jste schopni dát výpověď na hodinu. Pokud nemáte jinou jistotu, raději emoce kroťte.",
        "relationships": "Rodiče vám dají moudrou radu, aniž byste je o to žádali. Znají vás až příliš dobře na to, aby nevěděli, co se děje.",
        "health": "Koncem měsíce vás ohrožují psychické potíže. Stres a problémy v partnerství vaše zdraví ovlivňují více, než se může zdát.",
        "tips": "Změna vizáže, úklid a třídění šatníku, pracovní pohovor, nákup nového nábytku, prodej automobilu, romantika s partnerem."
    },
    "pisces": {
        "main": "Pondělí vám odkryje silné stránky vaší osobnosti. Objevíte v sobě talent na jistou činnost, což vám zvedne náladu a zajistí program pro zbytek odpoledne. Není vyloučeno, že kvůli novému koníčku zcela přeorganizujete svůj soukromý i profesní život.",
        "love": "Při nějakém koníčku dnes můžete narazit na zajímavý protějšek. Spojovat vás bude mnohem více než jen stejné záliby.",
        "work": "Změna zaměstnání je na spadnutí. Dnes zjistíte, že máte na víc, než někomu neustále dělat poskoka. Potřebujete rozvoj.",
        "relationships": "Odpoledne budete věnovat svým dětem a jejich potřebám. Zaměříte se na nákup pomůcek do školy a vzdělávacích prostředků.",
        "health": "Nějaký nový koníček vám umožní dokonale se odreagovat. Aktivní odpočinek vám v pondělí sedí mnohem víc než lenošení.",
        "tips": "Rozhovor s partnerem, návštěva rodičů, kolektivní sporty, čtení oblíbené knihy, sledování televize, večerní procházka."
    }
}