{
    "aries": {
        "main": "Ani pro vás není současná společenská situace jednoduchá, ale odmítáte se tomu úplně oddat. Na rozdíl od ostatních se snažíte stále vidět svět optimistickýma očima. To vám dnes usnadní život po všech stránkách. Dobrou náladu vám navodí i vánoční koledy.",
        "love": "Kolem vás se stále pohybuje dost lidí na to, abyste si z nich mohli vybrat skvělého parťáka do života. Osud vám přeje.",
        "work": "Udržujete si pozitivní přístup k práci, i přes současnou složitou dobu. Váš šéf si toho váží víc, než vám dává najevo.",
        "relationships": "I když někdo nechápe, že již dnes posloucháte vánoční koledy, nechte ho při tom. Vy víte, proč si je doma pouštíte.",
        "health": "Pomoci při únavě by vám mohl kupodivu pohyb. Jistě máte svůj oblíbený sport, který vám pomáhá vyplavovat hormony štěstí.",
        "tips": "Pracovní porada online, rekvalifikační studium, úprava životopisu, konzultace s lékařem, nákup parfémů a vonných esencí."
    },
    "taurus": {
        "main": "Do pracovních vztahů se vloudí špatná nálada ze společenských událostí. Mnozí kolegové se přes nepříjemnosti a negativa nedokážou přenést tak lehce jako vy. I když se budete hodně snažit, náladu jim dnes rozhodně nespravíte. Nelámejte nic přes koleno.",
        "love": "Jestliže jste ve vztahu, váš miláček může dnes projevit žárlivé sklony. Je to dáno tím, že jste prostě středem pozornosti.",
        "work": "Zalitujete toho, že se v práci trochu pokazila atmosféra mezi kolegy. Je to bohužel dáno současným stavem ve společnosti.",
        "relationships": "Jestliže se dáte do pečení vánočního cukroví, nenechávejte troubu bez dozoru. Můžete ho připálit, než se nadějete.",
        "health": "Bolestem v krku předejdete jednoduše tím, že si ho budete chránit šálou. Také nezapomínejte kloktat bylinné odvary.",
        "tips": "Kreativní psaní, sestavení hudebního playlistu, jóga v prostředí domova, sušení ovoce a zeleniny, pečení domácího chleba."
    },
    "gemini": {
        "main": "Držte se v práci nebo v úředních postupech toho, co znáte a co je osvědčené. Neměli byste se v žádném případě vydat cestami, které sice vypadají lákavě, ale jsou také dost riskantní. Mohli byste uškodit jen sobě. Novátorské nápady si uložte na lepší časy.",
        "love": "Vy doma rozhodně sedět nebudete. Pokud se dnes někam vydáte, tak to bude s přáteli na vycházku nebo za fotografováním.",
        "work": "Dávejte si pozor na slabší úsudek, který můžete dnes mít. Dejte na osvědčené postupy a nic nového nepřevádějte do praxe.",
        "relationships": "Vztahy v širším příbuzenstvu mohou být dnes trochu divoké. Nejlepší pro vás bude zůstat stranou a do ničeho nevstupovat.",
        "health": "Na kašel si připravte tymiánovou mast, kterou si potřete hrudník. Výsledky uvidíte během dne a hodně se vám uleví.",
        "tips": "Nákup krmiv pro domácí mazlíčky, plánování návštěvy příbuzných, příprava s dětmi do školy, psaní poezie, sportovní aktivity."
    },
    "cancer": {
        "main": "Rádi byste si užívali všeho, co vám dnes život přinese, proto se nebudete omezovat na kontakt jen s jednou osobou. Naopak využijete všech možných příležitostí k seznámení. Je to pro vás také jakási forma uvolnění v současném napětí ve společnosti.",
        "love": "Nemáte v úmyslu se zatím zaměřovat jen na jednu osobu. Rádi se necháte okouzlit i někým dalším. Chcete si vybírat.",
        "work": "Nenechte se otrávit tím, co se momentálně děje ve světě. S kolegy si zavzpomínejte na hezké chvíle a zkuste se zasmát.",
        "relationships": "Využijte také dnešní den k tomu, abyste si pomalu připravovali domov na nadcházející vánoční svátky. Třeba malým úklidem.",
        "health": "Měli byste se zaměřit na jídelníček a trochu ho na zimu upravit. Více konzumujte vařená jídla a vynechte uzeniny či sladkosti.",
        "tips": "Příprava do autoškoly, setkání se sousedy, úprava životopisu, hledání nové brigády, péče o příbuzné, nákupy dárků pro rodinu."
    },
    "leo": {
        "main": "Pokud si stále budete myslet, že nemáte šanci potkat opravdovou lásku, tak si to dokonale vsugerujete. Raději byste měli smýšlet pozitivněji a držet se toho. I na vás totiž čeká překvapení v podobě romantického vztahu. A to brzy, tak se nevzdávejte.",
        "love": "Nezadané dnes zaskočí nepříjemný pocit, že svou velkou lásku nemají šanci najít. To je ale velký omyl. Vydržte!",
        "work": "Podaří se vám svým originálním přístupem vyřešit problém, na kterém si ostatní vylámali zuby. Utečete potížím, které hrozily.",
        "relationships": "Zjistěte si, jak si stojí vaše děti se školními výsledky. Možná vám něco tají, možná se nestačily pochlubit. Stačí se zeptat.",
        "health": "Dobrá krémová zeleninová polévka udělá v zimním počasí své. Naučte se pár receptů, které můžete pravidelně střídat.",
        "tips": "Úklid domácnosti, venčení pejska s přáteli, výroba vánočních dekorací, příprava s dětmi do školy, četba románu."
    },
    "virgo": {
        "main": "Partner dobře ví, že jste tu vždy připravení mu poskytnout pomoc. Dnes si od něj za to vysloužíte opravdu zajímavé poděkování. V práci byste se měli naučit více soustředit. V opačném případě budete dělat chyby jak na běžícím páse. Myslete na to.",
        "love": "Svému protějšku jste oporou a může se na vás dnes opravdu spolehnout. Svůj dík vám oplatí vskutku originálním způsobem.",
        "work": "Měli byste se více koncertovat na svou práci, jinak opět budete kupit jednu chybu za druhou. V polovině týdne to není vhodné.",
        "relationships": "Obvykle není snadné najít kompromisy mezi cizími lidmi. Vás překvapí, že toto se může stát i ve vaší širší rodině.",
        "health": "Dopřejte unaveným chodidlům teplou koupel s přidáním esenciálních solí. Oblíbené jsou hořký pomeranč nebo eukalyptus.",
        "tips": "Návštěva lékaře, plánování vánočních svátků, úklid domácnosti, ruční čištění automobilu, sledování sportovního přenosu."
    },
    "libra": {
        "main": "V milostném vztahu se rýsuje jakési odchýlení a odloučení. Rádi byste vše napravili, ale nezapomínejte na to, že k tomu musí být dva. Pokud se váš protějšek k ničemu dnes nemá, nechte to ještě bez poznámek. Jen jeho chování bedlivě pozorujte.",
        "love": "Zaváháte, zda jste si se svým současným partnerem opravdu souzeni. Máte pocit, že se spíše jeden druhému vzdalujete.",
        "work": "Popřemýšlejte o tom, zda jste spokojení se svou současnou pracovní pozicí. Zjistěte si, co můžete udělat pro postup za lepším.",
        "relationships": "Dost vás dnes bude vysilovat neutuchající boj s příbuznými, kteří se snaží podkopat vaši autoritu nebo vás dehonestovat.",
        "health": "Udržujte svou domácnost čistou především tehdy, máte-li nějaké domácí mazlíčky. Nezapomínejte na pravidelné větrání.",
        "tips": "Hra na hudební nástroje, zpívání, taneční lekce podle internetu, třídění obnošených oděvů pro charitu, dobrovolnické práce."
    },
    "scorpio": {
        "main": "K zásadním rozhodnutím ohledně vaší kariéry vás zřejmě donutilo více okolností najednou. Přesto jste pravděpodobně již nakročení směrem k novým zkušenostem. Zatím si vše nechte pro sebe a nikomu se nesvěřujte. Mohli byste být nemile překvapení.",
        "love": "Očekávat můžete pozvání na rande, ze kterého se vyklube pěkně žhavá schůzka. Neměli byste to odmítat, pokud jste bez závazků.",
        "work": "Rozhodnutí, že opustíte své současné zaměstnání, ve vás zraje již nějakou dobu. Zkuste se tedy podívat po nových možnostech.",
        "relationships": "Doma se můžete se svými blízkými poradit o plánované změně vaší práce. Jejich názory jsou pro vás neméně důležité.",
        "health": "Péče o zuby a dentální hygiena by měla být samozřejmostí. Dnes se objednejte na preventivní prohlídky, ať máte klid.",
        "tips": "Hledání krátkodobé brigády, úprava účesu, péče o pohybový aparát, sledování detektivního seriálu, telefonát s rodiči."
    },
    "sagittarius": {
        "main": "Pár kolegů se v posledních dnech chovalo jinak a dnes vaše pocity získají oprávnění. Zjistíte, že se vaše vztahy proměnily, aniž byste to zaregistrovali. Nelamte si s tím hlavu, není to jen vaší zásluhou. Zaměřte se na to, abyste si udělali svou práci.",
        "love": "S někým novým vás to k sobě táhne natolik, že spolu budete chtít trávit i dnešní den. Nebojte se, že byste litovali.",
        "work": "Ranit vás může zjištění, že s některými kolegy v práci si přestáváte rozumět. Dnes ale nic neřešte. Přijde vhodnější doba.",
        "relationships": "Máte obavy, aby vše do Vánoc běželo, jak má, a dobře dopadlo. Nenechte se tím tolik ovlivnit a spíše si vše užívejte.",
        "health": "Dopřejte svému zraku alespoň částečný digitální detox během dne. Místo čtení knih si je poslechněte na audiotéce.",
        "tips": "Vyřizování úředních záležitostí, pečení vánočního cukroví, nákup dárků přes internet, drobné renovace domácnosti."
    },
    "capricorn": {
        "main": "Nemáte to srdce, abyste nechali ostatní doma lopotit se s vánoční výzdobou. Přidáte také ruku k dílu a nakonec vás to bude moc bavit. Dobrou náladu vám také navodí zjištění, že váš nový idol má o vás opravdový a nefalšovaný zájem. Máte pocit naděje.",
        "love": "I když je venku zima, vás může hřát u srdce zájem někoho velmi atraktivního o vaši osobu. Připadáte si jako ve snu.",
        "work": "Neschází vám originalita při řešení nejrůznějších dnešních záležitostí. Jste mistři improvizace a dokonale toho využijete.",
        "relationships": "Nemusíte se bát, že by dnes po vás doma někdo něco vyžadoval. Ale vy sami přidáte pomocnou ruku k vánočním přípravám.",
        "health": "Dbejte na svou životosprávu. Máte tendence nabírat přes zimu kila navíc. Proto si upravte jídelníček již dnes.",
        "tips": "Péče o pokojové rostliny, balení vánočních dárků pro příbuzné, samostudium cizího jazyka, nákup kancelářských potřeb."
    },
    "aquarius": {
        "main": "Dobře uděláte, když své argumenty nadřízenému přednesete v naprostém klidu. Jen díky tomu bude mít šanci si je opravdu promyslet a on vám dá později za pravdu. Můžete si gratulovat, protože se postaráte sami sobě o lepší plat, nebo dokonce místo.",
        "love": "Přepadnou vás pochybnosti, zda vás přátelé a kamarádi berou takové, jací jste. Zbytečně si podkopáváte sebevědomí.",
        "work": "Nadřízený si dnes uvědomí, že mu argumentujete zcela logicky, a vaše návrhy na lepší platové podmínky mají šanci projít. Bravo!",
        "relationships": "To, že zanedbáváte odpočinek, se vám může vymstít. Musíte si najít chvilku pro sebe i své koníčky. Je to nejlepší relax.",
        "health": "Máte-li chuť si zasportovat, budete se muset zřejmě smířit s cvičením v domácím prostředí. I to ale budete umět.",
        "tips": "Generální úklid, luštění křížovek a rébusů, návštěva autoservisu, týmová spolupráce s kolegy, čtení knížek dětem."
    },
    "pisces": {
        "main": "Věnujte hodně pozornosti práci, kde hrozí chyby. Jste nesoustředění a můžete toho hodně pokazit. Takže pokud půjdete pomaleji, krok za krokem, vyhnete se dost riskantním situacím. I tak stihnete v podstatě vše, co jste si pro dnešek předsevzali.",
        "love": "Svého nového partnera se snažte dobře poznat. Nedejte na nejrůznější drby z okolí a přesvědčte se raději sami.",
        "work": "Vyplatí se, když se budete na úkoly více soustředit. Nemusíte s nimi ani tolik spěchat. Díky tomu můžete hodně věcí opravit.",
        "relationships": "Jestliže zatoužíte po nových ozdobách na vánoční stromeček, máte nejvyšší čas se po nich podívat. Vybírejte pečlivě.",
        "health": "Naučte se několik pozic z jógy, které vám dělají dobře. Ty si opakujte během dne. Začít s tím můžete již v průběhu dneška.",
        "tips": "Hra na hudební nástroje, romantické sms s partnerem, plánování vánočních svátků, úprava účesu, aromatická koupel."
    }
}