{
    "aries": {
        "main": "Jste-li zběhlí v používání moderních komunikačních technologií, jistě vám udělá radost videohovor s přáteli nebo příbuznými. To, že se nemůžete sejít, vás mrzí, ale i toto je cesta, jak se alespoň nějak vidět a slyšet. Udělejte si na to čas.",
        "love": "Moderní technologie vám i dnes umožní online setkání s přáteli nebo kamarády. Přesto vám osobní setkání budou velmi chybět.",
        "work": "Může toho na vás být v práci docela dost. Nevíte, kam dřív skočit, a nálada bude napnutá. Pozor na chyby ze stresu.",
        "relationships": "Upřímnost máte v krvi, ovšem ve vašem podání je to někdy opravdu drsná pravda. Volte rétoriku podle toho, s kým mluvíte.",
        "health": "Zkuste si dnes osvojit nějaké staré sváteční zvyky nebo tradice. Budou se vám hodit, až přijde konečně Štědrý večer.",
        "tips": "Příprava oběda pro rodinu, poslech vánočních koled, telefonát s příbuznými, procházka s pejskem v nejbližším lesoparku."
    },
    "taurus": {
        "main": "Udělejte si průzkum pracovního trhu a ujistěte se o tom, že jste ve své práci opravdu dobře či spravedlivě placení. Není důvod zaměstnání zatím měnit, ale o lepší plat si požádat můžete. Postačí, když si dnes projdete nabídky práce na internetu.",
        "love": "Rádi byste měli v partnerském životě klid a pohodu. Záleží to ale také na vašem partnerovi, zda je stejného názoru.",
        "work": "Porozhlédněte se po pracovním trhu. Nemusíte hned hledat nové zaměstnání, jen si udělejte představu třeba i o platech.",
        "relationships": "Nebojte si dnes trochu doma odpočinout. Poslech vánočních koled vás skvěle naladí na další dny. Uvařte si dobrý svařák.",
        "health": "Zdraví vám zatím slouží bezvadně, takže nemáte problém s pohybem venku, na čerstvém vzduchu. Jen pozor na správné oblečení.",
        "tips": "Telefonát se staršími příbuznými, příprava vegetariánské večeře, výroba vánočních dekorací do interiéru, péče o zimní obuv."
    },
    "gemini": {
        "main": "Dnes vám nebude úplně do řeči. Máte toho mnoho na mysli a dost vás vaše starosti tíží. Starejte se tedy o to, abyste se co nejvíce mohli soustředit na svou práci a nic jiného neřešte. I tak budete mít problémy své pracovní úkoly zvládnout bez chyb.",
        "love": "Máte potíže s komunikací, protože se vám dnes vlastně ani moc mluvit nechce. Pokud máte možnost, stáhněte se do ústraní.",
        "work": "Řešte v práci jen to, co je opravdu pracovní a důležité. Osobní záležitosti dnes na pracoviště nenoste, nehodí se to.",
        "relationships": "Doma i dnes budete zřejmě bojovat o své názory. Je nutné, abyste dosáhli alespoň na rozumný kompromis v této záležitosti.",
        "health": "Při večeři dejte pozor, jezte pomalu a nikam nespěchejte. Ocení to především váš žaludek a bude se vám lépe spát.",
        "tips": "Hra na hudební nástroje, zpívání s dětmi, hledání lidových tradic, příprava na vánoční svátky, nákup vánočního stromečku."
    },
    "cancer": {
        "main": "Není to sice vaše chyba, ale nápady, které jste si plánovaly zahrnout do svých pracovních postupů, nepůjdou zrealizovat. Není na to vhodná doba. Budete muset na poslední chvíli měnit vše od základů a to vám může připravit opravdu kritické momenty.",
        "love": "Horší domluva s protějškem může přetrvávat i dnes. Zkuste vynechat rýpavá slova a protivný hlas. Jedině tak to půjde.",
        "work": "Některé z vašich původně zamýšlených nápadů nepůjdou zrealizovat. Sice to není vaše vina, ale nadřízený bude rozmrzelý.",
        "relationships": "Kdosi z rodiny není schopen chápat vaše současná rozhodnutí. I když se chcete bránit, moc vám argumenty nepomáhají.",
        "health": "Den bude náročný nejen na psychiku, ale i na vaši fyzičku. Tu máte opravdu zanedbanou. Musíte se začít pravidelně hýbat.",
        "tips": "Poslech oblíbené audiotéky, hraní na hudební nástroje, péče o vzhled, aromatická koupel, balení vánočních dárků."
    },
    "leo": {
        "main": "Jestliže jste si nedávno našli nového parťáka do života, máte zřejmě mnoho společného. I přesto vás může překvapit, co nového společného dnes objevíte. Život vám oběma zkrátka připravil další příjemné překvapení. Nechte se unášet pozitivní energií.",
        "love": "S novým objevem vás může spojovat více věcí či koníčků, než se zprvu zdálo. Bude to velmi příjemné překvapení pro oba.",
        "work": "Pokud k tomu ještě nedošlo, nemusíte se bát. Zvýšení platu si zasloužíte a je na cestě. Vytrvejte ve své snaze a píli.",
        "relationships": "Na přípravách na vánoční svátky jste si dali hodně záležet. Nyní se můžete jen kochat svými obdivuhodnými výtvory.",
        "health": "Svému vzhledu věnujte dnes mimořádnou pozornost. Možná najdete nedostatky, se kterými se rozhodnete hned něco udělat.",
        "tips": "Vánoční výzdoba domácnosti, výroba nepečeného cukroví, příprava nealkoholického vaječného koňaku, poslech hudby."
    },
    "virgo": {
        "main": "Velmi rychle se dnes vrátíte do tempa, ze kterého jste před pár dny vypadli. V práci se vám bude opravdu dařit a vy tak získáte zpět své ztracené sebevědomí. Navíc můžete do praxe převést některé z vašich dokonalých nápadů. Nikdo jim nebude bránit.",
        "love": "Zamyslete se nad tím, jaké přátele a kamarády kolem sebe vlastně máte. Někteří z nich jsou pouze povrchními známými.",
        "work": "Máte skvěle našlápnuto k tomu, abyste se opět rozjeli v tempu, na jaké jste byli zvyklí. Nic nebrání vašim aktivitám.",
        "relationships": "Možná vás děti donutí připravit ještě nějaký nový druh cukroví. Nebojte se experimentovat, chutě máte vybrané.",
        "health": "Nepřehánějte to dnes s alkoholem. Mohla by vás pořádně bolet hlava ještě několik dní. Omezte se na nealkoholické nápoje.",
        "tips": "Návštěva kostela, péče o starší příbuzné, nákup vánočního stromečku, kontrola výdajů za domácnost, ruční mytí auta."
    },
    "libra": {
        "main": "Pokud toužíte po kariérním posunu, bude třeba, abyste také zabojovali vy. O svou kariéru se prostě musíte postarat sami. Máte ale co nabídnout, tak se přestaňte bát a ukažte ostatním, co ve vás opravdu dřímá. Šance, že dnes uspějete, jsou obrovské.",
        "love": "Mnozí z vás se dnes budou cítit opravdu naplnění ve vašem vztahu. Máte vedle sebe nyní partnera, který vás zbožňuje.",
        "work": "Seberte odvahu, pokud se chystáte na nové profesní kroky. Chce to více si věřit a jít si za svým. Síly na to máte.",
        "relationships": "Překontrolujte si, co máte připraveno na Vánoce a co vám ještě chybí. Nebude toho tolik a navíc máte skvělé pomocníky.",
        "health": "Vyzkoušejte si dnes půst tak, jak byste ho chtěli dodržet během Štědrého dne. Uvidíte, jestli vůbec něco takového zvládnete.",
        "tips": "Videohovor s přáteli, sledování oblíbeného seriálu, výroba nepečeného vánočního cukroví, nákup vánočního stromečku, vydatný spánek."
    },
    "scorpio": {
        "main": "Dnes se vám zřejmě povede usměrnit chování vašeho partnera poněkud tvrdšími slovy, než na co byl zvyklý. Pravděpodobně ho to bude natolik šokovat, že se nezmůže na odpor, a vy máte vyhráno. Měli byste ovšem takovou variantu řešení potíží volit výjimečně.",
        "love": "Protějšek si doslova vykoleduje pár ostrých slov z vašich úst. Kupodivu to nebude nic, čeho byste měli litovat.",
        "work": "Máte jedinečnou šanci si vyříkat se šéfem, co vám momentálně v zaměstnání vadí. Je ochoten vám naslouchat a věci změnit.",
        "relationships": "Sousedé by vám vaši vánoční výzdobu domova mohli závidět. Bohužel se z ní musíte radovat zatím sami, bez návštěv.",
        "health": "Náladu vám zlepší příjemný telefonát s dávným spolužákem. Společně se pobavíte nad vzpomínkami na dětská léta.",
        "tips": "Příprava rodinné snídaně, odpolední procházka zimní krajinou, poslech vánočních písniček, vánoční výzdoba domácnosti."
    },
    "sagittarius": {
        "main": "Nebude pro vás vůbec příjemné obhajování vaší práce před nadřízeným. Vás navíc urazí jeho nedůvěra ve vaše schopnosti. Bude třeba ale vytrvat, protože ve výsledku to budete vy, kdo z toho vytěží nejvíce. Šéf se může stydět, a tak vám to vynahradí.",
        "love": "S novým objevem máte sice každý rád svou volnost, ale na druhou stranu vás právě tato vlastnost k tomu druhému přitahuje.",
        "work": "Šéfovi budete muset dnes dokazovat, že jste svou práci zvládli úplně sami, bez pomoci ostatních. Může vás to dost naštvat.",
        "relationships": "Nedejte na kritické řeči příbuzných, co se vaší vánoční výzdoby týká. Máte své představy a vkus, a tím se řiďte",
        "health": "Nechte rozvonět po celém domě esenciální oleje. Mají výborný vliv na zlepšení vaší mentální kondice. Vybírejte podle chuti.",
        "tips": "Dodržování dietní stravy, podvečerní procházka po okolí, úklid domácnosti, poslech nové audiotéky, videohovor s kolegy."
    },
    "capricorn": {
        "main": "Máte rádi, když můžete pečovat o své milé a milované. Dnes se vaší obětí v dobrém slova smyslu stane váš partner. Nejraději byste ho od rána rozmazlovali a zahrnovali péčí a láskou. Nebojte se, nic z toho jistě neodmítne. Naopak bude mít velkou radost.",
        "love": "Neovládnete se a svého miláčka dnes budete zahrnovat lichotkami již od rána. Jste zkrátka zřejmě dost zamilovaní.",
        "work": "Možná se k vám dostane informace o nová pracovní příležitosti. Je pravděpodobné, že ji budete zcela vážně zvažovat.",
        "relationships": "Vy se na svátky vyloženě letos těšíte. Především pak na to, až si vaši nejmilejší budou rozbalovat dárečky od vás.",
        "health": "Odpolední procházka na čerstvém vzduchu vám prospěje. Dostanete také do těla velmi potřebný vitamin D z denního světla.",
        "tips": "Plánování štědrovečerního menu, vánoční výzdoba domácnosti, hra na hudební nástroje s dětmi, poslech vánočních písní."
    },
    "aquarius": {
        "main": "Sliby, které dnes dáte v práci nadřízenému nebo kolegům, bude třeba dodržet. Proto velmi važte slova, když něco takového budete říkat. Je nutné vědět, že na jejich splnění opravdu máte kapacity. V opačném případě se můžete přede všemi ztrapnit.",
        "love": "Ukažte svému okolí, že nejste stále mimo a že také umíte stát nohama na zemi. I přesto, že máte své tajné sny.",
        "work": "Snažte se dodržet sliby, které dnes dáte nadřízenému. Také se ale dobře rozmyslete, na co máte, než něco přislíbíte.",
        "relationships": "Pomocná ruka se vám dnes doma hodí. Zejména při úklidu nebo zdobení domácnosti. Výsledek bude stát určitě za to.",
        "health": "Hlídejte si dnes krk, především hlasivky. Hrozí vám nachlazení a během svátků by vás to mohlo ještě pěkně potrápit.",
        "tips": "Lenošení u televize, péče o starší příbuzné, vánoční výzdoba, drobný úklid domácnosti, četba detektivního románu."
    },
    "pisces": {
        "main": "Budete si blahořečit, že jste před časem neodmítli práci na společném projektu s ostatními kolegy. Dnes se ukáže, jak dobří opravdu jste a jak výborně vám funguje celý tým. Máte štěstí, nebývá to zvykem. Važte si toho a snažte se být přínosní.",
        "love": "Od romantické procházky po okolí vás neodradí ani zimní počasí. Máte si stále o čem povídat a venku je vám krásně.",
        "work": "Týmová spolupráce s kolegy vám dnes půjde na výbornou. Je fajn, že se na své spolupracovníky můžete naplno spolehnout.",
        "relationships": "Máte stále šanci ještě pořídit nějaký ten malý vánoční dárek, který vám chybí. Už je to ale opravdu drobnost pro kamaráda.",
        "health": "Není nadto, když si upřímně promluvíte s partnerem. Uvidíte, že vám spadne velký kámen ze srdce a bude vám lépe.",
        "tips": "Videohovory s přáteli, péče o starší příbuzné, venčení pejska v blízkém parku, příprava svařeného vína nebo vánočního punče."
    }
}