{
    "aries": {
        "main": "Pracovní týden sotva začal a vaše plány se už přesto dotýkají nejvyšších met. Chcete postupovat mílovými kroky a nehodláte se zabývat malichernostmi. Jen pozor, ať ze svých výšin nepřehlížíte své kolegy či podřízené. Nežijete ve vzduchoprázdnu.",
        "love": "S partnerem si dnes nemáte moc co říci. Myšlenkami jste stále v práci, ale on by si rád povídal i o jiných tématech.",
        "work": "Razance v plnění pracovních úkolů je dvojsečná. Zvlášť při přesných činnostech s důrazem na detail může dělat neplechu.",
        "relationships": "Chystáte se zredukovat šatník. Napadne vás uspořádat večírek, kde si dosud nositelné kousky můžete vyměňovat s přáteli.",
        "health": "Pro samou práci a starost o druhé zapomínáte na své vlastní potřeby. Vaše dřívější fyzická kondice upadá a tělo lenoší.",
        "tips": "Pracovní schůzky, posezení s přáteli, jazyková školení a studijní semináře, indoor golf, bowling, wellness centrum."
    },
    "taurus": {
        "main": "Můžete mít pocit, že si lépe vybavujete zážitky z minulosti. A opravdu, díky příznivým aspektům se vaše paměť zlepšuje. Můžete toho využít při vyprávění příběhů a vlastních zážitků, při studiu a v zaměstnání při práci s velkým objemem informací.",
        "love": "Máte chuť si s partnerem nebo s přáteli popovídat o všem možném. Uspořádáte si tak myšlenky a najdete nové souvislosti.",
        "work": "Vaše mysl je dnes bdělá a díky tomu se zlepší také pozornost. Nebude polevovat ani při jednotvárné, uspávající práci.",
        "relationships": "Někomu z blízkých pomůžete vyřešit komplikovaný problém. Nastalé situace poměřujete výjimečně s nadhledem a bez emocí.",
        "health": "Co se paměti týká, funguje mozek jako sval. Vtip je v tom, že její dobrou úroveň si udržíte pouze průběžným tréninkem.",
        "tips": "Vyřizování bankovních pochůzek, podepisování smluv, práce spojená s financemi, dlouhá večeře s vyhlédnutým protějškem."
    },
    "gemini": {
        "main": "V zaměstnání získáte brzy lepší pozici, pokud se nyní pustíte do náročnějšího studia či osvojování nových technik. Společenští Blíženci neradi tráví čas biflováním, nyní však získají potřebnou trpělivost pro vysedávání nad učebnicemi či skripty.",
        "love": "Mezi lidmi nasáváte informace ze všech stran jako houba. I při běžné komunikaci se tak můžete dozvědět užitečná fakta.",
        "work": "Dobré vzdělávací či jazykové kurzy nejsou levnou záležitostí. Vložené finance se vám ale mohou velmi rychle zhodnotit.",
        "relationships": "Ve volném čase se věnujete vymýšlení ideální studijní strategie. Rodinní příslušníci rádi přispějí radou, fandí vám.",
        "health": "Káva ani nápoje s kofeinem do pitného režimu nepatří, i když by se nám to líbilo. Našemu tělu vodu naopak odebírají.",
        "tips": "Návštěva rodinných příslušníků, studium a přihlášení se do kurzů, společenské hry a sledování filmů, relaxační plavání."
    },
    "cancer": {
        "main": "Víkendové okouzlení vaším partnerem nedokážou otupit ani jednotvárné hodiny všedního dne. V zaměstnání to nějak přetrpíte a už se vidíte doma se svým milovaným. On to cítí stejně, a tak v jeho objetí pravděpodobně prožijete velice příjemné chvíle.",
        "love": "Nezadaní Raci mají vhodnou příležitost udělat romantické gesto směrem k milované osobě. Nemělo by se minout účinkem.",
        "work": "Dostat se do pracovního tempa vás po víkendu stojí velké přemáhání. Od plnění obvyklých povinností vás odvádí spousta podnětů.",
        "relationships": "Doma všechny povinnosti hodíte za hlavu. O průběhu dnešního večera máte zcela jiné představy, kde banality nemají místo.",
        "health": "Můžete pociťovat klouby a někteří křehcí jedinci i žaludek. Snažte se obojí šetřit, odmění se vám bezbolestnou funkcí.",
        "tips": "Dřívější odchod ze zaměstnání, nákup svůdného prádélka, intimní chvíle s partnerem, první rande, milostné vyznání."
    },
    "leo": {
        "main": "Planety vám radí investovat úsilí do úředních a administrativních záležitostí. Přinuťte se a udělejte si doma pořádek ve všech písemnostech a důležitých dokladech. Inteligent sice zvládá i chaos, ale úřady pro to nebudou mít pochopení.",
        "love": "S miláčkem chcete oslavit pracovní úspěchy, ale zřejmě se nesetkáte s pochopením. Žárlí na vaše pracovní aktivity.",
        "work": "Daňové papírování vás nebetyčně nudí. Raději si tak uloupnete z rozpočtu částku na služby profesionálního účetního.",
        "relationships": "Hrozí riziko mezigeneračních střetů. Vyšší toleranci byste měli projevovat hlavně ke starším příbuzným. Zaslouží si to.",
        "health": "V zaměstnání sice musíte poslední dobou zabrat, ale přepracovanost zatím snášíte docela dobře. Nesmíte na to ale hřešit.",
        "tips": "Práce administrativního charakteru, předvedení pracovní prezentace, složitá jednání s úřady, uspořádání písemností."
    },
    "virgo": {
        "main": "Mars vám pomáhá postupovat výše po kariérním žebříčku. Pilným úsilím v poslední době si cíleně připravujete vhodnou půdu pro vylepšení pracovní pozice. Pokuste se však nebýt v zaměstnání tolik fanatičtí a snažte se trávit více času s partnerem.",
        "love": "Nehledáte jenom tak nějakého partnera. Nesmíte se proto divit, že vaše vysoké požadavky splňuje málokterý protějšek.",
        "work": "Zkuste se podrobně informovat na možnosti penzijního připojištění. Při vaší předvídavosti už ho ale určitě dávno máte.",
        "relationships": "Co takhle vzdát se pro jednou moderních vymožeností a napsat někomu vlastnoručně dopis? Určitě ho to příjemně překvapí.",
        "health": "Zdravý pohyb vaše tělo potřebuje, ale uřícené pobíhání s vysavačem se k němu určitě nepočítá. Mělo by vás to i bavit.",
        "tips": "Posezení s přáteli, návštěva příbuzných, vyřízení pracovních e-mailů a telefonátů, psaní dopisů, taneční pro dospělé."
    },
    "libra": {
        "main": "Dnešek je vhodný pro rozhodnutí ekonomického rázu. Veškeré klady a zápory svých kroků zvážíte s citlivostí lékárnických vážek. Se samotnými investicemi ale radši ještě počkejte. Můžete přijít na to, jak doladit svoje plány k úplné dokonalosti.",
        "love": "Partner nelibě nese vaše vysoké nároky. Cítí se jako svázaný. Nakonec vám podrážděně připomene, že není žádný superman.",
        "work": "Předběhnete konkurenci mílovými kroky a vychutnáváte si svých pět minut slávy. Chuť pracovního úspěchu se vám líbí.",
        "relationships": "Uděláte pořádek v rodinných financích. Vytvoříte si obálkový systém na počítači, kam budete zanášet příjmy a výdaje.",
        "health": "Překypujete energií, ale nemáte jasnou představu, jak ji proměnit ke svému prospěchu. Proto můžete momentálně stagnovat.",
        "tips": "Plánování finančních transakcí a investic, práce s počítačem, společné chvíle s rodinou, uvolňující masáž šíje a zad."
    },
    "scorpio": {
        "main": "V pracovní oblasti se cítíte silní a máte dostatek energie, a proto si naordinujete zvýšenou pracovní zátěž. Víte, že dokážete splnit v krátkém čase jakýkoliv úkol či zakázku. Před kolegy vzbuzujete respekt. Vidí, že váš úspěch je zasloužený.",
        "love": "Váš elán se příznivě projeví i na osobním vyzařování. Na ulici se za vámi zálibně otáčejí příslušníci opačného pohlaví.",
        "work": "I když máte plno práce, neodmítáte kolegy, kteří žádají o radu. Je vám to přičteno k dobru, příště vyhoví zase oni vám.",
        "relationships": "Pocítíte nutkání spojit se s příbuznými, s nimiž jste dlouho nemluvili. Z jejich strany vás čekají překvapivé zprávy.",
        "health": "Problémy se zažívacím ústrojím nadělá zrozencům Štíra špatná životospráva. Dejte pozor na bolavý žaludek a nadýmání.",
        "tips": "Relaxace, vytváření luxusního menu k večeři, hlídání kamarádčiných dětí, nákup hraček, malování, hra na hudební nástroj."
    },
    "sagittarius": {
        "main": "V pracovní oblasti vám nejsou hvězdy příliš nakloněny. Budete se dostávat do situací, kdy vás nadřízení kárají či alespoň přísněji kontrolují. Střelci mívají ve vztahu k autoritám často problém, a tak si musejí dát pozor, aby nereagovali zkratovitě.",
        "love": "Není to váš styl, ale dnes budete mít potřebu vyplakat se někomu blízkému na rameni. Naštěstí najdete ochotnou vrbu.",
        "work": "Nadřízení vás dráždí. Můžete proti nim rebelovat skrytě, pasivitou při plnění úkolů. Tím si ale uškodíte nejvíc vy sami.",
        "relationships": "Dnes si vykouzlíte harmonický domov a nedovolíte, aby vám ho někdo narušoval. Nervózní sousedi tedy nemají žádnou šanci.",
        "health": "Stres a psychický nesoulad se navenek projeví i v nečisté pleti. Kosmetická péče je jen nadstavba, začít musíte uvnitř.",
        "tips": "Důvěrné rozhovory s přáteli, společné chvíle s rodinou, cvičení v rychlém tempu - aerobic, zumba, venkovní bruslení."
    },
    "capricorn": {
        "main": "Váš partner, zvlášť pokud je zrozený v romantickém vodním znamení, vám může ublíženě vyčíst vaši střízlivou povahu. Zamrzí vás to, protože víte, že máte i svou poetickou stránku. Neradi ji ale dáváte na odiv, lásku projevujete spíše činy než slovy.",
        "love": "Partner ve skrytu duše ví, že si vás zamiloval i pro vaši důvěryhodnost a solidní vystupování. Jste pro něj jistotou.",
        "work": "Pohled na výpis z bankovního účtu vás potěší. I díky úrokům částka narostla, budete si moci dovolit neplánovaný výdaj.",
        "relationships": "Potomek by se vám rád svěřil s nějakou svou starostí, ale nemá dost odvahy. Pokuste se to z něj citlivě vytáhnout.",
        "health": "Za mírnou depresí může stát tmavé roční období. Vytvořte si doma prostor plný světla, potěší i pohled do plamene svíčky.",
        "tips": "Kontrola účtů, důvěrné hovory s dětmi, večer s partnerem ve dvou, ochutnávka lahodných vín, objednání pobytu na horách."
    },
    "aquarius": {
        "main": "Bravurně se vyvléknete z rodinných povinností a věnujete se raději bádání v práci. Máte dobrodružnou duši a nové pracovní výzvy zabrnkaly právě na tuto strunu. Zaberete se do práce tak, že nevnímáte, jak hodiny letí. Bude z toho slušný přesčas.",
        "love": "Vaše fantazie pojede na plné obrátky. Rozjitřila ji na nejvyšší míru dnešní provokativní vizáž kolegy nebo kolegyně.",
        "work": "Nový kolega se chová, jako by snědl všechnu moudrost. Poučovat máte vy jeho, ne on vás. Pramení to ale jen z nejistoty.",
        "relationships": "Rodina se bude nejdřív mračit, že jste si na ni neudělali čas. Až zjistí, že jste pilně pracovali, bude vám odpuštěno.",
        "health": "Rychlá procházka na čerstvém vzduchu vás příjemně unaví. Posezení v teple u dobrého nápoje si potom užijete mnohem víc.",
        "tips": "Luštění křížovek či sudoku, počítačové vzdělávací programy, sledování dokumentů, zavedení účetní knihy příjmů a výdajů."
    },
    "pisces": {
        "main": "Dnes byste si měli ohlídat, aby vás v zaměstnání druzí nezneužívali. To je mi novina, řekne si asi vědoucně každá Ryba. Nadlidská obětavost byla většině z nich dána už do kolébky. Při plnění potřeb těch druhých ale často zašlapávají své vlastní.",
        "love": "Partner i přátelé už vědí, že se umíte překonávat až ke své škodě. Od práce vás vytáhnou ven užít si příjemný večer.",
        "work": "Čím menší pracoviště, tím větší je dnešní riziko konfliktu. Pokud nemusíte, vyhněte se rannímu vybavování se s kolegy.",
        "relationships": "Luna a Venuše vám umožňují citlivě chápat emoce druhých lidí. Jste ale také zvýšeně lítostiví, tak pozor na to!",
        "health": "Spát dnes budete, jako když vás do vody hodí. Unavíte se spolu s partnerem nebo sami jinou formou příjemného pohybu.",
        "tips": "Rande naslepo, chatování po internetu, soutěže, vylepšování interiéru, cvičení na míčích, návštěva tantrické masáže."
    }
}