{
    "aries": {
        "main": "Se svou finanční situací jste spokojeni a navíc kolem sebe máte dost lidí, kteří jsou vám nakloněni a chtějí vás podporovat ve vašich podnikatelských plánech. Vy však chcete hrát samostatně a pomoc přátel odmítáte. Jste hrdí na svoji soběstačnost.",
        "love": "Podpory přátel si velmi vážíte, ale měli byste jim to dát také jasně najevo. Mohlo by je omrzet vaše neustálé odmítání.",
        "work": "V práci jste duchem nepřítomni a příliš úkolů proto nestihnete. Dnešní resty se nezvykle rychle a nebezpečně nahromadí.",
        "relationships": "Stojí vás to spoustu přemáhání, ale pokud se nad nikoho z blízkých nebudete nějak povyšovat, prožijete den v poklidu.",
        "health": "Je mimořádně příznivý den pro rozloučení se s návyky, které vám škodí. Máte velkou šanci, že se k nim už nevrátíte.",
        "tips": "Podnikatelské aktivity, sjednání pojištění, rozdělení úkolů v domácnosti, velký úklid, večerní sledování filmů na Netflixu."
    },
    "taurus": {
        "main": "Dnes byste se měli věnovat především aktivitám, které souvisejí s financemi. Vhodné je vyrazit na větší nákupy. Díky pevné vůli a rozvážnosti se vám podaří ušetřit více než v jiných dnech. Můžete narazit i na nabídky, které se výhodně jenom netváří.",
        "love": "Všechno dnes prožíváte intenzivně, stejně tak mezilidské vztahy. Ať už jde o přátele, či partnera, plně jim nasloucháte.",
        "work": "Větší zápřah v zaměstnání vám dnes vyhovuje. Líbí se vám pocit vlastní důležitosti a nepostradatelnosti ve společnosti.",
        "relationships": "Nebudete si brát servítky a k blízkým budete krutě upřímní. Vyřčené slovo se ale těžko bere zpět, stojí vám to za to?",
        "health": "Nenakládejte si přílišné povinnosti v zaměstnání a práci si rozdělte. Jinak se mohou ozvat migrény a vyšší krevní tlak.",
        "tips": "Delegování prací na kolegy, velké nákupy, prohlídka nabídek na internetu, sledování zábavných filmů, poslech hudby."
    },
    "gemini": {
        "main": "Láskyplná Venuše vás probudí k aktivnímu milostnému životu. Budete se moci radovat ze zvýšeného sexappealu, a rozhodně si tak nebudete moci stěžovat na nedostatek zájmu. S opačným pohlavím budete jednat bez námahy a naprosto přirozeně.",
        "love": "Zapůsobíte, aniž byste řekli jediné slovo. A až promluvíte, díky své výřečnosti celkový dojem ještě vhodně umocníte.",
        "work": "Kolegové vám mohou závidět, jak perfektně zvládáte dnešní time-management. Máte veškeré povinnosti rozloženy na minuty.",
        "relationships": "Doma budete na vše pohlížet kritickým okem. Uvidíte každé smítko prachu a budete chtít proti nepořádku ihned zakročit.",
        "health": "Kolektivní veselí vás lehce strhne k nezdravé konzumaci alkoholu. Kromě žaludku na vodě si poničíte i chuťové buňky.",
        "tips": "Plavání, návštěva solné jeskyně, zimní sporty, břišní tanec, zumba, kulinářství, četba pohádek potomkům před spaním."
    },
    "cancer": {
        "main": "Na okolí působíte velice sympaticky a vaše oblíbenost v kolektivu stoupá. Bude se vám lehce jednat s lidmi, snadno na ně zapůsobíte a přesvědčíte je o svých záměrech. Dařit se bude hlavně obchodníkům a profesím, které přicházejí do styku s lidmi.",
        "love": "Trávíte více času se svými spolupracovníky než s partnerem. Nesmíte se tedy divit, když vám dá svou nevoli večer najevo.",
        "work": "Na pracovišti si dnes ověříte sílu pochvalných slov. V pravý čas vám prokážou lepší službu než preventivní naježenost.",
        "relationships": "Potřebujete cítit, že vás berou takové, jací jste. Zkoušíte jednat bez jakékoliv přetvářky a pozorujete, co to udělá.",
        "health": "Dnešní příjemné chvíle se hned odrazí na vaší celkové kondici. Jste psychicky vyrovnaní, cítíte se silní a plní energie.",
        "tips": "Náročná obchodní jednání, získávání nových klientů, zimní sporty, pěší túra, posilování, sauna, závěrečná relaxace."
    },
    "leo": {
        "main": "Dejte si pozor na pomluvy, které se k vám donesou. Luna vám rozváže jazyk, takže byste dokázali říci dotyčnému od plic něco peprného. Vaše řeč by ale byla mírně řečeno nediplomatická a ještě byste si přitížili. Jednejte s chladnou hlavou.",
        "love": "Emoce a erotické touhy řídí dnešní rozhodování ohledně vztahů. Neuvažujete nad tím, že se brzy dostaví morální kocovina.",
        "work": "Někdo dnes na vás nenechá nit suchou. Vaše nedávné činy si vydatně přibarví. Máte sto chutí oplatit mu stejnou mincí.",
        "relationships": "Pracovní vztahy vás zklamou a útěchu budete hledat mezi nejbližšími. Rádi uslyšíte, že oni by vás za nikoho nevyměnili.",
        "health": "Přemíra stresu vás může v odpoledních hodinách pozlobit bolestí hlavy a tlakem v očích. Nepovzbuzujte se další kávou.",
        "tips": "Sportovní aktivity s rodinou, návštěva rodinného filmu v multikině, dobrá večeře, společné plánování letní dovolené."
    },
    "virgo": {
        "main": "V tento den počítejte s těžko ovladatelnými emocemi. Může docházet k výbuchům agrese, namířeným v prvé řadě vůči osobám ženského pohlaví. Počítejte v duchu do deseti a až pak jednejte. Zvýšení hlasu na nesprávné osoby by se vám mohlo vymstít.",
        "love": "Nejspíš dostanete pozvání na večírek. Lidé, kteří ho pořádají, ale nejsou vaše krevní skupina. Diplomaticky odmítnete.",
        "work": "Snadněji dnes budete vycházet se svými mužskými kolegy. Bude vám sedět jejich racionální přístup a přímočaré jednání.",
        "relationships": "Jindy jste přející, ale dnes můžete pocítit osten závisti. Trochu vás to zaskočí, ale své pocity budete těžko skrývat.",
        "health": "Dopujte se vitaminy, ať snáze odoláte virům. Místo těch chemických ale rozhodně dejte přednost čistě přírodním.",
        "tips": "Posezení v útulné kavárně nebo čajovně, procházka zimní přírodou, cvičení v rychlejším tempu, lekce jógy nebo tai-či."
    },
    "libra": {
        "main": "S kolegy dlouhodobě vycházíte velmi dobře, a tak vám teď mohou být velkou oporou. Klidně se s nimi podělte o své trable v milostné oblasti, určitě je nepošlou dál. Budou vám radit s těmi nejlepšími úmysly, poprat se s problémy už ale musíte vy sami.",
        "love": "Svou spokojenost dnes poměřujete dle toho, zda máte lepší živobytí než vaši přátelé. Ostatní kritéria neberete v potaz.",
        "work": "Rušné pracoviště se moc nehodí k důvěrným hovorům s kolegy. Po práci se můžete přesunout na nějaké pohodovější místo.",
        "relationships": "Ve čtvrtek máte možnost vylepšit pošramocené mezilidské vztahy. Vaše hrdost a neústupnost je v současnosti v útlumu.",
        "health": "Dnes byste si měli naordinovat odpočinek. Vyzkoušejte třeba příjemnou relaxaci v horké vaně spojenou s aromaterapií.",
        "tips": "Pořádek v účtech, návštěva fitness centra, jóga, zumba, procházky s partnerem a dětmi, rodinná večeře u jednoho stolu."
    },
    "scorpio": {
        "main": "Podařilo se vám úspěšně dokončit některé dílčí pracovní povinnosti. Po celou dobu vás držela nad vodou vidina odpočinku, teď ale v klidu dlouho nevydržíte a hned se pouštíte do dalších úkolů. Nechce se vám otálet, když jste stále v dobrém tempu.",
        "love": "Ve vztahu se dnes jen neradi podřizujete a partner vám to může vyčíst. Dokažte mu, že je u vás pořád na prvním místě.",
        "work": "Dnešní investice vložené do nemovitostí se vám vyplatí. Navíc se spokojená domácnost odrazí i na pracovních úspěších.",
        "relationships": "Doma panovalo mírné dusno, či dokonce tichá domácnost, dnes se ale ovzduší pročistí. Vstřícný krok udělají obě strany.",
        "health": "Řízení auta nemá na kondici vliv a dopravní zácpy vás dovádějí k nepříčetnosti. Občas zkuste nechat auto v garáži.",
        "tips": "Rozvržení příštích pracovních povinností, oběd s kolegy či nadřízeným, posilování imunity, návštěva solné jeskyně."
    },
    "sagittarius": {
        "main": "Dnešek klade velké nároky na vaši psychiku. Stojí za tím Luna a Mars. Pokud možno se vyhněte obchodním jednáním, vaše argumenty nemusí padnout na úrodnou půdu. Můžete tomu zamezit pečlivou přípravou, promyslete předem každý detail.",
        "love": "Lichotky a malé laskavosti ze strany někoho blízkého vám napovídají, že jeho momentální sympatie nejsou pouze přátelské.",
        "work": "V dávno nenošeném kabátě nebo odložené kabelce můžete narazit na slušnou finanční sumičku. Takové překvapení vás potěší.",
        "relationships": "Rodina vás dnes mile překvapí svou iniciativou v domácích pracích. Snažte se toho využít k dlouhodobější strategii.",
        "health": "Neodbývejte něco tak důležitého, jako je zdravý spánek. Dnes je příhodné s tím začít a hlavně vytrvat i v budoucnu.",
        "tips": "Večírek či jiná společenská akce, posezení v hospůdce s kamarády, sledování filmové komedie, zimní pěší túra, fitness."
    },
    "capricorn": {
        "main": "Potřebujete cítit silnou sounáležitost se svým protějškem. Občas pochybujete, zda vás skutečně miluje. Chcete být o tom stále přesvědčováni. Když vás partner či partnerka na veřejnosti chválí, jste za to nesmírně vděční. Měli byste si více důvěřovat.",
        "love": "Dnes jste hákliví na slůvko, proto se není čemu divit, že vyletíte jako čertík z krabičky. Malé uvolnění vám prospěje.",
        "work": "V zaměstnání jste dnes mezi svými kolegy za hvězdu. Ocení vaši schopnost spolupráce a nezištnou snahu vždy pomoci.",
        "relationships": "Domníváte se, že nazrál čas k větším úpravám interiéru. Připravte se na to, že vás rodina usměrní. Nechte to až na jaro.",
        "health": "Je vhodné věnovat péči kůži, hlavně léčbě chronických ekzémů. Zimním nečasem zkoušená pokožka žízní po vaší pozornosti.",
        "tips": "Listování časopisy o bydlení, výběr originálních interiérových doplňků, návštěva dermatologa, hydratační péče o pleť."
    },
    "aquarius": {
        "main": "Merkur ve skvělé pozici vám umožňuje skládat náročné zkoušky, při kterých musíte prokázat svou inteligenci. I vaše komunikativnost je stále bravurní, takže snadno předáváte své myšlenky druhým. Toho výborně využijete zvláště při ústních zkouškách.",
        "love": "V oblasti lásky je vám nakloněna sama Venuše. Cítíte se příjemně rozechvělí a plni očekávání, jako když jste byli mladí.",
        "work": "Dnes nejste vůči pracovnímu okolí podezřívaví, naopak jim vycházíte vstříc. Jindy citlivý nos na problémy si dal pauzu.",
        "relationships": "Příbuzní vás zahrnou nadměrným zájmem o vaše problémy. Vy to ale budete vnímat spíš jako přítěž, chcete si poradit sami.",
        "health": "Vyplatí se pospíchat pomalu. Tendence stihnout tisíc věcí najednou vás ohrožuje hlavně po stránce zranění končetin.",
        "tips": "Řečnické výstupy, skládání ústních zkoušek, konverzace v cizím jazyce, nákup kvalitních potravin, milostné zážitky."
    },
    "pisces": {
        "main": "Čtvrtek je pro vás dost náročným dnem. Planety vám působí značné napětí a to může přinášet pracovní neshody, nedorozumění, ale také finanční ztráty nebo dokonce partnerské rozchody. Buďte proto zvýšeně opatrní a k ostatním i tolerantní.",
        "love": "Ve vztahu převezmete otěže do svých rukou a zasadíte se, abyste na dnešek ani jeden z vás nezapomněl. To nebude těžké.",
        "work": "Jakmile vám to příležitost dovolí, od práce se vzdálíte k zábavnějším činnostem. Třeba soukromým záležitostem na mailu.",
        "relationships": "Kvůli milovanému partnerovi nemáte čas na žádné jiné osoby z vaší blízkosti. Přátelům vadí, že je často zanedbáváte.",
        "health": "Lenošivá nálada vám nedovoluje vrhnout se do fitness a protáhnout ztuhlé svaly. O slovo se začnou hlásit bolesti zad.",
        "tips": "Diplomatické rozhovory s příbuzenstvem, dynamické cvičení, návštěva psychologické poradny, nácvik asertivního chování."
    }
}