{
    "aries": {
        "main": "Máte konečně dost času na to, abyste se mohli věnovat své rodině a milujícímu protějšku. Vaše pracovní vytížení sice dovedou pochopit, ale i jejich svatá trpělivost má své meze. Už se jim po společných chvílích stýskalo a jsou natěšeni, jak se patří.",
        "love": "S navazováním vztahů dnes nemáte velké problémy. Do řeči se dáte téměř s kýmkoliv. Větší opatrnost by ovšem neškodila.",
        "work": "Nezabýváte se zbytečnostmi ohledně financí a práce. Blízké nechcete zatěžovat svými potížemi, a tak se o nich nebavíte.",
        "relationships": "Neodoláte smutným pohledům svých dětí a nakoupíte jim vše, o co si řeknou. Krok po kroku si vás omotají kolem prstu.",
        "health": "Stále váháte s tím, zda přestat kouřit nebo začít cvičit. Signál shůry ale nečekejte, chtít začít musíte hlavně vy.",
        "tips": "Rekonstrukce bydlení, malé opravy v domácnosti, pořizování nové elektroniky, samostudium, realizace plánů do podnikání."
    },
    "taurus": {
        "main": "Intenzivně se těšíte ze společných chvil se svými blízkými, jako byste se léta neviděli. Snažíte se dělit svou pozornost mezi potomky a rodiče. Nejlépe když je máte kolem sebe všechny najednou. Cítíte se klidně a zcela šťastně, jen více takových dní!",
        "love": "S partnerem jste dnes jedno tělo i duše. Pokud se na něčem dohodnete, buďte si jisti, že slib za každou cenu dodrží.",
        "work": "Finance vložíte do činností, které vám připadají příjemné a užitečné. Cestování, studium a neobvyklé lahůdky dnes vedou.",
        "relationships": "Kouzelné chvíle si vychutnáváte plnými doušky. Ukládáte si je do paměti, abyste si je mohli kdykoliv znovu přivolat.",
        "health": "Partnerovy narážky na váš vzhled pro vás dnes znamenají více než fyzická pohoda. Poslechněte především hlas svého těla.",
        "tips": "Pohoda s rodinou, společné fotografování a natáčení videozáznamů, vybírání zájezdů a vzdělávacích kurzů, nákup dobrot."
    },
    "gemini": {
        "main": "Merkur i Slunce vám dávají sílu k větším pracovním výkonům. Bude to markantní zvláště v případě, že je vaše zaměstnání intelektuálního nebo technického ražení. Tyto schopnosti ale využijete i doma, třeba pokud se chystáte k různým opravám.",
        "love": "Užijete si den jako za svobodných časů. S protějškem oprášíte zamilované pocity a dopřejete si nikým nerušené odpoledne.",
        "work": "Ačkoliv by se vám hodila každá koruna, práci navíc odmítnete. Těšíte se na dokonalý odpočinek, sil vám už moc nezbývá.",
        "relationships": "Rodina vás podporuje na každém kroku, čehož během dnešního odpoledne využijete. Drobná berlička vám usnadní situaci.",
        "health": "Nepouštějte se do věcí, které patří do rukou profíků. Rizikové jsou zejména opravy elektroinstalace a práce ve výškách.",
        "tips": "Odpoledne s milovaným protějškem, intelektuální a technické činnosti, nezbytné opravy v domácnosti, krátká procházka."
    },
    "cancer": {
        "main": "Raci by měli svou pracovnu zavřít na petlici a nechat se unášet na vlně lásky. Je vhodný den pro milostné zážitky ve všech podobách. Mezi partnery to zajiskří, nezadaní se dle libosti mohou poohlédnout po novém protějšku nebo si jen tak zašpásovat.",
        "love": "V kolektivu opravdových kamarádů se odreagujete a shodíte ze sebe všechny přetvářky. Dnes jim ve všem naplno důvěřujete.",
        "work": "Peněženku provětráte při nákupech. Reklamy vám pomotaly hlavu, a tak si můžete pořídit i věci, které nepotřebujete.",
        "relationships": "Rodiče vám přes den dají najevo, jak mnoho pro ně znamenáte. Jsou na vaše profesní i studijní úspěchy náležitě pyšní.",
        "health": "Jakékoliv zdravotní omezení i nemoc budete dnes velmi těžko snášet. Chtě nechtě musíte poslouchat pokyny svého lékaře.",
        "tips": "Vydatný spánek, snídaně do postele, dopolední něžnosti s partnerem, pěší túra do přírody, jízda na koni, péče o zvířata."
    },
    "leo": {
        "main": "Je totiž neděle a mám dost času, to si můžete prozpěvovat. Je skvělý den nejen pro libovolné volnočasové aktivity, ale i pro náročnější činnosti. Využijte ho třeba pro plánování svateb či velkých rodinných událostí. Nebudou vám scházet dobré nápady.",
        "love": "Láska vás překvapí tam, kde byste ji běžně nečekali. Z nevinného rozhovoru se může vyklubat pozvání na odpolední kávu.",
        "work": "Můžete splatit úvěr, který vás delší dobu tíží. Hvězdy radí utáhnout si opasek a mít po finanční stránce čistý štít.",
        "relationships": "Změny budou znát hlavně na formálních vztazích. Ty jsou nyní silně ovlivňovány vašimi měnícími se postoji a náladami.",
        "health": "Dopřejte si vydatný spánek a domácí práce si rozdělte do celého dne. Nárazové stresy by vaší psychice neprospěly.",
        "tips": "Setkání s bývalými spolužáky, tvořivé aktivity s dětmi, výroba keramiky, výlet do zoo, sledování oblíbeného seriálu."
    },
    "virgo": {
        "main": "Láskyplná Luna zlepší váš vztah po stránce důvěry. Žárlivost vašeho protějšku vám v podstatě nevadí, jeho občasné dotazy považujete za normální projev lásky. Ujišťujte ho častěji o svých ryzích citech, možná právě to pro svůj klid potřebuje.",
        "love": "Na bouřlivé postelové radovánky nemáte chuť. Stačí vám mít partnera u sebe a vychutnávat si jeho vzácnou přítomnost.",
        "work": "Dnes nezapomenete na pravidelné přerozdělování kapesného pro potomky. Chcete, aby se naučili hospodařit s financemi.",
        "relationships": "Všimnete si, jaký život vede člověk ve vaší blízkosti. Nezřídka se také zamyslíte nad tím, zda mu nemůžete pomoci.",
        "health": "Při nákupu nové obuvi či sportovního vybavení koukejte nejen na moderní design. Důležitější je kvalita a bezpečnost.",
        "tips": "Procházky do přírody, dopolední cvičení ve fitness centru, inspirace ve světě celebrit, vylepšování vzhledu a šatníku."
    },
    "libra": {
        "main": "Snažíte se tlumit své mentorské sklony a zjišťujete, že partnerský vztah funguje o něco lépe. Pokud se poučování neumíte vzdát úplně, směřujte ho ke svým potomkům. Když zvolíte nosné téma, zajímavé pro obě strany, třeba se ani nebudou moc ošklíbat.",
        "love": "Pokud se budete držet dnešního modelu partnerství, láska vám jen tak nezevšední. S protějškem se rozhodně nenudíte.",
        "work": "Je zapotřebí včas popřemýšlet o letní dovolené. Na pracovišti se začnou rozebírat první, nejlukrativnější termíny.",
        "relationships": "Mezilidské vztahy jsou v pořádku. Nastalá harmonie nikomu nedovolí, aby se pouštěl do šarvátek a riskantních konverzací.",
        "health": "Odpoledne věnujete tomu, abyste se dostali do psychické pohody. Prospěje vám návštěva čajovny či sauna s partnerem.",
        "tips": "Učení a povídání s potomky, posezení v čajovně nebo kavárně, mlsání v cukrárně, odpočinek v sauně či v páře s partnerem."
    },
    "scorpio": {
        "main": "Patříte ke šťastným jedincům, kteří mohou prohlásit, že je jejich práce nadmíru baví. Rodinní příslušníci ale vaše přebujelé pracovní nadšení příliš nechápou. To jim ale nebrání v tom, aby vás všestranně podporovali a fandili vám. Važte si toho.",
        "love": "Nový partner vás bude vodit za nos. Románek je krásná záležitost, ale budete překvapeni, až zjistíte, co je dotyčný zač.",
        "work": "Ohledně peněz dnes máte skvělý odhad. Umíte si představit, jakou finanční rezervu budete v následujícím čase potřebovat.",
        "relationships": "Nehodláte plány podřizovat odlišným názorům rodiny či blízkých. Jste ve svém dnešním přesvědčení nezvykle zatvrzelí.",
        "health": "Ve dvou se vám dnes lépe cvičí i odpočívá. Ať vyrážíte do posilovny nebo wellness centra, přiberte k sobě kamaráda.",
        "tips": "Zorganizování večírku, obstarání potravin a nápojů, příprava bohatého pohoštění, společenská akce, skupinová cvičení."
    },
    "sagittarius": {
        "main": "S partnerem se dnes cítíte příjemně a uvolněně, což přirozeně vyústí v touhu po dalším sblížení. Zaměřte se na tělesný kontakt a nechte za sebe promlouvat své tělo. Nebraňte se objímání a něžným dotekům, které za vás prozradí, jak se máte rádi.",
        "love": "Amorovy šípy vás zasáhnou přímo do srdce. Dlouhodobě zadaní Střelci prožívají vzácnou renesanci partnerského vztahu.",
        "work": "Rodinný rozpočet osekáte od zbytečných výdajů. Trochu se uskromníte, abyste si mohli dovolit realizovat troufalé plány.",
        "relationships": "Setkání s kamarády z dětství nebo s člověkem z minulosti zpestří den. Není vyloučeno, že vstoupí do života na delší čas.",
        "health": "Máte tendenci šetřit na špatných místech včetně potravin. Vaše tělo si ale zaslouží kvalitu. Dnes začnete číst obaly.",
        "tips": "Relaxační a dechová cvičení, péče o auto, malování interiéru, romantické výlety s partnerem, nákup hraček pro dospělé."
    },
    "capricorn": {
        "main": "Venuše se vás bude snažit přemlouvat k nevěrnému nebo alespoň koketnímu chování. Vypadá to ale, že tentokrát přijde zkrátka. Zadaní Kozorozi poslechnou hlas svého svědomí a nezadaní nejspíš nebudou mít na flirt tu správnou náladu.",
        "love": "Pro lásku dnes hledáte někoho, kdo má stejné cíle a priority jako vy. Nechcete pohořet hned na základních kamenech.",
        "work": "Hvězdy doporučují zaměřit se na administrativu a účetnictví v domácnosti. Nezapomněli jste v týdnu na nějakou složenku?",
        "relationships": "Zatímco na jedné straně se vám moc nedaří, u přátel se cítíte skvěle. V jejich přítomnosti zapomenete na všechny křivdy.",
        "health": "Úzkostlivým úklidem domácnosti vašemu zdraví úplně neprospíváte. Myslete víc na přísloví - čistota půl zdraví, špína celé.",
        "tips": "Taneční zábava, ples nebo večírek s partou blízkých přátel, prohlížení katalogů, výběr a nákupy vybavení do domácnosti."
    },
    "aquarius": {
        "main": "Stále jste skvělými řečníky, dokážete přesvědčit o své pravdě. Potěšitelná zpráva je, že vám to vydrží do dalších dní. Budete bez obtíží proplouvat úskalími komunikačních nástrah. Mohli byste si díky tomu polepšit i po pracovní a finanční stránce.",
        "love": "Flirtování a nezávazná zábava s atraktivními protějšky jsou pro vás dnes samozřejmostí. Načechráte tím své sebevědomí.",
        "work": "Zbavíte se obnošeného oblečení i vyřazených věcí z domácnosti. Místo přivýdělku získané finance věnujete na dobré účely.",
        "relationships": "Daří se vám, a tak se o svou radost chcete podělit. Nesmíte se pak divit, když se místo blahopřání setkáte se závistí.",
        "health": "Známí vás přemluví k aktivitě, která pro vás není obvyklá. Kolektivní sporty vám ukážou, že jste stále v dobré kondici.",
        "tips": "Činnosti závislé na komunikaci s lidmi, nákupy pro osobní potěšení, kolektivní sporty s kamarády, nezávazná zábava."
    },
    "pisces": {
        "main": "Máte za sebou mnohé úspěchy v zaměstnání, ale ve společnosti rodiny a přátel se jimi nedokážete pochlubit. Ostatní proto možná ani netuší, jaké pracovní trumfy máte na svém kontě. Když se jim nesvěříte, připravujete se o společně sdílenou radost.",
        "love": "Dopolední něžnosti vás s partnerem naladí na celý zbytek dne. Nemusíte nikam spěchat, tak si společný čas vychutnejte.",
        "work": "Dnes se vám skvěle daří při nakupování dárků. Nekoukáte na vynaložené finance, chcete se blízkým hlavně trefit do vkusu.",
        "relationships": "Navazování přátelství v cizích vodách pro vás dnes není velkým problémem. Lépe si všímáte lidí kolem vás a jejich povah.",
        "health": "Jestliže se zadýcháváte při krátkém vyběhnutí schodů, vaše kondice není zrovna nejlepší. Je na čase s tím něco udělat.",
        "tips": "Charitativní akce, pomoc příbuzným, péče o zvířata, projížďky na koni, rozhovor s partnerem, večeře u kulatého stolu."
    }
}