{
    "aries": {
        "main": "Pondělní útlum pro vás neplatí, vaše výkonnost bude bez chybičky. V zaměstnání se můžete rychle naučit nový technologický postup. Váš bystrý duch vás nenechá na holičkách, blýsknete se svým intelektem. I čistě netechnické typy budou slavit úspěchy.",
        "love": "V zaměstnání excelujete, ale také po stránce lásky a vztahů se vám bude výjimečně dařit. Jen si dnes na ně udělat čas!",
        "work": "Intelektuálové mají žně, urodí se jim spousta skvělých nápadů. Pracovní výzvy budou navíc řešit s buldočí vytrvalostí.",
        "relationships": "Vaše šikovná ratolest vás zahanbí při manipulaci s počítačem, jako by to uměla už od narození. Zkrátka je jiná doba.",
        "health": "Na pozoru by se měli mít lidé trpící diabetem. I pokud tuto chorobu nemáte, bude lepší, když zásadně omezíte cukry.",
        "tips": "Rozšiřování kvalifikace, služební cesta, obchodní schůzka, změna zaměstnání, kickbox, hlasitý zpěv, h.e.a.t. program."
    },
    "taurus": {
        "main": "V oblasti lásky najdete netušené možnosti. Čerstvý vítr do plachet vám dnes může přinést atraktivní kolega nebo pouhé brouzdání po internetu. I zdánlivá maličkost zvládne s vaším vztahem pořádně zacloumat. V dobrém slova smyslu vás čeká pěkné rodeo.",
        "love": "Partner vás podporuje ve vašich záměrech, i když k nim má nějaké výhrady. Je vidět, že mu záleží na vaší spokojenosti.",
        "work": "Proberte se a pokuste se nějakou smysluplnou činnost alespoň předstírat. Však víte, že čert a nadřízený nikdy nespí.",
        "relationships": "Doma se neváháte pochlubit se svými finančními přírůstky. Těší vás spřádat s rodinou plány, jak si je společně užít.",
        "health": "Měli byste si hlídat své potíže se zrakem. Hlava vás může bolet i proto, že potřebujete brýle či větší počet dioptrií.",
        "tips": "Plánování investic, pracovní oběd, propagační a reklamní akce, prohlídka u očního lékaře, výběr brýlových obrouček."
    },
    "gemini": {
        "main": "Máte skvělé předpoklady vybudovat hezký vztah založený na romantice. Nezadaní se mohou snadno seznámit, a dokonce najít i lásku na celý život. V delších partnerstvích je pravděpodobné, že se do sebe opět zamilujete i po letech společného soužití.",
        "love": "Dostanete chuť na kulturní zážitky. Neprodleně prozkoumáte nabídku kin, divadel i tanečních sálů a objednáte vstupenky.",
        "work": "Dáte si předsevzetí, že tento týden odejdete na víkend s čistým stolem. Na jeho uskutečnění začnete okamžitě pracovat.",
        "relationships": "Internet je podobně jako jiné moderní vymoženosti dobrý sluha, ale zlý pán. Je škoda prožít život ve virtuální realitě.",
        "health": "Pokud jste se dosud potýkali s citlivostí nohou, uleví se vám. Už si nebudete muset odpírat pohyb a sportovní aktivity.",
        "tips": "Romantické schůzky, seznamování, společenské akce, pedikúra, masáž chodidel, nákup dobré vycházkové a sportovní obuvi."
    },
    "cancer": {
        "main": "Začátek nového týdne by vám mohly pokazit něčí nejapné žertíky. Dejte si proto pozor, abyste si je nebrali příliš k srdci. Pokud vás někdo očerní, radši v duchu napočítejte do dvaceti a až poté reagujte. Uděláte tím dobrou službu především sami sobě.",
        "love": "Váš pozdní příchod ze zaměstnání partnera nenadchne. Měl totiž o dnešním večeru lepší představu, kterou mu tím zboříte.",
        "work": "Máte chuť vnést do své práce svou osobnost. U rutinních činností budete alespoň přemýšlet, jak by se daly vylepšit.",
        "relationships": "Volný čas věnujte tvůrčím koníčkům. Na čelo vás líbá Múza, a tak pište, malujte, vyrobte něco pro radost sobě i jiným.",
        "health": "Na vašem zdraví se projeví dosavadní preventivní péče. Budete více vitální a nemoci by se vám měly obloukem vyhýbat.",
        "tips": "Kreativní aktivity, pěstování tvůrčích koníčků, rukodělné činnosti, hra na hudební nástroj, návštěva kulturních akcí."
    },
    "leo": {
        "main": "Pondělní den vás zastihne v plné pracovní pohotovosti. Nebude vám dělat problém zhostit se ani tak záludných úkolů, jako je jednání s úřady. Hladce vyřídíte vše, co je potřeba. Stejně virtuózně si poradíte i s veledůležitými telefonními rozhovory.",
        "love": "Upřímností dnes můžete druhým ledacos vysvětlit. Pouze u partnera nebo dobrého přítele najdete opravdové pochopení.",
        "work": "Vaše kolegyně působí jako psycholog-amatér. Její partnerská poradna vyřeší každý problém. Nebo si to alespoň myslí.",
        "relationships": "Snažíte se v potomcích podporovat vynalézavost a fantazii. Víte, že v době technických lákadel to není zrovna snadné.",
        "health": "Věnujte svou pozornost cílenému posilování obranyschopnosti a šetřete se. Můžete mít větší sklon k virovým infekcím.",
        "tips": "Pohodový oběd s kolegy, pochůzky po úřadech, doučování potomků, saunování, plavání, otužování, nákup bylinkových čajů."
    },
    "virgo": {
        "main": "Dnešek je skvělý pro komunikaci všeho druhu. Jen pozor, abyste neřečnili pořád jenom vy. Dejte prostor i druhému. Od rána se vám pusa nezastaví a partnera by z toho brzy začala brnět hlava. Na rande byste protějšek odradili svým nekonečným monologem.",
        "love": "Už jste asi přišli na to, že kolega nerovná se automaticky i přítel. Dejte si pozor, abyste si nehřáli na prsou hada.",
        "work": "V zaměstnání stále dokazujete svou profesionalitu. Skvělé výsledky mluví za vás a o vás zase pochvalně mluví nadřízení.",
        "relationships": "Umělé květiny byly synonymem pouťového nevkusu. Dnes jsou tak dokonalé, že je nerozeznáte od živých. Zkrášlete si domov!",
        "health": "Je to s podivem, ale vykazujete odolnost vůči atakům virů i bakterií. To by ovšem nemělo znamenat, že v práci ještě přitvrdíte!",
        "tips": "Výběr a nákup živých rostlin i umělých květin, prohlížení nové nabídky bytového designu, důsledná relaxace po práci."
    },
    "libra": {
        "main": "V zaměstnání se vám nedaří dostat se do vedoucích pozic. Máte ale trpělivost i noblesu, drát se na vrchol po zádech druhých není váš styl. Přijdete na jiné způsoby, jak se v práci zviditelnit. Vaše inovace a zlepšovací návrhy budou mít něco do sebe.",
        "love": "Nezávazné klábosení u kávy s kamarádkou dostane vážnější nádech. Zjistíte, že její vztah není tak ideální, jak se zdálo.",
        "work": "Půjčky je možné využít jako okamžitou záplatu na neutěšenou finanční situaci. Mohou vás ale připravit o klidný spánek.",
        "relationships": "Partner se bude doma projevovat jako rozený kutil. Výsledky ale nemusejí odpovídat snaze, takže raději zavoláte řemeslníky.",
        "health": "Podaří se vám zbavit se alespoň některých stresových faktorů. Vaše zdravotní kondice se proto zázračně zlepší.",
        "tips": "Posezení s kamarádkou v kavárně či vinárně, objednání služeb řemeslníků, nácvik nejvhodnějších relaxačních technik."
    },
    "scorpio": {
        "main": "Nadřízení si vás budou chválit pro vaši jemnost, s jakou prosazujete své názory. Ostré debaty nejsou váš styl. Umíte se chovat ke kolegům i klientům s pochopením a slavíte s tím úspěchy. Určitě své chování neměňte, spočívá v něm vaše klidná síla.",
        "love": "Pozvání na rande sice odmítnete, ale svět se vám hned bude zdát růžovější. Připadáte si najednou atraktivní a žádaní.",
        "work": "Budete mít jedinečnou příležitost prokázat svou velkorysost. Podáte ruku ke smíru a zamezíte tím ošklivému konfliktu.",
        "relationships": "Před pohodlným partnerem utrousíte, že na nutné opravy zavoláte hodinového manžela. Tato zmínka ho okamžitě vzpruží.",
        "health": "Obecně je vaše zdraví v pořádku. Neusněte ale na vavřínech a minimalizujte škody, které na vaší kondici napáchala zima.",
        "tips": "Zvelebování domácnosti, drobné opravy a rekonstrukce, sportovní aktivity, nákup permanentky do fitness centra či bazénu."
    },
    "sagittarius": {
        "main": "Uvědomíte si, že jste zvyklí pohybovat se jen v jednom vztahu nebo v jedné práci. V okolí budete mít možnost pozorovat, jak to vypadá, když se někdo snaží sedět na dvou židlích. Netoužíte po stálém vypětí ani po komplikacích, rádi zůstanete věrní.",
        "love": "Známý vám dá nezištně tip na slušný přivýdělek, který se sám rozhodl také využít. Oceňujete, že si ho nenechal pro sebe.",
        "work": "Žádná slovní přestřelka vám dnes nemůže ublížit. Budete bleskurychle tasit nebezpečné argumenty a s převahou zvítězíte.",
        "relationships": "Uvažujete o netradičním dárku? Pokud vám selhává fantazie, zkuste oslavenci koupit zážitek. Nabídka agentur je obrovská.",
        "health": "Zvýšená míra stresu se podepíše na vaší fyzické pohodě. Unavenému tělu neprospěje ani dlouhé vysedávání u počítače.",
        "tips": "Náročná obchodní jednání, přednášková činnost, hledání možností přivýdělku, výběr a nákup nápaditého dárku po internetu."
    },
    "capricorn": {
        "main": "V oblasti sexu si pomalu uvědomíte, co k životu opravdu potřebujete. Hvězdy podpoří vaši erotickou představivost. O intimních otázkách se vám bude mluvit snadno a s protějškem si navzájem vylíčíte své touhy. Můžete je neprodleně převést do praxe.",
        "love": "Nezadaní by měli při seznamování dát na svou intuici. Napoví vám zcela jednoznačně, zda se s protějškem cítíte dobře.",
        "work": "Necháte si poradit s hospodařením domácnosti. Zkušenější příbuzní vaše dotazy ohledně rozdělení výplaty snadno zodpoví.",
        "relationships": "Rodina nepochopí, jaké úmysly máte za lubem, proto vás v nich nemůže podpořit. Vy si ale umíte poradit za každé situace.",
        "health": "Postelové hrátky si dnes okořeníte o trochu akrobacie. Protáhnete tělo a uděláte něco pro svou vyrovnanou psychiku.",
        "tips": "Milostné experimentování, sledování lechtivých filmů ve dvou, popíjení chutných nápojů, mlsání lahůdek, erotické masáže."
    },
    "aquarius": {
        "main": "Hvězdy vám budou klestit cestičku za milostným štěstím. Mnohým jedincům se splní i ta nejtajnější přání, se kterými se už pomalu rozloučili. Rozhádané páry se mohou díky znovuobjevené vášni rychle usmířit, nezadaní okouzlit svůj nedostižný idol.",
        "love": "I když už jste ze školy nějaký ten pátek venku, budete se cítit jako zamilovaný studentík. Neunikne to ani vašemu okolí.",
        "work": "Dokážete nadřízeným, že jste spolehlivý člověk na správném místě. Nenecháte nikoho na pochybách, že máte vysoké kvality.",
        "relationships": "Pro spokojenost rodiny dnes uděláte maximum. Materiální zajištění blízkých je u vás na přední příčce životních priorit.",
        "health": "Vaše fyzická kondice je v pořádku, takže se budete cítit silní a zdraví. Můžete se ale přecenit a přestřelit své síly.",
        "tips": "První milostná schůzka, námluvy, zásnuby, sladké usmiřování, akce pro nezadané, rychloseznamka, rušný večírek, tanec."
    },
    "pisces": {
        "main": "Zaměstnání vás po víkendu nebude uspokojovat. Nejraději byste šli za školu, ale na to už jste bohužel moc velcí. Své povinnosti budete zvládat, jak se dá, ale nejlepší bude příliš se neangažovat. Vaše snažení by mohlo přinést více chyb než užitku.",
        "love": "Podnikli jste něco na vlastní pěst a partnera stavíte před hotovou věc. Podle jeho povahy ho to dopálí nebo rozlítostní.",
        "work": "Umíněností se ve světě dospělých neprosadíte. Dnes se na pracovišti raději kousněte do jazyka nebo si vezměte volno.",
        "relationships": "Názory jiných mohou dopomoci k rozhodnutí, ale konečné slovo máte vy. Posoudíte, do jaké míry souzní s vaší osobností.",
        "health": "Doma spojíte příjemné s užitečným. Uvaříte něco na zub, co potěší chuťové buňky a splní i nároky zdravého jídelníčku.",
        "tips": "Výběr dárků pro blízké, vložení peněz na charitu, nákup kvalitních potravin, zkoušení zdravých receptů, kulinářský kurz."
    }
}