{
    "aries": {
        "main": "Zkuste se těšit z výsledků své práce. Klidně si začněte užívat úspor a nesledujte stav svého účtu. Máte žít přítomným okamžikem, nikoliv jen šetřit na nejisté budoucí časy. Když si něco vyčleníte pro vlastní potěšení, hned se vám bude pracovat líp.",
        "love": "Nebudete se dnes moci rozhodnout, zda dát přednost lásce nebo kamarádům. Zkuste to pro jistotu skloubit a bude to.",
        "work": "Nové zaměstnání slibuje nadějné vyhlídky. Na pracovišti se rychle rozkoukáte a vynasnažíte se zapadnout do kolektivu.",
        "relationships": "Radu hledejte u příbuzných. Můžete s nimi mluvit o všem, na rozdíl od partnera, který se dnes drží trochu na distanc.",
        "health": "Ve středu zvládáte stresové situace a psychicky náročné okamžiky poměrně snadno. Únavu pocítíte až na samém sklonku dne.",
        "tips": "Přímý rozhovor s nadřízeným, záskok za kolegu, bowling, kulečník, taneční zábava s bohatou tombolou, oslava narozenin."
    },
    "taurus": {
        "main": "Máte ideální čas pro tvořivou práci. Vaše psychika je stabilní a cítíte se vzácně vyrovnaní, budete tedy schopní se dlouze a plně soustředit. Každé vaše dílo, které nyní spatří světlo světa, bude nejen originální, ale i perfektně řemeslně zvládnuté.",
        "love": "Pokud si dnes budete dělat s něčím hlavu, měli byste nechat váš protějšek, aby si ji dělal s vámi. Ať na to nejste sami.",
        "work": "Výsledky vaší práce budou mít dlouhou životnost. Nyní můžete vytvořit hodnotné dílo, které přetrvá do dalších generací.",
        "relationships": "Před okolím budete jen neradi ukazovat své slabiny. Dnes rádi působíte dojmem tvrďáka, který si se životem ví vždy rady.",
        "health": "Na celkovou kondici si dnes nemůžete stěžovat. Sice se vám ráno nebude chtít z postele, ale během chvilky se proberete.",
        "tips": "Kontakt s rodinou, výlet na hory, výběr nového sportovního vybavení, romantický wellness víkend, zkrášlování zevnějšku."
    },
    "gemini": {
        "main": "Současné konstelace podporují vaši přemýšlivost, takže vás budou těšit filozofické úvahy. Nemusíte na to být sami. Společenské typy uspokojí spíše debaty o životě v kruhu blízkých přátel. Jejich názory a zkušenosti vás mohou nečekaně inspirovat.",
        "love": "Vaše dávná nezištná pomoc se vám teď vrátí. Přítel vám neodmítne svou podporu a spojenectví v jisté složité záležitosti.",
        "work": "Zaměřte se na rozvíjení dovedností, které jsou zatím vaším druhým povoláním či koníčkem. Můžete je velmi zdokonalit.",
        "relationships": "Doma teď nečekejte automatickou podporu. Poznáte, kdo vám opravdu rozumí a nevymýšlí si výmluvy, když něco potřebujete.",
        "health": "Doma to bude chtít značnou trpělivost, toleranci a pevné nervy. Díky víkendovému odpočinku s tím nebudete mít problém.",
        "tips": "Vyřizování neodkladných e-mailů a telefonátů, dokončování pracovních aktivit, volný čas strávený s rodinou, kultura."
    },
    "cancer": {
        "main": "V soukromí se zaměříte na výchovu mladších členů rodiny. Ani ty nejrozjívenější ratolesti vás nevyvedou z rovnováhy. Vycítí, že se na vás mohou obrátit s každou dětskou starostí. Se svatou trpělivostí se budete věnovat i jejich případnému doučování.",
        "love": "Uvědomíte si, jaký poklad se ve vašem současném partnerovi skrývá. Budete si ho proto lépe hlídat před mlsným okolím.",
        "work": "Dřívější odchod ze zaměstnání vám dnes umožní stihnout spoustu důležitých soukromých aktivit. V práci vám to projde.",
        "relationships": "Celá rodina ocení vaše kulinářské schopnosti. Společná večeře vám navíc umožní v pohodě si popovídat o všem možném.",
        "health": "Odpoledne po práci vyrazte na čerstvý vzduch a protáhněte zdřevěnělé tělo. Odpočinete si mnohem víc než u televizní obrazovky.",
        "tips": "Nákup dárků pro blízké, výchova dětí, společná zábava, návštěva aquacentra či zimního stadionu, večeře v restauraci."
    },
    "leo": {
        "main": "V zaměstnání se k vám štěstěna přechodně otočí zády. Budete podráždění z vývoje vztahů i postupů na pracovišti. S některými kolegy se zásadně nepohodnete a pokyny nadřízených vám budou silně proti srsti. Vyrovnanost vám vrátí až domácí prostředí.",
        "love": "Na opačné pohlaví působíte magnetickou silou, přitom nemáte svůj nejlepší den. Přírodní zákonitosti jdou ale mimo nás.",
        "work": "Neradi slepě plníte každý příkaz a jdete si za svým i za cenu komplikací. Dnes si ale raději udělejte na jazyku uzel.",
        "relationships": "Doma se chcete pouštět do složitých disputací, nikdo o to ale nejeví zájem. To vás dnes intelektuální námaha uspokojuje.",
        "health": "Nechcete-li jen trpně čekat, jaká jarní viróza si vás najde, něco pro to musíte udělat. Výborným receptem je otužování.",
        "tips": "Individuální plnění pracovních úkolů, procházka cestou domů, profesionální pedikúra spojená s reflexní masáží chodidel."
    },
    "virgo": {
        "main": "S partnerem strávíte příjemné chvíle v milé společnosti. Nejspíše se setkáte s vašimi společnými známými. Nemusíte se ale omezovat jen na osoby, které už dobře znáte. Seznámíte-li se i s přáteli svých přátel, můžete navázat nová pevná kamarádství.",
        "love": "Protějšek vám skládá procítěné komplimenty a chválí váš vzhled. Je tak přesvědčivý, že mu rádi uvěříte každé slovo.",
        "work": "Během pracovních diskusí můžete klidně přitlačit na pilu. Pokud jste si jistí svým názorem, nemáte proč ho skrývat.",
        "relationships": "Každý z nás je jedinečný a takové by měly být i naše domovy. Při jeho zařizování se držte hlavně svých pocitů a intuice.",
        "health": "Sport a fyzicky namáhavé činnosti účinně zajistí, že přestanete mít roupy. Unavíte se a chuť na konfrontace vás přejde.",
        "tips": "Příprava do zaměstnání, finanční rozvahy, péče o domácnost, příjemná návštěva, společenské akce, intimní chvíle ve dvou."
    },
    "libra": {
        "main": "V partnerství budete citlivější na projevy nesouladu. Může vám připadat, že váš vztah momentálně příliš nefunguje. Jde ale jen o vaše černé vidění. Potřebujete si odpočinout a získat nový nadhled. Vaše emoce dnes nejsou dobrý rádce, používejte rozum.",
        "love": "Sotva váš partner vkročí do dveří, může vás uchvátit do náruče a kabát odhazovat až cestou do ložnice. Polichotí vám to.",
        "work": "V obchodování se vám bude skvěle dařit. Navíc budete potkávat jedince, kteří i bez složitých smluv plní své závazky.",
        "relationships": "S partnerovými rodiči najdete společnou řeč. Vypadá to, že se snažíte jeden druhému vyjít vstříc a nedělat velké potíže.",
        "health": "Pokud vám vaše minulost stále hází klacky pod nohy, něco s tím udělejte. Můžete ji zkusit rozplést s pomocí psychologa.",
        "tips": "Porada s odborníkem, relaxační koupel, procházka v přírodě, návštěva rodičů či prarodičů, péče o vzhled, sledování televize."
    },
    "scorpio": {
        "main": "Pokud to bude jen trochu možné, omezte práci a věnujte se svým blízkým. Středa bude vhodným dnem pro rodinná setkání. Na přetřes mohou klidně přijít i pracovní témata. Umíte je zajímavě podat a rodina bude hrdá, když budete vyprávět o svých úspěších.",
        "love": "Jedinci v nových vztazích získají více jistoty. Z řeči protějšku vyplyne, že s vámi počítá ve svých plánech do budoucna.",
        "work": "Dnes máte velkou kuráž, která možná překvapí i vás samotné. V práci budete vůdčí osobností, kterou bude vidět i slyšet.",
        "relationships": "Hlavně zadaní Štíři se teď zaměří více na rodinu než na práci. Blízcí však nebudou proti, když jim vylíčíte své úspěchy.",
        "health": "V zimě pokožka trpí ve venkovní slotě i v přetopených místnostech. Dychtí po hutnějších krémech i vydatné hydrataci.",
        "tips": "Jednání s úřady, péče o členy rodiny, společné povídání, obstarání dárku, návštěva v domově seniorů, zdravotní cvičení."
    },
    "sagittarius": {
        "main": "Ve středu zatoužíte po troše klidu sami pro sebe. Přiznejte si to a nedělejte si žádné násilí. Vysvětlete svým blízkým, že potřebujete nerušenou samotu. Pochopí to a nebudou vás do ničeho nutit. K urovnání myšlenek vám pomůže i psychologická četba.",
        "love": "Protějšek neumí číst myšlenky ani se domýšlet, co jste tím chtěli říct. Zkuste se pro dnešek vyjadřovat jednoznačně.",
        "work": "Při práci se zaseknete na konečném dolaďování detailů. O úspěchu ale rozhoduje i to, jestli své dílo odevzdáte včas.",
        "relationships": "Zjistíte, že vás někteří lidé využívají. Než za nimi uděláte tlustou čáru, dáte jim ještě jednu příležitost k nápravě.",
        "health": "Při drastických dietách jdou kila rychle dolů. Pak ale vinou jojo efektu naberete ještě víc. Hubněte pomalu, ale jistě!",
        "tips": "Veřejné projevy, proměna vizáže, nákup módního oblečení, výběr pobytu na horách, seznamovací akce, kulinářské zážitky."
    },
    "capricorn": {
        "main": "Pocítíte nátlak rodiny, abyste se více věnovali domácím povinnostem. Vy ale víte, že to nyní kvůli zaměstnání nemůžete při nejlepší vůli zvládnout. Navíc nemáte pocit, že byste pro své blízké dělali málo. Nezbude vám, než si bez emocí promluvit.",
        "love": "Nové přátele z řad kolegů pozvete na posezení do oblíbené hospůdky, abyste si nerušeně popovídali. Nadšeně to přijmou.",
        "work": "S diplomacií dnes dojdete nejdál. I když jisté osoby nemůžete vůbec vystát, ovládnete se. Víte, že se vám to vyplatí.",
        "relationships": "Ohledně domácích povinností nebudete schopní demokratické domluvy. Rodina automaticky předpokládá, že vše zařídíte vy.",
        "health": "Můžete se přepínat, jak chcete, ale své tělo nepřevezete. Únava se v něm ukládá a jednoho dne vám může vypovědět službu.",
        "tips": "Řešení složitých pracovních úkolů, realizace podnikatelských plánů, kontrola školních výsledků dětí, milostné schůzky."
    },
    "aquarius": {
        "main": "Hvězdy se vám starají o vitalitu i průbojnost a pomáhají vám tak nasbírat pracovní úspěchy. Vaše rodina se ale o nich nemusí vůbec dozvědět. Jste příliš skromní a sami se doma vůbec nepochlubíte. Dopřejte svým blízkým, aby se radovali spolu s vámi!",
        "love": "Hvězdy vás mohou svést znovu dohromady s osobou, kterou jste toužili blíže poznat. Dostanete novou šanci udělat dojem.",
        "work": "Nebude vám dělat problém přizpůsobit se měnícím se pracovním podmínkám. Je proto ideální čas i na změnu zaměstnání.",
        "relationships": "Dejte potomkům najevo, že vám leží na srdci především jejich spokojenost. Nemíníte je nutit, aby plnili vaše osobní sny.",
        "health": "Daří se vám a zdá se, že vaše úspěchy nic nezastaví. Problémem by mohly být jen chyby v životosprávě, neodbývejte ji!",
        "tips": "Popovídání s přáteli, jednoduché domácí práce, rozmazlující péče o tělesnou schránku - kosmetika a masáže, meditace."
    },
    "pisces": {
        "main": "Možná objevíte skulinku, jak se dostat k srdci protějšku. Pokud si dlouhodobě lámete hlavu nad jeho nepřístupností, teď budou ledy prolomeny. Zamilovaní jedinci, kteří usilují o něčí přízeň, mohou právě dnes definitivně uspět a získat si náklonnost.",
        "love": "Neodkládejte vyznání svých citů. Vše, co nyní řeknete, bude přijato s vážností. Protějšek nebude vaše slova zlehčovat.",
        "work": "Objevíte nabídku tak lákavou, až je to podezřelé. Než cokoliv podniknete, ověřte si všechny proklamované skutečnosti.",
        "relationships": "Na bezpečné domácí půdě už se věnujte jenom sami sobě. Bez výčitek se nechte opečovávat dětmi či rodiči, potřebujete to.",
        "health": "Pravidelná kosmetická péče není balzámem jen pro pleť, ale i pro duši. Dopřávejte si ji, přináší vám hned dvojí profit.",
        "tips": "Vyznání lásky, plánování svatby, sestěhování se, luxusní kosmetická péče, manikúra, pedikúra, zdravotní cvičení, jóga."
    }
}