{
    "aries": {
        "main": "Budete působit velice průbojně a sebevědomě. Hvězdy vám dávají takovou nálož energie, že bude nutné se trochu krotit. Kolegové a blízcí by mohli získat pocit, že ať se snaží sebevíc, nestačí s vámi držet krok. Myslete na lidi, které máte kolem sebe.",
        "love": "Protějšek se vám sice snaží vyhovět, ale dnes toho bude i na něho příliš. Nebudete s ním jednat zcela demokraticky.",
        "work": "Pokud pracujete sami na sebe, zaznamenáváte stabilně vysoký odbyt. Okolí vám nejspíše tajně závidí vaši pracovní pozici.",
        "relationships": "Zdá se, že dnes toužíte být ten, kdo vládne všem. V práci i doma máte vedoucí slovo a ve všech věcech musí být po vašem.",
        "health": "Při exhibici v posilovně je jisté, že přitáhnete obdivné pohledy. Druhý den ale máte jisté i bolesti přetažených svalů.",
        "tips": "Rozjíždění nových projektů, podnikání, vylepšování vizáže, nákup oblečení, pohyb na čerstvém vzduchu, zimní sporty."
    },
    "taurus": {
        "main": "Nemáte rádi nárazové přepínání sil, toho se ale teď obávat nemusíte. Budete mít příležitost věnovat se své práci v klidu a bez nervózního spěchu. Budete sebejistě postupovat vpřed. Občas sice bude třeba zareagovat rychle, ale toho se zhostíte se ctí.",
        "love": "Chvilkové známosti nebudou nic pro vás. Při hledání vhodného protějšku si představujete, jak spolu strávíte dlouhá léta.",
        "work": "Znamení Býka si svojí tvrdohlavostí může v práci zadělat na velký problém. Zkuste krotit své vášně a kousnout si do jazyka.",
        "relationships": "Večer se můžete zapomenout při brouzdání po internetu. Je to spíše doména vašich potomků, ale dnes se jim vyrovnáte.",
        "health": "Ze sedavé práce vás mohou rozbolet záda a krční páteř. Nečekejte na první náznaky obtíží a preventivně si zacvičte.",
        "tips": "Kontrola domácího rozpočtu a bankovních výpisů, vyřizování pochůzek, velký rodinný nákup, zábava s potomky, plavání."
    },
    "gemini": {
        "main": "Nejste hákliví na každé slovo, ale dnes si výhrady okolí berete příliš k srdci. Především v rodině se můžete stát terčem kritiky, kterou byste nečekali. Zamrzí vás, že s vámi blízcí nebudou ve všem souhlasit. Vy to přece máte tak dobře promyšlené!",
        "love": "V oblasti lásky byste měli být trpěliví a tolerantní. Vypadá to, že vášně a otevřeného bezelstného jednání se nedočkáte.",
        "work": "Dnes můžete poněkud zpanikařit v situaci, která vám přijde nad vaše síly. Když se uklidníte, řešení se jistě najde.",
        "relationships": "Pouštíte si negativní výroky ostatních příliš k tělu a to se projevuje na vaší psychice. Pokuste se o maximální nadhled.",
        "health": "Nesoulad s blízkými se může odrazit na vašem trávicím ústrojí. Budete se cítit podle rčení, že vám něco leží v žaludku.",
        "tips": "Domácí pohoda, popovídání s dětmi, odpoledne s oblíbeným hobby, sledování televize, nenáročná četba, koupel, spánek."
    },
    "cancer": {
        "main": "V lednu vám hvězdy budou přihrávat šance na pracovní úspěchy, neměli byste tedy plýtvat energií. Do denního harmonogramu zařaďte relaxaci i příjemné zážitky. Málo platné, nejste žádný chladný stroj. Potřebujete pravidelný přísun pozitivní energie.",
        "love": "Více než o své štěstí v lásce se staráte o druhé. Nezadaní Raci teď sami zapřemýšlejí o tom, zda to za tu námahu stojí.",
        "work": "Než se do něčeho pustíte, předem si dobře rozmyslete, jak to uděláte. Zbrklé jednání by mohlo vést ke špatným koncům.",
        "relationships": "Po nabitém pracovním dni doma berete ze svých rezerv. Sami víte, že vydržíte jet na doraz, ale to už vám jde o zdraví.",
        "health": "Na vodní znamení silně působí prostředí, ve kterém tráví svůj čas. Vyzdobte si domov doplňky v optimistických barvách.",
        "tips": "Odpoledne s potomky - povídání, sportování a hry, nakupování v povánočních výprodejích, tvořivé ruční práce, sauna."
    },
    "leo": {
        "main": "V zaměstnání máte prostor pro kariérní postup. Můžete se těšit z ještě větších tvůrčích sil, než jakými obvykle disponujete. Není tedy důvod, abyste nezabodovali. Kouzlo osobnosti a diskutérské umění vám pomohou prosadit i velmi originální nápady.",
        "love": "Váš osobní šarm a bystrá výřečnost budou dnes vašimi největšími trumfy. Osoby druhého pohlaví můžete doslova uhranout.",
        "work": "Své pracovní úspěchy si pro sebe nenecháte. Nechcete se vychloubat, ale potěšit své blízké, kteří vám vždy drží palce.",
        "relationships": "Nezajímaví a suchopární lidé to dnes s vámi budou mít trochu těžké. Nedokážete dostatečně skrývat, že vás prostě nudí.",
        "health": "Vlivem únavy se začne kazit vaše pracovní i domácí atmosféra. Zkuste se zamyslet, co můžete udělat pro svou regeneraci a relax.",
        "tips": "Kreativní práce, dřívější odchod domů, procházka po městě s partnerem, dobrá večeře, četba inspirativní literatury."
    },
    "virgo": {
        "main": "Saturn v Rybách přeje podnikavým jedincům. Můžete se snáze osmělit a ukázat své výrobky či výsledky duševní práce druhým lidem. Nebuďte zbytečně skromní a přiznejte si, že se vám vaše dílo opravdu podařilo. Můžete získat velké množství příznivců a klientů.",
        "love": "Při milostných hrátkách se nebráníte různým experimentům. Jste otevření všemu, co slibuje nějakou vzrušující změnu.",
        "work": "Když věnujete maximum dnešního dne svým povinnostem, nepřijdete zkrátka. Bude se vám dařit naplňovat své profesní cíle.",
        "relationships": "Dnes se nenecháte nikým urážet, máte svou hrdost a nebojíte se ozvat. Konfrontacím se dnes nevyhýbáte, jen aby byl klid.",
        "health": "Dopoledne budete mít energie dostatek, záleží jenom na vás, jakou dobu vám vydrží. Naučte se dělat při práci pauzy.",
        "tips": "Pracovní prezentace, uvedení produktů na trh, zahájení podnikání, předložení zlepšovacího návrhu, společenské akce."
    },
    "libra": {
        "main": "Potřebujete inovovat některé činnosti, které jsou pro vás rutinou, ale stále se v nich máte co učit a zdokonalovat. Je vhodná doba ke vzdělávání a rozvíjení vašich znalostí a zkušeností. Bude dobré sledovat novinky v oboru a čile je uvádět do praxe.",
        "love": "Hvězdy vám, milé Váhy, v lednu přejí a chystají pro vás šťastné náhody a příjemná setkání. Láska je už poblíž vás!",
        "work": "Máte zavedené způsoby práce, které považujete za dokonalé. Nadřízení vás ale upozorní, že existují i novější a lepší.",
        "relationships": "Rozčílí vás chování osoby, která je stále nedostižná. Možná má plno povinností, ale vy už to vidíte spíše jako výmluvy.",
        "health": "Měli byste stále dbát na správné držení těla. Když se budete hrbit, zakládáte si na potíže se zádovými svaly a páteří.",
        "tips": "Hledání si nové pracovní pozice, samostudium cizích jazyků, online motivační kurzy, silová cvičení, deskové rodinné hry."
    },
    "scorpio": {
        "main": "Vaše pracovní sféra se nyní může dostat do určité stagnace. V nebeském repertoáru jsou četnější nedorozumění s vašimi nadřízenými a zároveň se objevuje nechuť cokoli řešit. Slunce je poněkud nevrlé a ubírá vám vitalitu, stejně tak jako mrzutý Merkur.",
        "love": "Výjimku neudělíte ani svým nejlepším přátelům. Můžete je zaskočit netaktními poznámkami, jaké od vás jindy neslýchají.",
        "work": "Zkuste svoji divokou náturu trošku krotit, hlavně co se v dnešní den týče pracovních rozmluv s kolegy nebo s nadřízeným.",
        "relationships": "Domácí klid dnes není vůbec zaručen. Budete jeho hlavním narušitelem, zpacifikovat vás dokážou jen milované ratolesti.",
        "health": "Nejvíce úrazů se přihodí v domácnosti. Dnes si dávejte dobrý pozor a preventivně překontrolujte obsah domácí lékárničky.",
        "tips": "Techniky k uvolňování napětí, velký domácí úklid, dynamické a adrenalinové druhy sportů, squash, box, relaxační koupel."
    },
    "sagittarius": {
        "main": "Pracovně se ocitnete na výsluní. V minulém roce jste si vybudovali více než dobrý základ a teď se vaše aktivity rozmáchnou. Hlavně podnikatelé rozhodí při hledání kontaktů sítě pěkně do daleka. Nové příležitosti a klienti mohou čekat i v zahraničí.",
        "love": "Ani v lásce dnes neznáte žádných hranic. S chutí se pustíte do erotických experimentů, jaké by vás jindy ani nenapadly.",
        "work": "Služební cesta za hranice naší vlasti může mít překvapivé vyústění. Vaši pozornost si získá zajímavý cizinec či cizinka.",
        "relationships": "I když vám to v hledání nového vztahu nevychází, nezoufáte si a s přáteli se rozhodnete společensky žít. Dobře děláte!",
        "health": "Každodenní drobné radosti vám zajišťují dobrou náladu a psychickou pohodu. Je to váš osvědčený lék proti melancholii.",
        "tips": "Pracovní cesty do zahraničí, stěhování, úpravy interiéru, start podnikání, investice do vzdělání a zájmových kurzů."
    },
    "capricorn": {
        "main": "Hvězdy podporují sféru vaší profese, budete mít štěstí při pracovních jednáních a kontaktech. Inteligentní Merkur v Kozorohu vás zásobuje mentálními injekcemi, takže budete sršet nápady a vaše výřečnost bude bezkonkurenční. Vyjednáte a prosadíte si cokoliv.",
        "love": "Opačné pohlaví dnes dostanete především svými rozsáhlými znalostmi a všeobecným přehledem. Působíte velice seriózně.",
        "work": "Hvězdy jsou dnes nakloněny všem pracantům, kteří se chystají zažádat o nové pracovní místo nebo zvýšení platu. Do toho!",
        "relationships": "Jste pyšní, že umíte záležitosti ve své rodině rychle vyřešit. Dnes vás ale mohou požádat o radu vzdálení příbuzní.",
        "health": "Kvůli pohodlnosti byste dnes mohli ztratit část své dobré kondice. Máte-li sedavé zaměstnání, alespoň si večer zacvičte.",
        "tips": "Nákup pozorností pro blízké, návštěva, rady přátelům a příbuzným, učení se s dětmi, sebevzdělávání, odborná přednáška."
    },
    "aquarius": {
        "main": "Váš pracovní život v úvodu roku nese všechny znaky hektiky, která vás bude vyvádět z míry. Možná se vám nevyhnou určitá pochybení. Naštěstí kolem sebe máte lidi, kteří vás dokážou podržet při pracovních nesnázích. Doceníte výhody většího kolektivu.",
        "love": "Jako zábavu s přáteli dnes volíte spíše kolektivní sport než klidné posezení. Vaše nervy vibrují a potřebujete se vybít.",
        "work": "V zaměstnání strávíte více času, než je obvyklé. Bez pomoci ochotných kolegů se neobejdete, pomohou vám s nápravou chyb.",
        "relationships": "V rodině dnes nepanuje zrovna nejlepší atmosféra. Vy ji kvůli nervozitě z práce budete ještě zahušťovat. Odpočiňte si.",
        "health": "Pokud máte předepsanou jakoukoliv léčbu, nezanedbávejte ji ani si ji neupravujte podle svého. Neduhů se jinak nezbavíte.",
        "tips": "Týmová spolupráce, rozvržení úkolů, práce na PC, porada s blízkými a řešení problémů, sportování na čerstvém vzduchu."
    },
    "pisces": {
        "main": "V oblasti práce a kariéry máte vítr v zádech. V hlavě nosíte celou řadu plánů, které byste rádi uskutečnili. Vitality k jejich realizaci máte sice dost, ale čas nenastavíte. Pokuste si vše rozvrhnout, abyste netrávili celé dny i večery v zaměstnání.",
        "love": "Nadměrné množství energie dnes budete mít i pro milostné hry. Protějšek bude koukat, jak umějí být jeho Rybky dravé.",
        "work": "Ze zkušenosti víte, že obtížná práce se má zlikvidovat co nejdříve. Odsouvání povinností nikdy nic dobrého nepřineslo.",
        "relationships": "Podpora vašich nejbližších je pro vás velmi důležitá. Při volbě svého pracovního vytížení proto berete ohled i na ně.",
        "health": "Pokud cítíte, že se o vás pokouší nemoc, podnikněte všechny kroky, aby nepropukla naplno. Rozhodně byste se měli šetřit.",
        "tips": "Podnikatelské aktivity, pracovní plánování, procházka v přírodě, účast na konkurzech a soutěžích, společenské akce."
    }
}