{
    "aries": {
        "main": "Dokážete si snadno prosadit svou a neschází vám pevná vůle. Využijte toho i pro posílení svého zdraví. Měli byste sami sobě dokázat, že si umíte něco odepřít. Zkuste skoncovat s nejrůznějšími zlozvyky, které vám komplikují život a vysávají peněženku.",
        "love": "Flirtování před zraky partnera není nejlepším receptem na spokojený vztah. Nedivte se, že se mu vaše chování nelíbí.",
        "work": "Peníze ušetřené za cigarety, alkohol či hory sladkostí vám slušně vylepší rozpočet. Odměňte se třeba pobytem na horách.",
        "relationships": "Pod vlivem televizních zpráv vás napadne, že si pojistíte osobní bezpečnost. Přihlásíte se na základní kurz sebeobrany.",
        "health": "Pevnou vůlí se můžete právem pyšnit. Přesto bude dobré požádat okolí, aby vás nesvádělo k porušení nové životosprávy.",
        "tips": "Rozloučení se zlozvyky, chvíle s partnerem, rodinou či přáteli, posezení nad dobrou večeří, procházka, tvůrčí činnost."
    },
    "taurus": {
        "main": "Budete schopní změnit něco zásadního ve svém povolání nebo si rovnou najít nové zaměstnání. Můžete udělat dojem díky své přesvědčivosti i osobnímu charismatu, nepůjde ale jen o vaše osobní zásluhy. Budete moci profitovat i z řady šťastných náhod.",
        "love": "Pátek přináší vysokou výkonnost všeho druhu, tedy i v milostné oblasti. Zbude vám spousta sil na podobné kratochvíle.",
        "work": "Pracujete naplno a do rozvoje své kariéry vkládáte všechny síly. Zdá se, že vaše námaha začne brzy nést první plody.",
        "relationships": "Stres a náročnost svěřených pracovních úkolů vám dávají zabrat. Naštěstí máte skvělou rodinu, která vás vždy podrží.",
        "health": "Slunce v Kozorohu podporuje váš aktivní přístup ke změně životního stylu. Je to jedno z vašich nových předsevzetí.",
        "tips": "Prosazování změn v zaměstnání, pracovní pohovory, podnikatelské aktivity, reklamní akce, důležitá jednání na úřadech."
    },
    "gemini": {
        "main": "Kdybyste v zaměstnání zůstali přes noc, pořád by bylo co dělat. U vás dnes ale převáží širší rodina a péče o ni. Všechno, co jste svým blízkým slíbili, dokážete splnit. Pomůžete příbuzným, s čím budou potřebovat, a ještě si návštěvu u nich užijete.",
        "love": "Nedokážete úplně vypnout okamžitě po příchodu z práce. Vysvětlete protějšku, že milostné hrátky si necháte na později.",
        "work": "Dnes si dobře všímáte potřeb svých blízkých a jste k nim velice štědří. Dumáte, jak jim zpříjemnit či zjednodušit život.",
        "relationships": "Rodinný život dnes u vás bude na prvním místě. Mezi svými blízkými pocítíte, jak pracovní starosti ztrácejí na významu.",
        "health": "Nepociťujete žádné zásadní zdravotní problémy, proto jedete na plný plyn. Dejte pozor, abyste se nevydali ze všech sil.",
        "tips": "Dokončování restů, pomoc starším příbuzným, přihláška do rekvalifikačního kurzu, sportování s rodinou, péče o domácnost."
    },
    "cancer": {
        "main": "V pracovní ani osobní sféře dnes nemáte problém požádat o radu osoby, které vás umějí inspirovat svými názory. Budete vyhledávat moudré jedince a vést s nimi dlouhé rozhovory. Jejich rady si dokážete vzít k srdci a plně je uplatnit ve svém životě.",
        "love": "Pokud se obvykle trochu podceňujete, teď vás nejistota brzdit nebude. Ani v oblasti lásky vám nic nebrání v rozletu.",
        "work": "Přátelský kolektiv v zaměstnání se osvědčí. Uvědomíte si, že tam vždy najdete alespoň pár lidí, kteří vám rádi pomohou.",
        "relationships": "Máte pocit, že vaše rodina nedokáže docenit to, co pro ni děláte. Proto se domluvíte na tom, že budou všichni pomáhat.",
        "health": "Nevalná kvalita přijímaných potravin by vám mohla zajistit bouřlivé prožití noci. Dejte si pozor, jaké jídlo povečeříte.",
        "tips": "Kontaktování přátel, zkoušení nových činností, společenské aktivity, navazování vztahů, inspirativní rozhovory a četba."
    },
    "leo": {
        "main": "Současné konstelace vám umožňují vylepšení mezilidských vztahů, především v širší rodině. Zatoužíte po obnovení harmonie a dokážete se povznést nad staré křivdy, kvůli kterým jste se odcizili. Je příhodný čas obnovit vztahy, na kterých vám záleží.",
        "love": "Mnozí zamilovaní už nebudou váhat s vyjádřením svých citů. Nezadaní si uvědomí všechny mínusy života na vlastní pěst.",
        "work": "Dnes bude pro všechny radost pracovat pod vaším vedením. Čiší z vás nadšení a každý úkol dokážete udělat zajímavým.",
        "relationships": "Z malých antipatií by se mohly vyvinout velké problémy v mezilidských vztazích. Je ideální příležitost vše napravit.",
        "health": "Harmonické mezilidské vztahy se pozitivně odrážejí na vaší psychice. Působí i na tak silné osobnosti, jako jste vy.",
        "tips": "Obnova mezilidských vztahů, sraz spolužáků, návštěva rodičů, usmiřování s protějškem, konzultace v partnerské poradně."
    },
    "virgo": {
        "main": "Je ideální čas pro nové profesní výzvy. Budete-li o to mít zájem, můžete se i rychle zapracovat do libovolného oboru. Mladí jedinci teď mají šanci najít si své ideální povolání. Můžete také postoupit na vyšší pozici, zodpovědnosti se vůbec nebojíte.",
        "love": "Práce vás velmi baví, ale stejně atraktivní pro vás bude představa partnerských rozkoší. Už se nemůžete dočkat večera.",
        "work": "Konkurence ať se před vámi třese. Dnes si dokážete jít sebevědomě za svým, ovšem s dodržením všech zásad fair play.",
        "relationships": "Úspěchy v práci vás těší dvojnásob, když pomyslíte na svou rodinu. Finanční zisky tam jistě najdou své vhodné uplatnění.",
        "health": "Doma na vás čekají nové knížky, které jste objevili pod stromečkem. Večer v jejich společnosti bude příjemnou relaxací.",
        "tips": "Seberealizace v zaměstnání, konkurzy, firemní večírek, pracovní večeře, nakupování přes internet, setkání s přáteli."
    },
    "libra": {
        "main": "Dík přízni hvězd máte ideální čas pro zahájení nového životního vztahu a máte velkou šanci na nalezení spřízněné duše. Nemusí jít o blesk z čistého nebe, možná ji už delší čas znáte. Znenadání zjistíte, že k blízkému kamarádovi začínáte cítit něco víc.",
        "love": "Mnohé páry zatouží po založení rodiny. Říkáte si, že o příštích Vánocích už by vás mohlo být pod stromkem o jednoho víc.",
        "work": "Můžete se aktivně zasloužit o zvýšení svého příjmu. Nesmíte se však vyhýbat novinkám v oboru a moderním technologiím.",
        "relationships": "Někdo z okolí vás nadchne svým životním elánem a temperamentem. Energie dotyčného člověka vás přitahuje jako magnet.",
        "health": "Je ideální čas k odstranění škodlivých návyků, jako je kouření či větší konzumace alkoholu. Najdete dostatek pevné vůle.",
        "tips": "Seznamka, oslavy s přáteli, koketování s přitažlivými protějšky, nákupy nových svršků, profesionální kosmetická péče."
    },
    "scorpio": {
        "main": "Budete schopní se prosazovat, ale občas byste měli zařadit zpátečku. Dojde-li ke konfrontaci, pokuste se mírnit a nenechte se za žádnou cenu vyprovokovat. Takový přístup vás ušetří problémů s lidmi, kteří vítají každou příležitost k výměně názorů.",
        "love": "Spokojenost ve vztahu má velký vliv na milostný život. Řešte spory v klidu, pokud vás tedy neláká sex na usmířenou.",
        "work": "Vaše schopnost pracovat v kolektivu bude značně omezená. Dnes budou vaší výhrou nadmíru tolerantní kolegové a nadřízení.",
        "relationships": "Zkuste zůstat nad věcí. Když vás bude někdo provokovat, neudělejte mu tu radost, že se začnete rozčilovat. Hlavně klid!",
        "health": "Průběh dneška máte ve svých rukou. Využijte současný dravý temperament ve svůj prospěch a neobracejte ho proti okolí.",
        "tips": "Vedení týmu spolupracovníků, diplomatická komunikace, uspořádání administrativy, plánování důležitých životních kroků."
    },
    "sagittarius": {
        "main": "Poznáte, že se můžete spolehnout na osobu, která s vámi delší čas sdílí dobré i zlé. Můžete si užívat pocitu, že máte její podporu a ona zase tu vaši. Pravděpodobně se bude jednat o vašeho životního partnera. Nebude pochyb, že se o sebe můžete opřít.",
        "love": "Zadaní Střelci docení věrné spojenectví svého protějšku. Víte, že v případě nutnosti vás dokáže podržet nad vodou.",
        "work": "Na radosti a strasti pracovního života nezůstanete sami. Do nového roku vstupujete s podporou svého milovaného partnera.",
        "relationships": "Děti si dnes s vámi užijí, budete s nimi vyvádět jako malí. Navíc jim slíbíte nějaký dobrodružný program na víkend.",
        "health": "Vychutnáváte si život, včetně dobrého jídla. Ale nepřejídejte se, znamenalo by to ztížené trávení i přibírání na váze.",
        "tips": "Svědomité plnění pracovních úkolů, semináře a školení, klidný domácí večer, sledování televize a filmů, lenošení."
    },
    "capricorn": {
        "main": "Můžete se úspěšně věnovat vzdělávání ostatních. Umíte se na ně naladit a podat jim fakta tím nejvhodnějším způsobem. Uplatníte to nejen v práci, ale i doma. Při doučování dětí budete trpěliví a vědomosti jim nalijete do hlavy, ani nebudou vědět jak.",
        "love": "Partner se nemusí obávat, že by vás něčím nazdvihl. Jste plni pochopení nejen k dětem, ale i ostatním členům rodiny.",
        "work": "Při zaučování nových kolegů se projevíte jako ten nejlepší pedagog. Vše jim dokážete vysvětlit stručně a přitom jasně.",
        "relationships": "Případným konfliktům spolehlivě zamezí vaše rozvaha. Za všech okolností zůstáváte v klidu a navíc vše berete s humorem.",
        "health": "Před spaním dobře vyvětrejte ložnici a příliš ji nepřetápějte. Jenom tak budete mít záruku, že se dokonale vyspíte.",
        "tips": "Vedení pracovního týmu, školení kolegů, vyřizování nezáživných osobních záležitostí, výchova a doučování ratolestí."
    },
    "aquarius": {
        "main": "Hvězdy vám způsobují propady nálad a někteří Vodnáři upadnou do sebelítosti a uzavřou se do sebe. Potřebujete někoho, kdo bude krotit vaše černé myšlenky. Nemusí je lakovat na růžovo, postačí, že vás vytáhne z nejhoršího. Večer už bude zase lépe.",
        "love": "Platonická láska zasáhne v životě skoro každého, vám ale tohle zakoukání se už motá hlavu až příliš dlouho. Zkuste jednat!",
        "work": "Přestože se vám zdá, že v práci to za moc nestojí, teď se projeví vaše minulé zásluhy. Může vás překvapit zvýšení platu.",
        "relationships": "Budete kárat své blízké kvůli každé hlouposti, nesmlouvaví budete dokonce i sami k sobě. Rodina vám ale zlepší náladu.",
        "health": "I když se cítíte být fit a při síle, i v tomto případě nesmíte zapomínat na odpočinek. Časem by vás to mohlo dohnat.",
        "tips": "Dřívější odchod domů, důvěrné rozhovory a svěřování se blízkým, konzultace s psychologem, relaxace ve wellness centru."
    },
    "pisces": {
        "main": "V práci dnes můžete mít pocit, že není ve vašich silách zvládnout vše, co byste měli vyřídit. Dokážete si ale udržet nadhled a nenecháte se vyvést z konceptu. Úkoly si rozvrhnete tak, abyste se nejdříve zbavili těch akutních, a některé zrušíte úplně.",
        "love": "Mnohé Ryby na milostné radovánky už nenajdou dost sil. Za vším hledejte stres a fyzickou únavu, zítra zas budete fit.",
        "work": "V týdnu jste pomoc kolegů s díky odmítali, ale dnes vám může vytrhnout trn z paty. Díky ní odvrátíte hrozící přesčas.",
        "relationships": "Kamarádi vás budou večer lákat ven a vy jim dnes bez výčitek dáte přednost před rodinou. Potřebujete se pořádně pobavit.",
        "health": "Kvalitní olivový olej se výborně hodí i na naši pokožku. Zvláště v zimě je pro ni prvotřídním výživným prostředkem.",
        "tips": "Úklid pracovního stolu, administrativní činnosti, přebrání a uspořádání dokumentů, společenské aktivity všeho druhu."
    }
}