{
    "aries": {
        "main": "Neděle je jako dělaná pro romantické schůzky. Se svým milovaným se projdete přírodou či městem a navštívíte svá oblíbená místa. Až vám začne být zima, sednete si někde nad sklenkou grogu či svařeného vína. Díky tomu se vám ještě více rozproudí krev.",
        "love": "Nemůžete si na nic stěžovat. Protějšek vám bude dokazovat všemi způsoby, jak velmi vás miluje. Budete v sedmém nebi.",
        "work": "Práci jste dnes pověsili na hřebík, kde ji hodláte nechat celý den, nebo i déle. Pauza od povinností vám jen prospěje.",
        "relationships": "Dozvíte se zajímavé novinky ze života vašich příbuzných. Nezřídka půjde o pozvání na svatbu, nebo dokonce na křtiny.",
        "health": "Zkuste si uvědomit, že už vám není náct a že tělo potřebuje větší relax i regeneraci těla. Skočte si na masáž nebo do sauny.",
        "tips": "Rande naslepo, romantická večeře ve dvou, kontrola učení dětí, rodinná procházka v přírodě, sauna nebo masáž, relax, čtení."
    },
    "taurus": {
        "main": "Zamyslíte se nad svým životem a pokusíte se ujasnit si priority. Budete zkoumat, co pro vás dříve bývalo podstatné, ale co už teď nevyžadujete. Lidé se mění a vy nejste výjimkou. Je pravděpodobné, že poopravíte některá ze svých starších přesvědčení.",
        "love": "Protějšek bude zaskočen změnou vašeho chování. Dnešek totiž může pěkně zamíchat vašimi dosavadními hodnotami a názory.",
        "work": "Zaměříte se na bezpečí a zajištění rodiny. Počítáte pro jistotu i s nepříznivými scénáři a raději nenecháte nic náhodě.",
        "relationships": "Díky setkání s dosud neznámými lidmi v sobě objevíte netušené možnosti. Někdo vás bude motivovat k výrazným změnám.",
        "health": "Díky starostem s váhou se vám podaří srovnat jídelníček do vyvážené podoby. Můžete si občas s klidným svědomím zahřešit.",
        "tips": "Příjemné hovory s blízkými, konzultace s psychologem, procházky přírodou, meditace, četba naučné literatury, lyžování."
    },
    "gemini": {
        "main": "Snaha o vylepšení rodinných vztahů by se teď neměla minout účinkem. Pokud jste někoho naštvali tak, že odmítá komunikovat, vaše kajícná slova rozehřejí jeho ledovou fasádu. Klidně si vydatně nasypete popel na hlavu a přispěcháte s upřímnou omluvou.",
        "love": "Partner či přátelé budou příjemně překvapeni vaší ochotou se domluvit. Mnohé staré spory se vyřeší, nové nevzniknou.",
        "work": "Dárek pro radost potěší vaše blízké hned dvakrát. Poznají, jakou jste si dali s výběrem práci. Trefili jste do černého.",
        "relationships": "Blízké vaše snaha o nápravu a vstřícné vystupování potěší. Někteří vám to možná nedají najevo, ale budou vám vděční.",
        "health": "Někdy vám komplikuje život vaše horká hlava, ale dnes to určitě neplatí. Bez problémů vždy zachováte rozvahu a klid.",
        "tips": "Vyřizování restů v domácnosti, rozhovor s příbuznými, společné koníčky s rodinou, posezení s přáteli, kolektivní sporty."
    },
    "cancer": {
        "main": "Partnerský vztah nebude prospěšné brát jen z čistě přátelské stránky. Protějšek uvítá, když mu dáte najevo, že v něm vidíte i objekt erotického zájmu. Komplimenty na jeho fyzickou přitažlivost padnou na úrodnou půdu a zajistí vám všestrannou přízeň.",
        "love": "Při partnerských rozhovorech dnes máte sklon být příliš realističtí a praktičtí. Protějšek ale očekává projevy citů.",
        "work": "Vyhnete se zbytečnému utrácení a spolehnete se na to, co vám nabídne domácnost. Dnes jste skromní a hlídáte si výdaje.",
        "relationships": "Blízcí vás ve všem trpělivě vyslechnou, ale nedokážou se do vás úplně vcítit. Dnes se s každým potkáte jen na půl cesty.",
        "health": "I když vás žádné potíže netrápí, život vám mohou ztrpčit hypochondrické sklony. Odveďte pozornost k příjemnějším věcem.",
        "tips": "Kontrola bankovních účtů, pohodové chvíle ve dvou, večeře se svíčkami, sledování oblíbeného filmu, dlouhá vášnivá noc."
    },
    "leo": {
        "main": "Budete v opojení ze svých kariérních úspěchů, takže budete mluvit téměř výhradně o sobě. Vaši blízcí vám úspěch upřímně přejí, dejte ale pozor, ať to s líčením svých hrdinských činů nepřeženete. Příval chvály a obdivu by vás mohl začít až obtěžovat.",
        "love": "Nenecháte se omezovat nikým a ničím. Pokud vám partner začne příliš organizovat život, odkážete ho do patřičných mezí.",
        "work": "Vyhodíte si z kopýtka a uděláte si něčím radost. Při nákupu ani v restauraci dnes neřešíte, zda nabídka není předražená.",
        "relationships": "Chcete-li vylepšit vztahy se svými dětmi, měli byste jim o víkendu věnovat co nejvíce času. Touží si vás pořádně užít.",
        "health": "Neplánujete-li rodičovství, měli byste se při milostných chvílích patřičně chránit. Platí to i pro lásky na jednu noc.",
        "tips": "Zkoušení nových aktivit, obnova domácnosti, vymalování, kurz vaření, návštěva inspirativní výstavy, erotické experimenty."
    },
    "virgo": {
        "main": "Máte-li problémy s partnerskou věrností, dejte si pozor při flirtování. Pokušení bude silné a vy oslabení. Nevěra slibuje jen samé problémy. I nezadaní by měli být opatrní. Mohou poblouznit někoho, kdo se pak projeví spíše jako obtížná koule na noze.",
        "love": "Potěší vás zájem přitažlivých jedinců opačného pohlaví. S životním partnerem dnes budete spíše na přátelské úrovni.",
        "work": "Nenechávejte důvěřivě kohokoliv nahlížet do tajů vašeho soukromého účetnictví. Brzy by se to mohlo obrátit proti vám.",
        "relationships": "Lehkovážné výroky okolí budete brát s rezervou. Přestanete si domýšlet, co tím chtěl dotyčný říct, a necháte to plavat.",
        "health": "Ponořte se do svého nitra a ptejte se sami sebe, co chcete a co si naopak klidně odepřete. Nechoďte sami proti sobě.",
        "tips": "Rande, nákup afrodiziakálních pochoutek, večeře při svíčkách, hýčkání protějšku, společná koupel, milostné zážitky."
    },
    "libra": {
        "main": "Mnozí zrozenci jsou teď se svou rodinou trochu nespokojení. Můžete pocítit touhu po změně rodinného života. Nejspíše se budete cítit nedocenění a místo pochopení dostanete nevyžádané rady. Nakonec naštěstí nezvolíte útok ani útěk, začnete vyjednávat.",
        "love": "Dnes dost špatně snášíte obdivné pohledy svého protějšku na druhé pohlaví. Není to tím, že je to i vaše oblíbená zábava?",
        "work": "V neděli nebudete hlídat své finance ani peněženku a rozdáte veškeré své úspory na příjemný čas strávený s rodinou.",
        "relationships": "Vyhněte se mezigeneračním střetům. Zvýšenou toleranci byste měli projevovat hlavně starším příbuzným, zaslouží si to.",
        "health": "Důkladně si vyčistěte a ošetřete i drobnější zranění. Jste si také jistí, že už vám nepropadlo očkování proti tetanu?",
        "tips": "Odpočinek v pohodlí domova, telefonáty s příbuznými, taneční zábava, večírek s kamarády, zpěv, rodinná procházka v přírodě."
    },
    "scorpio": {
        "main": "Pro klid v rodině se začnete trochu mírnit. Pokusíte se chovat vstřícněji a budete se vyhýbat výlevům vzteku. Mnohé domácí bouřky díky tomu ustanou. Pokud jste se už ale s někým rozhádali, chce to trpělivou snahu. Nové porozumění si vyžádá svůj čas.",
        "love": "Okolí vám dnes jde na ruku. Se svou milou a otevřenou povahou nyní nemáte ve své blízkosti žádné přirozené nepřátele.",
        "work": "Neváháte vynaložit větší částku za rodinnou zábavu. Když už si jednou někam společně vyrazíte, chcete si to také užít.",
        "relationships": "Dejte pozor na to, co druhým vyčítáte. Ostrá kritika a horlivé připomínky se mohou rychle obrátit proti vaší osobě.",
        "health": "Románek na jednu noc nemusí zůstat bez následků. Kromě těch zdravotních by se mohla dostavit i silná morální kocovina.",
        "tips": "Návštěva přátel, porada o zamýšlených bytových úpravách, procházka zimní přírodou, společenské hry, sledování filmů."
    },
    "sagittarius": {
        "main": "Nová láska je vám souzena, o tom se během dne několikrát přesvědčíte. Nuda ani šeď vás dnes rozhodně nečekají. Setkání s partnerovými příbuznými nebo první společná dovolená proběhnou až překvapivě hladce. Podvečer bude přát souznění a romantice.",
        "love": "Nezadaní budou mít potřebu svůdně se obléknout a jít si ven užívat obdivných pohledů. Dostane se vám jich v hojné míře.",
        "work": "Na zážitcích nemíníte šetřit. Rodina je s vámi zajedno, takže si volné chvíle skvěle užijete a získáte krásné vzpomínky.",
        "relationships": "Doma si budete nejvíce rozumět s dětmi. Přinejmenším si můžete být jistí, že na vás nezkoušejí žádnou složitou taktiku.",
        "health": "Fyzická aktivita vám prospěje, tělo potřebuje protáhnout a pořádně rozhýbat. Jenom tak vaše kondice neklesne na nulu.",
        "tips": "Náprava partnerských vztahů, usmiřování s příbuznými, návštěvy, milostné schůzky, dodržování zdravé životosprávy, jóga."
    },
    "capricorn": {
        "main": "Současné konstelace na vás velmi kladně působí v oblasti výchovy dětí. V rodině výborně uplatníte svůj tvůrčí přístup. Dnes zapřemýšlíte i o společných plánech na celý příští týden. Zohledníte v nich i školní a mimoškolní aktivity svých potomků.",
        "love": "Dopřejte si s protějškem něco, co nezapadá do vašeho běžného programu. Změna stereotypu bude mít překvapivý účinek.",
        "work": "Část volného dne věnujete trpělivým nákupům s rodinou. Ratolesti už možná potřebují nové školní či sportovní pomůcky.",
        "relationships": "Nechcete rozpoutávat spory, dnes se na výměnu názorů necítíte. Nepůjde-li o nic zásadního, budete na vše přikyvovat.",
        "health": "Chvíle trávené s rodinou bývají občas zkouškou pro vaše nervy. Dnes ale budou hladce plynout bez větších vad na kráse.",
        "tips": "Posezení v oblíbené hospůdce s přáteli, surfování po internetu, plavání v aquacentru, zdravé vaření, čínská medicína."
    },
    "aquarius": {
        "main": "Když se v klidu ohlédnete za svým dosavadním pracovním úsilím, pocítíte uspokojení. Jste unavení, ale šťastní, že jste dosáhli mnohých cílů. Zauvažujete, jak naložit s finančními zisky. I své rodině rádi dopřejete, ale její přehnaná přání zamítnete.",
        "love": "Osoby opačného pohlaví oslníte svou výřečností. A nejen je, zapůsobíte i na ostatní. O společnost nebudete mít nouzi.",
        "work": "Jste spokojení se svými finančními výsledky, ale nároky vašich blízkých jsou značné. Vy se ale do ničeho tlačit nedáte.",
        "relationships": "Rozhodnete se svým ratolestem vysvětlit, jaké jsou vaše finanční možnosti. Jejich požadavky jsou čím dál tím vyšší.",
        "health": "Díky známým objevíte sport, který vás chytne. Až si osvojíte základy, budete nadšení a málem se z vás stane přeborník.",
        "tips": "Telefonáty vzdáleným příbuzným, vyřizování soukromých e-mailů, úklid, posezení s přáteli, oslava, adrenalinové sporty."
    },
    "pisces": {
        "main": "Po náročném týdnu si konečně můžete dopřát volný den a pustit pracovní povinnosti z hlavy. Den však neprosedíte jen tak nečinně a pohotově vymyslíte nějaký zajímavý program. Může to být třeba sraz se starými kamarády nebo návštěva kulturní akce.",
        "love": "Dostanete příležitost začít si se zadaným člověkem. I když vás bude přitahovat, chcete hrát v jeho životě vedlejší roli?",
        "work": "Nějaké pracovní pokroky vás dnes moc nezajímají. Postaráte se jen o to, abyste s minimem úsilí zvládli to nejnutnější.",
        "relationships": "Při volbě dnešního programu budete hbitě improvizovat. Možná vám inspiraci nečekaně přihraje i nějaká šťastná náhoda.",
        "health": "Pokud se marně nutíte ke každodenní procházce, je nejlepším řešením pořídit si pejska. Ven se půjde za každého počasí.",
        "tips": "Sraz s bývalými spolužáky, koncert, ples, taneční zábava, návštěva historické památky, kino, dlouhá procházka přírodou."
    }
}