{
    "aries": {
        "main": "Intelektuální Merkur posiluje vaši originalitu, díky čemuž budete produkovat téměř geniální nápady. Můžete se blýsknout při jakékoli tvořivé činnosti. Hvězdy budou přát především grafikům, výtvarníkům a módním návrhářům, ale také krejčím nebo rytcům.",
        "love": "Nová láska může na Berany čekat za nejbližším rohem. Hvězdy vám v lednu chystají šťastné náhody a příjemná překvapení.",
        "work": "Finančně se v měsíci lednu dostáváte do značného plusu. Mnozí jedinci si budou moci dovolit žít poměrně luxusní život.",
        "relationships": "Návštěvy blízkých vám zpříjemní den. V kolektivu milých lidí se rychle uvolníte, protože se můžete chovat bez přetvářek.",
        "health": "Pracovní vypětí byste měli kompenzovat nějakou pohybovou aktivitou, i když se vám do ní vůbec nechce. Postačí procházka.",
        "tips": "Nástup na nové pracoviště, zahájení podnikání, založení živnosti, pracovní pohovory, zásadní změny životního stylu."
    },
    "taurus": {
        "main": "V oblasti kariéry nyní budete silnější spíše v teoretické rovině. Chystáte-li nějakou podnikatelskou akci, měli byste se na ni pečlivě připravit. Ujistěte se, že vaše plány nemají žádnou trhlinu. Zásadní body prokonzultujte s účetním či právníkem.",
        "love": "Nevinný flirt vás utvrdí v tom, že jste pro opačné pohlaví stále přitažliví. Na nevěru ani nepomyslíte, půjde jen o hru.",
        "work": "Díky dnešnímu pracovnímu nasazení byste se mohli přiblížit vysněnému cíli. Finanční přilepšení a povýšení máte na dosah.",
        "relationships": "V pondělí nebudete mít potřebu pouštět se někam dál ze svého domácího přístavu. Bude vám dobře v kruhu svých nejbližších.",
        "health": "Vaše kondice roste a můžete na ní dnes pořádně zapracovat. Pod dohledem profesionálů se naučíte šikovné cviky na doma.",
        "tips": "Sebevzdělávání, kurzy, pracovní pohovory, posezení s kamarády, školení, pracovní oběd či večeře s obchodními partnery."
    },
    "gemini": {
        "main": "Máte mnoho předsevzetí ohledně toho, co byste chtěli vykonat. Bude se vám dařit se od svých představ neodchylovat. Teď můžete zdárně dotáhnout úkoly, které jste si předsevzali počátkem měsíce. Z pracovních úspěchů budete brát sílu pro další aktivity.",
        "love": "Romantice dnes hvězdy příliš nepřejí. Pohodové chvíle s rodinou nebo s dobrými kamarády vás ale také dokážou potěšit.",
        "work": "Chcete mít hotovo, a tak nezahálíte ani chviličku. Postupujete cílevědomě vpřed a odpravujete jeden úkol za druhým.",
        "relationships": "Rozhoupat se k úklidu nebude snadné, ale pak už nebudete k zastavení. Zvládnete vše, co jste si už dlouho plánovali.",
        "health": "Cvičení o samotě nebo mezi anonymními tvářemi je nuda, nalákejte někoho z přátel. Budete se hecovat k lepším výkonům.",
        "tips": "Náročné aktivity v zaměstnání, zahájení nových projektů, velký domácí úklid, pracovní i osobní plánování do budoucna."
    },
    "cancer": {
        "main": "Je ideální čas pro usilovnou práci. Snažíte se pracovat na maximum, i kdyby se zatím nerýsovaly žádné zvláštní úkoly. Chcete být připraveni, až nadejde vaše chvíle. Zatím si svědomitě budujete dobré jméno a všestranně se zdokonalujete ve svém oboru.",
        "love": "Partner pro vás připraví nějaké příjemné překvapení. Je ale velmi pravděpodobné, že vy pro něj také budete něco mít.",
        "work": "V práci se vám bude dařit o poznání lépe. Dokážete ukočírovat vlastní nálady a nenechat se vykolejit lidmi kolem sebe.",
        "relationships": "Rutinní domácí práce ať dnes od vás nikdo nečeká. Místo toho se uplatníte jako šéfkuchaři nebo interiéroví architekti.",
        "health": "Začátek pracovního týdne pro vás může být trochu šok. O víkendu jste zvolnili tempo a teď bude nutné rychle akcelerovat!",
        "tips": "Administrativní úkony, uspořádání dokumentů, domácí účetnictví, relaxační techniky, večerní zábava s přáteli, večírek."
    },
    "leo": {
        "main": "Je ideální čas pro cílevědomé jedince, kteří mají kariérní ambice. Postavení Saturnu a Uranu vám dává skvělé předpoklady k tomu, abyste se mohli pracovně rozvíjet. Jste ve velmi silné nebeské přízni, která může některým jedincům dokonce napomoci k proslavení.",
        "love": "Vládnete silným sex-appealem, takže jste nadmíru žádoucí. Partner dnes může pod vlivem hormonů jednat velmi horkokrevně.",
        "work": "V pracovní oblasti se vám otevírají netušené možnosti. K lukrativní nabídce se můžete dostat i díky přátelům a známým.",
        "relationships": "Váš nesouhlas s jistou věcí může doma vyvolat dusno. Někteří členové rodiny dnes odmítnou uznat, že se prostě pletou.",
        "health": "Vaše aktivity by nemělo nic brzdit. Snažte se jen doplňovat síly pomocí pravidelného odpočinku i stravovacího režimu.",
        "tips": "Pracovní plánování, dokončování dlouhodobých i zahájení nových projektů, podnikatelské aktivity, zábavná akce s přáteli."
    },
    "virgo": {
        "main": "V zaměstnání bude třeba zvládat více činností najednou. Nebude lehké zkoordinovat je tak, abyste je všechny stihli včas. Odložte svou vrozenou nechuť svěřovat jakoukoliv práci druhému člověku. Podělte se o své úkoly a uvidíte, jak se vám uvolní ruce.",
        "love": "V lásce můžete mít pocit, že jste stranou zájmu vašeho protějšku. Ale abyste mu nekřivdili, možná je jen přepracovaný.",
        "work": "Bude-li vám někdo nabízet pomoc za podezřele výhodných podmínek, mějte se na pozoru. Je možné, že vás chce podfouknout.",
        "relationships": "Zjistíte, že u sebe nemáte desítky přátel. Spolehlivě vám však stačí jediný, který všechny kamarádíčky strčí do kapsy.",
        "health": "Není vyloučeno, že dnes ráno zaspíte. Hrozí to hlavně v případě, že jste si dlouho do noci užívali se svým protějškem.",
        "tips": "Rozvaha v pracovní i osobní komunikaci, zaškolení nových kolegů, pochůzky po úřadech, preventivní prohlídky, koníčky."
    },
    "libra": {
        "main": "Postavení planet je příznivé pro váš kariérní růst. Můžete se těšit na pracovní úspěchy. Možná budete zpočátku potřebovat něčí podporu, ale poté se již sami nastartujete a převezmete za vše zodpovědnost. Budete mít svou činnost pod pevnou kontrolou.",
        "love": "Při seznamování vám pomohou šťastné náhody. Nemusíte se spokojit s málem, nový protějšek k vám bude opravdu pasovat.",
        "work": "Ve vašem zaměstnání teď víte o každém detailu a máte vše důležité pod kontrolou. Dopředu odhadujete i možné komplikace.",
        "relationships": "Telefonát s rodinou zabere jen pár minut, ale přinese řadu novinek. Těšíte se, až se dozvíte víc při osobní návštěvě.",
        "health": "Na žádné problémy v oblasti zdraví to nevypadá. Máte-li motivaci, nic vás nezastaví. Svého těla si přehnaně nevšímáte.",
        "tips": "Důležité kariérní kroky, služební cesta, nákup dárků, surfování po internetu, setkání s příbuznými, aktivity s dětmi."
    },
    "scorpio": {
        "main": "Procházíte pohodovým obdobím. Přičteme-li vliv optimistického Jupitera, který vám září na cestu už delší dobu, můžete si užít maximální spokojenosti. Kolo štěstí se pro vás točí především v oblasti partnerství, tvůrčí sféry i finančních záležitostí.",
        "love": "Chystáte-li se na rande, nepodceňujte se. Máte mnoho kvalit, které by vám druzí mohli závidět. Zbytečně se nestresujte.",
        "work": "Opět si ověříte, že mít harmonogram napnutý na doraz se nevyplácí. Nečekané komplikace vám do něj vnesou pořádný skluz.",
        "relationships": "Chcete-li vylepšit vztahy s dětmi, měli byste jim věnovat co nejvíce času. Mohou vám svěřit i svá malá velká tajemství.",
        "health": "I z malého zubního kazu se může vyklubat velice nepříjemná a vleklá záležitost. Ušetří vás toho preventivní prohlídky.",
        "tips": "Obchodní jednání, schůzky a obědy, vylepšování domova, nákup uměleckých předmětů, prohlídka u zubaře, večer s rodinou."
    },
    "sagittarius": {
        "main": "V zaměstnání dnes budete mistry v komunikaci s morousy. V pondělí ráno je pravděpodobné, že většině lidí není do zpěvu, vy ale dokážete zahrát na tu správnou strunu. Kolegům vylepšíte náladu a i klienty dokážete díky optimismu získat na svou stranu.",
        "love": "Protějšek na vás dnes nemá dost času, ale vy si z toho vrásky dělat nebudete. Plnohodnotně se zabavíte na vlastní pěst.",
        "work": "Dnes byste měli pečlivě kontrolovat všechny důležité kroky. Vaše splašené tempo a narůstající únava mohou udělat své.",
        "relationships": "Pokud vám blízcí nabízejí finanční výpomoc, nemusíte se rozpakovat. Vědí přece, že jejich dobroty nikdy nezneužíváte.",
        "health": "Pokud si léčíte nějaké chronické onemocnění, neobejde se to bez trpělivosti. Každá nekázeň se může negativně projevit.",
        "tips": "Kontrola školních výsledků a dohánění učební látky s dětmi, hledání nových možností investic, večerní zábava s přáteli."
    },
    "capricorn": {
        "main": "Na pracovišti si ověříte, jestli máte kolem sebe jen důvěryhodné kolegy. Je možné, že někdo si chce prosadit svou za každou cenu a sleduje vlastní prospěch. V takovém případě mu důrazně připomenete, že jeho neférovou hru mu nemíníte trpět ani krýt.",
        "love": "Dokud jste na výsluní, hlásí se k vám davy známých. U kolika z nich jste si jistí, že vás neopustí ani v horších časech?",
        "work": "Nedělá vám žádný problém formulovat úřední dopisy. Jste dokonce ochotní postarat se i o právní záležitosti svých kolegů.",
        "relationships": "Akční potomci vás nenechají chvíli vydechnout. Na odpoledne pro ně bude potřeba vymyslet nějakou náročnou aktivitu.",
        "health": "Ze špatné nálady se dostanete díky aerobním sportům. Také tanec bude mít obdobné účinky, přestanete tolik přemýšlet.",
        "tips": "Romantická procházka, milostné schůzky, tanec, erotické experimenty, vášnivé chvíle ve dvou, společná koupel a masáž."
    },
    "aquarius": {
        "main": "Ve vztazích budete zvlášť citliví na nespravedlnost, podrazy a neférové jednání. Jedinci, kteří neberou ohledy na potřeby a city druhých, u vás narazí. Budou to s vámi mít hodně těžké. Bez váhání se zastanete slabších, kteří se neumějí sami obhájit.",
        "love": "Obdiv přitažlivých protějšků vám příjemně zvedne sebevědomí. Nejspíš to ani nepotřebujete, ale lichotek není nikdy dost!",
        "work": "Nabídka zboží od prodejce vás zláká, takže na ni unáhleně kývnete. Naštěstí včas zjistíte, že kupujete zajíce v pytli.",
        "relationships": "Člen rodiny podrobí vaši trpělivost velké zkoušce. Bude to chtít opravdu silné nervy, abyste vydrželi jeho rozmary.",
        "health": "Chcete-li zhubnout natrvalo, nespoléhejte na různé přípravky, ale úpravu životosprávy. Dlouhodobá snaha přinese ovoce.",
        "tips": "Důležitá jednání na úřadech, reklamní a propagační činnost, zařizování a vylepšování pracoviště, významné životní kroky."
    },
    "pisces": {
        "main": "Cítíte se plní energie pro náročné pracovní úkoly. Své okolí budete udivovat rychlostí, s jakou se dokážete bleskově rozhodovat. Dnes nikdy nebudete na vážkách, naopak si sebevědomě půjdete za svým. Nikdy přitom ovšem neporušíte pravidla fair play.",
        "love": "Nezadaní budou při seznamování dost nároční. Nepřežeňte to, mohli byste od sebe odehnat i velmi perspektivní protějšky.",
        "work": "Dnes by vám mohl leckdo závidět, jste průbojní i rozhodní. Ve spojení s vaší diplomacií to bude velice účinná kombinace.",
        "relationships": "V rodině máte hlavní slovo. Domácnost budete řídit rukou pevnou, ale spravedlivou. Postaráte se, aby vše běželo hladce.",
        "health": "Většina Ryb nyní dokáže skloubit práci s odpočinkem. Výsledkem je vyrovnaná mysl i rovnováha v tělesných pochodech.",
        "tips": "Velký meeting s kolegy, kontaktování banky, společenské události, učení se s dětmi, večeře s rodinou, plavání, sauna."
    }
}