{
    "aries": {
        "main": "Nezadaní mohou využít atmosféry, která přeje pevným svazkům. Pokoušíte-li se o navázání nové známosti, budete úspěšní především v případě, že máte s dotyčným vážné úmysly. Hvězdy vám dávají předpoklady pro vytvoření životních partnerských vztahů.",
        "love": "City jisté osoby ve vašem okolí dnes přerostou v lásku. Stačí jí letmý dotek či úsměv, který si lze vyložit jako zájem.",
        "work": "Budete přístupní všem návrhům svých blízkých, jak naložit se společnými úsporami. Aktuální je teď otázka zimní dovolené.",
        "relationships": "Promyslíte materiální zabezpečení rodiny a její členy přitom nenecháte stranou. Společný rozpočet je věcí vás všech.",
        "health": "Hvězdy podporují vaši zodpovědnost a aktivní přístup ke zdravé životosprávě. Slíbili jste si, že letos ji neošidíte.",
        "tips": "Milostné schůzky, akce pro nezadané, nabídka k sňatku, založení rodiny, představení nového partnera rodičům, svatba."
    },
    "taurus": {
        "main": "Hvězdy vydávají varování ohledně cestování. Raději si před jízdou pořádně zkontrolujte svůj automobil, aby nedošlo k nemilému překvapení ve formě technické poruchy. Zcela neproblematická naopak budou místa a aktivity, související spíše s ústraním.",
        "love": "Neúspěchy v lásce a trhliny v partnerství můžete s dnešním odpolednem zalepit. Hvězdy jsou vašim románkům nakloněny.",
        "work": "Na rozhazování vás neužije, ale dnes si chcete udělat radost. Ani tentokrát ale nad svými výdaji neztratíte kontrolu.",
        "relationships": "Máte vyvinutou zodpovědnost, takže nepřemýšlíte jen za sebe, ale i za rodinu. V lednu si rámcově rozplánujete celý rok.",
        "health": "Dejte si pozor na přejídání se a konzumaci příliš tučných jídel. Za několikadenní potíže se zažíváním to jistě nestojí.",
        "tips": "Oběd v rodinném kruhu, návštěva přátel, pohlídání potomků příbuzných, dlouhá procházka se psem, profesionální masáž."
    },
    "gemini": {
        "main": "V partnerských vztazích se rozhostí klid a mír. Moudrý Merkur svým příznivým postavením naznačuje, že si můžete zamlsat na menu plném porozumění. Se svým protějškem teď budete jedna duše a jedna mysl. Uznáváte, že máte příjemnou nebeskou protekci?",
        "love": "Osamoceni se dnes necítíte právě nejlépe. Toužíte po společnosti přátel nebo milovaného protějšku a chcete se bavit.",
        "work": "Mnoho jedinců, kteří chtějí vylepšit své finanční rezervy, bude mít vhodné podmínky. Hravě si odložíte na horší časy.",
        "relationships": "Nový přírůstek v řadách příbuzenstva ve vás probudí rodičovské touhy. Hlavně nejednejte s horkou hlavou a vyčkejte.",
        "health": "Vaše tělesná kondice je nyní skvělá. Můžete se chlubit rychlým a efektivním spalováním živin, které podpoříte cvičením.",
        "tips": "Kontaktování přátel, společný zábavný program, kolektivní sporty, návštěva kina, prohlídka výstavy, výlet za příbuznými."
    },
    "cancer": {
        "main": "Budete velmi vstřícní, tolerantní a plní dobré vůle. Budete se radovat z toho, že se s jistými členy rodiny konečně můžete rozumně bavit. Zatím s nimi bylo k nevydržení. Teď jim ale po nějakém nezdaru spadne hřebínek a vrátí se k normální komunikaci.",
        "love": "S partnerem se shodnete na řešení problémů v domácnosti. Ať jde o peníze či rozdělení úkolů, dnes to jde jako po másle.",
        "work": "Nezapomeňte zkontrolovat zaplacené složenky a uschovat všechny útržky. A to tak, abyste je byli zase schopni najít.",
        "relationships": "Pokud jste sami vypustili z úst něco neuváženého, nečekejte, kdo udělá první krok ke smíru. Buďte vy těmi moudřejšími.",
        "health": "Jóga a dechová cvičení dnes uvolní vaše psychické napětí a pomohou soustředit se na věci, které jsou pro vás důležité.",
        "tips": "Ostražitost při podnikatelských krocích, obchodní jednání, společenské akce s klienty, zdravotní cvičení, posilování."
    },
    "leo": {
        "main": "Vaše myšlenky by dnes dokázaly udržet krok se známými mysliteli. Máte příznivý čas pro studia a kurzy všeho druhu. Také při debatách s blízkými budete udivovat svými bystrými postřehy. Mnohým poskytnete vodítko k řešení jejich osobních problémů.",
        "love": "V partnerském vztahu pocítíte lásku i příjemnou jistotu. Bude vám to dodávat spoustu sil ve všech oblastech života.",
        "work": "Hvězdy po vás žádají, abyste se snažili zařadit mezi intelektuály. Je víkend, takže nemusí jít jen o studijní aktivity.",
        "relationships": "Potěší vás, že se vaše ratolesti nadšeně věnují svým koníčkům. Už vás přestávalo bavit odhánět je věčně od počítače.",
        "health": "Ve dvojici se vám daří plnit troufalá předsevzetí lépe než jako jednotlivci. Navíc si ve fitness máte o čem povídat.",
        "tips": "Individuální hobby, kontaktování přátel a naplánování společné akce, nákupy pro radost, seznamování, milostné schůzky."
    },
    "virgo": {
        "main": "Partner vás potěší tajným plánem na wellness víkend. S programem na sobotu a neděli jste měli sice jiné plány, ale netradiční trávení volného času ve dvou se vám líbí. Nejedno partnerství Blíženců čeká romantická oslava sv. Valentýna v předstihu.",
        "love": "Flirtování a vztahy na jednu noc pro vás dnes nepředstavují velký problém. Jenom se musíte dostat od teorie k praxi.",
        "work": "Nákup na splátky či půjčka vám pomohou vyřešit zdánlivě bezvýchodnou situaci. Spokojeny budou všechny zúčastněné strany.",
        "relationships": "Blízké máte hlavně pro radost, ale pokud se během dne vyskytnou problémy, neutečete od nich. Věříte, že dokážete cokoli.",
        "health": "Mlsáním sladkostí a přejídáním si dnes můžete rozházet zažívání. Tělo není zvyklé na tak velký a častý přísun potravy.",
        "tips": "Plánování úprav příbytku, kreativní práce a koníčky, nákup a výroba bytových dekorací, bloumání po obchodech, procházka."
    },
    "libra": {
        "main": "Nebudete si libovat, že máte protějšek na své straně. Bude vám ve všem pomáhat a ušetří vám spoustu času. Vy se díky tomu budete moci soustředit na jednu věc. Nejspíše zasvětíte určitý čas dokončování práce, kterou už delší dobu toužíte mít z krku.",
        "love": "Ani přátelé pro vás dnes nepředstavují důvěryhodného rádce. V potížích se spoléháte pouze na své znalosti a zkušenosti.",
        "work": "V oblasti práce dostanete nové zajímavé impulzy, které vám vlijí do žil další energii a dodají spoustu čerstvé motivace.",
        "relationships": "Pokud se ještě stále zdržujete a bydlíte v bytě svých rodičů, měli byste se zamyslet nad hledáním si vlastního bydlení.",
        "health": "Do sobotního dne vplujete na vlně pohody a dobré nálady. Bude k tomu výrazně přispívat i přítomnost vašeho milovaného.",
        "tips": "Rodinné debaty a naplánování víkendového programu, návštěva příbuzných nebo rodinných přátel, oslava, lyžařský zájezd."
    },
    "scorpio": {
        "main": "Negativní emoce nasbírané během týdne vám mohou znepříjemnit trávení soboty. Nedokážete se plně uvolnit a budete trochu nervní. Pokuste se vybít například sportem. Když si dáte pořádně do těla, zázračně se zklidníte a pohodový víkend může začít!",
        "love": "Pro spokojený milostný život jste schopni se dnes od základů změnit. Zamyslíte se nad svým vzhledem a také nad chováním.",
        "work": "Budete se živě zajímat o všechny novinky ze svého oboru. Díky tomu budete mít velký náskok před případnými konkurenty.",
        "relationships": "Debatování s rodinnými příslušníky může vyústit v menší hádku. Nenechte se unést emocemi, pokazili byste si víkend.",
        "health": "Při zacházení s ostrými nástroji buďte opatrní. Vyhnete se tak zraněním, která by vás mohla omezit v mnoha činnostech.",
        "tips": "Urovnávání partnerských a rodinných sporů, společné plánování, velký úklid domácnosti, procedury ve wellness centru."
    },
    "sagittarius": {
        "main": "Část soboty věnujete práci, i když spíše nedobrovolně. Ozvou se domácí resty, které už nesnesou další odklad. Bude třeba pustit se do činností, které už hodně dlouho odsouváte. Budete trochu brblat, ale pak si budete libovat, že máte o starost méně.",
        "love": "Budete plní energie, tu sexuální nevyjímaje. Můžete být v pokušení ověřit si svou svůdnost u několika různých protějšků.",
        "work": "Peněz máte tolik, abyste si mohli bez starostí užívat volného času. To je pro vás důležité, díky tomu se cítíte svobodní.",
        "relationships": "Domácí práce vám dnes nebudou tolik vadit. V duchu už vidíte výsledek i sebe, jak si pak lebedíte v útulném prostředí.",
        "health": "Máte ideální šanci zatočit se svými neřestmi. Omezení kouření nebo zdravější životní styl vám nebudou dělat potíže.",
        "tips": "Upevňování partnerství, navazování nových kontaktů, zábava ve větší společnosti, seznamování, milostné schůzky, mejdan."
    },
    "capricorn": {
        "main": "V soukromí budete zažívat idylku. Svým dětem nejste jen přísnou autoritou, která se snaží prosazovat kázeň a kontrolovat úkoly. Udržujete s nimi spíše kamarádský vztah. Také dnes si společné chvíle užijete. Budete se bavit, povídat si nebo sportovat.",
        "love": "Nemá cenu snažit se jeden na druhého naroubovat svou povahu. Vy už ale víte, že vztah je o dobré vůli a o kompromisech.",
        "work": "Mnohým jedincům se bude zdát, že někdo z rodiny utrácí nad poměry. To nevidíte rádi, takže si ho pozvete na kobereček.",
        "relationships": "Při napětí v mezilidských vztazích pomůže upřímná komunikace. Necháte-li problémy uležet, může to situaci ještě zhoršit.",
        "health": "Nezatěžujte své dýchací ústrojí, které v zimě čelí útokům nejrůznějších virů. Kuřáci se mohou odnaučit svému zlozvyku.",
        "tips": "Snídaně do postele, vzájemné hýčkání s protějškem, společné intimní chvilky, nákup dárků, rande, první společná noc."
    },
    "aquarius": {
        "main": "Pomůžete přátelům s opravami bytu a zafungujete pro dnešek jako Ferda Mravenec. Ve vylepšování interiéru vidíte mnoho příležitostí k zábavě. Z nudné a rutinní práce uděláte zábavu, na kterou nikdo dlouho nezapomene. Upevníte tím dosavadní přátelství.",
        "love": "Partnera dnes držíte v hrsti. Umíte si ho předcházet, abyste v případě potřeby dosáhli svého. Pozor, aby vás neprokoukl.",
        "work": "Své příjmy a výdaje umíte udržovat v rovnováze, i když to dá práci. Vy na to ale jdete s rozmyslem a máte pevnou vůli.",
        "relationships": "Pro samé povinnosti zapomínáte na podstatné věci. Je vhodné zkontrolovat kalendář, zda jste nepřehlédli něčí narozeniny.",
        "health": "Nepříjemné bolesti zad a krční páteře řešte se specialistou. Budete překvapeni, co vše se dá napravit domácím cvičením.",
        "tips": "Velké společenské akce, odvázaná akce s kamarády, dynamické a adrenalinové druhy sportů, plavání, tanec, sauna, jogging."
    },
    "pisces": {
        "main": "Spokojenost v soukromí vás bude povznášet. Připadáte si žádoucí a díky tomu z vás vyzařuje sebevědomí. Také okolí vás bude vnímat jako přitažlivější. Komplimenty mohou přijít i od osob, od kterých byste to kvůli jejich zdrženlivosti nikdy nečekali.",
        "love": "Nebudete se trápit svými skutečnými ani domnělými nedostatky. Není žádných pochyb, že jste pro druhé pohlaví přitažliví.",
        "work": "Při nakupování elektroniky nepodléhejte vzhledu. Máte dnes tendenci posuzovat věci na základě estetična, nikoliv funkcí.",
        "relationships": "Mezilidská komunikace bude probíhat bez problémů. Budete mít dar působit přesvědčivě a získáte si zaslouženou důvěru.",
        "health": "Můžete zvyšovat svou tělesnou aktivitu. Někteří jedinci poprvé vyzkoušejí náročnější sporty. Cítíte se všeobecně fit.",
        "tips": "Vyřízení restů v domácnosti, úklid a opravy interiéru, malování, poslech oblíbené hudby, návštěva koncertu nebo galerie."
    }
}