{
    "aries": {
        "main": "Neděle bude jako dělaná pro uzavírání nových přátelství. Dnes si umíte udělat legraci sami ze sebe a neberete se příliš vážně. Humor k vám bude lákat spoustu přátel i neznámých jedinců. Ve společnosti nebudete mít nouzi ani o nadšené obdivovatele.",
        "love": "To, jak funguje domácnost vašich přátel, může posloužit jako cenná inspirace. Dnes si všímáte i naprostých detailů.",
        "work": "Rádi byste se na pár dní podívali do zahraničí. Zapátráte po zimní dovolené v horách či alespoň po lyžařském zájezdu.",
        "relationships": "Neděle odhalí slabiny, které se ve vaší rodině v poslední době objevili. Neklesejte ale na mysli a zkuste s tím něco udělat!",
        "health": "Na samém konci týdne se cítíte výtečně, jen se dát do tance! Víkend doplnil zásoby vaší energie a jste zas v plné formě.",
        "tips": "Pohodová snídaně, sportování s rodinou, společný výlet do blízkého i vzdáleného okolí, plavání v aquacentru, koníčky."
    },
    "taurus": {
        "main": "Na prvním místě pro vás bude pevný a důvěrný vztah. Sami se přičiníte o to, aby vaše partnerské štěstí nic nezkalilo. Také nezadaní budou na potenciální polovičky uplatňovat vysoká měřítka. Povrchní láska na jednu noc dnes vůbec nepřipadá v úvahu.",
        "love": "Pro kamarády byste se dnes rozkrájeli. Pokud pomoc uskutečňujete na úkor vztahu, partner vám dá najevo svou nechuť.",
        "work": "Někteří Býci přivykli faktu, že vydělávají skromné peníze. Pokud s nimi vyjdete, nemáte proč opouštět oblíbenou práci.",
        "relationships": "V tom nejlepším si vzpomenete na své rodiče a budete nad jejich výchovou blahořečit. Dali vám ze sebe maximum dobrého.",
        "health": "Víkend byste si nejraději prodloužili na pěkných pár dní nebo i týdnů. V zaměstnání vás to poslední dobou nějak zmáhá.",
        "tips": "Základní příprava do zaměstnání, e-learningové kurzy, finanční rozvahy, příjemná návštěva, láskyplné chvíle s partnerem."
    },
    "gemini": {
        "main": "Neděle vám umožní vylepšit vztah s vašimi potomky. Obě strany jsou nakloněny společné konverzaci a daří se svěřování. Připadáte si jako kamarádi a uvědomujete si výjimečnost vašich vztahů. Uděláte všechno pro to, abyste si rozuměli i v budoucnu.",
        "love": "Podezříváte partnera z nevěrného chování. Stačí vám pouhé flirtování s druhým pohlavím, které si vaše fantazie přibarví.",
        "work": "Investice do dalšího vzdělávání a rozšiřování kvalifikace se vám vyplatí. Dnes nehodláte šetřit na sobě ani na dětech.",
        "relationships": "Pokud se vaši potomci zhoršili ve škole, zkuste je nějak motivovat k lepším výkonům. Jen jim neslibujte nemožné a buďte reální.",
        "health": "V neděli spojíte příjemné s užitečným. Budete si užívat pohodlí domácího hnízdečka a spřádat plány, jak ho vylepšíte.",
        "tips": "Rozhovor s potomky, úklid dětského pokoje, výběr domácího mazlíčka, zimní sporty, domácí party pro kamarády potomků."
    },
    "cancer": {
        "main": "Budete naladění idealisticky a hvězdy, i nedělní atmosféra, podpoří čisté vztahy s okolím. Dnes vás nejvíce potěší, když se budete od rána do večera setkávat s milými lidmi. Nové porozumění zažijete i v rodině, kde to poslední dobou mohlo občas jiskřit.",
        "love": "Váš milostný život nabírá vysoké obrátky. Možná ještě toužebně zavzpomínáte na časy, kdy si vás partner tolik nevšímal.",
        "work": "Chybí-li vám nemalé finance, neváháte jít do práce i o víkendu. Neohrozíte tím křehkou stabilitu rodinného rozpočtu.",
        "relationships": "Neděle nabízí, abyste si vylepšili rodinné vztahy i se vzdálenými příbuznými. Zkuste jim zavolat a domluvte se na návštěvě.",
        "health": "Vaše sklony k tvrdohlavosti se projeví naplno. Mohli byste na to ale doplatit i vy sami vnitřním napětím, uvolněte se!",
        "tips": "Návštěvy příbuzných a přátel, posezení a popovídání, hry s dětmi, procházka přírodou, domácí párty, zajímavý seminář."
    },
    "leo": {
        "main": "Získáte nové poznatky v oblasti sexuality. I když vaše erotické představy budou mimořádně hříšné, ukáže se, že jste vlastně v intimní oblasti docela asketičtí. Neporušíte slib partnerské věrnosti a budete experimentovat výhradně se svým protějškem.",
        "love": "Nákup hraček pro dospělé vnese do vaší ložnice čerstvý vítr. Protějšek je mile překvapen a rozhodně nebude odporovat.",
        "work": "Nábytek nebo nová elektronika do vaší domácnosti pořádně zacloumá s úsporami. Pozor, ať nesáhnete na železnou jistotu.",
        "relationships": "Chováte se velice vstřícně. Nebude výjimkou, pokud objevíte sympatie k člověku, kterého jste dosud nemohli ani cítit.",
        "health": "Váš zdravotní stav je velmi dobrý. Všechny tělesné funkce pracují optimálně, organismus je dobře prohříván a chráněn.",
        "tips": "Koketování s atraktivním protějškem, rande naslepo, odpověď na inzerát v seznamce, milostné experimenty, sauna či masáž."
    },
    "virgo": {
        "main": "Vaši nejbližší si dobře uvědomují, jakou péči do nich vkládáte, a rozhodnou se vám to oplatit. Přistoupíte na jejich hru a klidně se necháte trochu rozmazlovat. Přitom si uvědomíte, že rodina zdaleka není tak nesamostatná, jak se vám často jeví.",
        "love": "Partner pro vás udělá, co vám na očích uvidí. I když si nejste jisti jeho nezištným chováním, přesto si to užijete.",
        "work": "Přijdete na netradiční způsob, jak se dostat k velkým penězům. S přáteli dnes vytahujete z rukávu jedno eso za druhým.",
        "relationships": "Dostali jste jedinečnou šanci vylepšit vzájemnou komunikaci s dospívajícími dětmi. Dnes vám planety přejí jako málokdy.",
        "health": "Nepozorností v domácnosti si můžete pořídit drobné zranění prstů na ruce. Nejlepší bude, když si přivoláte pomocníky.",
        "tips": "Snídaně do postele, něžnosti s partnerem, wellness procedury, péče o zevnějšek, sledování filmů, domácí lenošení, kino."
    },
    "libra": {
        "main": "V soukromí budete trpělivými posluchači svých blízkých a budete se projevovat velmi citlivě a empaticky. Můžete se stát úspěšnými psychology v rámci rodiny. Dokážete její členy usmiřovat a názorově je sjednotit, abyste zase táhli za jeden provaz.",
        "love": "Vztahy v rodině jsou pro vás na prvním místě, a pokud budete mít klid v rodině, budete mít klid i v partnerských vztazích.",
        "work": "Více než jindy si všímáte, kam pluje největší část vašich financí. Kamarád-odborník vám poradí, jak se s tím poprat.",
        "relationships": "Ve volném čase vás bude lákat studium nejrůznějších knih. Poohlédnete se i po nových zajímavých přírůstcích do knihovny.",
        "health": "Dnes poslechnete hlas svého těla a dopřejete mu vše, co si žádá. Nebudete nikam spěchat a v žádném ohledu se přemáhat.",
        "tips": "Schůzka na slepo, vylepšování rodinného rozpočtu, posezení s přáteli, změna jídelníčku, sportování, procházka přírodou."
    },
    "scorpio": {
        "main": "Do dnešního dne se probudíte plní síly. Budete ho chtít trávit aktivně, nejlépe v rušné společnosti či při sportování, abyste si pořádně užili svou mocnou energii. Vašemu dnešnímu tempu postačí málokdo. Pokud se ale blízcí přidají, budou jen vítáni.",
        "love": "Kamarádi zafungují jako spolehlivé rameno, na kterém se dnes můžete vyplakat. Večer vás vyslechnou, ale nebudou soudit.",
        "work": "Nepřepočítáváte své dnešní aktivity na peníze. Pokud se jedná o přátele, poskytujete své služby bez nároku na honorář.",
        "relationships": "Může vás překvapit neočekávaná návštěva, která překazí vaše původní plány. Dnes ale uvítáte každou příjemnou změnu.",
        "health": "Při sportování nepřeceňujte své možnosti. Natažené svaly a šlachy jsou bolestivou záležitostí, která hned tak neodezní.",
        "tips": "Setkávání s dobrými kamarády, domácí mejdan s hudbou a tancem, výhodné nákupy, dynamické a adrenalinové druhy sportů."
    },
    "sagittarius": {
        "main": "Budete se cítit vyrovnaní, takže klidně zapomenete na své původní plány a srovnáte krok s členy rodiny. I kdyby vás jejich nedělní program neoslnil, budete rádi, že jste s blízkými zůstali. Poslední dobou jste si vzájemné přítomnosti příliš neužili.",
        "love": "Může se vám ozvat přítel, který vás v něčem zklamal. Dlouho se k tomu nemohl odhodlat, ale konečně se rozhodl jednat.",
        "work": "Návštěva nového baru nebo vyhlášené restaurace trochu zamává s vaším rozpočtem. Chcete tím udělat dojem na své okolí.",
        "relationships": "Uvědomujete si, že dávno nefungujete jenom sami za sebe. Své původní plány přizpůsobujete podle rodinných požadavků.",
        "health": "Těsná a neprodyšná obuv vám může připravit nepříjemnosti v podobě plísní. Dopřejte svým nohám co nejčastěji volnost.",
        "tips": "Rodinný výlet za poznáním, turistika, návštěva muzea nebo zoo, modeláž nehtů, úklid domácnosti, péče o domácí mazlíčky."
    },
    "capricorn": {
        "main": "Zadaní jedinci budou mít blíže k výkyvům nálad. Merkur se chová nezpůsobně, takže může přibývat mráčků ve vzájemné komunikaci s protějškem. Máte však šanci si s tím šikovně poradit. Nemáte totiž rádi hádky a raději se jim za každou cenu vyhnete.",
        "love": "Blízké dnes vyslechnete a snažíte se pochopit jejich problémy. Pokud se vás na názor nezeptají, nutit jim ho nebudete.",
        "work": "Než se spoléhat na výhru v loterii, raději peníze vhoďte do kasičky. Takhle budete mít za pár měsíců přírůstky jisté.",
        "relationships": "Zbytečné nedorozumění narušilo vztahy s někým z vašeho bezprostředního okolí. Udělejte vše pro to, abyste se domluvili.",
        "health": "I v jídle si klidně zahřešte. Když si upíráte všechny dobroty, myslíte na ně o to víc. Chce to zlatou střední cestu.",
        "tips": "Výlet do přírody, pobyt na chalupě, zimní sporty, domácí pohoda, rodinný oběd, aktivní i pasivní odpočinek, hry s dětmi."
    },
    "aquarius": {
        "main": "Nyní zřetelně vystupuje váš sklon k hlubšímu přemýšlení a komunikaci s nejbližšími, budete se vyžívat ve velmi dlouhých rozhovorech. Merkur v Kozorohu prozrazuje, že vás těší, jak vaše slova působí na ostatní. Jasně cítíte, že je vaše názory zajímají.",
        "love": "S protějškem uvažujete o změnách do budoucna. Pro dnešek máte společný život nalajnovaný na dvacet let po vzoru Básníků.",
        "work": "Nevěřte pouličním obchodníkům, ať vám nabízejí cokoliv. Dnes jste důvěřivější než obvykle a snáze podlehnete manipulaci.",
        "relationships": "Vaše vychované ratolesti vás zaskočí svým silně rozpustilým chováním. Budete se utěšovat tím, že vy jste nebývali lepší.",
        "health": "Než si pořídíte zvířecího miláčka, zjistěte, zda nejste alergičtí na srst. Mohla by to být nečekaná čára přes rozpočet.",
        "tips": "Aktivity s partnerem, práce s počítačem a instalace nového programu, gurmánské zážitky, relaxační masáže, divadlo, kino."
    },
    "pisces": {
        "main": "Saturn působící ve vašem znamení je přísný pokladník, a pokud v peněžních záležitostech jednáte ukvapeně, nebere si servítky. Máte-li tedy spády vzlétnout a více pouštět finanční žilou, počítejte s tím, že vás tento nesmlouvavý dozorce pěkně uzemní.",
        "love": "O obdivovatele nemáte během dne nouzi. Ve společnosti záříte a jste středem pozornosti většiny nezadaných návštěvníků.",
        "work": "Před podpisem hypoteční smlouvy si zjistěte, jaký finanční ústav je pro vás nejlepší. Ne všechny vám mají co nabídnout.",
        "relationships": "Se svým životem jste vrchovatě spokojení. Závist je pro vás neznámým pojmem, přejete i druhým lidem jen to nejlepší.",
        "health": "Můžete se těšit z dobré imunity a odolnosti vůči respiračním chorobám. Běžné nákazy by mělo vaše tělo rychle zvládnout.",
        "tips": "Snídaně do postele, něžnosti s partnerem, kulečník či bowling s kamarády, společenské akce, masáže, nákup nových knih."
    }
}