{
    "aries": {
        "main": "Oplýváte spoustou energie, která se promítne do všech oblastí vašeho života a bude vám to jen ku prospěchu. Je jasné, že se blížíte mílovými kroky za svým úspěchem. Nenechte se brzdit a jděte si za svým. Využijte příznivých dní ve svůj prospěch.",
        "love": "Blíží se velmi pozitivní rozvoj vašeho vztahu. Mějte oči otevřené, ať tuto příležitost nepropásnete, byla by to škoda.",
        "work": "Rádi byste vypilovali všechny své nedostatky, ale zatím na to není vhodná doba. Bude třeba najít jiný způsob a přístup.",
        "relationships": "Vaše dominantní planeta Mars vládne vašemu rodinnému životu a přivede vás na myšlenku nových aktivit s vašimi blízkými.",
        "health": "Vaše obranyschopnost organismu by neměla být ničím ohrožována, naopak budete schopní zvládat mnoho povinností.",
        "tips": "Důležitá obchodní jednání, uspořádání daňové evidence, vyzkoušení nového programu na PC, sportovní aktivity s partnerem."
    },
    "taurus": {
        "main": "Pozlobit vás mohou energie únorových dní, které pro vás nejsou v začátku zatím příznivé. Budete se s tím muset vyrovnat a zůstat sví. Neměňte nic dnes radikálně, nedělejte předčasné závěry. Později byste toho mohli litovat. Trpělivost máte, použijte ji.",
        "love": "Lásku a milostné vztahy berte nyní s nadhledem a nedělejte ukvapené závěry, které by vás mohly později velmi mrzet.",
        "work": "Všechno v práci klape, jak má, a vy z toho budete mít velkou radost, protože současné projekty nejsou vůbec jednoduché.",
        "relationships": "Prahnete po nových zkušenostech a toužíte se něčemu věnovat. Nejprve si ale zjistěte, zda s tím souhlasí rodina.",
        "health": "Možná jste z posledních náročných dní již unavení, a tak by bylo vhodné, abyste si také dostatečně psychicky odpočinuli.",
        "tips": "Pracovní i osobní schůzky, práce na PC, sledování komedie, pohodový večer s protějškem, prohlídka u odborného lékaře."
    },
    "gemini": {
        "main": "Věnovat byste se nyní měli jen práci, kde vám jde vše tak, jak si představujete. Ostatní oblasti života mohou být komplikované a pro vaše znamení nekomfortní, a bude to chtít čas, než se vše spraví. Především v mezilidských vztazích bude trvat napětí.",
        "love": "Vaše nová láska vám zřejmě přináší zklamání a vy nevíte, jak dál. Přemýšlejte o tom a nenechte se nikým a ničím ovlivnit.",
        "work": "Rádi dodržujete své sliby, protože jste zodpovědní a záleží vám na vaší reputaci. Zcela oprávněně a bez výčitek.",
        "relationships": "Barvu, kterou jste si vybrali pro vymalování nějaké místnosti, vám doma ostatní neschválí. Zkuste to ještě přehodnotit.",
        "health": "Dobře si hlídejte předpověď počasí, abyste se správně vybavili na cesty, ať už pojedete autem, nebo půjdete po svých.",
        "tips": "Klábosení s kamarádkou, domácí odpočinek, kontrola školních výsledků dětí, zajištění doučování, masáže vonnými oleji."
    },
    "cancer": {
        "main": "Dobře uděláte, pokud se necháte unést na vlnách krásných milostných vibrací a nebudete se trápit ničím jiným. Právě energie získaná z lásky vám totiž dodá sílu překonat ostatní problémy a momentální starosti s nadhledem a trpělivostí, kterou máte.",
        "love": "V milostných vztazích a lásce máte otevřenou bránu k mnoha krásným zážitkům, proto se neobávejte případných neúspěchů.",
        "work": "Chybí vám energie k dotažení jistých plánů, které jste si v práci vybrali sami. Možná jste si na sebe ušili pořádný bič.",
        "relationships": "V rodinných vztazích může váznout komunikace, a to natolik, že můžete mít tichou domácnost přes velkou část dne.",
        "health": "Věnujte pozornost svým kloubům, protože máte tendence lenošit. Časem byste měli s pohybem velké problémy.",
        "tips": "Jednání s lidmi vyžadující osobní přístup, cvičení v komunikačních dovednostech, sledování oblíbených pořadů a filmů."
    },
    "leo": {
        "main": "Soustřeďte se na svou kariéru a snažte se, aby vám neutekla ani jediná výzva, která se vám dnes nabídne. I přesto, že se vám některé mohou zdát příliš odvážné, nebojte se jich, není tomu tak. Sami budete překvapení, jak lehce je nakonec zvládnete.",
        "love": "Bez potíží se budete seznamovat na nejrůznějších setkáních, vernisážích a kulturních akcích. Buďte otevření a upřímní.",
        "work": "Čeká na vás spousta nových výzev a vy byste se neměli žádné z nich vyhýbat. Nyní jde o vaši budoucnost v profesní sféře.",
        "relationships": "Nicnedělání vás unavuje, a tak dnes budete pobíhat od jedné aktivity k druhé. Otázkou je, k čemu vám tohle bude dobré.",
        "health": "Nechte si lékařem překontrolovat svůj krevní tlak, který může zaznamenat nějaké výkyvy. Je lepší mít o tom přehled.",
        "tips": "Rutinní činnosti v zaměstnání, jednoduché domácí práce, rozmazlující péče o tělesnou schránku - kosmetika a masáže."
    },
    "virgo": {
        "main": "Máte v rodině velký respekt a dnes se to opět potvrdí, když za vámi kdosi přijde s prosbou o radu. Věnujte mu dostatek času na to, aby se mohl vyzpovídat z toho, co ho trápí, a dobře se zamyslete nad tím, co mu vlastně poradíte. Je to velmi důležité.",
        "love": "Jako naschvál se vám do cesty staví osoby, o kterých nemáte dobré mínění, i když jsou vám velmi blízké. Může to být bolestné.",
        "work": "Vaše myšlenky jsou dobré a máte šanci s nimi uspět, pokud je chcete prosadit. Dejte jim dobrou formu a prezentujte je světu.",
        "relationships": "Máte dnes dveře otevřené pro každého člena rodiny, kterého něco trápí a má potřebu se vám věřit. Budete jako vrba.",
        "health": "Dávejte si velmi dobrý pozor na možné záněty v těle. Jakmile byste měli jakékoliv podezření, zajděte si raději k lékaři.",
        "tips": "Osobní finanční plánování, telefonát s příbuznými, večerní aktivity s přáteli, protahovací cvičení, následný relax."
    },
    "libra": {
        "main": "Pondělní den vás zasáhne velmi silně v oblasti lásky a práce. Berte vše, co vám nyní tento čas přináší, a čerpejte pro sebe všechny výhody. Později byste mohli zbytečně litovat promeškaných šancí a příležitostí, ale už s tím nic nepůjde udělat.",
        "love": "Další únorový den vám ukáže, jak moc by se vám mělo dařit v lásce a milostných vztazích. Oddejte se krásnému snění.",
        "work": "Dostanete nové pracovní projekty, protože je první den tohoto týdne. Domů dnes jen tak včas opravdu nepůjdete.",
        "relationships": "Nějaké zajímavé kulturní vyžití by vás mohlo dnes bavit. Najděte si program divadel či kin. Pomůže vám rozhodnout se.",
        "health": "Možná že již delší dobu pociťujete nepříjemné pocity v oblasti břicha. Na vině budou problémy s trávením, zaměřte se na to.",
        "tips": "Realizace novým pracovních povinností, procházka s rodinou, nákup rozbitých spotřebičů do bytu, poslech hudby."
    },
    "scorpio": {
        "main": "V zaměstnání vám to dnes půjde jedna báseň, ale před vámi je ještě cesta, než se dopracujete ke kýženým výsledkům. Nenechte se nyní zmást tím, že je něco složitějšího, než se zdálo. Opět se vrátíte do tempa, až nastane ta správná příležitost pro vás.",
        "love": "Do tohoto týdne vstoupíte s příjemným, optimistickým chováním. Není proto divu, že jste opět středem pozornosti.",
        "work": "Ve své práci jste opravdu machři a máte před sebou zajímavou cestu vzhůru za úspěchy. Snažte se tedy nenechat odradit.",
        "relationships": "Líbil by se vám prodloužený wellness víkend někde v blízkém zahraničí. Objednejte si takový pro celou svou rodinku.",
        "health": "Tučná, sladká strava a nedostatek pohybu nevede jen k neestetickým faldíkům. Časem si můžete založit i na cukrovku.",
        "tips": "Vyřízení pracovních telefonátů a e-mailů, návštěva vegetariánské jídelny, zkoušení zdravých receptů, změna životosprávy."
    },
    "sagittarius": {
        "main": "Váš milostný život se dnes bude potýkat s nevyjasněnými situacemi, které byste sice rádi napravili, ale zatím není jak. Vyčkejte na vhodný čas, který dobře poznáte díky své silné intuici. Do té doby si s ničím nelámejte hlavu a nerozčilujte se.",
        "love": "Pro vás mohou být záležitosti lásky stále nevyjasněné, protože nemáte štěstí na lidi se stejnými názory či nápady.",
        "work": "Projděte si dnes znovu všechno, co hodláte veřejně prezentovat, ať jste si jistí. Směle se pak do toho můžete pustit.",
        "relationships": "Vám tedy dnes opravdu nechybí smysl pro humor a díky tomu se tak jednoduše přenesete přes problémy, které se vyskytnou.",
        "health": "Žádná snídaně, pak silná káva, v poledne pizza či bageta a večer jídlo za celý den. No nedivte se, že vám není nejlépe.",
        "tips": "Budování kariéry, přátelské posezení u karet, procházka v okolí domova, výběr wellness víkendového pobytu, relaxace."
    },
    "capricorn": {
        "main": "Máte velmi zajímavý styl přemýšlení, především v pracovních oblastech, takže se nedivte, když si za vámi kolegové chodí pro radu a mají k vám velký respekt. To samé lze říct dnes o vašem nadřízeném. Svůj kariérní postup si tak můžete rychle zajistit.",
        "love": "Ve vašem okolí je pravděpodobně někdo, kdo vám prostě nejde z hlavy a pořád na tuto osobu myslíte. Také ji zřejmě sledujete.",
        "work": "Jste velmi pohotoví a máte originální styl myšlení. Díky tomu si v zaměstnání vybojujete své místo na slunci.",
        "relationships": "Rádi byte se sešli s těmi lidmi, které jste dlouho neviděli a dost se vám po nich stýská. Uspořádejte setkání vy sami.",
        "health": "Lidské tělo se skládá převážně z vody, a tak potřebuje její pravidelný přísun. Pitný režim je pro zdraví nezastupitelný.",
        "tips": "Neodkladná jednání, konverzační kurzy, četba denního tisku a zábavných magazínů, poslech rádia, pospávání u televize."
    },
    "aquarius": {
        "main": "Dnes se budete hodně podílet na rozvoji své vlastní kariéry, třeba tím, že si stále budete pěstovat dobré renomé, což je pro vás velmi důležité. V lásce se vám dnes může dařit natolik, že nebudete věřit vlastním očím. Nedejte se zaskočit a užijte si to.",
        "love": "Bude se vám dařit v lásce víc, než jste vůbec doufali, a tak se není čemu divit, že sáhnete po každé příležitosti.",
        "work": "Nyní pro svou kariéru můžete udělat opravdu hodně. Snažte se využít všech nabídek a příležitostí k vylepšení si statutu.",
        "relationships": "Doma vám to s ostatními blízkými bude perfektně fungovat a určitě si dnes užijete zábavy až dost. Buďte kreativní.",
        "health": "Při exhibici v posilovně je jisté, že přitáhnete obdivné pohledy. Druhý den ale máte jisté i bolesti přetažených svalů.",
        "tips": "Osobní jednání s klienty, společný obchodní oběd, flirtování, večerní kolečko bazén - sauna - posezení u dobrého moku."
    },
    "pisces": {
        "main": "Pro vás budou láska a milostné záležitosti hlavním bodem tohoto zimního měsíce. Vesmír vám v tom hodně přeje, tak se nenechte přemlouvat a chopte se každé krásné příležitosti. Můžete si opravdu užít vášnivé erotické hry, na které budete dlouho vzpomínat.",
        "love": "Láska je stále ústředním tématem tohoto měsíce, proto se nebojte vychutnávat si vše, co vám nyní hvězdy sesílají do cesty.",
        "work": "Planeta Mars se vám vměšuje do pracovních záležitostí a ubírá vám na energii. Bude nutné si nastavit přesné mantinely.",
        "relationships": "Rodina a vztahy mezi příbuznými jsou pro vás velmi důležité téma, které není dobré přehlížet a nechat ho jen plynout.",
        "health": "Věřte, že komplexy kvůli určitým tělesným partiím má úplně každý. Jisté je, že rozhoduje celkový šarm vaší osobnosti.",
        "tips": "Důležité rozhovory pracovní i osobní, večer s rodinou, společné spřádání plánů do budoucna, zábavné hry, dobrá večeře."
    }
}