{
    "aries": {
        "main": "Máte dobré předpoklady pro navázání dlouhodobého vztahu. Osamělí Berani se konečně dočkají své příležitosti. Nebojte se seznamovat ani v případě, že už jste delší dobu sami. Není třeba tahat z paměti ty pravé fígle. Chovejte se zcela přirozeně.",
        "love": "Nebojíte se jít do nového vztahu naplno. V dlouhodobém vztahu nebudete mít pocit, že mu něco schází, ba právě naopak.",
        "work": "V poslední době vám práce vysává většinu energie. Dostanete-li chuť na radikální změnu, sežeňte si dostatek informací.",
        "relationships": "Vzájemné příbuzenské vztahy se mohou zlepšit. Nebude docházet k žádným konfliktním situacím nebo se rychle vyřeší.",
        "health": "Umělé vytápění vysušuje ovzduší. Suchý vzduch nesvědčí sliznicím dýchacích cest. Pomoc je snadná, zvlhčujte ovzduší.",
        "tips": "Nákup módních svršků, oděvních doplňků a bižuterie, dlouhý telefonát nebo chatování s přítelem, odpočinek před spaním."
    },
    "taurus": {
        "main": "Po materiální stránce se máte skvěle. Užíváte si hmotných statků, kterých jste dosáhli díky své pracovitosti a vrozené obchodnické obratnosti. Domov je výkladní skříní všech vašich úspěchů. Zařizujete si ho se smyslem pro estetično i s kapkou luxusu.",
        "love": "I vzorní partneři mohou občas dostat chuť na milostný románek. Vy ale máte svoje zásady a nehodláte na tom nic měnit.",
        "work": "Napadne vás, jak by se dalo přijít k velkým penězům. Museli byste ale značně riskovat a na to se přece jen necítíte.",
        "relationships": "Poznáte na svém potomkovi, že se necítí nějak ve své kůži. Nakonec se vám sám svěří, že právě prožívá první lásku.",
        "health": "Vaše snaha vypadat dobře i v ne zcela zimním oblečení by mohla skončit vážným onemocněním. Na to si dejte raději pozor.",
        "tips": "Brouzdání po internetu, vylepšení domova, nákup obrazů, dražba uměleckých předmětů, oběd či večeře v luxusním podniku."
    },
    "gemini": {
        "main": "Pro děti nechtějte být pouze autoritou, která se snaží prosazovat alespoň minimální kázeň a kontrolovat jim úkoly. Udržujte s nimi spíše kamarádský vztah a uvidíte, že vás samy nebudou chtít zklamat. Užijte si to - hrajte si, povídejte si, sportujte.",
        "love": "Záříte spokojeností jako sluníčko a vaše paprsky zasahují i ostatní. Dnes se ve vaší společnosti bude každý cítit dobře.",
        "work": "Pokusíte se srovnat si v hlavě, co chcete a o co naopak nestojíte. Pomůže vám to zvolit si směr, kterým se máte ubírat.",
        "relationships": "Někdo ze vzdáleného příbuzenstva si na vás vzpomene. Napíše vám dopis či zprávu, které vás potěší svou upřímností.",
        "health": "Všudypřítomná reklama nabízí nejrůznější vitaminové preparáty. Základem je ale čerpat tyto látky z přírodních zdrojů.",
        "tips": "Návštěva čajovny nebo kavárny, klábosení s kamarády, plánování narozeninové oslavy nebo svatby, dekorace interiéru."
    },
    "cancer": {
        "main": "Pro lásku se dnešek moc nehodí. Pokud se budete snažit partnerovi vysvětlit, co cítíte, dočkáte se snadno nepochopení. I ostatní lidé vám budou připadat povrchní, ale půjde spíše jen o jejich roztržitost. Dnešní vlivy nepřejí náročnému filozofování.",
        "love": "Někdo z vašich přátel se dostane do složité životní situace. Svěří se vám, protože jste mu už dříve dobře poradili.",
        "work": "Večírek s kolegy vás opravdu sblíží. Budete moci poznat i jejich další tváře, nejen tu zamračenou za psacím stolem.",
        "relationships": "Už dlouho jste se neozvali svým sourozencům. Převezměte iniciativu a buďte jednou první, kdo zvedne telefonní sluchátko.",
        "health": "Ranní rozcvička nemusí být dlouhá. Stačí několik dobře zvolených a provedených cviků a tělo bude spokojené a protažené.",
        "tips": "Posezení s blízkými, návštěva rodičů, chatování, založení vlastní webové prezentace, zkoušení netradičních aktivit."
    },
    "leo": {
        "main": "Vypadá to, že se vaše aktivity dnes rozmáchnou doširoka. Máte chuť organizovat větší zakázky nebo zahájíte podnikatelský plán, který jste měsíce připravovali. Čtvrtek bude štěstím požehnaným dnem také pro zahájení stavby nebo nalezení vhodného bytu.",
        "love": "Přespolní kamarád vás pozve na skleničku. Zápolíte ale s časem a setkání nechcete odbýt. Přeložíte ho tedy na jindy.",
        "work": "Někdo z kolegů, kteří zůstali přesčas, vám zavolá domů. Konzultaci mu poskytnete, ale vybavovat se s ním nehodláte.",
        "relationships": "Ve slabých chvilkách vás napadá, jestli se o děti staráte opravdu dost. Zkuste se zeptat přímo jich, jak jsou spokojené.",
        "health": "Tělo vstřebává mnohé škodlivé látky z životního prostředí. Tak proč je vědomě přidávat nezdravou stravou či kouřením?",
        "tips": "Rozjíždění projektů, podnikatelské aktivity, návštěva makléřských kanceláří, prohlídky bytů, skoncování se zlozvyky."
    },
    "virgo": {
        "main": "V zaměstnání to bude náročné. Stále vás někdo vyrušuje, už jste z toho skoro zoufalí. Možná si práci vezmete domů v domnění, že tam bude větší klid. To je ale jen zbožné přání. Lépe uděláte, když si zítra přivstanete. Dnes už nechte hlavu odpočívat.",
        "love": "Budete schopni racionálně přemýšlet o vztahových záležitostech. Získáte tak zdravý nadhled nad všemi svými problémy.",
        "work": "Méně sebekritiky by neuškodilo. Opravdu si myslíte, že jste tak neschopní? Zkuste se zeptat ostatních na jejich názor.",
        "relationships": "Když k dětem zaujmete rovnocenný postoj, budete jim bližší. Rodičovská autorita je důležitá, ale nic se nesmí přehánět.",
        "health": "Odlepte se čas od času od počítače. Krátká přestávka s rozhýbáním těla okysličí i mozek a stihnete toho mnohem víc.",
        "tips": "Služební cesty, důležité zkoušky, jazykové kurzy, získávání kvalifikace, čištění koberců, generální úklid domácnosti."
    },
    "libra": {
        "main": "V zaměstnání vás vysává okolní zmatek. Není divu, že doma potřebujete být sami. Nestyďte se za to, občas to v rámci duševní hygieny potřebuje každý. Vaše rodina to pochopí. Nejlépe vám udělá rozjímání v tichu, které byste si měli dopřávat častěji.",
        "love": "Pokud jste se s někým pohádali, usmíříte se. Jednalo-li se o partnera, vypadá to, že usmiřování bude opravdu sladké.",
        "work": "Únava vás dostává pomalu, ale jistě na kolena. Doma jste však svými pány, tak si vyhovte. Žádná práce vám neuteče.",
        "relationships": "Zamýšleli jste pomoci příbuzným s prací, ale přecenili jste své síly a teď musíte odřeknout. Přijmou to s pochopením.",
        "health": "Přecházení z mrazu do přetopených místností a zpět tělo oslabuje. Receptem je otužování a posilování imunity v sauně.",
        "tips": "Generální úklid kuchyně, kontrola jakosti a trvanlivosti potravin, teplá večeře u jednoho stolu s rodinou, domácí úkoly."
    },
    "scorpio": {
        "main": "Vaši nejbližší prožívají náročné chvíle. Dotýká se jich, že jste poslední dobou jen velice málo doma. Dá se mluvit o tom, že vaše nepřítomnost už překročila hranici únosnosti. I vy cítíte, že je načase strávit s rodinou alespoň jeden celý víkend.",
        "love": "Váš partner či nejlepší kamarád vás podpoří ve vašem záměru. Úplně ho s vámi nesdílí, ale o to je jeho pomoc cennější.",
        "work": "Za žádnou cenu nezkoušejte si sázet. Třebaže si budete stoprocentně jistí, že máte pravdu, prodělali byste i kalhoty.",
        "relationships": "Někoho z vašich příbuzných začnete vidět v jiném světle. Okolnosti prověřily, zda se na něj můžete opravdu spolehnout.",
        "health": "Péče o pleť vám pomůže předcházet nevítaným projevům stárnutí nebo naopak pubertálním pupínkům. Dnes ji nezanedbávejte.",
        "tips": "Počítačové vzdělávací programy, konzultace s koučem či psychologem, kurz rozvoje osobnosti, přednáška o čínské medicíně."
    },
    "sagittarius": {
        "main": "Potřebujete být sami, ale rodina po vás bude stále něco žádat. Začíná toho být na vás moc. Nedopusťte ale, abyste v afektu vybouchli. Domácí nálada by okamžitě poklesla na bod mrazu. Nechte se trochu politovat a rozmazlovat, máte na to také právo.",
        "love": "V partnerském vztahu budete schopni ústupků a nesobeckého jednání. V přátelských vztazích už vám to půjde o trochu hůře.",
        "work": "Při sledování cestopisného dokumentu zatoužíte vyrazit někam za exotikou. Dojde vám, že jste už dlouho nikde nebyli.",
        "relationships": "Jste rádi, že vaše dítě má dost kamarádů a není žádné mouchy, snězte si mě. Když ale zavítají k vám, brní vás hlava.",
        "health": "Radost z blížícího se víkendu vám vlije novou sílu do žil. Na příjemné okamžiky najdete potřebnou energii kdykoliv.",
        "tips": "Splácení dluhů, sledování cestopisných pořadů, prohlížení nabídky exotických zájezdů, domácí nicnedělání, aromaterapie."
    },
    "capricorn": {
        "main": "Dnešek je vhodný pro zodpovědná rozhodnutí. Dlouho jste vše rozvažovali. Pokud se však jejich důsledky dotknou celé rodiny, měli byste jí dát právo veta. Můžete investovat, změnit pracovní pozici nebo se pokusit prosadit nové metody ve svém oboru.",
        "love": "S protějškem si budete dobře rozumět. S přáteli sice také najdete společnou řeč, ale objeví se i komunikační překážky.",
        "work": "Budete na budoucnost myslet po materiální stránce více, než je u vás zvykem. Máte pádné důvody kontrolovat své výdaje.",
        "relationships": "Zvýšení nájemného vás nepotěší, ale ani nepřekvapí. S růstem daní jste s tím počítali. Rozčilování necháte protějšku.",
        "health": "Omezíte zbytečné náklady za sportovní vyžití vaší rodiny. Namísto zimního stadionu vám dnes postačí zamrznutý rybník.",
        "tips": "Porada v rámci širší rodiny, zavedení účetní knihy příjmů a výdajů, ukázková hodina jógy, cvičení pro zmírnění napětí."
    },
    "aquarius": {
        "main": "Dnešní den poslouží jako ventil vašich emocí. Projevíte se v plné míře, nebudete mít problém vyjádřit silné vášně. Nepůjde ovšem o žádnou italskou domácnost, vaše vztahy ovlivní jen v pozitivním slova smyslu. Máte mnoho energie i pro rušnější milostný život.",
        "love": "Daří se vám přesně pojmenovat své emoce. Může vám to pomoci ve vztazích, budete-li se zároveň zajímat i o city druhých.",
        "work": "Pokud máte dostatek financí, využijete nabídky zájezdu last minute. Bude příliš lákavá na to, abyste ji nechali být.",
        "relationships": "Přípravou večeře se zabývat nebudete. Objednáte si něco dobrého s dovážkou do domu. Vznikne tím čas na společnou zábavu.",
        "health": "Nepravidelnou stravou a špatnou životosprávou si můžete zadělat na problémy. Vaše zažívání je dnes nezvykle citlivé.",
        "tips": "Návštěva rodinné oslavy, očistná kúra, místní čajovna, jóga, pilates, vyřizování e-mailů a telefonátů, placení složenek."
    },
    "pisces": {
        "main": "Venuše v sextilu s Uranem vám příliš neusnadňuje práci v kolektivu. Neustále vás někdo vyrušuje, každou chvíli zpřetrhá tok vašich myšlenek a musíte pokaždé začínat znovu. Také doma trpíte nedostatkem ticha a soukromí. Sny o klidné oáze se vám nesplní.",
        "love": "Dejte partnerovi najevo, jak moc si vážíte toho, co pro vás dennodenně dělá. Jinak může mít pocit, že vás moc nezajímá.",
        "work": "Dejte si pozor, ať si kvůli někomu blízkému nenaděláte dluhy. Budete mu totiž chtít pomoci i přes nedostatek prostředků.",
        "relationships": "Můžete se nepohodnout se svým sourozencem. Ostrá výměna názorů ale bude mít smírný konec. Oba prokážete dobrou vůli.",
        "health": "Horký čaj a vitaminová bomba vás pomohou dostat se rychle do pohody. Tělo potřebuje na chvíli vysadit a nic nedělat.",
        "tips": "Pěstování bylinek, péče o rostliny v domácnosti, návštěva kamarádů, sledování sportovních přenosů, hokej, aquaaerobic."
    }
}