{
    "aries": {
        "main": "Jestliže se hodláte nyní v životě jen bavit, bez toho, aniž byste se vázali, měli byste to svému protějšku upřímně sdělit. Je možné, že si od života s vámi plánuje víc než vy. Zklamání by ho později hodně bolelo a vy byste měli velké výčitky.",
        "love": "Jestliže se nechystáte s někým vstoupit do vážného vztahu, neměli byste mu dávat zbytečné naděje. Je to nefér.",
        "work": "Volný den využijte k prospěšným pracím. Dobré je, že se můžete vyhnout obchodním centrům a sáhnout po domácích činnostech.",
        "relationships": "Doma s vámi ztrácejí pomalu ale jistě trpělivost. Nesmíte se tomu divit. Jste pro ně nevyzpytatelní a nečitelní.",
        "health": "Máte-li možnost, jděte si zasportovat do oblíbeného fitness centra. Protáhnete se a odplavíte z těla přebytečný stres.",
        "tips": "Vydatný spánek, setkání s přáteli ve městě, péče o domácí mazlíčky, nákup nových knih a vinylových desek na internetu."
    },
    "taurus": {
        "main": "Pokud to jen trochu půjde, odložte veškeré myšlenky na práci stranou. Je třeba odpočívat a od toho je dnes volný den. S protějškem si udělejte takový program, který bude bavit vás oba. Jde o to, abyste co nejvíce času trávili spolu. Pomůže to do budoucna.",
        "love": "Sváteční den byste si mohli se svým miláčkem zařídit trošku volnější. Věnovat byste se měli především svým touhám.",
        "work": "Pokud se i přes sváteční den rozhodnete doma věnovat práci, měla být to být spíš kontrola domácího účetnictví.",
        "relationships": "Volný den využijte k tomu, abyste si s rodinou vyšli někam za zábavou. Pokud tedy můžete, vyrazte ven ze známého prostředí.",
        "health": "Zkuste dnes dělat rutinní pohyby trochu jinak. Pokud píšete pravou, vyzkoušejte levou ruku. Uvidíte, jak funguje váš mozek.",
        "tips": "Poslech oblíbené audioknihy, setkání s rodinou, pěstování bonsají, péče o domácí mazlíčky, odpočinek s knihou."
    },
    "gemini": {
        "main": "Vás dnes mohou napadnout hříšné myšlenky na poflakování a nicnedělání. Ale proč vlastně ne? Máte nárok na to, abyste si den zpříjemnili ležením na gauči u televize, dobrým jídlem nebo oblíbenou knihou. Jedinou aktivitou by mohla být kratší procházka.",
        "love": "Volný den si užijte s partnerem po svém. Jistě máte nějaké přání, které jste si ještě nesplnili. Tak směle do toho.",
        "work": "Jestliže jste si vzali práci domů, nedá se nic dělat. Zřejmě k tomu máte své důvody. Pokuste se ji zvládnout raději dopoledne.",
        "relationships": "Sváteční den můžete bez problémů trávit prokrastinováním u televize. Jistě se najde pořad, na který se těšíte celý týden.",
        "health": "Doplňte do těla kyselinu listovou, nejlépe ve spojení se železem. Jsou to základní prvky pro krev a fungováním paměti.",
        "tips": "Sledování sportovního utkání, setkání se sousedy, četba odborné literatury, příprava s dětmi na školní povinnosti."
    },
    "cancer": {
        "main": "Vy si na rodinnou sešlost vyjet můžete. Změna prostředí spolehlivě odvede myšlenky od potíží s partnerském vztahu. Navíc se po dlouhé době můžete setkat s oblíbenými příbuznými. Nezapomeňte přinést nějakou maličkost, třeba láhev dobrého vína nebo dorty.",
        "love": "Pokud již nemůžete vydržet, zkuste si s protějškem otevřeně promluvit. Pravděpodobně se ale nedočkáte žádaných odpovědí.",
        "work": "Bude dobré, pokud si dnes poklidíte ve své domácí pracovně. Můžete také dětem překontrolovat pořádek v jejich pokoji.",
        "relationships": "Sváteční volno prožijte pokud možno v klidu. Pokud vás čeká rodinná návštěva, jistě i tam se budete dobře bavit.",
        "health": "Sklenice vody se dvěma lžičkami jablečného octa a lžičkou medu pomůže při lehčí migréně. Při prvních náznacích to zkuste.",
        "tips": "Odborný výcvik pejska, fotografování jídla, poslech oblíbené hudby, hra na hudební nástroje s dětmi, karetní hry."
    },
    "leo": {
        "main": "Neseďte zbytečně celý den doma. Vyjděte si na procházku nebo vyjeďte na výlet mimo město. Také se podívejte, zda můžete do kina, muzea nebo zajímavé galerie. Potěšit to může nejen vás a partnera, ale také vaše děti. Ty se zavřené doma už nudí.",
        "love": "Sváteční den by bylo fajn prožít někde mimo domov. Vám i partnerovi prospěje změna prostředí. Něco parádního vymyslete.",
        "work": "Věnujte se spíše odpočinku, podívejte se na oblíbený pořad v televizi nebo si čtěte. Je třeba načerpat energii.",
        "relationships": "Sváteční den si zařiďte podle přání svých nebo své rodinky. Program sice musíte promyslet, ale náročné to nebude.",
        "health": "Ranní kávu doplňte sklenkou čisté vody. Tělo potřebuje dostatek tekutin, které káva z těla odvádí. Stačí dobrá minerálka.",
        "tips": "Romantická procházka s partnerem, výroba rodinného fotoalba, ruční čištění automobilu, sledování soutěže v televizi."
    },
    "virgo": {
        "main": "Bez obav se dnes můžete vyhnout rodinným setkáním. Nemáte totiž náladu na nejrůznější půtky nebo kritiku. Vymluvit se můžete projednou na únavu a potřebu doma napravit resty. To ostatně není daleko od pravdy. Odpočinek potřebujete jako sůl.",
        "love": "Den můžete příjemně prožít ve společnosti dobrých kamarádů. Jistě máte oblíbenou kavárnu nebo místo ve městě, kde se sejít.",
        "work": "Pravděpodobně dnes do práce nejdete, ale nějaké resty na vás čekají doma. Podívejte se na své účty, v jakém jsou stavu.",
        "relationships": "V širší rodině může být komunikace trochu napjatá, ale vy byste si toho neměli vůbec všímat. Nic s tím nyní neuděláte.",
        "health": "Pravidelné konzumování vitaminů C a D by mělo být dodržováno se železnou pravidelností. Právě v těchto chladnějších dnech.",
        "tips": "Luštění křížovek, inhalace bylinného odvaru, studium astrologie, pečení ovocného koláče, setkání s přáteli ve městě, zpívání."
    },
    "libra": {
        "main": "Dobře vám budou dělat obdivné pohledy ostatních na ulici. Je jasné, že jste si vědomí své atraktivity pro opačné pohlaví. Ovšem v partnerovi to může vyvolat oprávněnou žárlivou reakci. Později byste měli doma co vysvětlovat a nebylo by to příjemné.",
        "love": "Užíváte si zájem ostatních a každý pohled, který na vás ulpí. Jestliže jste ale zadaní, není to zrovna ukázka věrnosti.",
        "work": "Začněte si pomalu, ale především tajně zjišťovat, co si kdo z rodiny přeje pod stromeček. Je nejvyšší čas k prvním nákupům.",
        "relationships": "Sváteční den nebudete prožívat výrazně jinak než ostatní, ale přesto si dopřejte více lenošení. Musíte sbírat síly.",
        "health": "Snažte se co nejdéle pobývat na denním světle. Dodá to lepší náladu a více energie. Také konzumujte vitamin D a zinek.",
        "tips": "Třídění staršího oblečení pro charitu, návštěva rodičů nebo prarodičů, pěstování bonsají, výroba vánočních dekorací."
    },
    "scorpio": {
        "main": "Zřejmě jste se dlouho nepodívali na úřední dokumenty, které se týkají vašeho domova a rodiny. Je nejvhodnější doba na to, abyste si zrevidovali pojistné smlouvy, nebo dokonce uzavřeli nějaké nové. Především životní pojistka se vám bude hodit.",
        "love": "Pozvánka na rande vás dnes může zaskočit. Neměli byste váhat. Můžete prožít zajímavé odpoledne s někým přitažlivým.",
        "work": "Dejte si do pořádku všechny dokumenty, které se týkají domácnosti. Mohou to být pojistné smlouvy. Zřejmě je třeba je obnovit.",
        "relationships": "Sváteční den si vyžaduje sváteční oběd. Jestliže jste šéfové kuchyně, jistě to pro vás nebude vůbec žádný problém.",
        "health": "Jako prevence proti depresím funguje báječně společnost pozitivně naladěných lidí. Těm se také můžete se svými stavy svěřit.",
        "tips": "Návštěva minipivovaru, karetní hry s přáteli, nové exotické recepty, psaní poezie, meditační a dechová cvičení, aromaterapie."
    },
    "sagittarius": {
        "main": "Vás miláček by neměl být dnes o samotě. Dejte si romantické rande na místě, kde jste se potkali poprvé, a zavzpomínejte si. Oběma to připomene, proč jste spolu tak rádi. Je nutné více času trávit spolu než v obklopení přátel a známých z práce.",
        "love": "Nenechte dnes váš idol o samotě. Vyjděte si na parádní rande na romantické místo a věnujte se jeden druhému.",
        "work": "Možná potřebujete doma také svůj pracovní koutek. Podívejte se dnes po vhodném místě a zamyslete se nad vybavením.",
        "relationships": "Vydejte se za zábavou, pokud to situace dovolí. Jistě není velký problém zajít si třeba do technického muzea nebo do kina.",
        "health": "Dejte si dnes k jídlu, na co máte chuť. Ale v menších dávkách a co nejrozmanitější kombinaci. Hned vám bude lépe na duši.",
        "tips": "Sestavení nového jídelníčku, seznam vánočních dárků pro rodinu, návštěva sourozenců, úklid domácnosti, mytí auta."
    },
    "capricorn": {
        "main": "Rádi se vzděláváte? Tak na sebe myslete také dnes. Porozhlédněte se na internetu po nových zájmových kurzech. Jistě již dlouho nosíte v hlavě nějaká přání. Záleží ale jen na vás, jestli se do toho pustíte nebo budete lamentovat s rukama v klíně.",
        "love": "Sice nejste zrovna extrovertní typy, ale pokud vás někdo pozve na rande a do společnosti, jděte a bavte se. Neseďte doma.",
        "work": "Zkuste se zaměřit na hledání rekvalifikačního kurzu či vhodného workshopu. Potřebujete si zjednodušit cestu k lepší kariéře.",
        "relationships": "Nebudete proti, pokud se k vám dnes nahlásí návštěva. Jste výbornými hostiteli a navíc dotyčné osoby rádi uvidíte.",
        "health": "Poslech starších vinylových desek není pro každého. Vám to ale může dnes opravdu přinést klid na duši a příjemné vzpomínky.",
        "tips": "Práce s keramikou, malování, sušení ovoce, domácí kuchyně, romantická procházka s partnerem ve městě, vědomostní hry."
    },
    "aquarius": {
        "main": "Možná jste zrovna vy ty typy lidí, kteří stále myslí na nejrůznější pracovní povinnosti. Přestože máte zřejmě volný den, tak i dnes vám hlava pracuje naplno. Zapište si poznámky a vše, co vás napadne. Později to báječně zužitkujete v práci.",
        "love": "Dejte si dnes pauzu od navazování nových vztahů a zapomeňte na internetovou seznamku. Nejste ve stavu, kdy by to mělo úspěch.",
        "work": "Jestliže si neumíte odpustit myšlenky na práci, sepište si, jaké máte povinnosti. Připravte si jejich podrobný harmonogram.",
        "relationships": "Začnete si hledat novou aktivitu, a to může přesvědčit i ostatní doma, aby se do toho pustili s vámi. To je velmi dobré.",
        "health": "Hrou na hudební nástroj, tancem nebo zpěvem relaxujete. Pokud něco z toho máte rádi, je napůl vyhráno nad depresí.",
        "tips": "Příprava rodinného oběda, výroba koláží z fotografií, malování akvarelem, lekce jógy ve studiu, výroba vánočních dekorací."
    },
    "pisces": {
        "main": "Někteří z vás mají tendence se seznamovat pouze s atraktivně vyhlížejícími osobami, aniž by se zaměřili také na jejich povahu a duševní stránku. Potom se ale nesmíte divit tomu, že si velmi rychle přestáváte rozumět. Příklad si vezměte z ostatních párů.",
        "love": "Vyhledáváte hodně atraktivní typy, ale možná se v tom mýlíte. Měli byste si všímat nenápadnějších osob, které mohou překvapit.",
        "work": "Měli byste svým dětem založit dobrý spořicí účet. Mohou si tam později dávat část výdělku z brigády nebo z kapesného.",
        "relationships": "Volný den využijte k tomu, abyste navštívili své příbuzné, které jste dlouho neviděli. Mají pro vás zajímavé novinky.",
        "health": "Vraťte se v myšlenkách do příjemné minulosti a zavzpomínejte. Uvidíte, že na chvíli zapomenete na současné obtíže.",
        "tips": "Vydatná rodinná snídaně, sledování oblíbené pohádky, sestavení hudebního playlistu, práce na počítači, procházka."
    }
}