{
    "aries": {
        "main": "V práci dnes můžete zabodovat tím, že si poradíte s problémem, na kterém si jiní vylámali zuby. Uvidíte, že se nadřízenému předvedete v dobrém světle. Můžete si pak lépe říct o dost pěkné odměny nebo zvýšení platu. Nebojte se tedy být aktivní.",
        "love": "Zbytečná nedorozumění dnes mohou vnést do mezilidských vztahů velké napětí. Nenechte se ovládat negativními emocemi.",
        "work": "U šéfa si můžete dnes zařídit pár bodů k dobru. Výborně si poradíte se situací, se kterou se ostatní budou trápit.",
        "relationships": "Zapomeňte na to, že budete dnes všechny doma komandovat. Nechte ostatním jejich prostor k životu a tolerujte je.",
        "health": "Zkuste si dnes procvičit svou paměť. Pomoci by vám mohly křížovky a testy. Případně slovíčka cizího jazyka ze školy.",
        "tips": "Cvičení bikram jógy ve studiu, práce se sociálními sítěmi, četba odborné literatury, studium cizího jazyka online."
    },
    "taurus": {
        "main": "S nadcházejícím úplňkem se mezi lidmi mohou vyskytnout negativní emoce. Nepodléhejte tomu a nenechte se tím ovlivňovat. Ublížíte jen sami sobě tím, že se budete rozčilovat. Také odložte předsevzetí, že dnes zvládnete všechno a sami, levou zadní.",
        "love": "Nepodléhejte pokušení nechat se vtáhnout do hádky s partnerem. Pokud tomu odoláte, sklidíte od něj později obdiv.",
        "work": "Neshody v práci by se vám mohly velmi ošklivě vymstít. Hlídejte si tedy každý svůj krok a každé vyřčené slovo.",
        "relationships": "Čtvrtek nemusí být tak špatný. Stačí jen, jak ho pojmete. Jistě se nemusíte nikde honit za výkony. Zkuste domácí kino.",
        "health": "Pozor na záněty v krku. Vy jste k tomu extra náchylní. Proto je nutné věnovat pozornost správnému oblékání při pohybu venku.",
        "tips": "Příprava s dětmi do školy, čištění rodinného stříbra, romantické rande ve městě, návštěva umělecké galerie, taneční lekce."
    },
    "gemini": {
        "main": "Malým rozepřím v milostném vztahu se nevyhnete. Vám postačí, že svůj protějšek dobře znáte a víte, jak reagovat na jeho nálady. Pokud se ubráníte konfrontacím, budete si blahořečit. V této době není nutné ještě podporovat hádky v domácnosti.",
        "love": "Zadaní jedinci mohou dnes očekávat mírné napětí v milostném vztahu. Je to zřejmě jen předzvěst zítřejšího úplňku.",
        "work": "Vašeho šéfa může nepříjemně překvapit vaše pomalejší pracovní tempo. Zkuste mu vše nejprve vysvětlit po dobrém.",
        "relationships": "Díky včerejšímu volnu dnes nebudete tolik cítit únavu z práce, a tak budete mít spoustu času na aktivity s vašimi blízkými.",
        "health": "Preventivně si můžete kloktat vincentkou. Ta pomáhá proti zánětům v krku a chrání vaše hlasivky. Zkuste to, dělá zázraky.",
        "tips": "Zápis do nového zájmového kurzu, třídění soukromých e-mailů, kreativní aktivity, karetní hry s přáteli, studium historie."
    },
    "cancer": {
        "main": "Zbytečné debatování si v partnerském vztahu odpusťte. Pokud máte nevybouřenou energii, zaměřte se sami na sebe a na své zdokonalování. Může jít o nové sportovní aktivity, koníčky nebo práci na svém vzhledu. To vše by vás mohlo dnes dostatečně zabavit.",
        "love": "Nesnažte se dnes opět vyvolat debatu. Bude třeba, abyste si šli za svými zájmy a starali se momentálně jen o své.",
        "work": "Blížíte se v zaměstnání k úspěchu. Nebojte se ještě přidat. To, co se vám povede nyní, se bude v budoucnu velmi hodit.",
        "relationships": "Aktivity a program byste dnes měli nechat na ostatních. Mají jistě nějaké nápady, se kterými by se rádi blýskli.",
        "health": "Odvar ze šalvěje pomáhá při počínajících zánětech v krku nebo v ústní dutině. Stačí jen kloktat párkrát přes den.",
        "tips": "Nové jazykové kurzy, pečení slaného koláče, nákup domácích spotřebičů, kontrola vánoční výzdoby a osvětlení, jóga."
    },
    "leo": {
        "main": "Ve vztahu byste měli přestat hrát ublížené, i když k tomu máte jisté důvody. Pokud nyní seberete odvahu a sílu, ukážete svému partnerovi své druhé já a dáte mu co proto. Nemusí to být nutně v agresivním tónu. Jen se musíte postavit sami za sebe.",
        "love": "Máte sklony k lítostivosti a cítíte se ve vztahu neocenění. I když to nebude jednoduché, chce to sebrat sílu a odolat.",
        "work": "Únava je na vás znát. Bude fajn, když si sepíšete vše, co je třeba udělat, abyste na něco dnes nezapomněli. To by se vymstilo.",
        "relationships": "Pozor na sporty, které vám nejsou blízké. Hrozí vám nepříjemné úrazy, které by vám zkomplikovaly další dny či týdny.",
        "health": "Na škrábání v krku si dopřejte dobré pastilky z islandského lišejníku. Jsou chutné a hlavně opravdu zabírají při potížích.",
        "tips": "Nákup surovin na pečení vánočního cukroví, sledování oblíbené detektivky, milostné sms s partnerem, pořízení nového oblečení."
    },
    "virgo": {
        "main": "Podívejte se po svém obydlí a zjistíte, že na vás čekají nějaké renovace. Zřejmě jste je odkládali na neurčito, ale blíží se doba Vánoc. To by vám mělo dát ten správný impulz k zahájení činností již dnes. Poraďte se ostatními členy rodiny, jak začít.",
        "love": "Ve vaší blízkosti se objeví zajímavý člověk. Působí tak trochu tajemně a odtažitě. O to víc vás bude přitahovat.",
        "work": "Stále pracujte na své kreativitě, dokud to jde. Zkuste přemluvit nadřízeného k nějakému vhodnému kurzu. Hodil by se vám.",
        "relationships": "Pokuste se doma podívat na resty v interiéru, které byste mohli ještě v nejbližších dnech a týdnech opravit. Vánoce se blíží.",
        "health": "Měli byste si chránit ústní dutinu a krk před záněty. Máte k nim sklony, především v tomto chladném počasí.",
        "tips": "Návštěva stomatologa, poslech nového podcastu, nákupy učebnic pro děti, venčení a výcvik pejska v parku, práce s keramikou."
    },
    "libra": {
        "main": "Pokud se budete v zaměstnání poflakovat i nadále, počítejte s tím, že se vysněných odměn nedočkáte. A to celkem oprávněně. Máte totiž chuť se jen vézt a neveslovat. To vám ale rozhodně kolegové ani nadřízení neodpustí. Bdí nad vámi ostřížím zrakem.",
        "love": "Zkuste popřemýšlet, kam se vydat s protějškem na blížící se víkend. Romantika na vás čeká v útulném hotýlku mimo davy lidí.",
        "work": "Je zbytečné, abyste se svou vlastní leností připravili o výhodné bonusy. Snažte se tedy napravit svou pověst výbornými výkony.",
        "relationships": "Návštěva muzea nebo umělecké galerie by se mohla hodit o víkendu. Zjistěte si podmínky, za kterých můžete vyrazit.",
        "health": "I prochladnutí od nohou vede k celkovému oslabení těla a náchylnostem k onemocnění. Myslete tedy na správnou obuv.",
        "tips": "Úklid domácnosti, setkání s přáteli u kávy, nákup lístků do divadla, plánování zimní dovolené s partnerem, odpolední spánek."
    },
    "scorpio": {
        "main": "Váš protějšek je zřejmě moc pohledná osoba s vytříbeným vkusem. Je jasné, proč jste si ji vybrali a co vás k ní přitahuje. Má ale také jiné kvality. A ty můžete začít postupně objevovat už dnes. Fascinovat vás mohou pevné morální zásady a pohled na svět.",
        "love": "Vaše nová známost je zřejmě velmi atraktivní, ale můžete na ní objevovat i jiné věci. Nebojte se hlubšího poznání.",
        "work": "Dnes můžete nabýt dojmu, že vám vaši kolegové házejí klacky pod nohy a dělají naschvály. Než je obviníte, chce to důkazy.",
        "relationships": "Fyzické vyčerpání se podepíše na vaší dnešní náladě. Budete rozmrzelí i na své nejmilejší. Více odpočívejte o samotě.",
        "health": "Pokud se rádi vydáváte do přírody za pohybem, chce to dobré funkční prádlo. Zvláště v těchto chladných dnech se určitě hodí.",
        "tips": "Nákup bruslí, kontrola domácího účetnictví, četba lifestylového magazínu, hra na hudební nástroje s přáteli."
    },
    "sagittarius": {
        "main": "Jestliže si dnes chcete vyjít jen se svými kamarády, upřímně to svému miláčkovi řekněte. Je to lepší než něco tajit. Pokud i tak váš partner bude žárlit, musíte ho v tom nechat. Je třeba, abyste si také uměli vzájemně dopřát trochu svobody.",
        "love": "Občas máte chuť pobývat jen s přáteli a kamarády. To se může stát zrovna dnes. Svému novému protějšku to řekněte na rovinu.",
        "work": "Po dni odpočinku se vám dnes hned lépe přemýšlí. Proto vám práce půjde pěkně od ruky a vy budete naprosto spokojení.",
        "relationships": "Pokud jste vášnivými sportovci, neměli byste zapomenout na své sportovní vybavení. Dejte si ho do pořádku co nejdříve.",
        "health": "Jestliže cítíte problémy s hlasivkami a mluvením, kupte si hned domů vincentku nebo pastilky z ní vyrobené. Dělá divy.",
        "tips": "Filatelie, pěstování bonsají, seznam vánočních dárků pro rodinu, sestavení nového jídelníčku, výroba bylinné tinktury."
    },
    "capricorn": {
        "main": "Od svého partnera se můžete dočkat velkých poklon. Vaše překvapení nebude hrané, ale zbytečně to také neodmítejte. Máte totiž co nabídnout a váš nový protějšek si je toho moc dobře vědom. Vaše sebevědomí dostane pořádnou povzbuzující injekci.",
        "love": "Nový objev vám dá najevo svou náklonnost, aniž byste s tím počítali. Nedivte se. Jste také velmi zajímavá osoba!",
        "work": "Máte-li pocit, že to projde, promluvte si se šéfem o vyšším platu. V těchto dnech je kladná odpověď velmi pravděpodobná.",
        "relationships": "Záříte sebevědomím a máte spoustu nápadů. Ty budou realizovatelné jen tehdy, pokud budete mít dost sil. Odpočívejte.",
        "health": "Nekonzumujte žádné chladné nápoje při pobytu venku. Do termosky si na cesty udělejte oblíbený bylinkový nebo ovocný čaj.",
        "tips": "Nákup krmiva pro domácí mazlíčky, péče o pokojové rostliny, zpívání s dětmi, hra na klavír, nové exotické recepty."
    },
    "aquarius": {
        "main": "Ujasněte si, co očekáváte od vztahu, který by vám měl zůstat natrvalo. Máte možná hodně nadnesené představy o svém budoucím protějšku. A také v tom figurují zkreslené představy o vás samotných. Zamyslete se nad tím, co bylo příčinou krachu minulých vztahů.",
        "love": "Měli byste si ujasnit, co od nového vztahu očekáváte a co můžete naopak nabídnout. Chce to velkou dávku sebereflexe.",
        "work": "U nadřízeného si můžete naběhnout tím, že budete pomáhat ostatním, ale vaše práce bude stát. Přemýšlejte o všech důsledcích.",
        "relationships": "Máte chuť trávit čas s lidmi, kteří jsou milí a zajímaví. Tudíž si některé členy ze širší rodiny vyškrtnete ze seznamu.",
        "health": "U dětí dbejte na to, aby venku nepobíhaly s odhaleným krkem a měly alespoň chráněný hrudník. Stačí málo a budou nemocné.",
        "tips": "Návštěva výživového poradce, kontrola jídelníčku, nákup čerstvého ovoce a zeleniny, aromatická koupel, masáže nohou."
    },
    "pisces": {
        "main": "Zjistíte, že o vás stále jeví zájem osůbka, které jste nevěnovali žádnou pozornost. Když se ale k ní dnes opravdu přiblížíte, poznáte, že jste se zbytečně připravovali o mnoho. Je to tak zajímavý člověk, že s ním budete chtít zůstat v kontaktu i nadále.",
        "love": "Kdosi nový vás může natolik zaujmout a překvapit, že se zastydíte, pokud jste ho dosud přehlíželi. Je to velmi fajn člověk.",
        "work": "Harmonické vztahy na pracovišti budou pokračovat i dnes. Týmová práce je naprosto dokonalá a vše jde daleko rychleji.",
        "relationships": "Dejte se dnes do něčeho prospěšného v domácnosti. Co třeba nově vymalovat nějakou místnost nebo opravit spotřebič?",
        "health": "Při sportu není špatné používat funkční nákrčníky. Chrání krční páteř a můžete si jimi zakrýt i ústa před studeným vzduchem.",
        "tips": "Sbírání známek, plánování zimní dovolené na horách, návštěva pneuservisu, úklid domácí dílny, cvičení v přírodě."
    }
}