{
    "aries": {
        "main": "Jakmile ke svému partnerovi nebudete mít úctu ani respekt, můžete se se vztahem skoro rozloučit. Býváte ve svých výrocích celkem nekompromisní, ale to se vám dnes může hodně vymstít. Dávejte si pozor na drobnosti, ze kterých může vzejít obrovský konflikt.",
        "love": "Nenechte se strhnout k tomu, že byste se ke svému protějšku chovali bez respektu a neupřímně. S tím byste daleko nedošli.",
        "work": "Vaší velkou devizou je to, že jste extrémně pracovité znamení. Díky tomu i dnes máte před ostatními náskok a jste ve výhodě.",
        "relationships": "Pokud se k tomu dnes donutíte, dejte se do menšího úklidu domácnosti. Uvidíte, že se vám to o víkendu bude hodit.",
        "health": "I dnes myslete na to, co jíte a pijete. Dejte si také záležet na hezky prostřeném stole a jídlo si vychutnejte.",
        "tips": "Sportovní aktivity ve fitness centru, nové exotické recepty, sledování oblíbeného dokumentu, četba odborné literatury."
    },
    "taurus": {
        "main": "Přestože vás lákají nejrůznější adrenalinové sporty nebo aktivity, dobře si rozmyslete, do které se můžete opravdu pustit. Ne každému vše sedí a vy si můžete také parádně ublížit. Obezřetní ale budete muset být i v práci, kde se schyluje k hádkám.",
        "love": "Protějšek si občas nevidí do pusy. Zrovna dnes se toto vyplní a vám bude jeho troufalost lézt krkem. Ignorujte ho.",
        "work": "Pokud budete kontrolovat své potenciální výbuchy hněvu, předejdete nepříjemným situacím na pracovišti. Snažte se.",
        "relationships": "Měli byste si lépe vybírat, do kterých aktivit se dnes pustíte. Nejste na vše jako dělaní a nemusí se vše povést.",
        "health": "Jídlo byste měli kořenit spíše čerstvými bylinkami než jen solí. Bude se vám líbit rozmanitost chutí a barev.",
        "tips": "Schůzka s bankovním poradcem, návštěva fitness centra, nákupy vitaminů a potravinových doplňků, plánování vánočních svátků."
    },
    "gemini": {
        "main": "To, co dnes ze sebe vydáte v práci, doma už nedoženete. Protože vám momentálně jde o dosažení vysokých cílů v kariéře, není se čemu divit. Doma si proto dopřejte dostatečný odpočinek. Pokud to svým blízkým vysvětlíte, pochopí to a ještě vás podpoří.",
        "love": "Dneškem počínaje u vás doma budou výměny názorů na denním pořádku. Evidentně je třeba nastavit pravidla, výhodná pro oba dva.",
        "work": "Zkuste pro vylepšení svých výsledků udělat maximum. I když vás popudí kritika od šéfa, musíte se přes to přenést.",
        "relationships": "Měli byste si vybírat takové činnosti, které jsou více odpočinkové. Není nutné trhat sportovní rekordy a hrát si na hrdiny.",
        "health": "Jídlo by dnes mělo být rozmanité a přitažlivé. Nezapomínejte, že se jí i očima. Dopřejte si také čas na stolování.",
        "tips": "Rekreační běh v přírodě, fotografování, pečení vánočního cukroví, úklid domácnosti, odpolední aktivity s dětmi."
    },
    "cancer": {
        "main": "Nemáte náladu na každý vtípek, který váš protějšek pronese. Také mezi přáteli budete tak trochu za morouse a nudného patrona. Nevadí, každý den není na pohodu. Pozor však, abyste si svým přehlížením nenadělali spíše nepřátele a špatné vazby.",
        "love": "Hodně věcí si dnes berete osobně a nemáte náladu na žerty. Můžete si dokonce proti sobě popudit někoho, komu na vás záleží.",
        "work": "Není pro vás problém předávat své zkušenosti i dalším kolegům. Jde vám totiž hlavně o to, aby byl úspěšný celý tým.",
        "relationships": "Máte talent na to, abyste svým dětem předali zkušenosti nebo vědomosti, které jste dosud načerpali. Najděte si téma či obor.",
        "health": "Pleť v chladném a mrazivém počasí trpí. Najděte si takové krémy, které vám pomohou pokožku ochránit a udržet ji zdravou.",
        "tips": "Schůzka s obchodním partnerem, podnikatelské aktivity, rekvalifikační studium, nákup zimní obuvi, péče o pokojové rostliny."
    },
    "leo": {
        "main": "Vy nejdete dnes pro ostré slovo daleko, takže si musíte dávat velký pozor na to, co komu řeknete. Jisté situace v pracovní oblasti vás mohou svádět k ostrým obranným výrokům. Později však už nikomu nevysvětlíte volbu slov. Proto jednejte rozvážně.",
        "love": "Nezadaní rozhodně nebudou mít nouzi o nápadníky. Vy si prostě můžete jen vybrat, s kým půjdete na nejbližší rande.",
        "work": "Den není úplně vhodný k tomu, abyste bránili své názory nějak ostře. Mohli byste přejít tenkou hranici slušnosti.",
        "relationships": "Velmi rychle se oklepete z nepříjemných událostí a opět u vás doma zavládne pohoda. Pro vás je to jako živá voda.",
        "health": "Pozor na přílišné používání průmyslově vyráběných dochucovadel. Vytvořte si své vlastní směsi koření podle chuti.",
        "tips": "Pěstování kuchyňských bylinek, nákup ovoce a zeleniny na trhu, seznam dárků pod stromeček, oprava domácího spotřebiče."
    },
    "virgo": {
        "main": "Lidé ve vašem okolí se vám mohou zdát nenaladění a nepříjemní. Nesnažte se je soudit hned napoprvé. Je to jen přechodné období, za kterým stojí těžká nálada ve společnosti. Raději jim dejte čas, aby sami přišli s vysvětlením, co je zasáhlo.",
        "love": "Nenechte se odradit krátkodobou změnou v chování lidí kolem vás. I na ně může dopadat tíha současné situace ve společnosti.",
        "work": "Naplánujte si vše, co vás ještě do konce týdne v práci čeká. Tím lépe vám pak půjde rozložení sil vzhledem k odpočinku.",
        "relationships": "Hodně vás mohou chytit záležitosti, které se týkají vylepšování domácnosti po estetické stránce. Vkus máte výborný.",
        "health": "Do aroma difuzéru si přidejte pár kapek vonných esencí. Dobře vám udělá pomerančový květ, máta nebo eukalyptus.",
        "tips": "Venčení a výcvik psa, plánování zimní dovolené, třídění obnošeného oblečení a obuvi, registrace na online seznamce."
    },
    "libra": {
        "main": "Dnes byste si měli kolem sebe udržovat partu lidí, které dobře znáte a kterým věříte. Nikomu jinému se se svým životem nesvěřujte. Ne všichni mají čisté úmysly a kdosi by mohl zneužít vaší důvěry. V práci se vám bude dařit, jste na cestě k úspěchům.",
        "love": "Obklopte se lidmi, kterým na vás záleží. Jedině tam se můžete svěřit se svým osobním životem. Před ostatními se chraňte.",
        "work": "Nadřízený moc dobře ví, že vám záleží na dosažených výsledcích. Vaše úsilí může být korunováno hezkou finanční prémií.",
        "relationships": "Děti budou ve svém živlu a vám nezbude nic jiného než se přizpůsobit jejich temperamentu. Jinak vám přerostou přes hlavu.",
        "health": "Dbejte o svůj chrup také tím, že budete používat správné prostředky a přípravky. Vyberte si podle vašich potřeb.",
        "tips": "Nákup krmiva pro domácí mazlíky, setkání s přáteli u oběda, sportovní aktivity, návštěva plaveckého bazénu nebo wellness."
    },
    "scorpio": {
        "main": "Vaše okolí zřejmě nemůže rozkódovat chování vašeho nového partnera, ale vám to tak asi vyhovuje. Moc dobře víte, koho máte vedle sebe a proč ho máte. Nikomu jinému nejste povinní nic vysvětlovat. Stejně tak to má i váš protějšek. Držte při sobě i nadále.",
        "love": "Váš partner může být pro ostatní trochu nečitelný, ale vy moc dobře víte, co skrývá uvnitř. Nemusíte nikomu nic vysvětlovat.",
        "work": "Některé postupy, které jste si předsevzali, mohou být pro vás velkou výzvou. Vy však ani dnes z boje neutečete.",
        "relationships": "Starostí máte doma nad hlavu, ale svým nejbližším nic nevyčítáte. Víte, že se o některé věci můžete postarat jen vy.",
        "health": "Nechte své oči odpočívat od počítačů, mobilních telefonů nebo televize. Dodejte do těla lutein, který prospívá zraku.",
        "tips": "Studium cizího jazyka, nové podnikatelské aktivity, práce se sociálními sítěmi, nákup nové elektroniky do domácnosti."
    },
    "sagittarius": {
        "main": "Jakmile se v práci přichomýtnete k novému projektu, ucítíte svou šanci. Moc dobře víte, že je to velká výzva i pro vás, ale také víte, jak s ní naložit. Pokud to tedy půjde, požádejte své nadřízené, abyste se na této zajímavé práci mohli podílet.",
        "love": "Máte-li nový objev, buďte spolu o samotě, co nejvíc to půjde. Přátelům ho můžete představit později, nespěchejte s tím.",
        "work": "Do rukou se vám může dostat zajímavý projekt. Sice na něm bude více práce, to vás ale vůbec neodrazuje. Ba naopak.",
        "relationships": "Za měsíc je tu Štědrý den a vy máte jednu z posledních šancí jak zjistit, co si kdo z rodiny přeje pod stromeček.",
        "health": "Digitální detox by si měl dopřát každý. Zkuste alespoň pro dnešek odložit mobilní telefon nebo tablet a dělat něco jiného.",
        "tips": "Péče o děti nebo vnoučata, společenské a vědomostní hry, úklid domácnosti, venčení pejska v parku, odpočinek s knihou."
    },
    "capricorn": {
        "main": "Aniž byste to čekali nebo to plánovali, váš nový idol vám naprosto stejně bude opětovat své city. Dovtípíte se, že máte vedle sebe člověka, se kterým můžete jít životem opravdu hodně dlouho, ne-li napořád. Nenechte si ujít svou životní šanci.",
        "love": "Potěší vás to, že nový idol jednoznačně opětuje vaše city. Před vámi se objeví možnost na dlouhodobý a kvalitní vztah.",
        "work": "Mezi ostatními kolegy si vysloužíte právoplatný respekt a jste pro ně vzorem. Je to také tím, jak zvládáte krizové momenty.",
        "relationships": "Pokud jste ještě nekoupili ani jeden vánoční dárek, zamyslete se nad tím, kdy s tím začít. Moc času vám nezbývá.",
        "health": "Meditační a dechová cvičení pomohou vaší přetížené psychice. Místo užívání uklidňujících léků se naučte pár účinných cviků.",
        "tips": "Plánování vánočních svátků, videokonference s kolegy, home office, ruční čištění automobilu, servis domácího spotřebiče."
    },
    "aquarius": {
        "main": "Vaše okolí dnes projde velkou selekcí. Budete zvažovat, koho si chcete stále nechat ve své blízkosti a kdo vás jen využívá. Není to příjemná procedura, ale je nutná. Uvidíte, že na konci dne se vám vlastně uleví. Máte dobré postřehy i intuici.",
        "love": "Děláte si evidentně pořádek i mezi svými známými. Potřebujete si ujasnit, kdo stojí za vaši důvěru a pozornost.",
        "work": "Kdo jiný by dnes měl nadřízenému vytrhnout trn z paty než vy? Vaše pohotové jednání a zkušenosti jsou vhodnými předpoklady.",
        "relationships": "Najděte si koníček, který by bavil nejen vás, ale i vaši rodinku. Může to být nová sportovní aktivita nebo vědomostní hry.",
        "health": "Pokud máte zablokovanou krční páteř, prospěje vám masáž. Stačí si jen najít místo, kam se můžete objednat již dnes.",
        "tips": "Nákup exotického ovoce na trhu, asijská kuchyně, káva s přáteli ve městě, seznam vánočních dárků pro rodinu a přátele."
    },
    "pisces": {
        "main": "Polekat vás v práci mohou problémy, pod kterými je podepsaná také nějaká vaše činnost. Nenechte se hned vyvést z rovnováhy a v klidu vše analyzujte. Jistě se najde řešení, které zabrání větším škodám. Pozor tedy na paniku a chaotické jednání.",
        "love": "Své telefonní číslo dnes dejte jen tomu, kdo se vám bude intuitivně zamlouvat. Jinak buďte opatrní a rozvážní.",
        "work": "Vystresovat vás může znenadání problém, který jde evidentně za vámi. Chce to chladné vyhodnocení celé situace.",
        "relationships": "Začněte nenápadně sondovat, jaké dárky by si ostatní přáli pod stromeček. Máte nejvyšší čas na jejich pořizování.",
        "health": "Neměli byste odmítat pomoc odborníků, pokud bojujete s nějakými úzkostnými stavy a obavami. Nemáte se za co stydět.",
        "tips": "Kreativní a výtvarné techniky, podnikatelské aktivity, plánování zimní dovolené, kontrola cestovních dokladů, rekreační běh."
    }
}