{
    "aries": {
        "main": "Chybí vám vzájemné doteky a intimně strávené chvíle s partnerem. Pokud se vaše láska k ničemu nemá, chopte se příležitosti a naplánujte pro vás romantický večer ve dvou. Dobrá večeře, společná koupel a milování při svíčkách zní jako super plán.",
        "love": "Toužíte po intimních chvílích s partnerem, ten se ale k ničemu nemá. Vezměte situaci do svých rukou a vykouzlete doma romantiku.",
        "work": "Je neuvěřitelné, kolik toho dneska stihnete. Překypujete energií, tak ji neváhejte náležitě využít ve svůj prospěch.",
        "relationships": "Starost okolo domácnosti vás nudí. Neváhejte do povinností zapojit zbytek rodiny, hodně se vám uleví a oni rádi pomohou.",
        "health": "Dávejte si pozor na bolesti končetin a kloubů. Poslední dobou jste přeceňovali své síly a tělo potřebuje odpočinek.",
        "tips": "Rutinní práce okolo domácnosti, hledání nových pracovních výzev, projížďka autem, třídění šatníku, návštěva hudebního klubu."
    },
    "taurus": {
        "main": "Zahráváte si s ohněm, pokud flirtujete se zadaným člověkem. Na chvíli vás to zabaví, ale nic vážného z toho nebude. Raději vycouvejte dřív, než svým počínáním zaděláte na nepříjemnosti nejen sami sobě, ale i lidem okolo. Zakázané ovoce za to nestojí.",
        "love": "Nekomplikujte si život flirtováním se zadanou osobou. Nevzniklo by z toho nic dobrého, akorát zbytečné potíže a nepříjemnosti.",
        "work": "Máte vyvinutý smysl pro nákupy ve slevách. Dnes se vám podaří ukořistit zajímavý kousek za zlomek jeho původní ceny.",
        "relationships": "Rádi se obklopujete luxusními věcmi. Rodina vám často vyčítá, že zbytečně utrácíte. Není to ale vůbec jejich věc.",
        "health": "Najděte si nový koníček, pro který se nadchnete. Nedostatek pohybu se začíná negativně projevovat na vašem přibírání na váze.",
        "tips": "Sportování, kolektivní hry s přáteli, aktualizace životopisu, výlet do přírody, nákup potravin online, úklid domácnosti."
    },
    "gemini": {
        "main": "Využijte dnes toho, že překypujete atraktivitou a užijte si večer ve společnosti zajímavých lidí. Možná se mezi nimi objeví někdo, s kým byste si mohli rozumět a kdo by se s výhledem do budoucna mohl stát vaším partnerem. Hvězdy vám přejí a vás čeká zábava.",
        "love": "Blíženci, pokud dnes vyrazíte do společnosti, dejte si záležet na svém outfitu. Hvězdy vám přejí a o pozornost nebudete mít nouzi.",
        "work": "Nadřízený vám bude chtít udělit přesčas, vy ale jeho požadavku nevyhovíte. Na dnešek už máte jiné plány, které si nenecháte zkazit.",
        "relationships": "Měli byste více naslouchat svým blízkým. Někdy jste příliš zaslepeni svými vlastními potřebami, pro které nevidíte problémy druhých.",
        "health": "Poslední dobou nemáte nadbytek energie, takže se věnujete jen rutinním činnostem. Nic si nevyčítejte, všechno postupně doženete.",
        "tips": "Večer strávený s přáteli, zábava v klubu, taneční večírek, povídání s rodinou, nákup nového oblečení, plánování rodinné dovolené."
    },
    "cancer": {
        "main": "Máte tendence za svého partnera rozhodovat a chovat se k němu majetnicky. Měli byste si uvědomit, že ve vztahu jste si oba dva rovni a že je potřeba hledat kompromisy. Nezlobte se na něj, pokud na vás kvůli vašemu chování občas vyjede. Někdy to přeháníte.",
        "love": "K partnerovi se chováte majetnicky a jemu to vadí. Nemůžete se divit, že svou nespokojenost dává najevo a často se kvůli tomu hádáte.",
        "work": "Máte problém prosadit si v práci svůj názor. I na něm ale záleží, proto si nenechte nic líbit a rozhodně nedělejte práci za druhé.",
        "relationships": "Někoho v blízké rodině trápí zdravotní problémy, které ale neřeší. Zkuste mu domluvit a dejte mu najevo, že vám na něm opravdu záleží.",
        "health": "Po zdravotní stránce jste se zanedbávali a potíže se teď hromadí. Začněte je pěkně jednu po druhé řešit, než se to zhorší.",
        "tips": "Povídání si s blízkým člověkem, čas jen sami pro sebe, návštěva galerie, chatování online, seznamování se s novými lidmi, pečení."
    },
    "leo": {
        "main": "Do dlouhodobých vztahů se může vkrást stereotyp. Snažte se tomu předejít a vymyslete pro sebe a svého partnera nějakou společnou aktivitu. Čas strávený jen ve dvou upevní vaše vzájemné vztahy a nuda mezi vámi nebude mít sebemenší šanci.",
        "love": "Máte nepříjemný pocit, že se vám protějšek začíná vzdalovat. Měli byste na vašem vztahu zapracovat a vrátit do něho jiskru.",
        "work": "Aktuálně se pyšníte nápaditostí a fantazie u vás nezná hranice. Nadřízený si všimne aktivního přístupu k práci a náležitě vás ocení.",
        "relationships": "Pokud je toho na vás příliš, rozdělte povinnosti mezi ostatní členy domácnosti. Všechny starosti nemusí být na vašich bedrech.",
        "health": "Po zdravotní stránce se cítíte velmi dobře, ale nezakřikněte to. Snažte se stravovat vyváženě a dbejte na dostatek pohybu.",
        "tips": "Posun v kariéře, večer strávený s přáteli, návštěva tanečního klubu, sledování televize, procházka s domácím mazlíčkem, četba."
    },
    "virgo": {
        "main": "Někdy jsou vaše nároky na lidi okolo příliš vysoké. Pro vás je přirozené být ve všem perfektní, ale oni takovou potřebu nemají. Zkuste toho po nich nechtít tolik, pokud se vám podaří slevit ze svých nároků, pozitivně se to odrazí na vzájemných vztazích.",
        "love": "Na protějšek máte přehnaně vysoké nároky, kterým nedokáže dostát. Zkuste z nich alespoň trochu slevit, jinak vám partner uteče.",
        "work": "Je pro vás naprosto přirozené, že všechny úkoly dotáhnete k naprosté dokonalosti. Někdy vás to ale stojí zbytečně mnoho energie.",
        "relationships": "Od rodiny požadujete, aby se zapojili do domácích prací. Pokud jim to ale dáte příkazem, nesetkáte se se zájmem. Jděte na to jinak.",
        "health": "Pravidelný pohyb by vám rozhodně neuškodil. Pokud na to nechcete být sami, najděte k sobě parťáka a vzájemně se podporujte.",
        "tips": "Cvičení ve dvou, úklid domácnosti, třídění šatníku, návštěva umělecké galerie, bowling s přáteli, odpočinek u televize."
    },
    "libra": {
        "main": "Váhám v dubnu hvězdy přejí a jsou nakloněny poznávání nových lidí. Vy ale trávíte mnoho času doma, kde nikoho nepotkáte. Vylezte ze své komfortní ulity a vydejte se do společnosti, kde již brzy potkáte někoho, kdo vám do budoucna pozitivně ovlivní život.",
        "love": "Milé Váhy, dubnové dny přejí seznamování s novými lidmi. Pokud ale budete sedět doma, nikoho nového rozhodně nepotkáte.",
        "work": "Současné zaměstnání vás nenaplňuje. Po pracovní stránce máte úplně jiné cíle a je čas, abyste si za nimi šli.",
        "relationships": "Motivujte dnes rodinu do společných aktivit. Využijte proto příznivého počasí a vydejte se na pěkný rodinný výlet.",
        "health": "Energie vám nechybí a byla by škoda, pokud byste dnes vynechali cvičení. Výsledky začínají být vidět, tak nepolevujte.",
        "tips": "Výlet s rodinou, hledání nových pracovních výzev, seznamování se s novými lidmi, večer strávený s přáteli, příprava teplé večeře."
    },
    "scorpio": {
        "main": "Milí Štíři, pokud právě pracujete na novém vztahu, ještě není správný čas vyznávat druhé straně své city. Protějšek si není jistý, co si od vašeho vztahu slibuje a nečekaným vyznáním lásky byste ho mohli vystrašit. Raději ještě počkejte, než se vyslovíte.",
        "love": "S city k novému protějšku se mějte na pozoru. Začínáte hořet láskou, ale druhá strana ještě nemá jasno, co si od vztahu slibuje.",
        "work": "Podlé chování kolegy v práci vás vytočí. Není to poprvé, co využil dobroty druhých ve svůj prospěch. S tímto nesouhlasíte.",
        "relationships": "Blízký člověk vám dá dobrou radu, kterou si zapamatujte. Do budoucna by pro vás mohla být přínosem, tak na ni nezapomeňte.",
        "health": "Momentálně jste v celkem dobré kondici, rozhodně byste ale neměli polevovat. Buďte na sebe pyšní, co všechno jste už dokázali.",
        "tips": "Jízda na kole, turistika, plánování jídelníčku, hledání kroužků pro děti, kolektivní sporty s přáteli, sledování televize."
    },
    "sagittarius": {
        "main": "Nebojte se svému partnerovi otevřeně říci, že ve vztahu potřebujete více svobody. On to má možná jinak a více se na vás upíná. V klidu mu vysvětlete, jak se věci mají a že vaše potřeba svobody rozhodně nemá nic společného s nevěrou. Předejdete pochybnostem.",
        "love": "Milujete svobodu a vadí vám, že vás v tomto ohledu partner omezuje. Bude nejlepší, když si o tom otevřeně popovídáte.",
        "work": "Práce vás baví a je to vidět. I nadřízený si všímá, že se na zadaných úkolech snažíte, a brzy vás čeká něco pozitivního.",
        "relationships": "Nenechte se vtáhnout do sporů v rodině, které se vás netýkají. Byly by to pro vás jen zbytečné starosti, kterým je lepší se vyhnout.",
        "health": "Věnujte dnes čas kontrole domácí lékárničky. Nikdy nevíte, co se vám bude hodit, je důležité mít léky v pořádku a zbavit se prošlých.",
        "tips": "Pořádek v domácí lékárničce, povídání si s partnerem, venkovní sport, práce na zahrádce, sledování seriálů v televizi, tanec."
    },
    "capricorn": {
        "main": "Do nového vztahu jste vstoupili s přehnaně vysokým očekáváním, které se bohužel proměnilo ve velké zklamání. S partnerem jste se neshodli na společných vizích a ze vztahu nakonec nebylo nic. Snažte se tím tolik netrápit a buďte otevřeni novým výzvám.",
        "love": "Od nového vztahu jste si slibovali až příliš a teď jste zklamaní, že z toho nevzešlo nic dobrého. Příště nemějte taková očekávání.",
        "work": "Vaše pracovní nasazení často hraničí s posedlostí. Zkuste alespoň trochu ubrat, jinak riskujete pracovní vyhoření.",
        "relationships": "Rodině jdete příkladem, že pokud si stanovíte nějaký cíl, vždycky ho dosáhnete. Nepolevujte a neusínejte na vavřínech.",
        "health": "Úterní den se u vás ponese v poklidném duchu. Nevadí, pokud vynecháte pravidelnou sportovní aktivitu a odpočinete si.",
        "tips": "Lenošení u televize, aktualizace pracovního životopisu, hledání nových životních výzev, posezení s přáteli, degustační večeře, relaxace."
    },
    "aquarius": {
        "main": "Pokud žijete v dlouhodobém vztahu a máte pocit, že láska vašeho miláčka už není tak silná jako dříve, neváhejte se ho zeptat, jestli je všechno v pořádku. Možná jen řeší nějaké osobní problémy, které s láskou vůči vám nesouvisí, a vy se jen zbytečně trápíte.",
        "love": "Vaše láska k partnerovi neustále roste, zatímco ta jeho jako by skomírala. Zajímejte se, jestli je mezi vámi všechno v pořádku.",
        "work": "Po pracovní stránce se dneska nepřetrhnete. Splníte jen nutné povinnosti a do ničeho navíc se pouštět nebudete.",
        "relationships": "Máte pocit, že jste v rodině páté kolo u vozu. Možná by neuškodilo říci čas od času svůj vlastní názor a nestát tiše v koutě.",
        "health": "Jestliže se vám dneska do ničeho nechce, nenuťte se na sílu. Uděláte mnohem lépe, pokud si pořádně odpočinete a vyspíte se.",
        "tips": "Čas strávený s partnerem, romantická večeře při svíčkách, horká bublinková koupel, lenošení u knihy, chatování s přáteli online."
    },
    "pisces": {
        "main": "Pokud se necítíte na vážný vztah, nenechte se do ničeho nutit. Více vám teď vyhovuje kamarádství s výhodami, kde si každý přijde na své, ale vzájemně jeden od druhého nemáte přehnaně vysoká očekávání. Názory druhých vás nemusí zajímat, je to váš život.",
        "love": "Na vážný vztah se teď necítíte. Místo toho dáváte přednost kamarádství s výhodami. Rozhodně si to nevyčítejte.",
        "work": "Přestaňte na sebe přebírat povinnosti druhých. Nadřízený to neocení a vás to stojí zbytečně mnoho energie.",
        "relationships": "Měli byste se věnovat rodině, která vás potřebuje. Pro pracovní vytížení jste neměli na blízké tolik času, tak jim to vynahraďte.",
        "health": "Najděte si dnes alespoň chvíli na pravidelný pohyb. Znáte se a víte, že pokud polevíte, nedostanete se zpátky do tempa.",
        "tips": "Práce na zahrádce, čas strávený s rodinou, hraní společenských her, poslech motivačního podcastu, relaxace u televize."
    }
}