{
    "aries": {
        "main": "Vaše povaha často ovlivňuje to, jak jednáte s druhými lidmi. Mnohdy totiž daleko dříve mluvíte, než přemýšlíte a často tak řeknete něco, čím lidem okolo sebe ublížíte. Zvláště ve vzteku máte potíže ovládat své emoce, ale i na tom se dá pracovat.",
        "love": "Někdy jste příliš horká hlava a skálopevně si stojíte za svým názorem. Neuškodilo by tu a tam slevit ze svých nároků a ustoupit.",
        "work": "Pokud dnes dostanete příležitost investovat peníze, neváhejte. Do budoucna budete z této investice příjemně těžit.",
        "relationships": "Nepouštějte se dnes do sporů s blízkými členy rodiny. Ve finále byste to byli vy, komu by to všichni ostatní vyčítali.",
        "health": "Toužebně očekáváte víkend a do ničeho se vám nechce. Energii si pro následující dny dobře rozvrhněte, ať vám nechybí.",
        "tips": "Odpočinek u televize, třídění šatní skříně, mytí oken, procházka na čerstvém vzduchu, úklid koupelny, koncert oblíbené kapely."
    },
    "taurus": {
        "main": "Nevyčítejte si, že vztah s aktuálním partnerem ukončíte. Jeho chování překračuje meze vaší trpělivosti. Nemá cenu setrvávat v něčem, co podle vás nefunguje, jen ze strachu, že budete sami. Milí Býci, nezoufejte. Již brzy vám do života vstoupí někdo nový.",
        "love": "Aktuální protějšek se vám zprotiví natolik, že se rozhodnete vztah ukončit. Do nové známosti se nevrhejte po hlavě.",
        "work": "Dnes není nejlepší den na to, abyste se v práci snažili prosadit své názory. Všímejte si svého a o ostatní se vůbec nestarejte.",
        "relationships": "Pokud vám vadí, že jistý člen rodiny mluví do vašeho života a má hloupé řeči, jasně mu ukažte, kde jsou vaše hranice.",
        "health": "Ve čtvrtek uděláte nejlépe, když se posadíte do gauče, uvaříte si hrnek horkého čaje, dáte si nohy nahoru a sportu se vyhnete.",
        "tips": "Lenošení televize, chatování s přáteli, zkoušení nových věcí, nákup potravin online, bowling, sauna, přemýšlení o životě."
    },
    "gemini": {
        "main": "Jakožto zrozenec ve znamení Blížence jste neuvěřitelně komunikativní typ. Lidé okolo vás s vámi ale často nedokážou udržet krok. Vám přitom nedojde, že oni nepotřebují tak moc mluvit jako vy, takže je svou komunikativní povahou někdy otravujete.",
        "love": "Jste komunikativní typ a potřebujete neustále nové podněty pro rozhovory. Svou potřebou mluvit ale často rozčilujete svého milého.",
        "work": "Pracovat z domu je velká výhoda, dejte si ale pozor, abyste se nenechali zbytečně rozptylovat. Musíte dokončit zadané úkoly.",
        "relationships": "Rodina je pro vás na prvním místě. Vymyslete proto společnou aktivitu, které se dnes budete moci všichni věnovat.",
        "health": "Ani ve čtvrtek se nenecháte zastavit a budete se věnovat sportu, pro který jste se nadchli. Nepolevujte, zdraví vám poděkuje.",
        "tips": "Cvičení, čas s rodinou, projížďka autem, úniková hra s přáteli, degustační večeře, luštění křížovek, poslech podcastu."
    },
    "cancer": {
        "main": "Jste-li v novém vztahu, dejte si pozor, abyste svému protějšku city nevyznali až příliš rychle. Mohlo by ho to vylekat. Ryby mající rodinu by měli na blížící se víkend naplánovat nějakou společnou aktivitu, která dokáže zabavit malé i velké členy.",
        "love": "Nedávejte na sobě tolik znát city k novému protějšku. Příliš rychlým vyznáním lásky byste ho mohli vylekat a odehnat od sebe.",
        "work": "Milí Raci, čtvrteční den nebudete mít náladu na náročné pracovní úkoly. Splňte proto jen to, co je nutné, zbytek počká na zítra.",
        "relationships": "Naplánujte na blížící se víkend nějaký rodinný výlet. Už dlouho jste společně nikde nebyli a všichni si zasloužíte nové zážitky.",
        "health": "Máte-li pocit, že se o vás pokouší jarní deprese, zažeňte ji aktivitami, které vám dělají radost. Špatná nálada nebude mít šanci.",
        "tips": "Plánování víkendového výletu, práce na nenáročných úkolech, čas strávený s rodinou, poslech hudby, procházka, spánek."
    },
    "leo": {
        "main": "Někdy si od druhých vyžadujete přehnaně mnoho pozornosti. Zkuste trochu ubrat, protože je tím často vytáčíte. Svět se, milí Lvi, netočí jen okolo vás. V partnerském životě zapracujte na stylu komunikace. Měli byste se s partnerem shodnout, nestát proti sobě.",
        "love": "Toužíte po pozornosti, které se vám nedostává. Milí Lvi, spolkněte někdy tu svou hrdost a uskromněte se. Neuškodí vám to.",
        "work": "Máte před sebou vidinu blížícího se víkendu a v práci polevíte. Nadřízený ale pro vaše pomalé tempo nebude mít žádné pochopení.",
        "relationships": "Nesouhlasíte se stylem výchovy, který váš partner preferuje. Měli byste se k této věci postavit společně, jinak to odnesou děti.",
        "health": "Ve čtvrtek už nemáte tolik energie, přesto se ale přemluvíte do nějaké aktivity. Pokud se vám nechce o samotě, oslovte partnera.",
        "tips": "Venkovní sport, práce na zahrádce, plánování dovolené, večer s přáteli v klubu, karaoke, bowling, poslech motivačního podcastu."
    },
    "virgo": {
        "main": "Milé Panny, jste puntičkáři, kteří chtějí mít všechno ve svém životě dokonalé. Mnohdy ale očekáváte dokonalost i od lidí okolo sebe, které neustálým poukazováním na jejich nedostatky vytáčíte. Zamyslete se, jestli je tohle přesně to, na čem v životě záleží.",
        "love": "Nehledejte na svém partnerovi chyby. Budete-li na ně opakovaně upozorňovat, brzy vezme nohy na ramena a uteče od vás.",
        "work": "Dáváte si záležet a na pracovních výkonech je to znát. Ostatním kolegům byste mohli jít příkladem, ale pozor na sebechválu.",
        "relationships": "Máte přehnaně vysoké nároky na úklid domácnosti. Rodina vám vyčítá, že více času trávíte úklidem než společnou aktivitou.",
        "health": "Čtvrteční den vás nezastaví, energie máte pořád dost, tak ji přeměňte k něčemu užitečnému, třeba cvičení v posilovně.",
        "tips": "Cvičeni v posilovně, čas strávený s rodinou, koupě nového oblečení, návštěva muzea, jízda na bruslích, hry na mobilu, relax."
    },
    "libra": {
        "main": "S partnerem jste na sebe poslední dobou neměli moc času, proto dnes zatoužíte po romanticky stráveném večeru. Vezměte plány do svých rukou a vše zařiďte tak, abyste se mohli věnovat sami sobě. Svého partnera tím mile překvapíte a uděláte mu radost.",
        "love": "Rádi byste dnes s partnerem strávili romantický večer ve dvou. Zajistěte hlídání pro děti a zamluvte stůl v nějaké pěkné restauraci.",
        "work": "Druhá polovina týdne pro vás bude příslibem nových pracovních výzev. Mějte oči dokořán, ať tu správnou příležitost nepřehlédnete.",
        "relationships": "Nenechte si od rodiny mluvit do výchovy dětí. Sami dobře víte, že pro ně děláte to nejlepší, a nevyžádané tipy nepotřebujete.",
        "health": "Nepřehánějte to s kofeinem. Možná vás dokáže nabudit, ale efekt je jen krátkodobý. Tělo vám naznačuje, že je třeba ubrat.",
        "tips": "Přemýšlení o životě, procházka na čerstvém vzduchu, plavání, sauna, návštěva výstavy, koupě lístků na letní koncert, tanec."
    },
    "scorpio": {
        "main": "Uděláte nejlépe, když se od problémů jiných členů rodiny budete držet dál. Jestliže se vás dané potíže netýkají, nechte ostatní, ať si je vyřeší. Mohlo by se stát, že by se problémy snažili přehodit na vás a vy byste zase měli o starosti navíc.",
        "love": "Milí Štíři, nesnažte se od sebe odhánět lidi, na kterých vám záleží. S tímto přístupem jednou skončíte úplně sami.",
        "work": "I když se dnes budete muset do plnění pracovních povinností přemlouvat, nakonec budete rádi, že jste stihli všechno potřebné.",
        "relationships": "Nezasahujte do problémů jiných členů rodiny. Pokud se vás to netýká, bude lepší, když se do toho vůbec nebudete motat.",
        "health": "Lenost nad vámi dnes zvítězí. Nevyčítejte si, že projednou vynecháte pohyb. Zítra si to budete moci náležitě vynahradit.",
        "tips": "Lenošení u televize, telefonát s příbuznými, plánování jídelníčku, večeř z donáškové služby, hry na mobilu, četba zajímavé knihy."
    },
    "sagittarius": {
        "main": "Milí Střelci, snažte se udržet svou aktivní povahu trochu na uzdě. Pokud jste v novém vztahu, neměli byste být na svůj protějšek příliš rychlí. Sami už jste se díky svému neuváženému chování nejednou v druhém člověku zklamali. Buďte více obezřetní.",
        "love": "Začínáte-li nový vztah, snažte se do něho nevrhat po hlavě. Už několikrát jste se kvůli své zbrklosti nehezky zklamali.",
        "work": "Pozor na prokrastinaci. Nadřízený si poslední dobou hlídá vaše výkony, tak ať si nezaděláte na nepříjemnosti v zaměstnání.",
        "relationships": "Blízká osoba vás požádá o půjčení peněz. Dobře zvažte, jestli si v tuhle chvíli můžete dovolit být vůči druhým takto vstřícní.",
        "health": "Ve druhé polovině týdne s pohybem trochu polevíte. Pociťujete na sobě začínající nachlazení, tak raději více odpočívejte.",
        "tips": "Odpočinek u seriálu, povídání si s blízkými, přemýšlení o životě, třídění šatníku, úklid koupelny, nákup nového oblečení."
    },
    "capricorn": {
        "main": "Nemáte pořádek v prioritách. Často dáváte přednost práci před partnerským životem a je logické, že se to vaší drahé polovičce přestává líbit. Pokud vám na vztahu záleží, začněte se jeden druhému více věnovat, jinak by mezi vámi mohlo dojít k rozchodu.",
        "love": "Dáváte přednost práci před partnerem. Tomu se to nelíbí a začíná zvažovat rozchod. Srovnejte si priority, než bude pozdě.",
        "work": "Dnes dokážete všechno, co si zamanete. Dokonce ani náročné pracovní úkoly vám nebudou trvat překvapivě dlouhou dobu.",
        "relationships": "Dejte si pozor na to, co říkáte lidem okolo sebe. Máte v blízkosti člověka, který se vyžívá v pomluvách, tak pozor na jazyk.",
        "health": "Týden se překlopil do druhé poloviny a vy máte energie na rozdávání. Využijte ji i pro náročnější fyzické aktivity.",
        "tips": "Cvičení, turistika, plánování dovolené, večeře v luxusní restauraci, bowling s přáteli, taneční klub, přemýšlení o životě."
    },
    "aquarius": {
        "main": "Máte vtíravý pocit, že někdo z rodiny nutně potřebuje vaši pomoc. Možná se stydí říci si o ni nahlas, proto udělejte první krok a zajímejte se, jestli je v jejich životě všechno v pořádku. V novém vztahu máte problém plně důvěřovat, nespěchejte na sebe.",
        "love": "Otálíte s důvěrou vůči novému protějšku. Nejste si jistí, jestli to s vámi myslí vážně, proto stále váháte. Nevyčítejte si to.",
        "work": "Dnes se zrovna nepředřete. Pokud se chcete ulít z práce, alespoň si dejte pozor, ať vás u toho nevidí váš nadřízený.",
        "relationships": "Najděte si dnes čas a zavolejte vzdáleným příbuzným. Něco uvnitř vám říká, že někteří z nich potřebují vaši pomoc.",
        "health": "Čtvrtek se ponese v poklidnějším módu. Místo náročného cvičení si běžte třeba zaplavat a pak si dejte pár minut saunu.",
        "tips": "Plavání v bazénu, sauna, odpočinek, návštěva kadeřníka, večeře z donáškové služby, večer strávený s přáteli, telefonát příbuzným."
    },
    "pisces": {
        "main": "Povinnosti se na vás valí ze všech stran a na vás už toho začíná být příliš. Neuškodí, pokud do práce okolí domácnosti zapojíte i zbytek rodiny. V lásce se vám daří, jste zamilovaní a všichni okolo vás vám novou známost přejí. Tenhle čas si užívejte.",
        "love": "Jste zamilovaní až po uši a je to na vás vidět. Užívejte si začátky vztahu, které jsou nejkrásnější, a věnujte se jeden druhému.",
        "work": "Blížící se konec pracovního týdne na vás působí negativně. Do práce se musíte nutit a nic vás nebaví. Ještě to vydržte.",
        "relationships": "Povinnosti v rodině rozdělte mezi všechny členy domácnosti. Uvidíte, že když toho na vás nebude tolik, hodně se vám uleví.",
        "health": "Pokud dnes budete cvičit, dávejte na sebe pozor. Hrozí, že byste se mohli poranit, tak si pohlídejte zejména končetiny.",
        "tips": "Nenáročné cvičení, úklid domácnosti, poslech hudby, plánování víkendového výletu, návštěva muzea, jóga, meditace, koupel."
    }
}