{
    "aries": {
        "main": "V reálném světě nebudete nacházet dostatek duševních podnětů. Nyní je vám bližší svět duchovna a umění, zkrátka svět fikce. Možná se proto ve svém zaměstnání budete silně nudit. Také přízemní domácí povinnosti dnes bez výčitek přenecháte ostatním.",
        "love": "Seznamování vás bude opravdu bavit, sebejistota a kouzlo osobnosti z vás přímo sálá. Budete jedním slovem neodolatelní.",
        "work": "Budete nuceni věnovat se dost nezáživné práci. Dobře ale víte, že udělat se prostě musí, takže odhodlaně zatnete zuby.",
        "relationships": "Blízký vám představí svůj nový protějšek. Bude čekat, jak zareagujete, a vy ho nezklamete. Dotyčný vám bude sympatický.",
        "health": "Největší množství své energie věnujete lásce. Možná promilujete celou noc a zítra dopoledne budete sladce vyspávat.",
        "tips": "Navazování kontaktů, pozvání na rande, odpovídání na seznamovací inzeráty, milostné schůzky, romantická večeře, tanec."
    },
    "taurus": {
        "main": "Navážete cenná pracovní i osobní přátelství. Dostanete příležitost k seznámení s lidmi, kteří jsou naladění na stejné vlnové délce. Některé osoby mohou být dokonce v určitém spojení s vaším oborem. Poznáte, že jsou to zajímaví a inspirativní lidé.",
        "love": "K oslovení přitažlivé osoby se dnes asi nerozhoupete. Zatím ji budete jen okukovat zpovzdálí a vysílat nesmělé signály.",
        "work": "Zdá se, že šéf si ty nejšťavnatější úkoly pro vás schovával na samý konec pracovního týdne. V pátek dostanete zabrat.",
        "relationships": "V pátek bude vaším ideálem klidný domácí večer s rodinou. Na rušnou zábavu dojde o víkendu, dnes toužíte jen relaxovat.",
        "health": "Pokud zjistíte, že se o vás pokouší nějaká viróza, ihned zahajte důslednou samoléčbu. Budete na to mít celý víkend.",
        "tips": "Práce na nových úkolech, přesčas, nákup dárků pro blízké, pěstování bylinek, klidný rodinný večer, odpočinek u televize."
    },
    "gemini": {
        "main": "Bohyně lásky Venuše vám na Hromnice otevírá svou náruč, takže můžete očekávat příjemné události. Tato srdcová královna se usídlila ve znamení Kozoroha a pod jeho ohnivou taktovkou bude akční. Veškeré události tak mohou nabrat nečekaně rychlý spád.",
        "love": "Nezadaní se snadno seznámí, zadaní mohou svůj současný vztah posunout o velký kus dál. Vy jste na změny připraveni.",
        "work": "Dnes máte sklon k unáhleným krokům. Nebudete zkoumat klady a zápory různých řešení, hlavně, aby byl úkol brzy hotov!",
        "relationships": "Vážíte si toho, že vaši nejbližší umějí držet slovo a plnit své sliby. Nyní by ale některý z nich mohl něco opomenout.",
        "health": "Poslech hudby vás večer uvolní a dostane do pohody. Nemusí vůbec jít o relaxační nahrávky, záleží čistě na vašem vkusu.",
        "tips": "Oslovení milostného idolu, žádost o ruku, stěhování, založení rodiny, návštěva koncertu oblíbené hudby, taneční zábava."
    },
    "cancer": {
        "main": "Vaše mimořádně smířlivé naladění bude pokračovat. Pátek bude ideálním dnem pro urovnání nejrůznějších rozepří. Budete postupovat velmi citlivě a vážit svá slova tak, aby měla optimální účinek. Všechny konflikty vyřešíte tou nejschůdnější cestou.",
        "love": "Hádky se svým protějškem se dnes snažte utnout v samých začátcích. Později už by se vám to nemuselo tak snadno podařit.",
        "work": "Partner vám teď snadno může vyčíst, že vaše kariéra je vám přednější než on sám. Může dokonce přijít s jasným ultimátem.",
        "relationships": "Nějaký čin nebo slova člena rodiny budete vnímat jako křivdu. On ale možná ani netuší, jak hluboce se vás to dotklo.",
        "health": "Vaše hlava může na přetížení reagovat bolestí. Může jít nejen o přepracování, ale i nápor různých stresových situací.",
        "tips": "Promýšlení efektivního pracovního harmonogramu, debata s nadřízeným, opatrná partnerská komunikace, relaxační techniky."
    },
    "leo": {
        "main": "Budete mít tendence odsuzovat činy blízkých. Kdekdo vám bude připadat jako budižkničemu, aniž by se o to nějak zasloužil. Zavděčit se vám dnes může být skoro nadlidský úkol. Zkuste se vzpamatovat dřív, než to za svou kritiku schytáte ze všech stran.",
        "love": "Příslušníky opačného pohlaví budete okouzlovat přitažlivým zjevem a vaše výřečnost to jenom završí. Budete neodolatelní.",
        "work": "Přebytky v rodinném rozpočtu nebudete bezhlavě investovat. Pořádně se rozmyslíte, kde jsou teď finance nejvíc potřeba.",
        "relationships": "V mezilidském kontaktu nebudete nic lámat přes koleno. Pokud si s někým nerozumíte, není důvod, abyste se ještě viděli.",
        "health": "Všechny pracovní nástrahy pátečního dne překlenete s klidnou myslí. Bude vám v tom pomáhat vidina blízkého víkendu.",
        "tips": "Navazování pracovních a osobních kontaktů, rande, kontrola a úpravy domácího rozpočtu, plánování víkendového programu."
    },
    "virgo": {
        "main": "Celkový pohled na vaši kariéru napovídá, že máte skvělé předpoklady pro úspěch a růst. V pracovních záležitostech si stojíte velmi dobře, můžete jet svým klidným tempem a vše vám půjde dobře od ruky. Rozhodně se nenecháte do ničeho bezhlavě tlačit!",
        "love": "Protějšek vám může nespokojeně vyčíst, že ho poslední dobou jen kritizujete. Potěšte ho vyznáním, co na něm máte rádi!",
        "work": "Na nakupování ve velkých centrech už v pátek opravdu nebudete mít náladu. To raději obejdete několik menších obchůdků.",
        "relationships": "V pátek večer vás potěší nějaká příjemná návštěva. Nemáte ale chuť vzdalovat se z domova, takže sami někoho pozvete.",
        "health": "Jestliže jste dnes v práci museli čelit stresu, doma na to okamžitě úspěšně zapomenete. Budete si užívat klid a pohodu.",
        "tips": "Rozvíjení kariéry, podnikatelské kroky, procházka cestou domů, černá hodinka s rodinou, příjemná návštěva, relaxace."
    },
    "libra": {
        "main": "Milé Váhy, máte před sebou rušný měsíc, v němž se bude střídat vitalita a pohoda s jistou dynamikou a napětím. Máte proti sobě planetární stellium, o jehož posilu se stará i vaše vládkyně Venuše. To vás může vyvádět z rovnováhy, harmonie bude ta tam!",
        "love": "V pátek večer nebudete mít chuť polehávat doma, právě naopak. Rádi byste si zařádili s přáteli na nějaké společné akci.",
        "work": "Některý kolega se špatně vyspal a bude rýpat do všech kolem. Vy se ale proti jeho nepříjemným poznámkám rychle vymezíte.",
        "relationships": "Konflikty v blízkých vztazích budete řešit hned za tepla. Chcete předejít tomu, aby postupně přerostly ve vleklé spory.",
        "health": "O svých problémech teď nebudete zdlouhavě přemýšlet a teoretizovat. Dokážete si včas vybrat jedno z možných řešení.",
        "tips": "Částečný home office, otevřené rozhovory s členy rodiny, večerní zábava s kamarády, společenské akce, taneční večírek."
    },
    "scorpio": {
        "main": "Objeví se finanční příležitosti, kterých jste si dosud nevšímali. Jako důležité se jeví charitativní směrování, zde se může ve finále neplánovaně objevit zisk. Neptun se Sluncem mají za lubem postarat se o výraznou kreativitu a následný úspěšný boom.",
        "love": "Váš partner bude večer unavený, takže je pravděpodobné, že zamítne vaše návrhy na společenskou zábavu. Tak až o víkendu!",
        "work": "Na své železné finanční rezervy jste rozhodnuti sáhnout až v krajní nouzi. U vás opravdu nehrozí, že byste je rozházeli.",
        "relationships": "Pokud vás něco trápí, nebudete mít chuť se s tím nikomu svěřovat. Ani vaši nejbližší to z vás dnes snadno nedostanou.",
        "health": "Jestliže vás během dne rozbolí hlava, odpovězte si na otázku, zda nezapomínáte pít. V zimě nebývá žízeň tak naléhavá.",
        "tips": "Tvůrčí práce, navazování kontaktů, hledání možností přivýdělku, charitativní činnost, účast na společenských událostech."
    },
    "sagittarius": {
        "main": "První únorové dny budou ve znamení milostných záležitostí. Zadaným hvězdy chystají vhodné klima pro láskyplné souznění, ale i extra vášnivé intimní chvilky. Nezadaným mohou poslat do cesty protějšek jejich snů, jako by jim spadl přímo z nebe.",
        "love": "Večer se rádi sejdete s přáteli a uvolněně si popovídáte o všem možném. Možná načerpáte inspiraci i pro své další kroky.",
        "work": "Své pracovní plány můžete snáze než jindy převést do reality. Všechno jste dobře promysleli, a teď přišel čas konat.",
        "relationships": "Ohledně trávení pátečního večera bude mít každý člen rodiny jinou představu. Společné zážitky si tedy necháte na víkend.",
        "health": "Skoncování s dlouholetými zlozvyky teď pro vás nebude ničím nepředstavitelným. Nebudete dlouho váhat a půjdete do toho.",
        "tips": "Start nových projektů, pracovní prezentace a pohovory, diskuze s nadřízeným, změny životního stylu, debaty s přáteli."
    },
    "capricorn": {
        "main": "V pátek se budete věnovat především likvidaci pracovních restů, které jste do konce měsíce nestihli dodělat. Měli byste na to mít dostatek klidu, protože hvězdy nehlásí žádné přepadovky vašich nadřízených, kteří by pro vás měli nové úkoly.",
        "love": "Dnes si budete užívat komplimenty okolí, i když jindy vás spíše uvádějí do rozpaků. Nebudete se jich málem moci nabažit.",
        "work": "Oběd v pátek možná vynecháte, přemíra práce vás k tomu donutí. Cestou domů se ale za odměnu zastavíte v restauraci.",
        "relationships": "Doma budete mít sklon mluvit o práci a probírat různé problémy. Vaši blízcí vás neutnou, ale s pochopením vyslechnou.",
        "health": "Po náročném pracovním dni vás mohou přepadnout bolesti zad. Uvědomíte si, že bez vhodného cvičení se už neobejdete.",
        "tips": "Uvážlivé nakládání s financemi, porada s členy rodiny, oběd či večeře v nové restauraci, fyzioterapie, cvičení na míči."
    },
    "aquarius": {
        "main": "Hvězdy vás obdarovávají schopností naplno vyjádřit všechny vaše nápady a teorie. Výhodou bude, že vašemu způsobu vyjádření všichni skvěle porozumí. Chcete-li psát, zahajovat projekty či třeba zakládat nové webové stránky, máte ten nejpříhodnější čas!",
        "love": "Na partnera můžete večer působit trochu nepřístupně. Po nějaké době se ale vzpamatujete a dostanete chuť na zábavu.",
        "work": "Dlouhodobě nespokojení zaměstnanci začnou vážně přemýšlet o změně zaměstnání. Nebo že byste dokonce začali podnikat?",
        "relationships": "Chtěli jste s rodinou probrat něco důležitého, ale necháte to až na víkend. Dnes už si všichni potřebujete odpočinout.",
        "health": "Virové infekce nejsou v zimním období žádnou výjimkou. Vy jim ale v současnosti úspěšně čelíte, vaše imunita to zvládá.",
        "tips": "Pracovní prezentace, tvůrčí psaní, přednášková činnost, psaní blogu, vytvoření podnikatelského plánu, debaty s blízkými."
    },
    "pisces": {
        "main": "Vaše blízké vztahy budu jen vzkvétat. Nemusíte se obávat žádných konfliktů, právě naopak. Od svého protějšku se můžete dočkat milého překvapení, stejně tak jako od dalších spřízněných lidí kolem sebe. Porozumění bude hladké i s neznámými osobami.",
        "love": "Dnes budete mít oči jenom pro svůj protějšek a on na tom bude stejně. Můžete si tedy užít velmi romantické chvilky.",
        "work": "Dnes si rozhodně nenecháte vnutit žádné zboží, o které nestojíte. Občas se necháte přemluvit, ale teď budete neoblomní.",
        "relationships": "Se svými blízkými si večer maximálně vyhovíte. Nemá-li nikdo chuť připravovat večeři, klidně si necháte něco dovézt.",
        "health": "Procházky vám svědčí, jsou vhodným předělem mezi pracovním vypětím a odpočinkem. Rádi se projdete cestou ze zaměstnání.",
        "tips": "Práce na vlastních projektech, milostné schůzky, romantická večeře, odjezd na víkendový pobyt, ples nebo taneční zábava."
    }
}