{
    "aries": {
        "main": "Po pracovní stránce se vám závěr týdne nezdá příznivý. Častější hádky mezi spolupracovníky se odráží na kvalitě odvedené práce. Dnes máte pocit, že jste za ni zodpovědní, a tak se do situace vložíte. Opatrnost a trocha chameleónství jsou nezbytné.",
        "love": "Požitkářství vám nedovolí věnovat se večer ničemu jinému než rozmazlování vaší tělesné schránky. S partnerem vás čeká rodeo.",
        "work": "V zaměstnání si jdete tvrdě za svým a opravdu se nadřete. Měli byste si však na chvíli oddechnout. Najděte si na sebe čas.",
        "relationships": "Naplánujete si domácí práce, které byste o víkendu rádi zvládli. V týdnu na ně nedošlo a už vás to začíná znervózňovat.",
        "health": "Pokud se dnes zvládnete oprostit od negativních emocí, bude to lepší pro vás i pro široké okolí. Hrozí vám nervozita.",
        "tips": "Zaučení nového kolegy, týmová práce, jednání na úřadech, reklamace zboží, nákup módních doplňků, ajurvédské masáže."
    },
    "taurus": {
        "main": "Otázky vašeho domácího zázemí neprobíhají právě na jedničku a novoluní ve Vodnáři vám v pátek odklání ten správný vítr. Teď může napětí kulminovat. Jádro problému se ukazuje v duelu partnerský vztah versus kariéra, což se přenáší do atmosféry v celé rodině.",
        "love": "Drobné dárky a romantické maličkosti dokážou okořenit vztah víc, než si umíte představit. Partner čeká, čím ho překvapíte.",
        "work": "Nebojte se na pracovišti prosadit své nápady. Jejich originalita se nezapře, ale mohou být pro kolegy v lecčem přínosné.",
        "relationships": "Potomci se vám dnes snaží dát najevo, že už jsou dospělí. Přestože si o tom myslíte své, některé aktivity jim povolíte.",
        "health": "Lámavé nehty a špatná kvalita vlasů mohou upozorňovat na oslabení organismu. Je vhodná doba k preventivním prohlídkám.",
        "tips": "Návštěva divadla, kina nebo výstavy, umělecký kurz, tvůrčí psaní, četba románů, meditace, tvořivé koníčky, hry s dětmi."
    },
    "gemini": {
        "main": "V profesní sféře vypadá první polovina měsíce slibně. Svítá na lepší časy a otevírá se vám spousta zajímavých možností. Novoluní nad vámi drží ochrannou ruku a přinese do vašeho života nové kontakty, které pro vás v budoucnu mají být velkým přínosem.",
        "love": "Setkávání se s neznámými lidmi je pro vás dnes atraktivnější než obíhání návštěv u kamarádů. Však na ně o víkendu dojde.",
        "work": "Dnes je načase udělat si jasno v rodinném účetnictví. Nemáte přehled o tom, kolik vás měsíčně stojí jednotlivé výdaje.",
        "relationships": "Odjezd někoho blízkého do zahraničí vás zasáhne víc, než jste předpokládali. Zamyslíte se nad spoustou důležitých věcí.",
        "health": "Z dlouhého namáhání očí vám hrozí bolesti hlavy a rozostřené vidění. Je načase nechat si zrak zkontrolovat lékařem.",
        "tips": "Navazování nových kontaktů, návštěva zajímavé přednášky či semináře, plánování preventivních prohlídek, taneční večírek."
    },
    "cancer": {
        "main": "Ke svému protějšku teď budete znatelně upřímnější. Svěříte se mu se svými nejniternějšími pocity i případnými problémy, které se vám honí hlavou. Vašemu vztahu to může dost pomoci. Jenom byste měli volit slova a neprozradit na sebe první poslední.",
        "love": "Zjistíte, že současný partner je přesně to, co potřebujete. Na žádné bokovky ani občasné povyražení nemáte pomyšlení.",
        "work": "Budete muset čelit více úkolům, než je koncem týdne milé. Pozitivní ovšem je, že tím méně vám jich zbude na pondělí.",
        "relationships": "Nevycházíte s lidmi, kteří to hrají na všechny strany. Pokud zaznamenáte jen náznak falše, držíte si dotyčného od těla.",
        "health": "Při dlouhodobém vysedávání u počítače si dávejte pozor na bolesti hlavy. Mohou plynout z namáhání očí i krční páteře.",
        "tips": "Utužování partnerského vztahu, četba odborných knih, sledování dokumentů, samostudium, pití bylinkových čajů, spánek."
    },
    "leo": {
        "main": "V zaměstnání si dnes odbudete své a nezůstanete tam ani o minutu déle. Rychle zmizíte, aby nadřízené nenapadlo vnutit vám ještě nějakou práci. Domů nebudete nijak pospíchat, abyste si dostatečně vychutnali fakt, že jste se ve zdraví dočkali víkendu.",
        "love": "Druhé pohlaví vámi bude zcela okouzleno. Nad ničím dnes planě nedumáte a užíváte si života. Rádi si trochu zaflirtujete.",
        "work": "Pracovní den bude poklidně plynout. Bude to balzám pro vaši duši, která byla přes týden zmítána přívalem povinností.",
        "relationships": "V rodině se dnes příliš zdržovat nebudete. Po pracovním týdnu si chcete užívat volnosti a pocitu, že už nic nemusíte.",
        "health": "Pokud jste nevrlí a unavení, může za to špatný spánek nebo nedostatek vitaminů. Zkuste hledat příčinu tohoto stavu.",
        "tips": "Dřívější odchod ze zaměstnání, posezení v kavárně, lázeňské procedury, diskotéka, hospůdka s kamarády, oblíbený sport."
    },
    "virgo": {
        "main": "Pracovně se dnes bude dařit především úředníkům, i ostatním profesím ale půjdou tyto činnosti od ruky. Zvládnete si trpělivě uspořádat stále odkládanou administrativu. Už vás nebude strašit pomyšlení na kupu čekajících listin a prošvihnuté termíny.",
        "love": "Do nynějšího partnerství si nenecháte nikým mluvit. Víte, co je pro vás nejlepší, a chcete si milostný život řídit sami.",
        "work": "Je načase přehodnotit výši kapesného u dospívajících potomků. Jejich obvyklé výdaje jsou větší, než si uvědomujete.",
        "relationships": "Večerní popovídání vám v pátek rodina neodpustí. Během pracovního týdne byla shovívavá, ale dnes si vás uloví pro sebe.",
        "health": "Utvrzujete se v tom, že vám se nic stát nemůže. Pokud nezvolníte a budete se stále za něčím hnát, nemoc vás překvapí.",
        "tips": "Administrativní práce, jednání na úřadech, návštěva příbuzných, svižná procházka, zimní sporty, kutilství, koníčky."
    },
    "libra": {
        "main": "Dnešek může přinést komplikace v komunikaci. Zřejmě vás naštve někdo velmi arogantní, nebude mít ovšem smysl se s tímto člověkem přít. Bez skrupulí by se do vás pustil a jen by vás urážel hloupostmi. V nečestném boji by prohrály hlavně vaše nervy.",
        "love": "Od partnera dnes potřebujete naprostou oddanost a pochopení. Pokud s vámi v něčem nesouhlasí, umíte být nepříjemní.",
        "work": "Dnes jste neposední. Budete se vrtět na židli a přebytek energie vás požene do horečné činnosti. Uvítáte různé pochůzky.",
        "relationships": "Při jednání na úřadech namasírujte svou trpělivost. Máte sice pocit, že vás nikdo nevyprovokuje, ale opak je pravdou.",
        "health": "Jestli ze svého života vyloučíte stresové faktory, bude se vám mnohem lépe spát a i vaše vztahy a zdraví se zlepší.",
        "tips": "Změny ve financování domácnosti, úklid a mytí automobilu, opravy v domácnosti, aktivity s kamarády, bruslení, hokej."
    },
    "scorpio": {
        "main": "Pokud jde o pracovní vztahy i povinnosti, nebudete si mít během pátku na co stěžovat. Současná situace na pracovišti vám naprosto vyhovuje. Komunikace s kolegy bude probíhat na překvapivě pohodové úrovni. Na víkend se rozejdete s dobrou náladou.",
        "love": "Láska někoho z blízkých probudí v nezadaných sentiment. V blízkosti šťastně zamilovaných si připadají víc osamoceně.",
        "work": "Současná pracovní pozice vás naplňuje. Cítíte se důležití a zdá se, že si nemáte nač stěžovat. Všechno vám jde na ruku.",
        "relationships": "Dnešní den může být pro vaši dvojici mezníkem. Mnohé páry zatouží dát vztahu oficiální podobu, či dokonce založit rodinu.",
        "health": "Na sport dnes nemáte myšlenky. V práci i doma jste se za celý týden naběhali až dost. Možná o víkendu změníte názor.",
        "tips": "Brzký odchod ze zaměstnání, nákupy na víkend, večer s vašimi nejmilejšími, společná večeře a procházka, sledování filmů."
    },
    "sagittarius": {
        "main": "Venuše v Kozorohu je nepříznivě naladěna. Patříte-li mezi ty šťastnější a váš vztah nebyl poslední dobou vláčen potížemi, nemusí vás to nijak zvlášť zasáhnout. Snad jen pozor na náladovost a dětinskou vztahovačnost, mohly by přece jen spustit nějakou přeháňku.",
        "love": "V centru vaší pozornosti je milovaný protějšek. Představujete si, co všechno byste spolu mohli zažít, a vaše touha sílí.",
        "work": "Raději se nenechte vyprovokovat k odvážné sázce. Ve hře je příliš mnoho na to, aby se vám vyplatilo pokoušet štěstěnu.",
        "relationships": "Dnes budete rodinné vazby vnímat jako zátěž, stojíte spíše o samotu. Dejte ale blízkým šanci, aby vám zlepšili náladu.",
        "health": "Citliví Střelci se mohou trápit kvůli nedocenění v zaměstnání. Výsledkem mohou být trávicí potíže a pobolívání žaludku.",
        "tips": "Rutinní práce, nákup nových svršků a obuvi, kosmetika, kadeřník, zábavná četba, listování časopisy, relaxační koupel."
    },
    "capricorn": {
        "main": "V lásce budete velice vášniví. Bude se vám pěnit krev v žilách, což naplno pocítí i dlouholetí partneři a starší ročníky. Nedáte na poznámky okolí o druhé míze a budete si užívat podle svého. Hned se budete cítit mnohem mladší na těle i na duši.",
        "love": "Pokud jste ve vztahu občas cítili lhostejnost, teď se k sobě budete mít jako dvě hrdličky. Mnozí nezadaní se zamilují.",
        "work": "Otevře se vám velká příležitost, slibující dobrý výdělek a kariéru. Může to ale s sebou nést ztrátu některých jistot.",
        "relationships": "Pokuste se vyhýbat agresivním lidem a nedejte se vyprovokovat hlupáky. Váš spravedlivý hněv by se obrátil proti vám.",
        "health": "Pondělí hrozí menším zraněním při domácích pracích. Dejte si pozor na ostré nože a nůžky a při práci se nerozptylujte.",
        "tips": "Večírek s tancem, sledování lechtivé komedie ve společnosti protějšku, mlsání afrodiziakálních lahůdek, erotické masáže."
    },
    "aquarius": {
        "main": "Dnes máte hlavu plnou nápadů, které se ovšem netýkají vaší profese. Pracoviště opustíte co nejdříve a doma své záměry okamžitě zrealizujete. Ve svém živlu budou kutilové i vyznavači dalších tvořivých koníčků. Úplně zapomenete sledovat ubíhající čas.",
        "love": "Není vyloučeno, že narazíte na člověka, který se v budoucnu stane vaším přítelem. Nikdy není pozdě navázat nové vztahy.",
        "work": "V zaměstnání všem ukážete, že umíte pořádně zabrat a jste zdatnou oporou týmu. Budete patřit mezi největší pracanty.",
        "relationships": "V mezilidské komunikaci vám nebude scházet zdravá míra sebekritiky. Na druhé díky tomu zapůsobíte jako silná osobnost.",
        "health": "Poslechněte hlas svého těla, ten vám dnes napoví, co přesně potřebujete. Všechno ostatní hoďte za hlavu a rozmazlujte se.",
        "tips": "Přátelský oběd s nadřízeným, dřívější odchod domů, návštěva galerie, kutilství, procházka, tvůrčí hobby, četba, tanec."
    },
    "pisces": {
        "main": "Budou vás lákat akce s určitým podílem rizika. Teď vás nesvazují obvyklé obavy. Budete schopní se osmělit a pustit se téměř do čehokoliv, na co nemíváte odvahu. Zatoužíte prožít nějaké dobrodružství. Na nejistou půdu se klidně pustíte i v zaměstnání.",
        "love": "Budete si chtít pořídit něco, co právě frčí, abyste se blýskli před kamarády. Ve skutečnosti ale máte úplně jiný vkus.",
        "work": "Nežli vyrazíte na víkend do hor, raději nechte doma notebook i služební mobil. Celou dobu byste po nich pošilhávali.",
        "relationships": "Dnes si chcete trochu vyhodit z kopýtka. Po týdnu v práci se potřebujete chovat uvolněně a zapomenout na všechny pózy.",
        "health": "Společné sportování s partnerem zúročíte i později. Prokrvené tělo a vyplavené endorfiny umocní vaše noční prožitky.",
        "tips": "Konkurzy a soutěže, rande, večeře v novém podniku, adrenalinové sporty, zkoušení nových koníčků, společenské události."
    }
}