{
    "aries": {
        "main": "Budete nesmírně vnímaví, takže snadno pochopíte podstatu jakéhokoli rozporu. Obecná atmosféra přeje porozumění a soucitu. Bude ho dost pro všechny ve vašem okolí. Své blízké zahrnete empatií. Při konfliktu je šikovně přesvědčíte, aby si podali ruce.",
        "love": "Nezadaným se začne rýsovat velmi zajímavá příležitost k seznámení. Rozhodujte se ale rychle, ať vás někdo nepředběhne.",
        "work": "Setkání s přáteli vám může přinést víc, než očekáváte. Mohou vás seznámit s někým, kdo vám bude nápomocný v kariéře.",
        "relationships": "Chybovat je lidské, odpouštět božské. S tím dnes nebudete mít sebemenší problém. Ostatní by na to ale neměli hřešit.",
        "health": "Jestli se o víkendu necítíte zdravotně dobře, nic vám nebrání v tom zůstat v posteli a projednou se nechat rozmazlovat.",
        "tips": "Rozmluvy s příbuznými, procházka nebo venkovní sporty, rodinný oběd u jednoho stolu, meditace při spirituální hudbě."
    },
    "taurus": {
        "main": "Víkendové dny slouží k odpočinku a povyražení. Po hýření ve společnosti asi netoužíte, ale v soukromí si můžete trochu vyhodit z kopýtka. Když sezvete pár dobrých přátel, s nimiž se cítíte sami sebou, užijete si spoustu zábavy i v domácím prostředí.",
        "love": "Souhlasný postoj příbuzných k vašemu partnerovi je pro vás důležitý. Nechcete slyšet kritiku, zajímají vás pozitivní ohlasy.",
        "work": "Je-li to ve vašich silách, snažíte se svým blízkým ulevit od finančního zatížení. Klidně sáhnete i k nenávratné půjčce.",
        "relationships": "Promluvíte s dětmi o hospodárném zacházení s penězi. Aktuální to bude hlavně v případě, že kapesné vždy rychle roztočí.",
        "health": "Do jídelníčku zařaďte citrusy, přírodní vitamin C je pro organismus nejlépe využitelný. Zároveň mu dodáte i vlákninu.",
        "tips": "Návštěva nově otevřené výstavy, fotografování a pořizování videozáznamů, výlet do blízkého okolí, posezení s přáteli."
    },
    "gemini": {
        "main": "Zatoužíte po nadpozemských milostných zážitcích. Budete se potřebovat dostatečně milostně vybít. V lásce budete velmi lehce vzrušitelní. Má to ovšem i některá rizika, ve zvýšené míře hrozí nevěry. Využijte svých skvělých dispozic na domácím hřišti.",
        "love": "Měli byste dát pozor na náhodné známosti a riskantní milostná dobrodružství. Hrozí vám jak morální, tak zdravotní újma.",
        "work": "Nepodstupujte finanční rizika a raději vsaďte na jistotu. Před podpisem smluv si nechte klidně pár dní na rozmyšlenou.",
        "relationships": "Určitý čas věnujete svému zevnějšku. Než půjdete mezi lidi, vyladíte ho ke své naprosté spokojenosti. Máte chuť ohromit.",
        "health": "Nakládat si příliš velké porce jídla by se vám nemuselo vyplatit, a to nejen kvůli kaloriím. Pozor na trávicí potíže.",
        "tips": "Podnikatelské aktivity, výlet na zajímavá místa, společenské akce, taneční zábava nebo ples, žhavé milostné chvilky."
    },
    "cancer": {
        "main": "V lásce vám nic zásadního neschází. S partnerem si dnes perfektně rozumíte a téměř na všem se shodnete, což vám dovolí prožít nedělní den harmonickým způsobem. Během příjemně plynoucích chvil dojde i na zásadnější rozhovory o společné budoucnosti.",
        "love": "S partnerem budete opět jako dvě hrdličky. Nechápete, jak jste se ještě nedávno mohli hádat kvůli takovým maličkostem.",
        "work": "Nákup erotických hraček provětrá vaši peněženku, ale večer vás to jistě mrzet nebude. Ani partner vám to určitě nevyčte.",
        "relationships": "Nový idol vašeho potomka bude vyžadovat notnou dávku trpělivosti. Nepatří mezi vaše favority a příliš se vám nezamlouvá.",
        "health": "Harmonická domácnost vám vrátí úsměv na tvář. Chmury jsou ty tam, znovu můžete v klidu spát a vychutnávat si život.",
        "tips": "Důvěrný rozhovor s protějškem, plánování budoucnosti, příprava na zkoušky, jóga a meditace, wellness pobyt ve dvou."
    },
    "leo": {
        "main": "Na masopustní neděli máte dost času, takže je třeba myslet na sebe. Opakujte si to tak dlouho, dokud nerezignujete na jakoukoli práci. Když to neuděláte, vaše nervy to brzy pocítí. Většinu času se jenom bavte a odpočívejte, v týdnu si práce užijete dost.",
        "love": "Váš milostný vztah dnes může připomínat spíše přátelství. Vadit vám to ale nebude, romantiku dnes nijak nevyžadujete.",
        "work": "Potřebujete si uvědomit, že je víkend, máte na vše dost času a nepotřebujete se o ničem hned rozhodovat. Uleví se vám.",
        "relationships": "Při jednání s lidmi dnes nebudete vůbec dominantní. Pokud skutečně nejde o nic významného, klidně se zdržíte hlasování.",
        "health": "Nedělní program by měl být ovlivněn vaší psychikou. Pokud se vám nechce nic dělat, klidně zůstaňte uvelebení v peřinách.",
        "tips": "Surfování po internetu, tvořivé činnosti a záliby, plánování budoucnosti, četba časopisů, nákup oděvů, zimní sporty."
    },
    "virgo": {
        "main": "Z domova dokážete pro své nejbližší vytvořit spokojený přístav. Potomkům budete rádcem i oporou, ale vyhnete se mentorování. Ani protějšku dnes neposkytujete nevyžádané rady, jen ho pozorně opečováváte. Všichni se budou cítit hýčkaní a v bezpečí.",
        "love": "Nezadané dnes lákají podstatně starší protějšky. Jejich kvality poměřují i z hlediska majetku a celkového zajištění.",
        "work": "Problémy druhých vás nenechávají chladnými. Přispějete na charitu nebo se rozhodnete věnovat své obnošené oblečení.",
        "relationships": "Setkání několika generací proběhne překvapivě hladce. Dnes vám vůbec nevadí poslouchat zážitky z let dávno uplynulých.",
        "health": "Do svého obvyklého pohybu zkuste zařadit ještě něco navíc. Sami poznáte, že vaše kondice už nemá stoupající tendenci.",
        "tips": "Péče o rodinu a domácnost, vzdělávání blízkých, doučování dětí, návštěva příbuzných, vylepšování mezilidských vztahů."
    },
    "libra": {
        "main": "Vůči svému okolí dnes zaujmete ostražitý postoj. Budete bedlivě zkoumat pravé úmysly každého prodejce, s kterým přijdete do kontaktu. Platí to i v pracovní sféře. Beze spěchu prostudujte písemné smlouvy či dokumenty a nerozhodujte se pod tlakem.",
        "love": "Dobře si rozmyslete, co chcete novému vztahu obětovat. Drobné ústupky jsou zcela normální, musíte ale zůstat sami sebou.",
        "work": "Při utrácení si nechte na účtě zůstatek, na který už nesáhnete. Vždy se může objevit nutnost nepředvídatelných výdajů.",
        "relationships": "S rodiči se konečně shodnete na některých zásadních otázkách. Jejich rady totiž přestanete brát jako otravné poučování.",
        "health": "Jestliže špatně spíte, může být příčinou i světelný smog. Zatemněte ložnici, aby k vám světlo z ulice nemělo přístup.",
        "tips": "Rodinná porada, debaty s přáteli, úvahy o životě, plánování, thajská masáž, zdravotní cvičení, preventivní prohlídka."
    },
    "scorpio": {
        "main": "Je ideální čas pro uzavírání životních vztahů. Zamilovaní už nebudou skrývat své sympatie. Můžete bez zábran vyjádřit své nejupřímnější city, měly by být vyslyšeny. Jedinci, kteří by rádi stvrdili svůj svazek, navrhnou protějšku společnou budoucnost.",
        "love": "Vaše partnerství utužily jisté zkoušky. Dnes si můžete s protějškem oddechnout a vstoupit do nové, lepší etapy vztahu.",
        "work": "Práci hodíte za hlavu a alespoň dnes si užijete pohodový volný den. Doufáte, že se vám resty podaří dokončit zítra.",
        "relationships": "Při konfrontacích dnes skvěle využijete umění asertivního jednání. Protistraně nebudou nic platné vytáčky ani provokace.",
        "health": "Láska vás v neděli rychle vrátí do psychické pohody. Nic pro vás nebude problém a každou potíž budete brát s nadhledem.",
        "tips": "Žádost o ruku, představení partnera rodině, romantická večerní procházka, večeře při svíčkách, založení vlastní rodiny."
    },
    "sagittarius": {
        "main": "Nemáte dnes nic v plánu? Pokud se nechcete nudit doma, využijte volného vstupu na akci a užijte si spoustu zábavy. Ať už se rozhodnete pro večírek s přáteli, či dobrodružný večer mezi cizími tvářemi, můžete si být jistí, že na něj nezapomenete!",
        "love": "Ve vztazích budete mít silnou potřebu harmonie. Dnes nemáte ani problém slevit ze svých nároků, když to povede ke shodě.",
        "work": "Investice do vylepšení domácnosti se ukáže jako správná. Spokojené bydlení na vás pozitivně působí po všech směrech.",
        "relationships": "Někomu se svěříte se svými pocity a budete z toho mít velkou radost. Jen dejte pozor, aby se jednalo o spolehlivou vrbu.",
        "health": "Ovoce a zelenina jsou pro vaše zdraví nenahraditelné a určitě jsou lepší než chemicky vyráběné vitamíny v obchodech.",
        "tips": "Vydatný spánek, pohodová snídaně, oběd s dovážkou z oblíbené restaurace, posezení v cukrárně, domácí lenošení, četba."
    },
    "capricorn": {
        "main": "Masopustní neděle vám přeje v oblasti lásky, společenských aktivit i kreativity. Vaše neomezená fantazie oživí i běžné činnosti. Vedle toho vyzařujete neodolatelnou smyslnost a eleganci, takže kouzlo vaší osobnosti zasáhne každého. Jen doma nebudete prorokem.",
        "love": "Dnes odhoďte všechny zábrany a dejte najevo, že proti seznámení rozhodně nic nenamítáte. Uvidíte, že nabídky se pohrnou.",
        "work": "Budete-li otevření novým podnětům, přivedou vás na objevné nápady. Potvrdí se, že kreativitu jste dostali do vínku.",
        "relationships": "Při hovoru s dětmi se vyhnete mentorování a rozkazům a budete se raději chovat jako jejich kamarádi. Zaznamenáte úspěch.",
        "health": "Většinu energie spotřebujete pouze při příjemných činnostech. Do ničeho jiného ji totiž nehodláte zbytečně vkládat.",
        "tips": "Návštěva galerie, vernisáž, malování, kreslení, oděvní návrhářství, tvůrčí rukodělné činnosti, relax ve wellness centru."
    },
    "aquarius": {
        "main": "V rodině můžete očekávat změny k lepšímu v komunikaci a ve vzájemném porozumění. Vaši nejbližší vám ukážou, jak moc na vás visí a co pro ně znamenáte. Ať už máte složitější pracovní či osobní období, přislíbí vám, že vás budou ve všem podporovat.",
        "love": "Užijete si netradiční milování na nezvyklém místě! Dejte si ovšem pozor na nezvané pozorovatele. Pokud to tedy není váš cíl.",
        "work": "Pokud nezměníte současný způsob financování domácnosti, mohli byste se dostat do úzkých. Spočítejte si příjmy a výdaje.",
        "relationships": "Otevřenost vůči blízkým může napravit mnohé nesrovnalosti, které jste způsobili. Najednou se zdáte o mnoho citlivější.",
        "health": "Držte se zásady - ve zdravém těle zdravý duch. Pohodová psychika vás uchrání od zákeřných nemocí pramenících v hlavě.",
        "tips": "Rozvíjení odborných znalostí a dovedností, preventivní prohlídka, návštěva kavárny, rodinná porada, výlet na běžkách."
    },
    "pisces": {
        "main": "Hvězdy vám dodávají jiskru v milostném životě. Silným osobním kouzlem dokážete druhé doslova magnetizovat. Vaše láska získá nové grády, vzájemná tělesná přitažlivost vylétne na své maximum. Dnes prožijete horké chvilky v tom nejlepším slova smyslu.",
        "love": "V ložnici převezmete dominantní pozici a určujete tempo i směr, jakým se s partnerem vydáte. Nuda vám díky tomu nehrozí.",
        "work": "Při nakupování nových svršků dnes máte šťastnou ruku. Umíte najít ideální kousky, aniž byste utratili horentní sumy.",
        "relationships": "Pro novou známost nezapomeňte na staré přátele. Nemusíte hned pálit všechny mosty, budete rádi, že vám kamarádi zůstali.",
        "health": "Pokud v partnerství všechno klape, nic vám neschází. Psychická pohoda u vás vítězí nad veškerými zdravotními neduhy.",
        "tips": "Rychloseznamka, flirtování, rande, netradiční milování s partnerem, taneční zábava, zhlédnutí filmu pro dospělé, mejdan."
    }
}