{
    "aries": {
        "main": "Vše, co dnes učiníte, děláte ve prospěch svých blízkých. Potřebují-li rodiče obstarat nákupy nebo odvézt na návštěvu, nebudete váhat ani minutu. Vaše nezměrná ochota vůči druhým může rozčílit partnera. Naštěstí víte, čím si ho zase rychle udobřit.",
        "love": "Přátelům se svěříte s tajemstvím, které chcete uchovat. Některá ústa však nemusí být schopna slib mlčenlivosti dodržet.",
        "work": "Dnes nehledíte jenom na svůj zisk, ale věnujete se i dobročinné činnosti. Není vyloučeno, že dáte peníze na charitu.",
        "relationships": "Pro blízké a rodinu byste se dnes roztrhali. Neuvědomujete si, že přátelé si mohou poradit i bez vaší neustálé pomoci.",
        "health": "Všude se přemisťujete pomocí auta nebo MHD, takže váš přirozený pohyb je téměř nulový. Odpoledne zkuste více chodit.",
        "tips": "Pomoc příbuzným, drobné úpravy v domácnosti, kolektivní sportovní aktivity, výlety pěšky do přírody nebo za poznáním."
    },
    "taurus": {
        "main": "Hádky se sousedy a rozvrácené mezilidské vztahy vám dnes nehrozí. Na schůzi bytového společenství nebo při úklidu chodby se naopak přesvědčíte o tom, že vaši sousedé jsou prima lidé. Jsou-li ve vašem věku, není vyloučeno, že v nich najdete přátele.",
        "love": "Najdete přátele tam, kde byste to nečekali. Zatímco z kamarádů se stávají falešní hráči, z nepřátel se stávají přátelé.",
        "work": "Nezapomeňte zkontrolovat zaplacené složenky a schovat útržky na bezpečné místo. Okamžitě je vyhodit se vám nevyplatí.",
        "relationships": "Neděle vám usnadní soužití s novými i starými sousedy. Najdete jistý způsob, kterým se dostat do jejich vzácné přízně.",
        "health": "Vaše kondice ještě není zcela v pořádku, ale rychle se zlepšuje. Dnes na sobě pocítíte první známky pravidelného pohybu.",
        "tips": "Účast na srazu vlastníků bytových jednotek, úklid společných prostor, péče o domácí mazlíčky, mokré čištění koberců."
    },
    "gemini": {
        "main": "Nově navázané vztahy a přátelství dnes začínají vzkvétat. Společně prožitá neděle vám odkryje, kolik věcí máte s dotyčným člověkem společných. Rozhodně se nebudete nudit, ba právě naopak. Navíc zjistíte, že se na sebe můžete vzájemně spolehnout.",
        "love": "Blízcí vás drží nad vodou a vy si jejich přízně považujete. Dnes neberete přátelství jako samozřejmost, ale jako výhru.",
        "work": "Zkontrolujte e-maily a zprávy na záznamníku. Někdo pro vás má informaci, která může pozitivně ovlivnit vaše úspory.",
        "relationships": "Pomocná ruka kamarádovi utuží vaše společné přátelství. Dotyčnému během dne dokážete, že jste člověk na správném místě.",
        "health": "Stále váháte s tím, zda přestat kouřit nebo začít cvičit. Dnešek vám odpověď nedá. To musíte chtít začít hlavně vy.",
        "tips": "Účast na společenských akcích, zimní sporty, seznamování se s cizími lidmi, konání dobrých skutků pro starší příbuzné."
    },
    "cancer": {
        "main": "Na vztah vám v týdnu nezbývá moc času, a tak si chcete ztracené chvíle s partnerem vynahradit právě dnes. Romantické chvilky u krbu či společná horká koupel vás naladí na další pracovní období. Dostanete-li příležitost, dokážete ji maximálně využít.",
        "love": "Flirtování s protějškem vás navnadí a připraví k nečekaným výkonům. Zřejmě se při milování nestačíte ani pořádně nadechnout.",
        "work": "Dopřejete si s partnerem trochu toho luxusu a finančně se nebudete nikterak omezovat. Použijete své zásoby z prasátka.",
        "relationships": "Návštěvy partnerových příbuzných proběhnou celkem hladce. Dnes se zvládnete zdržet jízlivých komentářů na jejich adresu.",
        "health": "Někdo vám ukáže pro vás dosud neznámé cvičení. Moderní formy sportování vás nadchnou a chcete je okamžitě vyzkoušet.",
        "tips": "Dlouhá a vydatná snídaně, zařizování nákupů, návštěva kina a oběd v restauraci, odpolední procházka zimní krajinou."
    },
    "leo": {
        "main": "Odpoledne narazíte na starého známého, což vám může pěkně nabourat nedělní program. Společné posezení v hospůdce se nečekaně protáhne. Dlouho jste se neviděli, a tak si máte hodiny o čem povídat. Neměli byste však zapomenout na sliby dané rodině.",
        "love": "Oprášíte stará přátelství a rozpomenete se na chvilky dětských partiček a vzájemných soubojů. Někoho z nich nepoznáte.",
        "work": "Co se investic týká, máte dnes skvělé nápady. Vašemu obchodnímu duchu neunikne jediná nemovitost nebo cennost v rodině.",
        "relationships": "Setkání se starým známým vám změní plán na nedělní odpoledne. Společné posezení a klábosení se protáhne dlouho do noci.",
        "health": "Vaší jedinou dnešní aktivitou bude zvedání sklenic a příborů. Vytváříte si zásoby, z nichž budete budovat svalstvo.",
        "tips": "Posezení s kamarádem z dětství, organizace rodinné oslavy, výběr nového nábytku do domácnosti, zejména kvalitní postele."
    },
    "virgo": {
        "main": "Pořídíte si něco nového na sebe a rozhodně nezůstane u jediného kousku. Odvážnější Panny neudrží peněženku na uzdě a mohou rozházet všechny úspory. Hvězdy radí nebrat si velkou hotovost ani kreditní kartu. Proti reklamním trikům dnes nejste imunní.",
        "love": "Pokud to mezi vámi skřípe, snažte se otevřeně mluvit o problému. O některých věcech není lehké diskutovat, je to ale potřeba.",
        "work": "Nákupy provětrají vaši peněženku. Vyberte si obchody, jež nezruinují rodinný rozpočet. Děti z oblečení rychle vyrostou.",
        "relationships": "Podniknete nákupy s mladším sourozencem nebo kamarády. Oběd v restauraci vám dá příležitost probrat v klidu novinky.",
        "health": "Kupovat si menší číslo oblečení a následně do něj hubnout nemá smysl. Takové triky vás ovšem během dne velmi lákají.",
        "tips": "Nákupy nových svršků, účast na výstavách a veletrzích, očistná kúra, epilace, úprava životosprávy, rychlá chůze či běh."
    },
    "libra": {
        "main": "O dobrou náladu se dnes podělíte se svými blízkými. Přátelé a známí se s vámi nebudou nudit, protože z každé situace dokážete vytěžit maximum. Přehnaná konzumace alkoholu by vám první pracovní den nepřinesla příjemné vstávání. Dejte si na to pozor!",
        "love": "Kapka alkoholu uvolní váš stud a zábrany. Díky tomu jste schopni partnerovi prozradit, co v milostném životě potřebujete.",
        "work": "Nezabýváte se zbytečnostmi ohledně financí a práce. Blízké nechcete zatěžovat svými potížemi, a tak se o nich nebavíte.",
        "relationships": "Příbuzné nakazíte svým optimistickým pohledem na svět. Celou rodinu prosytíte pohodou a vyrovnaností, což není obvyklé.",
        "health": "Psychicky jste v pohodě. Z minulých chyb jste se poučili a vyrovnali se s nimi. Nikdo vás dnes nenachytá na švestkách.",
        "tips": "Dlouhý oběd s příbuznými, kolektivní sportovní aktivity, karetní hry, playstation s dětmi, pohyb na čerstvém vzduchu."
    },
    "scorpio": {
        "main": "Cestování vás dnes velmi láká, a pokud vás doma nic nedrží, obujete si toulavé boty. Odvážným Štírům svítá naděje na práci v zahraničí nebo dlouhodobé cestování. Jestliže dostanete příležitost, nebudete se dlouho rozmýšlet. Následky řešíte až zpětně.",
        "love": "Neradi se pouštíte do experimentů, ale dnešní nápad vás nadchne. Užijete si skvělou zábavu, která oživí milostný stereotyp.",
        "work": "Finance vložíte do činností, které vám připadají příjemné a užitečné. Cestování, studium a gastro lahůdky dnes vedou.",
        "relationships": "Rodina na vás dnes silně působí, a tak se nemůžete rozhodnout, zda se vydat na dalekou cestu kolem světa, či zůstat.",
        "health": "Přátelé ve vás vidí aktivní živel, který se dnes jen tak neunaví. Vy ovšem víte, že vaše zásoby energie nejsou bezedné.",
        "tips": "Cestování, pěší túry, sledování přímého přenosu sportovního utkání, posezení s kamarády u skleničky, návštěva výstavy."
    },
    "sagittarius": {
        "main": "V rodině urovnáte malicherné spory a postavíte příbuzenstvo do latě. Na blízké dnes působíte jako tmel, který vyřeší jakékoliv problémy. Špatně nesete, když se blízcí hádají a nemohou najít společnou řeč. V takovém případě neznáte bratra ani sestru.",
        "love": "Než se pustíte do žhavého sexu, přesvědčte se, zda máte opravdu zamčené dveře. Úterý vás varuje před nezvanými návštěvníky.",
        "work": "Pokud se někdo z rodiny ocitne finančně na suchu, snažíte se mu jakkoliv pomoci. Nejvíc potřebuje radu, jak hospodařit.",
        "relationships": "Urovnat problémy v rodině je pro vás hračkou. Nelámete si s tím hlavu a konáte tak, jak se momentálně zdá nejvhodnější.",
        "health": "Do pohybu vás dnes přinutí partner nebo příbuzní. Nakonec budete rádi, že jste nezůstali sedět o samotě doma za pecí.",
        "tips": "Otevřený rozhovor s příbuznými, řešení dlouhodobých problémů, návštěva amatérského divadla, krmení ptáků, návštěva zoo."
    },
    "capricorn": {
        "main": "Neděle se nese v duchu odpočinku a nicnedělání. Věnujete se pouze věcem, které jsou nezbytně nutné. Ostatní odkládáte na neurčito. Nečekaná návštěva vás sice zaskočí, ale ukáže se jako příjemné zpestření dne. Vaše tělo i mysl se konečně zregenerují.",
        "love": "Nedrážděte vosí hnízdo bosou nohou a raději si nechte rýpavé komentáře sami pro sebe. Partner je dnes ve špatném rozpoložení.",
        "work": "Ačkoliv by se vám hodila každá koruna, práci navíc odmítnete. Těšíte se na dokonalý odpočinek, sil vám už mnoho nezbývá.",
        "relationships": "Necháte se obletovat a rozmazlovat blízkými a vychutnáte si to, jako byste byli škvrňata. Rodiče se rádi ke hře přidají.",
        "health": "Relaxace u hořícího krbu, procházka setmělou krajinou a něco dobrého do žaludku. To dnes potřebujete k absolutní pohodě.",
        "tips": "Odpočinkové aktivity, ohřátí těla grogem a teplem z krbu, léčení přírodními vitaminy a bylinkami, něžnosti s partnerem."
    },
    "aquarius": {
        "main": "Merkur ve vašem znamení radí, abyste se vyhnuli nákupním střediskům nebo tam vstupovali pouze s plným žaludkem. Marketingové triky vám masírují peněženku a lehce se přihodí, že si domů přivezete věci, které nepotřebujete, a vaše konto bude chudší.",
        "love": "Oslava narozenin někoho z přátel si žádá pořídit dárek. Chcete dotyčnému udělat radost, a tak ho budete hledat dlouho.",
        "work": "Peněženku provětráte během nákupů. Reklamy vám pomotaly hlavu, a tak pořídíte i věci, které na nákupním seznamu nebyly.",
        "relationships": "Neodoláte smutným pohledům svých dětí a nakoupíte jim vše, o co si řeknou. Krok za krokem si vás omotávají kolem prstu.",
        "health": "V obřích nákupních střediscích snadno podlehnete nákupní horečce i stresu z přeplněných uliček. Prospěje vám více klidu.",
        "tips": "Nákup vstupenek do divadla nebo na muzikál, prodej a nákup nemovitostí, internetové aukce, péče o pokojové rostliny."
    },
    "pisces": {
        "main": "Milé Rybky, únor je pro vás příjemným a úspěšným měsícem. Slunce se už zítra přesouvá do vašeho znamení a dává svůj hřejivý příslib, že všechno bude klapat na jedničku. Především v pracovních záležitostech můžete více prosadit svou osobnost a směrování.",
        "love": "Lásku dnes berete jako hru, ale nepředpokládáte, že byste mohli prohrát či být vyřazeni pro podvod. Jaká máte pravidla?",
        "work": "Pochlubíte se profesními či studijními úspěchy doma. Máte obrovskou radost, že vaše snaha konečně přináší své ovoce.",
        "relationships": "Uznalé pochvaly rodiny vás těší dvojnásob. Měli jste pocit, že z jejich úst posloucháte jen výtky a četnou kritiku.",
        "health": "Dopřejete si malé zhřešení v jídelníčku. Ačkoliv jindy se hlídáte, dnes nastane příležitost dopřát si zakázané dobroty.",
        "tips": "Účast na rodinných oslavách, vytvoření lahodného občerstvení, pomoc starším příbuzným, pyžamová párty, tvorba vizitek."
    }
}