{
    "aries": {
        "main": "V lásce budete působit překvapivě pasivně. Možná se na vás podepsala únava z pracovního týdne. Hříšné myšlenky se vám pro dnešek vyhnou a bude na protějšku, zda se s tím rozhodne něco udělat. Nezadaní dnes místo přímého útoku budou tiše vyčkávat.",
        "love": "I zkušeným milovníkům se můžou roztřást kolena. Asi si teď připadáte jako nezkušený nováček, který se co chvíli červená.",
        "work": "Pokud chcete přilepšit rodinnému rozpočtu, musíte se spolehnout jenom sami na sebe. Druzí ze sebe rozhodně kůži nestrhají.",
        "relationships": "Dodejte svým dětem sebevědomí. Ukažte jim, že v ně věříte a že jste na ně patřičně pyšní. Udělá to s nimi opravdové divy!",
        "health": "Co můžeš udělat ráno, nenechávej na odpoledne. Vypadá to, že nejaktivnější budete do oběda, pak už to chce více snahy.",
        "tips": "Pohoda s rodinou, lahůdková večeře mimo domov, shlédnutí nového filmu či divadelní hry, posezení v baru, společný relax."
    },
    "taurus": {
        "main": "Hvězdy napovídají, že tyto dny jsou přímo stvořeny k lásce a snadnému kontaktu s opačným pohlavím. Milostné vzplanutí vás může zasáhnout s nečekanou silou. Zadaní by se měli věnovat výhradně své polovičce, pak i je čekají jen samé skvělé zážitky.",
        "love": "S protějškem si budete dobře rozumět. S přáteli sice také najdete společnou nit, ale objeví se i komunikační překážky.",
        "work": "Budete dbát na to, abyste byli jako ze žurnálu. To si pochopitelně vyžádá určité finanční výdaje, ale s tím vy počítáte.",
        "relationships": "Doma se příliš neohřejete. Táhne vás to do společnosti, a tak se na potřeby blízkých nesoustředíte. Uvidíte je zítra.",
        "health": "Na pravidelnou preventivní prohlídku u praktického lékaře máte nárok. Využijte toho, bude vás to stát jen trochu času.",
        "tips": "Vycházka do přírody za každého počasí, venkovní aktivity, vylepšování domova, finanční rozvahy, seznámení na inzerát."
    },
    "gemini": {
        "main": "V zaměstnání budete v pátek obklopení příjemnými lidmi. Výborně se pobavíte se spřátelenými kolegy a ve volném čase budete pokračovat ve stejném duchu. Můžete strávit příjemné chvíle s kamarády, užít si pohodu s rodinou nebo setkání s příbuznými.",
        "love": "Budete mít dostatek času na přátele a známé. Vyloučíte-li ze společného programu rodinu, neměla by vás dnes postrádat.",
        "work": "Napadají vás hříšné myšlenky, v nichž hlavní roli hrají kolegové nebo nadřízený. Nemůžete se plně soustředit na práci.",
        "relationships": "Chvil v rodinném kruhu si budete považovat. Jejich náplň nebudete složitě vymýšlet, však ony se nějak příjemně vyvinou.",
        "health": "Pokud se vám někdo z rodiny zdravotně nezdá, i když sám dělá ramena, přimějte ho zajít k lékaři. Platí to i pro vás.",
        "tips": "Týmová práce, klábosení a oběd s kolegy, setkání či telefonát s příbuznými, posezení s přáteli, kurz zdravého vaření."
    },
    "cancer": {
        "main": "I v závěru týdne budete schopní pracovat s elánem a radostí. Máte předpoklady udělat více práce než obvykle. Hraje vám to do karet, protože už sníte o tom, jak si užijete víkendové volno. Pokud máte před dovolenou, odjedete na ni s čistým svědomím.",
        "love": "S protějškem budete mít odlišné představy o průběhu dnešního večera. Zatímco jeden překypuje energií, druhý by lenošil.",
        "work": "Komplexy méněcennosti dnes rozhodně netrpíte. To spíše mnozí kolegové, kteří vám závidí vaše nezpochybnitelné úspěchy.",
        "relationships": "S rodinou proberete možnost jisté větší investice. Jde o společnou věc, takže se k ní všichni demokraticky vyjádříte.",
        "health": "V zápalu domácích prací si dávejte pozor. I když jste šikovní, rychlé tempo a řešení více věcí najednou nehodám nahrává.",
        "tips": "Vyřizování restů, obchodní transakce, oběd s kolegy, návštěva kina, nakupování kosmetiky, luxusní večeře s partnerem."
    },
    "leo": {
        "main": "Dnes budete bezkonkurenčně sexy. Partner na vás bude buď velice pyšný, nebo bude bojovat se silnou žárlivostí. Máte ale hlavně ve svých rukou, na kterou stranu se protějšek nakonec přikloní. V obou případech v něm dokážete probudit velmi silné vášně.",
        "love": "V lásce bude třeba opatrnosti. Žárlivost protějšku by vám mohla připravit horké chvilky. Nepokoušejte jeho trpělivost.",
        "work": "V zaměstnání udržujte rozumné tempo. Svou zbrklostí byste mohli pokazit vše, co jste dosud dávali pracně dohromady.",
        "relationships": "Některý váš známý se zachová dosti netaktně. Možná si ho dokonce škrtnete ze seznamu lidí, které chcete nadále vídat.",
        "health": "Trvalejší bolest ukazuje na zdravotní problém, který analgetika nevyřeší. Nehledě na to, že zatěžují vaše tělo chemií.",
        "tips": "Kontrola vybavení automobilu a generální servis, večerní intimní chvíle ve dvou, důvěrné rozhovory, orientální tanec."
    },
    "virgo": {
        "main": "V pátek budete v zaměstnání bojovat s nepozorností. Dokážete se jenom silou vůle soustředit na pracovní úkoly a nadřízení vás mohou svými požadavky obtěžovat. Nejraději byste si již užívali víkendu a úplně zapomněli na všechno, co zavání povinnostmi.",
        "love": "Partner pro vás má otevřenou chápavou náruč. Ať už se vám nepovedlo cokoliv, můžete si být jisti, že bude stát za vámi.",
        "work": "Potřebujete kolegu, který vám ukáže, jak si rozplánovat čas v dlouhodobém horizontu. Využijte to, co se už osvědčilo.",
        "relationships": "S dětmi si užijete spoustu legrace. Díky nim zapomenete na starosti ze zaměstnání a necháte odplout nahromaděný stres.",
        "health": "Saunování má svá jasná pravidla. Pokud chcete, aby z něj vaše tělo mělo maximální užitek, dodržujte všechna doporučení.",
        "tips": "Nákup bytových dekorací, klidný večer s rodinou, procházka přírodou, probírání osobních problémů, chat s přáteli, sauna."
    },
    "libra": {
        "main": "Ohlídejte si, abyste se nenechali zatáhnout do hektického pracovního shonu. Nedokončené úkoly některým kolegům přerostou přes hlavu. Pokud jim nedokážete odmítnout pomoc, třebaže vlastní práci budete muset odložit, může to být za dobrotu na žebrotu.",
        "love": "Partner pozná, že jste toho měli až nad hlavu, a dopřeje vám klid. Až si vydechnete, možná přijde chuť i na radovánky.",
        "work": "Vypomáhat všem bez výjimky i na úkor vlastního času je vyčerpávající. Navíc toho mohou někteří časem začít zneužívat.",
        "relationships": "Možná zjistíte, že vaše problémy pramení z přílišné touhy zalíbit se pomáháním. Zkuste teď pro změnu říkat také ne.",
        "health": "Při pobytu ve veřejných bazénech dbejte na ochranu dolních končetin. Mohou je napadat plísňová onemocnění či bradavice.",
        "tips": "Studijní semináře, četba odborné literatury, vyřizování pracovních rozhovorů, preventivní prohlídky, návštěva přátel."
    },
    "scorpio": {
        "main": "Budete celkově spokojení se svým životem. Hvězdy vám přinesou spoustu pohody a naopak méně pracovního stresu. Všechny povinnosti úspěšně dokončíte a nic vám nebude bránit ve včasném odchodu domů. Budete se moci konečně zaměřit i na své soukromí.",
        "love": "Nezadaní se odhodlají oslovit osobu, po které dlouho zálibně pokukují. Ani bližší seznámení nezklame jejich očekávání.",
        "work": "Bude záležet jenom na vás, zda si vyšetříte dostatek volného času. Nikdo nad vámi nedrží bič, tak na sebe buďte hodní.",
        "relationships": "Přivítejte pomoc v domácnosti, kterou vám nabízejí vaši blízcí. Neděste se už předem, co přitom zase zničí nebo pokazí.",
        "health": "Pátek bude tak klidný a pohodový, jak si ho uděláte. Nevymýšlejte si na sebe nové úkoly a najeďte na volnější režim.",
        "tips": "Kreativní činnosti, dokončování úkolů, účast na společenských událostech, relax ve wellness centru, večerní procházka."
    },
    "sagittarius": {
        "main": "V oblasti vztahů budete trochu nejistí. Vaše sebevědomí v jednání s okolím zeslábne. Role baviče davů se pro dnešek rádi vzdáte. Nejlépe vám bude v kruhu vašich nejbližších. Potřebujete se cítit milováni a pochopeni, to vám vrátí duševní rovnováhu.",
        "love": "Připomínky přátel k vaší situaci neberte na lehkou váhu. Vidí ji s odstupem, a můžete tak od nich získat cenné postřehy.",
        "work": "Při plnění pracovních úkolů se zaměřujte i na naprosté detaily. Preciznost se vám vyplatí, nadřízení kvalitu hlídají.",
        "relationships": "Rodina jako vždy stojí na vaší straně. Všimne si i vaší dnešní nejistoty a bude vás podporovat všemi dostupnými způsoby.",
        "health": "Rozmazlováním své tělesné schránky uděláte dobře i té psychické. Pod citlivýma rukama odborníků si perfektně odpočinete.",
        "tips": "Setkávání s milými lidmi, sledování nenáročných zábavných pořadů, zdravotní a relaxační masáže, procházka před spaním."
    },
    "capricorn": {
        "main": "Je čas na obtížné rozhovory, které dlouho odkládáte. Veškeré nepříjemnosti, které vznikly vinou špatné či nedostatečné domluvy, se snadno urovnají. Ať jde o konflikt se sousedy, v rodině či v partnerském vztahu, teď dokážete zakopat válečnou sekyru.",
        "love": "Když vyvedete svého milého na skvělou večeři, správně ho tím naladíte. Je jisté, že doma vás pak čeká zlatý hřeb večera.",
        "work": "Jedinci ve vedoucích pozicích dnes budou k podřízeným neobyčejně tolerantní. Vyhnete se direktivnímu způsobu vedení.",
        "relationships": "Uvědomíte si, jakou roli ve vašem životě hraje rodina. Najednou začnete nacházet cestičku i k těm největším rebelům.",
        "health": "Zatím se vám daří skloubit profesionální i milostný život. Dnes ovšem pocítíte, že už vás vysoké nasazení vyčerpává.",
        "tips": "Péče o zevnějšek, kosmetika, kadeřnictví, vizážistika, preventivní prohlídky, zdravotní cvičení, zdravá životospráva."
    },
    "aquarius": {
        "main": "Budete neobyčejně milými společníky. Pokud jste někoho pozvali na návštěvu, můžete si být jistí, že si ji užijí obě strany. Také ve společnosti dokážete ostatní pobavit i zaujatě vyslechnout. Budete díky tomu velice rychle navazovat nová přátelství.",
        "love": "Nečekané romantické setkání vám pěkně zamotá hlavu. O osobě, která se na vás letmo podívala, budete ještě dlouho snít.",
        "work": "Práce s lidmi pro vás nebude rutinní povinností, ale radostí. Osamocené vysedávání u počítače vás dnes nebetyčně nudí.",
        "relationships": "Budete se s potěšením věnovat společenskému životu. Během pátečního večera se rádi zúčastníte nějaké atraktivní akce.",
        "health": "Únavu z přepracování je nutné kompenzovat účinnou relaxací. Pár chvil z každého pracovního dne by mělo patřit jenom vám.",
        "tips": "Založení živnosti, propagace výrobků a služeb, sestavení životopisu, pracovní pohovor, luxusní masáž, kosmetická péče."
    },
    "pisces": {
        "main": "Svou energii dnes nasměrujete nejen do práce, ale i do příprav na volné dny. Nic nenecháte náhodě. Společně s rodinou vymyslíte náplň víkendu, která bude počítat i s psím počasím. Také pro tento případ budete mít v záloze nějaký atraktivní program.",
        "love": "Dnešní program pomůže stabilizovat rozhádané partnerství. Uvědomíte si, jak malicherné vaše problémy ve skutečnosti jsou.",
        "work": "Dnes se nebudete věnovat pracovním úkolům, ale raději zařizujete soukromé záležitosti. Pozor, aby vás neprokoukli šéfové.",
        "relationships": "Rady svých blízkých budete pouštět jedním uchem tam a druhým ven. Říkáte si, že nepotřebujete poslouchat ničí rozumy!",
        "health": "Pravidelnou péči u kadeřníka můžete spojit s masáží hlavy. Prospívá nejen vlasům, jde o příjemnou relaxační záležitost.",
        "tips": "Reorganizace pracovního diáře, četba psychologických knih a článků, návštěva přátel, debaty u vína, relaxační koupel."
    }
}