{
    "aries": {
        "main": "Páteční den vám sice přináší vzrušení v milostných vztazích, ale na druhou stranu klidné rodinné prostředí. Soustřeďte se více na své zdraví, a pokud vás v poslední době něco trápí, objednejte se k lékaři nebo doplňte stravu důležitými vitaminy.",
        "love": "Nová známost se může předvést, že je stejně náladová, jako vy. Nemusí se vám to zamlouvat, potřebujete někoho pozitivního.",
        "work": "Snažíte se poslední pracovní den dodělat všechny pracovní resty. To je v pořádku, jen si určete priority, něco počká.",
        "relationships": "Konečně si dnes můžete opravdu konkrétně zvolit s rodinou plány na víkend. Možná vám doposud bránilo počasí nebo finance.",
        "health": "Na přetažené tělo i mysl je výborné magnézium. Doplnit ho v potřebné míře dokážou tablety nebo rozpustné přípravky.",
        "tips": "Plány na víkend, rozhovor s novou známostí, hledání volnočasových aktivit na internetu, nákup potravinových doplňků."
    },
    "taurus": {
        "main": "V rodině se objeví problémy, které přinesou napjatou atmosféru. Hvězdy radí se vyhnout jakýmkoliv konfrontacím nebo radám. Skončili byste totiž jako ti nejhorší. Volte diplomatickou cestu a vyhněte se všem rozhovorům. Energii vložte do romantických hrátek.",
        "love": "Páteční den nebo večer máte chuť věnovat milostným dobrodružstvím. Při vašem apetitu partnera nemůžete zklamat.",
        "work": "Při nákupech potravin věnujte pozornost zemi původu. Investujte raději do kvalitního zboží, i když to bude dražší.",
        "relationships": "Nevšímejte si dusné atmosféry v širší rodině, pokud to jde. Diplomaticky odmítněte veškeré rozhovory na toto téma.",
        "health": "Antioxidanty doplníte do těla nejen vitaminy, ale především čerstvým ovocem nebo zeleninou. Nakupujte lokální potraviny.",
        "tips": "Odmítnutí telefonátů s rodinou, nákup zdravých potravin, sportovní aktivita, milostné hrátky s partnerem, odpočinek doma."
    },
    "gemini": {
        "main": "V pracovní oblasti dochází k drobným úspěchům. Sbíráte je krůček po krůčku, ale to vůbec nevadí, Blíženci. Potřebujete více potrénovat svou netrpělivou povahu. I když jsou úkoly poměrně náročnější, není třeba nic uspěchat. Jděte tímto tempem dál.",
        "love": "Někdo z blízkých přátel vám ukáže zajímavou osobu k seznámení. Zadaní jedinci by ale měli jednat zdrženlivěji.",
        "work": "Planeta Mars je vám nápomocná při hledání brigády nebo práce na částečný úvazek. Snažte se využít každé příležitosti.",
        "relationships": "Páteční večer vás dnes láká do společnosti. S partnerem si vyrazte do kina nebo do divadla, pokud to situace dovoluje.",
        "health": "Fyzická aktivita je u vás na vzestupu. Využijte toho pro zlepšování fyzičky prostřednictvím náročnějších sportů, například tenisu.",
        "tips": "Dokončení náročných pracovních úkolů, hledání nové brigády, večer ve společnosti přátel a partnera, tenis, squash."
    },
    "cancer": {
        "main": "Nadřízený není nadšený z vaší nesoustředěnosti a přístupu k práci. Zřejmě vás čeká dnes důležitý rozhovor o vaší budoucnosti ve firmě. Zachovejte při jednání klid a nejednejte impulzivně. Nervozitu projevíte i v milostné oblasti. Tam je změna nutná.",
        "love": "Nespokojenost s novou známostí vás donutí ke změně. Raději hledejte dál, než abyste zůstali v komplikovaném vztahu.",
        "work": "Peníze se k vám tedy nehrnou. Naopak opět musíte vydat větší sumu na nutné nákupy. Nebojte se, brzy bude lépe.",
        "relationships": "Domů si dnes nenoste pracovní povinnosti, rodina na to není zvědavá. Spíše by ocenili nějakou tu společnou aktivitu.",
        "health": "Migréna a nepříjemné bolesti hlavy postihnou všechny přepracované Raky. Děláte si zbytečně mnoho problémů, odpočívejte.",
        "tips": "Rozhovor s nadřízeným, ukončení nevyhovujících milostných vztahů, společná zábavná aktivita s rodinou, dostatečný odpočinek."
    },
    "leo": {
        "main": "Soustavně na sobě pracujete a nebojíte se velkých změn. Hledejte možnosti, jak se zlepšit především v těch současných znalostech a vědomostech. Může se jednat o studium nového cizího jazyka, obchodních a komunikačních dovedností. Později je využijete.",
        "love": "Vyjděte si s přáteli někam do společnosti. Uvidíte, že se nudit rozhodně nebudete, protože budete středem pozornosti.",
        "work": "Prověřte si dnes všechny složenky a položky, které máte zaplatit. Můžete objevit, že něco je účtováno nesprávně.",
        "relationships": "Nebuďte zbytečně vznětliví, především co se chodu domácnosti týká. Sice máte jiné představy, ale jde se dohodnout i po dobrém.",
        "health": "Pečujte o svou hřívu, Lvi. Pokud máte možnost, dopřejte si profesionální péči někde v kadeřnickém salonu. Je to výborný relax.",
        "tips": "Sebevzdělávání, studium cizích jazyků, návštěva kadeřnictví, společný večer s přáteli, lenošení u počítače nebo u televize."
    },
    "virgo": {
        "main": "Dostává se vám tolik potřebného sebevědomí v oblasti navazování kontaktů. Přestali jste pomalu doufat v lásku, ale dnes se pochybnosti vytratí. Osud vás svede dohromady s osobou, která vás bude chtít poznat blíže a nebude chtít otálet. Tak směle do toho.",
        "love": "Přece jen se začíná blýskat na lepší časy. Objeví se kdosi, koho naprosto ohromíte. Čekání se vyplatilo, milé Panny.",
        "work": "Finance vám sice dělají stále starosti, ale jste na dobré cestě, jak si přilepšit. Je to hlavně vaší píli v zaměstnání.",
        "relationships": "Rodina si o vás už začínala dělat starosti, co se týká milostného života. Dnes je potěšíte detaily o nové známosti.",
        "health": "Dopřejte tělu také nějaké vitaminové doplňky. Zaměřte se na to, co vás nejvíce trápí, a vydejte se do lékárny nebo drogerie.",
        "tips": "Nová známost, rozhovor s rodiči, nákup vitaminů a potravinových doplňků, nové pracovní projekty, procházka se psem k vodě."
    },
    "libra": {
        "main": "Vyvarujte se hádkám v trvalém vztahu, raději ustupte a navrhněte kompromis pro vás oba. Co se týká pracovní sféry, sice si nejste moc jistí momentální situací, ale na radikální rozhodnutí je stále dost času. Poraďte se o tom s dobrým přítelem.",
        "love": "V trvalém vztahu se dnes trochu s partnerem přetahujete o vliv a moc. Buďte moudřejší a navrhněte výhodný kompromis.",
        "work": "Nejste si jistí svou profesní budoucností, proto se rozhodnete raději šetřit finance na horší časy. Děláte dobře, milé Váhy.",
        "relationships": "Potěší vás příbuzný, který se vám dnes ozve po dlouhé době. Měli jste obavu, zda se na vás nezlobí, ale měl jen hodně práce.",
        "health": "Kostem a kloubům je třeba také věnovat péči. Kolagenové prostředky jsou dnes k dostání všude na trhu, nechte si poradit.",
        "tips": "Telefonát s příbuzným, urovnání sporu ve vztahu, schůzka s kamarády, úvaha o změně profese, péče o klouby a kosti."
    },
    "scorpio": {
        "main": "Pokud si nebudete vědět rady s určitým pracovním úkolem, nebojte se požádat o radu zkušenějšího kolegu. Ocení váš zájem a bude se vám plně věnovat. Nadřízeným se tento váš přístup bude líbit a brzy to poznáte nejen na výplatní pásce.",
        "love": "S novým objevem jste zatím v kontaktu pouze po telefonu. Naplánujte schůzku co nejdříve, jinak vám může utéct.",
        "work": "Dejte si dohromady domácí účetnictví, soustřeďte se na všechny povinné platby a složenky. Ujistěte se, že vše je v pořádku.",
        "relationships": "Někoho z blízkých potěšíte milým dárkem. O to větší bude mít radost, když to bude jeho vysněná věc. Radost to udělá i vám.",
        "health": "Nezapomínejte na vhodné potravinové doplňky a vitaminy. Poohlédněte se na internetu po nových produktech, které by se hodily.",
        "tips": "Nákup dárků pro blízké, návštěva společenské události, kontrola plateb za domácnost, pozvání nové známosti na večeři."
    },
    "sagittarius": {
        "main": "Pracovní povinnosti vás dnes zastihnou poněkud roztržité a nesoustředěné. Bedlivým okem vás bude sledovat i šéf, ale máte u něj dobrou pověst, takže se nemusíte bát nepříjemností. Snažte se více koncentrovat na práci než na plánovanou večerní zábavu.",
        "love": "Večer se doma rozhodně neohřejete. Vyrazíte do společnosti ať už s partnerem, nebo sami s přáteli. Nezadaní si rozhodně užijí.",
        "work": "Při nákupech můžete narazit na člověka, se kterým bude obtížná komunikace. Nenechte si zkazit den, ale nic u něj nekupujte.",
        "relationships": "Podívejte se na internetu po zajímavých kulturních nebo společenských akcích, kam byste s partnerem mohli o víkendu vyrazit.",
        "health": "Pokud vám to počasí dovolí, jděte si vyčistit hlavu a plíce do přírody. Zvolte vhodné oblečení a obuv, nezapomeňte na vodu.",
        "tips": "Dodržení pracovního harmonogramu, plánování víkendu, návštěva baru, zábava s přáteli, sport v přírodě, zdravá večeře."
    },
    "capricorn": {
        "main": "Pátek vítáte s otevřenou náručí. Pracovní týden se chýlí ke konci a vy si můžete naplánovat nadcházející víkend. Přesto si v zaměstnání udržte koncentraci na dotažení všech nejdůležitějších úkolů. S kolegy si zajděte na dobrý oběd nebo si dejte kávu.",
        "love": "Partner si nedělá takové starosti s financemi jako vy, a to mezi vás vnáší velké spory. Máte pocit, že je nezodpovědný.",
        "work": "Pokud je potřeba, zůstaňte v práci o pár minut déle. Lepší než abyste si nesli resty domů a pracovali i o víkendu.",
        "relationships": "Rodina si vás chce na celý víkend uzmout pro sebe a tajně se bez vás radí o víkendových aktivitách. Nebraňte se tomu.",
        "health": "Udělejte dnes něco pro svůj pohybový aparát a věnujte se strečinku, protahování nebo józe. Zvlášť máte-li sedavé zaměstnání.",
        "tips": "Práce v kanceláři přesčas, oběd nebo káva s kolegy, rozhovor s partnerem o financích, strečink, jóga, plavání."
    },
    "aquarius": {
        "main": "Při pátku vás moc nebudou bavit nové projekty. Pozornost budete směřovat na nákup drahého dárku pro někoho z vašich milých. V kruhu rodiny budete chtít trávit odpoledne i večer, lenošení vám nebude cizí. Některé z vás čeká krásné usmiřování s partnerem.",
        "love": "S partnerem přestanete řešit malichernosti. Na druhou stranu, sladké usmiřování po hádce vám jde na jedničku.",
        "work": "Sháníte dárek pro svou milovanou osobu? Dnešek je ideálním dnem pro výhodné nákupy luxusních předmětů a šperků.",
        "relationships": "Páteční den rádi strávíte v kruhu rodiny. Za celý týden máte lidí kolem sebe dost, takže oceníte trochu klidu a pohody.",
        "health": "Jediné, co vás dnes bude zajímat za aktivitu, bude chůze od ledničky ke gauči. Když už, tak sáhněte po zdravém jídle.",
        "tips": "Shánění vhodného luxusního dárku nebo šperku, den rodinou, večer u televize, táborák, procházka se psem v parku."
    },
    "pisces": {
        "main": "Dnešní den bude pro vaše znamení převážně poklidný, bez velkých změn a výkyvů. Plánujte si spíše aktivity na víkend a v práci se nesnažte začínat nové aktivity nebo projekty. Spíše si dodělejte nejnutnější resty, ať nemusíte zůstávat přesčas.",
        "love": "Partner má chuť vás rozmazlovat. Sdělte mu svá tajná přání, budete překvapeni, s jakým nadšením vám je vyplní.",
        "work": "Přeje vám štěstí a můžete si přijít na pěknou sumičku v loterii. Takto nabyté peníze si uložte na horší časy a nerozhazujte.",
        "relationships": "Dejte děti na hlídání nebo ke kamarádům a vyjděte si s partnerem do společnosti. Změna vám prospěje, potřebujete ji oba dva.",
        "health": "Nepřehánějte to dnes s alkoholem. Pokud si dnes něco dobrého k pití chcete dát, zůstaňte u jednoho druhu pití.",
        "tips": "Sázka do loterie, uložení peněz na horší časy, večerní zábava s přáteli nebo partnerem, milostné hry v ložnici."
    }
}