{
    "aries": {
        "main": "Protože se vám nedaří zklidnit situaci na pracovišti a najít schůdný kompromis s nadřízeným, jste na pokraji sil. Dopřejte svému tělu i mysli relax. Vezměte s sebou rodinku, přátele nebo kamarády. Uvolníte se a proberete vše, včetně vašich starostí.",
        "love": "Kdosi z přátel s vámi dnes nejedná čestně, ba naopak. Dejte si načas a v klidu si s ním promluvte. Zabráníte hádce.",
        "work": "S vedením se vám nedaří dohodnout na určitých kompromisech a úlevách. Nadřízení si kladou opravdu přehnané požadavky.",
        "relationships": "Vezměte rodinku do wellness centra a užijte si společně vodní hrátky, masáže nebo bylinnou saunu. Zrelaxujete se dostatečně.",
        "health": "Pro uvolnění stresu z přepracování si můžete dnes jít zaplavat nebo do vířivky. Má to na vás vyloženě blahodárné účinky.",
        "tips": "Návštěva aquaparku nebo wellness centra, masáže, vířivka, plavání, kosmetika, pedikúra, kadeřník, pití zeleného čaje."
    },
    "taurus": {
        "main": "Potřebovat dnes budete především trpělivost. Pro vaše znamení by to neměl být problém. Přesto na to pamatujte, bude vám to k dobru. Občas jste zkoušeni, a nejinak tomu je dnes. Pro rodinu se pokuste vymyslet zajímavý výlet. Nápad nejbližší ocení.",
        "love": "Pro nezadané jedince jsou na cestě různá dobrodružství. Ať už vážnější, nebo jen flirty. Užijete si obojí dosyta.",
        "work": "Jestli chcete něco vsadit, tak teď máte tu nejlepší příležitost. I když výhra nemusí být velká, tak vám něco na účet dorazí.",
        "relationships": "Doma jste si jisti. Není na škodu občas naplánovat něco nečekaného. Zkuste dnes nejbližší překvapit novým cílem.",
        "health": "Máte hodně sebevědomí, což je fajn. Ale také potřebujete někde vybít energii. Co takhle nějaké pravidelné cvičení?",
        "tips": "Výlety do okolí, nové rodinné aktivity, plánování aktivit s dětmi, sauna, plavání, nastavení nového jídelníčku."
    },
    "gemini": {
        "main": "Máte kapacitu na to zvládnout i velmi složité pracovní povinnosti. Postupujte pomaleji, nenechte se do ničeho nutit. Vaše systematické myšlení ukáže, že vaše rozhodnutí jsou správná.",
        "love": "Hledáte-li nového partnera do života, zkuste se zaměřit na jeho životní hodnoty. Je na čase přehodnotit i ty vaše.",
        "work": "Někdo z vašich přátel se zmíní o celkem dobrém přivýdělku. Zjistěte si o tom víc, je to cesta, jak si vydělat peníze navíc.",
        "relationships": "Rodina vás dnes přemluví alespoň na malou vycházku, někam do okolí. Nejlepší bude, když se vydáte k nejbližší řece.",
        "health": "Dobře vám udělá vycházka k řece nebo k rybníku. Také projížďka na kole je pro vás dnes vhodná. Neseďte sami doma.",
        "tips": "Hledání brigády, rozhovor s přáteli, vyjížďka na kole, houbaření, procházka lesem, zavařování, příprava domácí limonády."
    },
    "cancer": {
        "main": "Přemýšlíte, že změníte zaměstnání? Sice se můžete začít poohlížet po možnostech, ale uvědomte si momentální nestálost doby a postupujte systematicky. Především nedělejte rázné kroky ihned. Poraďte se s rodinou nebo dobrým přítelem. Potřebujete odstup.",
        "love": "Potřebujete si dnes vyrazit do společnosti, abyste přišli na jiné myšlenky. S partnerem můžete navštívit kino.",
        "work": "Pokud máte dojem, že jste v práci nevyužití a nespokojení, zapracujte na sobě. Najděte si rekvalifikaci nebo vzdělávací kurz.",
        "relationships": "Blízká rodina by měla mít možnost podílet se na vašich vážnějších rozhodnutích. Ušetříte je nepříjemných překvapení.",
        "health": "Mozkové závity potřebují také péči a aktivitu. Stačí k tomu luštění křížovek, rébusů nebo studium cizích jazyků.",
        "tips": "Úvaha o změně zaměstnání, sebevzdělávání, rekvalifikační kurz, on-line kurz, studium cizích jazyků, luštění křížovek."
    },
    "leo": {
        "main": "Dnes nemáte potřebu někomu stále něco vysvětlovat a před někým se obhajovat. Náladu vám nic nepokazí, protože jste rozhodnutí, že si půjdete svou cestou, bez ohledu na názory ostatních. Na poli lásky jste spokojeni nad míru. Nechybí vášeň a romantika.",
        "love": "S novou známostí zažíváte vášnivé chvíle. Zřejmě máte vedle sebe osobu, která by vás mohla provázet životem delší dobu.",
        "work": "Máte trochu lenošivou náladu a v práci se zrovna nepřetrhnete. Nevadí, máte náskok a tempo klidně můžete zvolnit.",
        "relationships": "Dojem, že se stále musíte před svou širší rodinou obhajovat, dnes zesílí. Než se pouštět do konfliktů, omezte kontakt.",
        "health": "Jako správní Lvi si občas zalenošíte. Není problém, protože tělo potřebuje také odpočinek. Záleží na tom, jakou formu zvolíte.",
        "tips": "Zvolnění pracovního tempa, čtení lifestylových časopisů, omezení kontaktu s rodinou, vášnivé chvíle s novým partnerem."
    },
    "virgo": {
        "main": "Čtvrtek vás dovede opět k zamyšlení, zda jste v práci spokojeni a zda se nemáte poohlédnout jinde. Pokud vás to stále trápí, podívejte se na pracovní weby nebo si projděte inzerci v novinách. Udělejte si přehled, jaká je nabídka a podle toho jednejte.",
        "love": "Zapomeňte na nedávné neshody v partnerském vztahu a udělejte si s miláčkem den jen pro sebe. Dejte přednost milostným hrám.",
        "work": "Na účet vám přistane hezká suma peněz. Může se jednat o finanční odměnu od vašich nadřízených. Práci odvádíte perfektně.",
        "relationships": "Nejbližší ocení vaši snahu o vytvoření příjemné rodinné atmosféry. Pozorně naslouchejte svým dětem, mají tajná přání.",
        "health": "Fyzickým pohybem není myšleno jen posilování nebo jiný sport. Co takhle zajít si na bowling? Mimo jiné se zabavíte.",
        "tips": "Zábavné sportovní aktivity, rozhovor s dětmi, uložení peněz na spoření, hledání práce na internetu, milostné hry s partnerem."
    },
    "libra": {
        "main": "V zaměstnání zvolíte netradiční postup a dokážete tak ostatním, že jste schopni zhostit se složitých úkolů. Disponujete opravdu originálními nápady. Nadřízení a kolegové jsou na vaší straně a nálada na pracovišti bude výborná. Blýská se na lepší časy.",
        "love": "Nedělejte předčasné závěry v situaci, která se nyní zdá bezvýchodná. Zkuste vydržet, brzy dojde k pozitivní změně.",
        "work": "Brzděte ve vydávání peněz bezdůvodně a v podstatě za zbytečnosti. Odolejte pokušení kupovat dárky dětem a blízkým.",
        "relationships": "Děti se budou snažit vás přesvědčit, že nutně potřebují určitou věc. Promluvte si s nimi v klidu, proč to nyní nejde.",
        "health": "I když byste pořád jen spali, zkuste dnes nějakou lehkou formu pohybu. Minimálně jízda na kole lesem bude fajn.",
        "tips": "Dokončení pracovních závazků, týmova spolupráce s kolegy, omezení zbytečných výdajů, řešení problémů ve vztahu."
    },
    "scorpio": {
        "main": "Při zvládání pracovních činností vám pomůže zkušený kolega. Zjistíte, že vám oboustranně spolupráce vyhovuje a nevyloučíte ji ani do budoucna. Šéf bude nadšen. Díky společným zálibám s vaším miláčkem spolu trávíte více času a máte si stále co říct.",
        "love": "S partnerem je vám delší dobu fajn. Je to hlavně díky tomu, že máte společné koníčky nebo zájmy. Držte si to i nadále.",
        "work": "S kolegou si v práci vysloužíte pochvalu nadřízeného. Zjistíte, že týmová spolupráce s tímto člověkem vám vyhovuje.",
        "relationships": "Z práce přijdete domů sice vyčerpaní, ale to vám nezabrání, abyste si s dětmi zahráli nějakou tu společenskou hru.",
        "health": "Únavu a vyčerpání zaženete krátkým odpoledním spánkem a doplněním potřebných vitaminů. Volte raději přírodní zdroje.",
        "tips": "Týmová spolupráce s kolegou, jednání na úřadech, péče o domácí mazlíčky, odpolední krátký spánek, lehká večeře."
    },
    "sagittarius": {
        "main": "Doménou dne budou děti a jejich požadavky. Asi se trochu nudí, proto se překonáte a vymyslíte pro ně výbornou volnočasovou aktivitu. Zamyslete se ještě nad nějakým příměstským táborem či kroužkem. S partnerem si na to připravte potřebné finance.",
        "love": "S partnerem bude potřeba probrat jeho utrácení financí. Pokuste se na to jít v klidu, ať se zbytečně neocitnete v konfliktu.",
        "work": "Jevíte se v zaměstnání jako velmi vhodný kandidát na čerstvě uvolněnou pozici. Poptejte se a zjistěte vaše šance na postup.",
        "relationships": "Bude potřeba vymyslet ještě nějakou zábavu pro ratolesti. Zjistěte si, co přesně by je bavilo. Rády vám to prozradí.",
        "health": "Máte dojem, že jste kvůli letnímu mlsání něco málo přibrali. Střídmější strava to upraví, zamyslete se nad skladbou jídelníčku.",
        "tips": "Vymýšlení zábavy pro děti, zájem o novou pracovní pozici, sebevzdělávání, úprava jídelníčku, lehká dieta, rozhovor s dětmi."
    },
    "capricorn": {
        "main": "Ti z vás, kteří hledají nového partnera, mají spíše štěstí na poněkud prchlivé a výbušné jedince. Rozmyslete si, co od dalšího vztahu čekáte. Pokud si nebudete vědět rady, popovídejte si o tom s důvěrným známým. Hlídejte si výdaje na nákupech.",
        "love": "Partner si nebere servítky a vám se to rozhodně nezamlouvá. Od protějšku čekáte jemnější a vstřícnější přístup.",
        "work": "Máte sklony zacházet se svými financemi poněkud lehkovážně a nezodpovědně. Může se vám to za pár dní dost vymstít.",
        "relationships": "Naplánujte si na další dny výlety, ať ještě využijete letních dní a hezkého počasí. Dejte přednost nápadům a přáním děti.",
        "health": "Nakupte si nové pomůcky a přípravky na péči o zuby. Dejte přednost veganským a bio produktům bez škodlivých prvků.",
        "tips": "Registrace na seznamce, opatrnost při zacházení s penězi, nákup bio a veganských produktů, plánování výletů pro děti."
    },
    "aquarius": {
        "main": "Doma se dnes moc nezdržíte, přátele a kamarády láká vaše veselá nálada a spontánnost. Užijete si posezení někde mezi lidmi a dobře se pobavíte. Možná dojde i na tanec nebo karaoke. S penězi nakládejte zodpovědně a nerozhazujte zbytečně, i když máte dostatek.",
        "love": "Vyjdete si ven, ať už s partnerem, nebo s přáteli. Dobře se pobavíte a domů určitě spěchat nebudete. Pozor na kocovinu.",
        "work": "Dá se říct, že jste slušně finančně zajištěni. Nemusíte se při nákupech omezovat. Přesto neutrácejte zbytečně a lehkovážně.",
        "relationships": "S dětmi vyzkoušíte vodní sporty, které vás lákaly delší dobu. Uchvátí vás to a zřejmě máte novou společnou aktivitu.",
        "health": "Při zábavě dávejte pozor na nadměrnou konzumaci alkoholu nebo jeho míchání. Ráno byste to odnesli pěknou kocovinou.",
        "tips": "Zábava s přáteli, návštěva klubu, karaoke, tanec, nové vodní sporty s dětmi, nákup sportovních potřeb a oblečení."
    },
    "pisces": {
        "main": "Kdosi vám nedávno velmi intenzivně vyznal lásku. Tato osůbka si tím naprosto získala váš zájem a možná i vaše srdce. Dejte tomu šanci a domluvte si schůzku na nějakém romantickém místě. Uvidíte sami, zda mezi vámi fungují přitažlivost a sympatie.",
        "love": "Milenecké vztahy mají dnes zelenou. Dopřejte si vášeň, romantické hrátky, mazlení a rozkoš. Nebraňte se emocím.",
        "work": "Jste důvěřiví a mají na vás zálusk osoby, které vás mohou podvést a využít. Na jednání s nimi raději vůbec nechoďte.",
        "relationships": "Zahrajte si s potomky karetní nebo vědomostní hry či soutěže. Pobavíte se dokonale i vy a nemusíte koukat na televizi.",
        "health": "Objednejte se na dentální hygienu a o svůj chrup dobře v těchto dnech pečujte. Předejdete pozdějším nepříjemným zákrokům.",
        "tips": "Návštěva dentální hygienistky, vědomostní soutěže s dětmi, odmítnutí pochybných finančních nabídek, romantické rande."
    }
}