{
    "aries": {
        "main": "Že už dlouho přemítáte o nějaké zajímavé cestě do zahraničí? Mlsný jazýček můžete uspokojit v odpoledních hodinách, kdy se v rámci pracovních povinností máte tendenci rozhodnout pro dalekou služební cestu. A volba to bude po všech stránkách dobrá.",
        "love": "Zkuste v sobě udusit negativní emoce, které s vámi nyní cloumají kvůli neshodám v milostném vztahu. Je to dost náročné.",
        "work": "Dnes se mohou vyskytnout malé překážky v práci, zejména v komunikaci s kolegy. Nedělejte z toho drama a naslouchejte jim.",
        "relationships": "Určitě nebudete litovat, pokud si naplánujete ještě nějaký zajímavý výlet. Zkuste se poptat u přátel na dobrý tip.",
        "health": "Klidně si doma po obědě nebo odpoledne zdřímněte. Zřejmě potřebujete novou energii, která vám momentálně chybí.",
        "tips": "Zahradničení, zpracování pozdního ovoce, renovace domácnosti, sestavení hudebního playlistu, ruční mytí automobilu."
    },
    "taurus": {
        "main": "Zapomeňte na to, že budete řešit peněžní nebo materiální stránku vašeho vztahu. To ve vašem případě není to pravé, čemu byste měli příliš věnovat pozornost. Naopak, bude nejlepší, když toto téma nebudete vytahovat vůbec. Zatím nemáte takové problémy, abyste museli začínat rozhovory. Raději si najděte téma spojené s láskou.",
        "love": "Nezadaní jedinci si budou užívat i dnes zájmu o svou osobu. Máte před sebou nové a skvělé příležitosti pro nový vztah.",
        "work": "Vaše pevná vůle a urputnost vás dnes mohou posunout dál. Jste proti svým kolegům velmi vytrvalí, což nese svoje ovoce.",
        "relationships": "Všichni z rodiny, kdo se budou účastnit nějaké vámi organizované akce, se budou velmi dobře bavit. Dostanete od nich pochvalu.",
        "health": "Jestliže se vám nechce dnes trávit čas vařením, nechte si přivézt jídlo z vaší oblíbené restaurace. Stačí si jen vybrat.",
        "tips": "Rehabilitace zádového svalstva, odpočinek s knížkou, výroba interiérových dekorací, příprava s dětmi do školy, meditace."
    },
    "gemini": {
        "main": "Den přeje větší aktivitě, tak nezůstávejte stranou a pokuste se nějaké věci dotahovat s větším elánem. Pak budete vědět, že stíháte a zároveň nebudete muset mít stálé starosti o to, co jste měli udělat už včera a jak to nyní omluvit, aby to prošlo.",
        "love": "Vaše pozornost se momentálně stáčí jen k jedné jediné osobě. Sympatie jsou oboustranné, nebojte se být více akční.",
        "work": "Vaše vztahy s kolegy se mohou zhoršit, protože jim umíte také někdy zabrnkat na nervy. Vy to víte, tak se snažte být mírnější.",
        "relationships": "V hlavě nosíte spoustu nápadů na to, jak prožít volné chvilky s rodinou. Ti jsou rádi, že sami nemusí nic vymýšlet.",
        "health": "Jestli se dnes chystáte na odpolední procházku do lesa, nezapomeňte se dobře obout a obléct. Nejlepší je outdoorové oblečení.",
        "tips": "Preventivní prohlídka u lékaře, pořízení nového sportovního oblečení, piknik s dětmi v lesoparku, návštěva umělecké galerie."
    },
    "cancer": {
        "main": "Uspořádejte doma večírek pro přátele a kamarády, pokud chcete uzavřít léto. Není nic jednoduššího než se sejít a pobavit se. V práci si vás vaši kolegové dnes budou předbíhat. Umíte totiž podat pomocnou ruku bez očekávání vděku a oddanosti.",
        "love": "Není vůbec pozdě na to naplánovat ještě nějaký pěkný večer s přáteli. Můžete se chopit role hostitele a pozvat je k vám.",
        "work": "Umíte podat pomocnou ruku kolegům, kteří se dnes budou trápit se složitým úkolem. Nadřízený dobře vidí vaši ochotu.",
        "relationships": "Kdosi z vašich dobrých přátel má vybraný vkus. Proto se ho můžete zeptat na názor ohledně vašeho nového oblečení.",
        "health": "Budete-li dnes potřebovat pracovat s čisticími prostředky, dávejte pozor, abyste dobře větrali v místnostech.",
        "tips": "Nákup knížek na audiotéce, venčení pejsků s přáteli, sušení léčivých bylinek, sledování hudební soutěže, relax s knihou."
    },
    "leo": {
        "main": "Konečně překonáte lenost a naplánujete večerní sraz s dobrým přítelem, kterého jste dlouho neviděli. Měli byste něco takového pořádat častěji. Uvědomte si, že společné zážitky jsou nejpevnějším pojítkem přátelství. Pokud chybí, je mnohem těžší ho udržet.",
        "love": "Je tu zřejmě osůbka, se kterou byste mohli prožít opravdu krásné chvilky. Dívejte se pozorně kolem sebe, ať ji neminete.",
        "work": "Vztahy mezi vámi a kolegy jsou dnes výrazně příznivější. Podaří se zapomenout na spory nebo neshody z minulých dní.",
        "relationships": "Vy jste stále připraveni na nečekané návštěvy, tak vás ani dnes nic nepřekvapí. Lahůdky a dobré víno máte ve spíži vždy.",
        "health": "Jídlo dochutíte a ozdobíte čerstvými zelenými bylinkami. Navíc se vám dostane vitaminů a potřebných látek. Nejlepší bude mix.",
        "tips": "Pracovní porada online, týmová spolupráce s kolegy, příprava lehkého oběda, odpolední výlet na kolech, registrace v seznamce."
    },
    "virgo": {
        "main": "Trápí vás osobní problémy? Pokud je nemůžete dostat z hlavy, nejlíp uděláte, když se naplno pustíte do práce. Uvidíte, že v zaměstnání najdete vytouženou útěchu a že vás udrží dále od negativních myšlenek. Kromě úlevy vám to přenese i mnoho úspěchů.",
        "love": "Místo toho, abyste řešili ve vztahu neustále finance, vyhněte se tomuto tématu alespoň dnes. Není to nutné řešit každý den.",
        "work": "Někdo v práci si na vás chladí žáhu. Jedovaté poznámky vám už mohou lézt krkem. Bude třeba ho ale včas zastavit.",
        "relationships": "Noví lidé vám mohou ukázat nová hobby. Ta jsou úplně odlišná od těch vašich původních. Naučit se můžete kreativním technikám.",
        "health": "Sušené maso je hodně v oblibě, protože obsahuje vysoká procenta proteinů. Přibalit byste si je měli na túry nebo delší cesty.",
        "tips": "Plánování pracovního harmonogramu, sestavení hudebního playlistu, hraní na hudební nástroje, thajské masáže, wellness."
    },
    "libra": {
        "main": "Někdo z vašeho blízkého okolí ve vás vyvolává silné emoce. Má totožný smysl pro humor a vaše názory na život se téměř shodují. Je otázkou času, kdy vy dva budete tvořit pár, protože jste si velmi blízcí i v názorech na lásku a mezilidské vztahy.",
        "love": "Pravděpodobně jste v úzkém kontaktu s někým, kdo vás dostal svým smyslem pro humor. Náklonnost je oboustranná, nebojte se.",
        "work": "Od vašeho šéfa můžete dostat nabídku, která se jen tak neodmítá. Bude vypadat velmi dobře, tak neváhejte s odpovědí.",
        "relationships": "Doplňte si doma jídelní servis. Může se vám totiž brzy stát, že přivítáte větší společnost, ale bude vám chybět nádobí.",
        "health": "Dnes rozhodně neponocujte, druhý den byste byli unavení až příliš. Místo televize si pusťte oblíbenou hudbu do sluchátek.",
        "tips": "Preventivní kontrola u stomatologa, výroba raw dezertů, plánování zimní dovolené, sázení okrasných květin, minigolf."
    },
    "scorpio": {
        "main": "Jestliže chcete dnes se svým protějškem hovořit o něčem důležitém, bude nutné nechat emoce stranou. Jinak se vše dostane na úplně jinou úroveň. Uvědomte si tedy, zda se chcete hádat, nebo chcete opravdu něco důležitého vyřešit. To by mohlo pomoct.",
        "love": "Jestliže chcete dnes něco důležitého řešit s partnerem, musíte zachovat klid. Jinak to bude jen hádání a osočování.",
        "work": "Vašemu nadřízenému se váš současný styl práce zamlouvá. Jste na dobré cestě za lepším finančním ohodnocením i kariérou.",
        "relationships": "Nechte jisté lidi z rodiny, aby si své problémy vyřešili sami. Není dobré, když jim stále umetáte cestičku a pomáháte jim.",
        "health": "Pozor si dnes musíte dáte na vařící vodu, horký olej či žehličku. Hrozí vám, že si ošklivě ublížíte popálením.",
        "tips": "Nákupy školních pomůcek pro děti, příprava lehkého oběda, registrace v rekvalifikačním kurzu, četba humorného románu."
    },
    "sagittarius": {
        "main": "Vy i váš partner jste dnes stejně neústupní a tvrdohlaví. Není se čemu divit, že vyjednávání vám tedy vůbec nejde. Bohužel pro vás oba to jsou starosti navíc. Zkuste se více ovládat a mít odstup. Vše bude vypadat jinak.",
        "love": "Nemáte dnes chuť stále ustupovat partnerovi, a tak může vaše nespokojenost stále pokračovat. Nenechte to zajít daleko.",
        "work": "Maličkost, kterou jste si v práci nechali na poslední chvíli, se může nepěkně vyvinout v problém. Hlídejte si vše, co uděláte.",
        "relationships": "Zkuste se zbavit neřestí v podobě riskování vašeho zdraví. Máte sklony si zahrávat, ale dnes k tomu není vhodná chvíle.",
        "health": "I přestože léto skončilo, pečujte o pleť v obličeji a dekoltu. Vyberte si ještě vhodný opalovací či krycí krém.",
        "tips": "Káva s kolegy, studium cizího jazyka, nákup nových knižních titulů, kontrola cestovních dokladů, nové kreativní techniky."
    },
    "capricorn": {
        "main": "Vaše znamení není tak snadno ovladatelné emocemi a pocity. V současných dnech se ale i vy musíte ovládat, protože je toho na vás docela dost. Místo toho, abyste se dnes rozčilovali, zkuste se zasmát a mávnout nad problémy rukou. Uleví se vám hned.",
        "love": "Ovládají vás emoce, což v lásce a milostných vztazích je fajn pouze tehdy, když jsou pozitivní. To ale není tento případ.",
        "work": "Bude třeba získat více informací o tom, co plánujete. Hlavně podnikatelé by si měli zjistit důležité podrobnosti.",
        "relationships": "Dejte dnes také prostor ostatním doma, aby vyjádřili svůj názor. Bez toho byste neměli dělat žádná rozhodnutí.",
        "health": "Místo toho, abyste sladili bílým cukrem, zkuste použít tolik oblíbený čekankový sirup. Má mnoho předností a je chutný.",
        "tips": "Celodenní výlet do zoologické zahrady, fotografování přírody, nákup nového hudebního nástroje, zpěv, četba komiksů."
    },
    "aquarius": {
        "main": "Pokud se dnes vydáte mezi lidi, dejte si záležet na upravené vizáži. Nesmíte zapomenout ani na pěstěné ruce a skvělý účes. Máte-li se totiž s někým seznámit, tak byste se při tom také měli cítit dobře. Lichotky vám udělají radost a zvednou sebevědomí.",
        "love": "Pokud dnes vyrážíte do společnosti, dejte si záležet na své vizáži. Uděláte opravdu dojem a budete středem pozornosti.",
        "work": "Chopíte se svých povinností tak, že nenecháte nikoho na pochybách, jak dobří zaměstnanci jste. Zaveďte své nápady do praxe.",
        "relationships": "Rádi byste svým blízkým dopřáli více komfortu, proto se dnes budete dívat po dalším přivýdělku nebo zajímavé brigádě.",
        "health": "Domluvenou návštěvu u svého lékaře neodkládejte. Není nic, čeho byste se měli obávat. Naopak budete mít klid na duši.",
        "tips": "Drobné opravy v domácnosti, zahradničení, nákupy v hobbymarketu, plánování třídního srazu, poslech vinylových desek."
    },
    "pisces": {
        "main": "Jestliže jste ukončili vztah, není to jednoduché, ale nesmíte propadat skepsi. Velmi brzy vám bude o dost lépe a možná budete opět vyhlížet nové milostné dobrodružství. Do té doby si ale dejte do pořádku své city a uvědomte si, co od nové lásky čekáte.",
        "love": "Není nutné smutnit, pokud vaše představy o novém vztahu vzaly za své. Zřejmě to nebylo to pravé pro vás. Buďte nad věcí.",
        "work": "Sáhněte si do svědomí. Opravdu děláte svou práci na maximum? Kolegové z vás mohou mít dnes pocit, že se jen vezete.",
        "relationships": "Zkuste se ovládnout, pokud vás dnes doma něco zvedne ze židle. Snažte se zachovat klid, všechno pak půjde lépe.",
        "health": "Pokud rádi houbaříte a dnes vyrazíte pro nějaký úlovek, všechny plody, které seberete, musí být zdravé a nečervivé.",
        "tips": "Sepisování vlastních receptů, romantické odpoledne s partnerem, hledání nové brigády, úprava starého životopisu."
    }
}