{
    "aries": {
        "main": "Jestliže jste se v minulosti s partnerem nepohodli, pak se nyní můžete snadno a rychle usmířit. Pokud snad v afektu padla i neuvážená slova jako rozchod či rozvod, budou zcela zapomenuta. První víkendový den již strávíte ve vzájemné shodě a pohodě.",
        "love": "Milování na netradičním místě nebo flirtování s atraktivními protějšky je vám souzené. S ničím podřadným se nespokojíte.",
        "work": "Nevěřte pouličním obchodníkům, ať vám nabízejí cokoliv. Dnes jste naivnější než obvykle, takže byste se mohli napálit.",
        "relationships": "Je zbytečné hádat se kvůli maličkostem. Dnes to naštěstí pochopíte již v prvních náznacích konfliktu a vycouváte z něj.",
        "health": "V sobotu budete mít velmi citlivé močové cesty. Vyplatí se pečlivá hygiena a nezapomeňte na dostatečný přísun tekutin.",
        "tips": "Setkání s bývalými spolužáky, chatování, vodní sporty, odpočinek ve vířivce, třídění starých fotek, ajurvédská masáž."
    },
    "taurus": {
        "main": "Sobota je vhodným dnem pro navázání nového vztahu. Slunce a Venuše ve znamení spolehlivé a seriózní Panny vás povedou. Je možné, že vám ukážou praktického partnera, který se nepřetvařuje, vždy o vás bude pečovat a bude vám oporou. Buďte ve střehu!",
        "love": "Zadaní si vyhodí z kopýtka a spolu s partnerem se nechají rozmazlovat. Wellness víkend či masáže jsou pro vás to pravé.",
        "work": "Finanční zajištění vám dnes večer dopřeje klidné spaní. Dáváte si pozor na to, kolik peněz a za jaké věci utrácíte.",
        "relationships": "Někdo by vám v sobotu mohl závidět vaši bezstarostnost a štěstí. Druzí mají neoprávněně pocit, že k vám přišlo jen tak.",
        "health": "Pokud se vám přebytečná kila už pomalu zajídají, je nejvyšší čas začít s tuky bojovat. Od základů změňte životosprávu.",
        "tips": "Snídaně do postele, výlet do přírody, zábava ve společnosti, romantická večeře při svíčkách, masáž lávovými kameny."
    },
    "gemini": {
        "main": "Merkur ve znamení Vah způsobí, že vaše psychika bude v neustálém tlaku a nervozitě. Važte proto svá slova, úskalí může představovat i elektronická pošta. I tam by vám mohlo ujet emotivní vyjádření, které byste po odeslání už jen těžko brali zpět.",
        "love": "S partnerem se dnes budete každý věnovat hlavně svým povinnostem a koníčkům. Sejdete se až během pozdního odpoledne.",
        "work": "Nákup přes internet vám ušetří nemalé finance. Dnes si dáváte pozor na to, kde se dá vybrané zboží sehnat co nejlevněji.",
        "relationships": "To, co jste nenapravili v minulých dnech, teď už nedořešíte. Vyplatí se sekat latinu a doufat, že vám blízcí odpustí.",
        "health": "Jóga a meditace vám pomohou vrátit tělo do pohody. Potřebujete nejen posílit svaly, ale především utužit svou mysl.",
        "tips": "Doplňování čerstvých vitaminů, očista organismu, profesionální epilace, přesazování pokojových rostlin, změna účesu."
    },
    "cancer": {
        "main": "Budete nadmíru výkonní, jako by pro vás volná sobota ani neplatila. S nevšední vervou se ponoříte do každé činnosti, i kdyby šlo třeba jen o domácí úklid. Nezapomeňte ale sledovat hodinky, jinak bude večer, než se nadějete. Dejte prostor i odpočinku.",
        "love": "Vyrazíte za přáteli a konečně budete mít čas o všem si pořádně promluvit. Chvíle v jejich blízkosti utečou jako voda.",
        "work": "Placení na prvním rande byste měli zařídit podle gentlemanského pravidla. Mužská část Raků by mohla být za skrblíky.",
        "relationships": "Vyplatí se neignorovat připomínky sousedů. Sice znějí jako jeden velký nesmysl, ale v mnohém dnes budou mít pravdu.",
        "health": "Vaše trávicí ústrojí je dnes velmi citlivé na extrémy. Neměli byste ho zatěžovat tučnými ani příliš kořeněnými jídly.",
        "tips": "Cykloturistika, výlet za historií, čtení pohádek dětem, kolektivní sporty s přáteli, úklid bydlení, piknik v přírodě."
    },
    "leo": {
        "main": "V lásce budete mít podporu partnera, který bude během víkendu stát pevně po vašem boku. Kritiky se z jeho úst dočkáte spíše výjimečně. Naopak se vás bude zastávat v případě, že by se do vás chtěl někdo navážet. Pro okolí budete nerozlučnou dvojkou.",
        "love": "Na lásku se nesnažte koukat racionálně, ale zapojte více své srdce. Rozum bude v těchto oblastech během dne nemožný.",
        "work": "Investice do milostného života bude dnes nezbytná. Nákup hraček pro dospělé nebo filmů s hvězdičkou přinese své ovoce.",
        "relationships": "Výlety s dětmi dnes proběhnou na výbornou. Všichni jste naladěni na stejnou notu, takže nebude docházet ke konfliktům.",
        "health": "Dnes se nenecháte ničím vystresovat ani vykolejit okolními provokatéry. Víte, že vám rozčilování nedělá dobře na srdce.",
        "tips": "Utužování partnerského vztahu, čtení knih, sledování dokumentů, pití bylinkových čajů, studium, odjezd na dovolenou."
    },
    "virgo": {
        "main": "V sobotu budete o něco raději s přáteli než s protějškem. Komunikace v partnerství může váznout, jen stěží se na něčem shodnete. Oběma by vám prospělo krátké odloučení a rozdílné zážitky, o nichž byste si mohli vyprávět. Spěchejte za svou partou.",
        "love": "Nezadaní, nezůstávejte sami a vyrazte si s přáteli na nějaký povedený večírek. Máte šanci seznámit se se sexy protějšky.",
        "work": "Zamyslíte se nad založením spoření nebo pojištění. Dnes přemýšlíte nad budoucností a nechcete zůstat bez prostředků.",
        "relationships": "Promluvíte si s ratolestmi o lstivých nástrahách, které na ně život připravil. Zkuste se vyhnout mentorskému přístupu.",
        "health": "Při sportu nepřeceňujte své síly. Večer by vás potrápily bolesti zádových svalů. Musíte se cvičením začít pozvolna.",
        "tips": "Snídaně do postele, něžnosti s partnerem, zhlédnutí nového filmu v kině, bezstarostná zábava s přáteli, karaoke, tanec."
    },
    "libra": {
        "main": "Díky Jupiteru v Beranu budete mít chuť zúčastňovat se nejrůznějších vzdělávacích kurzů. Jste rádi v kolektivu více lidí a necháváte na sebe působit mnoho rozličných názorů. Kromě znalostí můžete získat i nové přátele, kteří vám opravdu sednou.",
        "love": "Na lásku jsou potřeba vždy dva. Nesnažte se tedy všechnu vinu hodit pouze na partnera a přiložte i svou ruku k dílu.",
        "work": "Vyčleníte nemalou finanční sumu na vylepšení šatníku. Upravený zevnějšek berete jako nutnost pro svůj kariérní postup.",
        "relationships": "Mluvit s kýmkoliv vám nebude dělat problémy. I když neovládáte cizí jazyk na jedničku, s cizinci si skvěle popovídáte.",
        "health": "Do obvyklého sobotního programu zařadíte přirozený pohyb. Sami cítíte, že na svém organismu máte ještě co vylepšovat.",
        "tips": "Meditace, dechová cvičení, prohlížení fotografií, zábava či studium v kolektivu, netradiční dovolená, výlet za poznáním."
    },
    "scorpio": {
        "main": "Jste pyšní na své pracovní výsledky, ale radost vám zkalí vaši blízcí. Doma vám bude vyčítáno, že jste stále duší v práci. To jim nevyvrátíte, protože je to pravda. Co ale můžete, je vrhnout se s nimi do víru víkendové zábavy a na práci zapomenout.",
        "love": "Od protějšku se máte pořád co učit, stejně jako on od vás. Jste rozdílnější, než jste mysleli, ale stejně si rozumíte.",
        "work": "Spočítáte si příjmy a výdaje a zjistíte, že na tom vaše soukromé účetnictví není zas tak špatně. Vyhýbáte se riskování.",
        "relationships": "Díky vašemu daru empatie pochopíte, co si příbuzní přejí, aniž by to řekli nahlas, a tak je můžete překvapit a potěšit.",
        "health": "Kouření se podepíše na zdraví ústní dutiny. Není vyloučeno, že vás v sobotu zaskočí paradentóza či problémy s dásněmi.",
        "tips": "Návštěva muzea nebo výstavy, rodinný výlet za kulturou, stříhání rostlin, pozvánka rodičů na společný oběd, diskotéka."
    },
    "sagittarius": {
        "main": "V sobotu si dejte pozor na podrážděnost. Budete mít tendence zlehčovat problémy druhých. Měli byste se snažit o větší empatii a pochopení potíží, kvůli kterým za vámi blízcí chodí. Třeba zjistíte, že vy teď vlastně vůbec nemáte důvod ke stížnostem.",
        "love": "Drby týkající se vašeho partnera vás v sobotu nenechají chladnými. Nevyprášíte však kožich jemu, ale nestoudným klepnám.",
        "work": "Na výdaje dnes nebude ve vašem napjatém rozpočtu místo. Využijete všech možností, které nabízí spižírna nebo zahrádka.",
        "relationships": "Rodinné spory, které se dlouho táhly, vám budou najednou připadat banální. Najdete kompromis, který se bude líbit všem.",
        "health": "Energie vám nechybí, ale neumíte ji adekvátně použít. Slušel by vám aktivní odpočinek a ne sezení u práce na počítači.",
        "tips": "Přestavba interiéru, malování, nákup nábytku, kontakt s příbuzenstvem, sledování rodinných nahrávek, vydatný spánek."
    },
    "capricorn": {
        "main": "V sobotu vám hvězdy umožní píchnout do vosího hnízda. S protějškem si můžete bez křiku promluvit o jeho případných záletech. Otevřeného rozhovoru se mohou odvážit i partneři, kteří se cítí jenom odcizení a každý tajně touží po jiném stylu erotiky.",
        "love": "Jestliže si na partnera nenajdete dostatek času, bude hledat zábavu jinde. Pak za ním nechoďte se žárlivými scénami.",
        "work": "Uvědomíte si, co je pro vás důležitější. Finanční a materiální záležitosti pro dnešek hodíte za hlavu a žijete láskou.",
        "relationships": "Rodinná dovolená vám umožní načerpat ztracenou energii i elán do života. Ratolesti si pro dnešek vystačí většinou samy.",
        "health": "Udržujete se ve správné kondici. Psychicky i fyzicky jste fit. Mohli byste se klidně měřit s mnohem mladšími ročníky.",
        "tips": "Vydatný spánek, odpočinek, grilování s přáteli, důvěrný rozhovor s partnerem, fandění při sportovním zápase, masáže."
    },
    "aquarius": {
        "main": "Díky své píli a zkušenostem jste posbírali mnoho cenných informací, zatím jste však neměli možnost se s nimi blýsknout. Nyní se chystá žádoucí obrat. Zjistíte, že svá naučená moudra dobře využijete i finančně zúročíte. Buďte otevřeni všem podnětům.",
        "love": "Úspěch u opačného pohlaví dnes máte téměř zaručen. Vaše osobní kouzlo, charisma a vtip vytvářejí vražednou kombinaci.",
        "work": "Vyhodíte si z kopýtka a užijete si den přesně podle svého gusta. Nebudete koukat na vydanou korunu. Za to vám to stojí.",
        "relationships": "Můžete si dovolit naplánovat takové volnočasové aktivity, po kterých děti dlouho touží. O finance se nebudete starat.",
        "health": "Do ničeho se dnes nehrnete s horkou hlavou. To vám umožní vyhnout se všem zraněním ze zbrklosti i psychickému tlaku.",
        "tips": "Flirtování s neznámými protějšky, cestování do zahraničí, studium cizích jazyků, luštění sudoku, příprava do zaměstnání."
    },
    "pisces": {
        "main": "Dostanete se do situace, kdy se vám podaří zúročit vaše schopnosti. Šanci na přilepšení mají hlavně podnikatelé a osoby pracující na volné noze. Umíte se nachomýtnout ve správný čas na správném místě. Konkurence se netřeba obávat, máte co nabídnout.",
        "love": "Uvědomíte si, že jste kdysi partnerovi v lecčem křivdili. Dnes vám nedělá problém uznat svou chybu a omluvit se za ni.",
        "work": "Blízké budete rozčilovat svým workoholismem. Jejich výtky si vezmete k srdci a trochu vysadíte. Spokojeni budou všichni.",
        "relationships": "V rodině zavládne pohodová atmosféra. Zajímáte se o problémy druhých a snažíte se jim ukázat pozitivní stránku věci.",
        "health": "Prospěje vám vydatný spánek a harmonická domácnost. Tělo je unaveno především psychicky, což vyžaduje delší regeneraci.",
        "tips": "Procházka parkem, hlídání kamarádčiných dětí, nordic walking, práce na zahradě, poslech hudby, návštěva místní čajovny."
    }
}