{
    "aries": {
        "main": "Dnes byste mohli velice snadno propadnout nějakým hazardním hrám, a to ve velkém stylu. Pokud tedy o sobě víte, že vás toto láká, dejte si od toho velký odstup. Mohli byste se rázem dostat do velkých finančních nesnází, ze kterých není cesty ven.",
        "love": "Zjistíte, že nejen vy, ale také váš miláček je neustálými spory vyčerpán. Dochází vám oběma síly. Snažte se relaxovat.",
        "work": "Máte velmi silné sklony k hazardu. Je to dáno tím, že hledáte možnost, jak získat utracené peníze zpět. Vyhněte se riskování.",
        "relationships": "Ať už jste si na volné dny připravili cokoliv, máte se na co těšit. Den by měl být uvolněný a příjemný. Bavte se maličkostmi.",
        "health": "Pokud si dnes poležíte v posteli o něco déle než jindy, rozhodně tím vůbec nic nepokazíte. Spěchat nemusíte vůbec nikam.",
        "tips": "Procházka po památkách, dopoledne na farmářském trhu, zpracování podzimního ovoce a zeleniny, úklid dětského pokoje."
    },
    "taurus": {
        "main": "Vy máte velmi blízko k jistému člověku, ale i on k vám. Proto neváhejte s rozvíjením vašeho čerstvého vztahu. Ovšem našlapujte opatrně, ať nic neuspěcháte. Čím pomaleji na vaše sbližování půjdete, tím krásnější bude. Myslete na to neustále.",
        "love": "Sympatie k nové osůbce jsou z vaší strany velké. Ale také zpět k vám přicházejí signály, že jí nejste lhostejní.",
        "work": "Můžete se potýkat s větší finanční krizí. Nejste v tom ale sami. Hledejte slušné řešení současné situace, které vám pomůže.",
        "relationships": "Nepořizujte domů žádné věci v podobě dekorací. Jsou to momentálně vyhozené peníze za neobvyklé výstřelky.",
        "health": "Experimentům v kuchyni se dnes nemusíte vyhýbat. Naučte se vařit i jíst něco nového a neobvyklého. Musí vám to ale chutnat.",
        "tips": "Návštěva u starších příbuzných, nákupy lahůdek, pečení sladkých koláčů, výtvarné aktivity s dětmi, velký úklid domácnosti."
    },
    "gemini": {
        "main": "Ve vztahu by měla dnes vládnout pouze dobrá nálada. Pokuste se jí tedy udržet, jak to půjde. Díky tomu můžete prožít opravdu krásnou sobotu, plnou vášní a romantiky. Ať už je váš vztah v jakékoliv podobě, jistě mu taková nálada jen prospěje.",
        "love": "Dnes nic neřešte. Snažte se udržet ve vztahu dobrou náladu, i kdyby se vám něco nelíbilo. Nesmíte být vztahovační.",
        "work": "Štěstí bude stát při vás. Díky tomu se ušetříte zbytečně velkým výdajům, které by vás do budoucna mohly ohrozit.",
        "relationships": "Nezůstávejte dnes jen doma, ale snažte se vyjít někam mimo domov. Přijdete na daleko lepší, veselejší myšlenky.",
        "health": "Kvalitní střih i barva vašich vlasů vám může docela změnit vizáž. Pokud můžete, zajděte si ke svému kadeřníkovi.",
        "tips": "Renovace domácnosti, čištění čalouněného nábytku, procházka po centru města, posezení v cukrárně, nákup řezaných květin."
    },
    "cancer": {
        "main": "Kdosi, kdo je vám stále nablízku, vás může rozčilovat. Přesto byste se měli pokusit tuto osobu poznat, protože vás může jen velmi příjemně překvapit. Později uznáte, jak moc jste se v prvním úsudku mýlili, a budete rádi, že jste ji nezatratili ihned.",
        "love": "Jestliže nový idol hned nezatratíte, ukáže se, jak velké lásky vůči vám je schopen. Nemyslíte, že to stojí za zkoušku?",
        "work": "Buďte opatrní při podepisování nejrůznějších smluv. Především tam, kde hrají roli velké peníze či úroky z půjčky.",
        "relationships": "Jestliže to jen trochu půjde, vyjděte si na kratší procházku a kochejte se podzimní přírodou. Potřebujete nabrat nové síly.",
        "health": "Vaší vizitkou jsou dobře pěstěné ruce a nehty. Máte-li možnost, svěřte se do rukou odborníků, kteří si s tím vědí rady.",
        "tips": "Dopoledne na farmářském trhu, ochutnávka lahůdek, odpolední návštěva kina nebo divadla, psaní humorných fejetonů."
    },
    "leo": {
        "main": "Dnes máte velké předpoklady pro to, abyste konečně dotáhli do úspěšného konce něco, co vás velmi dlouho trápilo či zatěžovalo. Je jasné, že vám spadne kámen ze srdce. Pro vás to může mít ještě jiný rozměr, osobního charakteru. To si ale necháte pro sebe.",
        "love": "Výlet kamsi do okolí vám dnes mohou nabídnout dobří přátelé. Neodmítejte je v žádném případě, potřebujete jít ven.",
        "work": "Cokoliv jste dlouhodobě řešili, má dnes šanci na úspěšné dotažení do konce. Je to osobního charakteru a velmi důležité.",
        "relationships": "Vezměte své blízké za hezkým kulturním programem. Může to být krásná historická výstava umění nebo řemeslných výrobků.",
        "health": "Máte-li možnost, vyjděte si na farmářský trh a tam ochutnejte něco nového a dobrého. Můžete tam posedět i s přáteli.",
        "tips": "Vydatný spánek, odpolední grilování, zpracování podzimního ovoce a zeleniny, hraní deskových a vědomostních her s dětmi."
    },
    "virgo": {
        "main": "Ve vztahu je u vás velmi důležitá důvěra. Přestaňte tedy s podezíráním a osočováním ihned, než bude pozdě. Raději najděte s partnerem způsob, jak si důvěru postupně budovat a upevňovat. Pokud si o tom otevřeně promluvíte, hned budete vědět, jak na to.",
        "love": "Myslete na to, že je třeba pěstovat ve vztahu důvěru. Dnešek je vhodný čas na to, abyste ji mezi vámi upevnili.",
        "work": "Vám z finančního hlediska padne do klína něco velmi cenného. Může jít o výhru v loterii nebo poukaz na zimní dovolenou.",
        "relationships": "Dobrý nápad dnes bude vzít své milé do kina. Určitě máte v plánu zhlédnout nějaký zajímavý film, na který se těšíte.",
        "health": "Bolestem hlavy předejdete správným pitným režimem a také dobrým držením těla a cvičením. To vše by vám mohlo pomoci.",
        "tips": "Četba detektivního románu, sbírání známek, pěstování orchidejí, příprava na večerní posezení s přáteli, výroba raw dezertu."
    },
    "libra": {
        "main": "Zřejmě jste dlouho čekali na to, až dojde k fyzickému sblížení mezi vámi a vaším partnerem. Dnes nastal čas, kdy byste si mohli svá tajná přání společně splnit. Den může být naplněný romantikou, vášněmi a erotikou, o které se vám dosud jen zdálo.",
        "love": "Nastal pravý čas na to, abyste si užili romantiku a milostné hrátky s někým, kdo je vám dlouho blízký. Bude to překvapivé.",
        "work": "Dejte si pozor na to, abyste při důležitém rozhodování měli k dispozici všechny relevantní informace. Někdo vám něco tají.",
        "relationships": "Také dnes si dávejte pozor na úrazy, které hrozí z adrenalinových aktivit. Mohly by být velmi nepříjemného charakteru.",
        "health": "Vaše sportovní aktivity by dnes měly být jen ty, které dobře znáte a nejsou to rizikové sporty. Těmi byste si mohli ublížit.",
        "tips": "Dopoledne v umělecké galerii, procházka městem, setkání s bývalými kolegy v kavárně, hraní počítačových her, meditace."
    },
    "scorpio": {
        "main": "Protože vás trápí finanční problémy, budete se muset obrátit na někoho z rodiny. Je pravděpodobné, že vám kdosi z příbuzných vytrhne trn z paty. Je to ale jen dočasné, myslete na to, jak celou situaci vyřešit jednou provždy a dobrým způsobem.",
        "love": "Uvědomíte si, že byste poznámky vašeho partnera neměli brát tak smrtelně vážně. Mýlí se a brzy na to sám přijde.",
        "work": "Kvůli nedostatku financí se dnes pravděpodobně obrátíte na své příbuzné. Nebojte se, někdo z nich vám v této situaci pomůže.",
        "relationships": "Díky dnešním volnočasovým aktivitám budete mít vy i vaši blízcí dobrou náladu. Můžete se společně věnovat sportu.",
        "health": "Domácí práce, pří kterých budete používat nářadí, nástroje, stroje a čistidla, nesvěřujte nikomu z mladších ratolestí.",
        "tips": "Poslech nového motivačního podcastu, filatelie, registrace na online seznamce, návštěva mladších sourozenců."
    },
    "sagittarius": {
        "main": "Udělejte si dnes pořádek v domácím účetnictví a také ve výdajích. Potřebujete se zorientovat v tom, co budete momentálně platit a komu. Pokud se na to dnes vrhnete, ušetříte si do dalších dní spoustu zbytečných starostí se složenkami a platbami.",
        "love": "Vytáhněte paty z domu a jděte se pobavit s kamarády. Určitě mají na dnešek zajímavý program, kam skvěle zapadnete.",
        "work": "Ve financích si udělejte pořádek. Začněte tím, že si dáte důležité platby na první místo, a ostatní dnes počká.",
        "relationships": "Jestliže chcete pro vaše milované vymyslet něco zajímavého, vezměte je na degustaci vína či exotických lahůdek.",
        "health": "Na procházku si můžete vzít svačinku ve formě proteinové tyčinky. Ta by vás měla dostatečně zasytit a dobít vám energii.",
        "tips": "Péče o starší příbuzné, rybaření, kosmetické a wellness procedury, psaní osobního deníku, studium kaligrafie, jóga."
    },
    "capricorn": {
        "main": "Nesázejte do loterie, zvlášť pokud vám v peněžence cinkají poslední peníze. Dnes totiž nemáte štěstí ve hře. Bohužel možná ani v lásce. Jedinou útěchou vám mohou být dobří kamarádi, kteří si najdou čas na to, aby vyslechli vaše stížnosti na život.",
        "love": "Dopřejte si také jeden den volna od své lásky. Potřebujete si utříbit myšlenky a naplánovat si své budoucí kroky.",
        "work": "Rozhodnutí riskovat se vám dnes může ošklivě vymstít. Nemáte štěstí ve hře, tak se zastavte včas. Jinak spláčete nad výdělkem.",
        "relationships": "Pokud plánujete návštěvu u příbuzných nebo na rodinné sešlosti, dejte si záležet na svém vzhledu. Budete za hvězdy.",
        "health": "Čerstvé kuchyňské bylinky dnes použijte téměř do všech pokrmů, které budete připravovat. Zrychlí vám vaše trávení.",
        "tips": "Návštěva technického muzea s rodinou, houbaření, procházka s pejskem, renovace drobného nábytku, příprava s dětmi do školy."
    },
    "aquarius": {
        "main": "Nezapomínejte pracovat také na fyzické stránce vašeho vztahu. Je nesmírně důležité rozvíjet vzájemné poznávání jeden druhého. Můžete totiž přijít ještě na další skryté touhy a vášně u svého protějšku. Vás mohou navíc bavit úplně stejně.",
        "love": "Měli byste sobotní den zasvětit zčásti také milostným hrátkám. Je třeba na vztahu stále pracovat. Nesmíte zaspat.",
        "work": "Víte, že je nutné velké nákupy obstarávat ve slevových akcích. Jedině tak se můžete vyhnout nečekaným výdajům.",
        "relationships": "Rodinná setkání jsou na pořadu dne. Nestresujte se se svým vzhledem, ale vezměte si s sebou hlavně dobrou náladu.",
        "health": "Do košíku si dnes dávejte v lese jen takové houby, které jsou zdravé na první pohled. Jinak vám hrozí žaludeční bolesti.",
        "tips": "Úklid technické místnosti, třídění obnošených oděvů, práce pro charitu, plánování nového pracovního týdne, sportovní aktivity."
    },
    "pisces": {
        "main": "Bude nutné udělat si nákupní seznamy do nejbližších dní. Hledejte především ve slevových akcích, kde se dají ušetřit velké peníze. Jestliže se jednou něco takového naučíte, bude se vám to hodit. Zvlášť v momentální situaci a vysokých cenách.",
        "love": "Kdosi z blízkých přátel vám může dát pár dobrých rad, jak postupovat ve vašem novém, křehkém vztahu. Naslouchejte mu.",
        "work": "Poohlédněte se po možnostech, jak se vypořádat se současnými vysokými cenami v obchodech a také inflací. Na něco přijdete.",
        "relationships": "Sobotní den nemusíte zákonitě trávit mimo domov. Co takhle si udělat domácí kino a oblíbený popcorn? Vše k tomu doma máte.",
        "health": "Správně byste si měli čistit zuby alespoň po každém jídle. Díky tomu vám neulpí na zubech ani troška zbytečného jídla.",
        "tips": "Výroba domácího sýru, plánování ozdravného pobytu v lázních, nákup potravinových doplňků, pouštění draka s dětmi."
    }
}