{
    "aries": {
        "main": "Jestliže máte finanční problémy, bude fajn, pokud okamžitě zapomenete na nevýhodné, až přímo zrádné půjčky od nebankovních institucí. Ty vás mohou přivést do těžké situace, ze které byste se těžko vzpamatovávali. A pokud ano, tak velmi dlouho.",
        "love": "Dnes by se vám po celém týdnu mohlo podařit nastavit doma příměří. Také se vám dost uleví a hned se vše bude jevit v lepších barvách.",
        "work": "Vynechte ze svého hledáčku okamžitě nebankovní společnosti, které nabízejí půjčky na vysoké úroky. Je to cesta do pekel.",
        "relationships": "Přípravu na nový pracovní a školní týden berte vážně. Nechcete přece řešit v polovině týdne neočekávané problémy, že?",
        "health": "Veškeré sportovní aktivity dnes bude třeba odložit, nebo dokonce odvolat. Nemáte dostatečnou fyzickou kondici, abyste něco dělali.",
        "tips": "Odpočinek u televize, hraní deskových her, psaní fejetonů, domácí kino, venčení pejska u řeky, bowling, meditace."
    },
    "taurus": {
        "main": "Zkuste si doma vytvořit jakýsi finanční harmonogram na následující období. Bude fajn, když najdete způsob, jak ušetřit nějakou tu korunku. Pokud dáte doma hlavy dohromady, tak jistě na něco přijdete. Chce to jen více snahy a vhodných kompromisů.",
        "love": "Dnes rozhodně neodmítejte pozvání na rande. Prožijete krásné chvíle s novým objevem, které jen tak nezapomenete.",
        "work": "Naplánujte si, že v budoucnu budete více šetřit. Jde to, i když to nebude vůbec snadné. Musíte si jen přivyknout.",
        "relationships": "Raději než abyste doma něco měnili, domácnost si pokliďte a zútulněte. Bude se vám lépe začínat nový pracovní týden.",
        "health": "Pokud se dnes zaseknete u telefonu, je jasné, že nechcete být sami, ale dejte si raději čas na rozmyšlenou.",
        "tips": "Hledání nových investičních příležitostí, ruční čištění automobilu, studium cizího jazyka, návštěva wellness centra s přáteli."
    },
    "gemini": {
        "main": "Se svým protějškem se dnes přes den můžete oddat romantickým a milostným záležitostem. Najděte si na sebe chvilku času a užijte si to. Uvidíte, že se vám hned zlepší celý den. S dětmi byste se měli poctivě věnovat přípravám na školní týden.",
        "love": "Využijte toho, že váš miláček bude mít romantickou náladu. Není od věci propadnout na chvíli dennímu snění společně.",
        "work": "Spásné myšlenky vás napadnou dnes ohledně spoření. Ať už pro vás, nebo pro vaše děti. Je to dobrá cesta, tak se jí držte.",
        "relationships": "Dost času vám dnes může zabrat příprava na nový školní týden s vašimi dětmi. Víte dobře, že vás ale opravdu potřebují.",
        "health": "Dobře si rozmyslete, zda si opravdu chcete dát studené pití. Vaše současné choutky vás mohou přivést do starostí.",
        "tips": "Odpočinek při kreativních činnostech, sledování zábavného pořadu, četba humorných románů, péče o domácí mazlíčky."
    },
    "cancer": {
        "main": "Abyste se zbavili starostí, najděte si dnes nějaké volné wellness centrum, kde se příjemným způsobem můžete stresu zbavit. Po náročném týdnu oceníte, když vás někdo bude rozmazlovat masážemi. Přiberte s sebou své děti nebo partnera a bavte se.",
        "love": "Nová láska vás zcela pohltí. Dnes počítejte s tím, že hlavou budete létat stále v oblacích a na nic se nebudete soustředit.",
        "work": "Vysoké ceny potravin vás mohou dnes vykolejit. Proto si do obchodu pečlivě připravte seznam, kterého se budete pevně držet.",
        "relationships": "Dost by vám prospělo odpoledne v příjemném wellness centru. Můžete si odpočinout a zrelaxovat se s nejbližšími.",
        "health": "Pokud si v lese při sbírání hub nejste jistí, použijte atlas, který byste měli mít při ruce vždy. Seberete tak jen jedlé houby.",
        "tips": "Dopoledne na podzimní pouti, hraní deskových her s dětmi, výlet vlakem, venčení pejska s kamarády, wellness procedury."
    },
    "leo": {
        "main": "Jestliže dnes máte náladu být o samotě, užijte si to. Rozhodně se nenechte nikým do ničeho natlačit ani se nenechte přemluvit. Sami dobře víte, co vám nejvíc vyhovuje. Také byste se měli probrat vašimi rodinnými financemi a udělat si v nich pořádek.",
        "love": "Odpočívejte o samotě v klidu domova. Pokud vám to tak vyhovuje, není nutné se přizpůsobovat někomu či něčemu jinému.",
        "work": "Nepanikařte a místo malování čerta na zeď začněte o rodinných financích přemýšlet zcela jinak. Snažte se najít řešení.",
        "relationships": "Odpočívat můžete různými způsoby. Pokud máte oblíbené hobby, je to jedna z možností. Stačí vám k tomu volné odpoledne.",
        "health": "Omezte dnes přílišné mlsání cukrovinek. Budete na sebe muset být opravdu přísní, jinak to nepůjde. I přesto to zvládnete.",
        "tips": "Nedělní rodinný oběd v restauraci, domácí kino, hra na hudební nástroje, venčení pejsků s kamarády, plánování nového týdne."
    },
    "virgo": {
        "main": "S vaším partnerem uděláte nejlépe, když se na část dne prostě zavřete spolu v ložnici a budete si užívat erotiky a vášní. Nemusíte nikomu nic vysvětlovat. Věnujte se jeden druhému a uvidíte, že to bude na váš vztah mít neskutečně blahodárný účinek.",
        "love": "Zkuste si dnes naplánovat více romantiky. S miláčkem si můžete vyměnit pár milostných sms nebo se rovnou zavřít v ložnici.",
        "work": "Pokud hledáte jisté zboží, podívejte se také do výprodejů. Tam byste ho mohli pořídit za cenu, která vás potěší.",
        "relationships": "Přijde vám k duhu, že na dnes nemáte žádné velké plány. Potřebujete nabrat nové síly do dalšího pracovního týdne.",
        "health": "Přirozený pohyb se vám může vyplatit, než nastoupí zima. Zkuste třeba relaxační běh lesem, dokud je na to hezké počasí.",
        "tips": "Návštěva podzimní pouti, příprava vegetariánského jídla, sbírání známek, hra na hudební nástroje, třídění staršího oblečení."
    },
    "libra": {
        "main": "Některé z vás čeká návštěva u starších příbuzných. Co byste si s sebou rozhodně měli vzít, je dobrá nálada a úsměv na tváři, ostatní přijde samo. Vaši nejbližší vás určitě rádi uvidí a také se podle toho o vás postarají. Neděli budete mít opravdu hezkou.",
        "love": "Ani dnes se nebudete chtít jen tak vzdát společnosti vaší nové lásky. Alespoň budete v telefonickém kontaktu během dne.",
        "work": "Pokud si nejste něčím jistí, požádejte o radu zkušené přátele nebo rodinné příslušníky. Mají přehled o tom, co vás teď zajímá.",
        "relationships": "Nedělní den je vhodný k návštěvám u vašich oblíbených starších příbuzných. Mají pro vás vždy vlídné slovo a něco dobrého.",
        "health": "Při jízdě na nějakém jednostopém dopravním prostředku buďte opatrní a používejte všechny ochranné bezpečnostní prvky.",
        "tips": "Prodej věcí přes internet, hledání slevových akcí, kreativní práce s dětmi, úklid sklepa či garáže, péče o domácí mazlíčky."
    },
    "scorpio": {
        "main": "Dejte si dnes trochu do těla nějakou sportovní aktivitou. Je naprosto jedno, čím si budete zlepšovat fyzickou kondici, ale věnujte se tomu poctivě. Vyplaví se vám z těla hormony štěstí a parádně se unavíte. Večer se vám bude pak dobře usínat.",
        "love": "Prospěje vám, pokud se dnes vydáte s přáteli za sportem nebo kulturou. Partnera nechte, ať si hloubá v problémech sám.",
        "work": "Na větší finanční potíže potřebujete zřejmě jinou pomoc. Nebojte se toho, že byste na to nepřišli. Jen to chce nápad.",
        "relationships": "Cyklovýlet se dá dnes určitě podniknout, pokud bude trochu příznivé počasí. Připravte se na každou variantu a vyrazte.",
        "health": "Práce s rostlinkami a půdou pro vás dnes může mít doslova meditační význam. Dělá vám dobře přímý kontakt s přírodou.",
        "tips": "Plánování podzimní dovolené v lázních, příprava na nový pracovní týden, úklid ložnice, renovace zahradního nábytku."
    },
    "sagittarius": {
        "main": "Zasloužíte si regenerační masáž nebo pobyt ve wellness centu. Vydejte se tam, kde to máte rádi. Potřebujete si vyčistit hlavu, takže klidně vyrazte sami. Uvidíte, že vám nakonec i takový způsob odpočinku velmi prospěje, a můžete si ho brzy zopakovat.",
        "love": "Pokud si budete chtít vyčistit hlavu, máte dnes jedinečnou příležitost. Zůstaňte sami se sebou a nechte myšlenky proudit.",
        "work": "Bude třeba zamyslet se nad dalšími výdaji za domácnost. Pokud máte děti, o to více budete muset nyní šetřit každou korunku.",
        "relationships": "Ani dnes se nemusíte zašívat doma a nudit se. Máte své oblíbené wellness? Vyrazte si na masáže nebo do vířivky.",
        "health": "Chlazené nápoje a zmrzliny mohou dnes mnohým z vás způsobit problémy. Zítra byste se mohli probudit s nepříjemným nachlazením.",
        "tips": "Hra na hudební nástroje s přáteli, příprava na nový školní týden s dětmi, procházka lesem, káva v oblíbené kavárně."
    },
    "capricorn": {
        "main": "Dejte si velmi dobrý pozor na přehnaně výhodné obchody. Kdosi se vám bude dnes snažit vnutit něco, co zavání průšvihem na dálku. Máte ale naštěstí cit pro to, abyste včas rozeznali podvodníky, a tak se nemusíte až tolik obávat, že byste naletěli.",
        "love": "Pokud vás budou lákat kamarádi na chvilinku ven, neodmítejte je. Čas mimo domov a s lidmi, které máte rádi, vám prospěje.",
        "work": "Nevěřte každému slovu cizího člověka, který se vás snaží přemluvit k nějakému obchodu. Jsou to jen plané řeči.",
        "relationships": "Snažte se mírnit rozjitřené emoce ve vaší rodině. Pokud se přidáte i vy, okamžitě budou další problémy na světě.",
        "health": "Po umytí si vlasy krátce opláchněte studenou vodou, budou se lesknout a vypadat velmi zdravě. Můžete zkusit i jablečný ocet.",
        "tips": "Renovace domácí pracovny, psaní osobního deníku, četba odborných publikací, studium nové kreativní techniky, vaření."
    },
    "aquarius": {
        "main": "Měli byste opět i dnes dát svému partnerovi najevo, co pro vás vlastně znamená. Je jisté, že ho nechcete ztratit. Dejte si tedy záležet na tom, jakým způsobem mu svou lásku dnes projevíte. Nemusíte kupovat drahé dary, stačí maličkost nebo krásné gesto.",
        "love": "Po vašem boku stojí partner, který si zaslouží vaši pozornost, lásku i péči. Snažte se mu dát najevo, co pro vás znamená.",
        "work": "Sesumírujte si výdaje, které vás čekají v novém týdnu. Je lepší, pokud budete řádně připraveni. Nemůže vás nic zaskočit.",
        "relationships": "Do nového týdne musíte vstoupit odpočatí. Dnes si tedy dopřejte vydatný spánek a relax podle vašeho gusta. Nic vám neuteče.",
        "health": "Oběd dnes můžete mít lehký, bezmasý a čistě vegetariánský. Jezte to, co vám a vašemu zažívání dělá jen dobře.",
        "tips": "Dopolední výlet vlakem, oběd mimo domov, péče o domácí mazlíčky, příprava s dětmi do školy, hledání nové brigády."
    },
    "pisces": {
        "main": "Pro vás mají hvězdy dnes jen jedinou radu, a tou je odpočinek. Potřebujete nabrat síly do nového týdne, protože vás ten uplynulý totálně vyčerpal. Dopřejte si tedy takové aktivity, o kterých víte, že vás spolehlivě dobijí pozitivní energií.",
        "love": "Dopřejte si den jen sami pro sebe. Potřebujete si odpočinout od emočně náročných situací v milostných vztazích.",
        "work": "K zajímavým penězům si dnes mohou přijít ti z vás, kteří sází do loterie. Je možné, že na vás čeká zajímavá výhra.",
        "relationships": "Nedělní odpoledne věnujte relaxaci. Ať už půjdete na pomalou procházku, nebo budete doma s knížkou, vše vám prospěje.",
        "health": "Jděte dnes včas spát. Ráno si budete gratulovat, že jste neponocovali. Den bude opravdu náročný na vaši psychiku.",
        "tips": "Příprava slavnostního oběda, odpolední procházka městem, hraní deskových a karetních her, poslech vinylových desek."
    }
}