{
    "aries": {
        "main": "Měsíc se dnes přesouvá ze znamení Štíra do znamení Střelce. Pro vás to znamená větší přísun energie. Budete jako na trní a ode všech očekáváte stejný přístup a pochopení pro vaše aktivity. Při řešení partnerských neshod volte jemnější přístup.",
        "love": "Netečný přístup vašeho partnera vás dnes nadzvedne ze židle. Nasnadě je partnerská debata. Zkuste být v klidu.",
        "work": "Snažte se stále v profesní oblasti zdokonalovat. Zkuste požádat šéfa o nějaký nový online kurz nebo seminář, který vám pomůže.",
        "relationships": "Neočekávejte nějaké velké výhry nebo zisky. Hvězdy v tomto úplně při vás nestojí a byli byste zbytečně zklamaní.",
        "health": "Pro dnešní odpoledne si můžete vybrat z několika pečujících a relaxačních aktivit. Nejlépe vám udělají regenerační masáže.",
        "tips": "Regenerační a pečující masáže, péče o pleť a vlasy, práce na zahradě, přesazování ovocných keřů, sklízení ovoce."
    },
    "taurus": {
        "main": "Pokračujete v celkem vysokém pracovním tempu. Úkoly, které jste museli převzít za chybějící kolegy, vám zatím stále zůstaly. Klidně zpomalte, milí Býci, a nenechte se ničím stresovat. Není totiž nikdo jiný, kdo by tuto práci momentálně mohl dělat.",
        "love": "Zřejmě jste si nedávno prošli menší krizí ve vztahu. Nevěšte hlavu, smutek dlouho trvat nebude. Věřte na lepší zítřky.",
        "work": "Náhlý nárůst pracovních povinností z minulých dní vám zasáhl do běžných úkolů, které máte na starosti. Nenechte se rozhodit.",
        "relationships": "Obměna vašeho obydlí je celkem dobrý nápad. Nejdříve si však zmapujte možnosti a nápady. Inspirujte se na internetu.",
        "health": "Myslete na zimní měsíce a zamrazte či uskladněte nějaké to ovoce. Také můžete začít sušit jablka či hrušky. Budou se hodit.",
        "tips": "Sušení bylin a ovoce, nákup nového nábytku do domácnosti, úklid domova, čištění oděvů a obuvi, návštěva autoservisu."
    },
    "gemini": {
        "main": "Vře ve vás zvláštní nálada již od rána. Je třeba, abyste při jakékoliv komunikaci dnes vážili svá slova. Sice máte představy a vize, ale ne každý je pochopí, pokud je budete prezentovat agresivně. Také ve vztahu se vám dařit nebude a čeká vás rozhovor.",
        "love": "Možná cítíte ve vztahu ochlazení nebo nezájem ze strany partnera. Nejprve si o tom s ním promluvte, než uděláte rázný krok.",
        "work": "Měli byste se trochu mírnit, co se komunikace s nadřízeným týká. Máte tendence být trochu náladoví, což ničemu neprospívá.",
        "relationships": "Moc se vám nelíbí, že v poslední době dochází v rodině k neustálým roztržkám. Jsou to podle vás jen zbytečnosti.",
        "health": "Pro očistu jater je vhodné popíjet odvar z pampeliškového kořene. Zakoupíte ho v prodejně s bylinkami nebo zdravé výživě.",
        "tips": "Příprava bylinných čajů, rozhovor s partnerem o budoucnosti, opatrnost při jednání s nadřízeným, vydatný spánek."
    },
    "cancer": {
        "main": "Planeta Venuše se vám momentálně dost věnuje. A tak se kolem vás točí až dost velké množství nápadníků a v okolí budíte pozornost svou přitažlivostí. Je jen na vás, jak se k této situaci postavíte. Rozhodně jednodušší to mají single jedinci.",
        "love": "Nezadaní Raci si mohou dnes povšimnout, že v okolí budí velkou pozornost. Je to díky přitažlivosti, kterou jim dává Venuše.",
        "work": "Máte pocit, že jste dnes v zaměstnání jediní, kdo má naloženo více povinností než ostatní. Dejte to najevo nadřízenému.",
        "relationships": "V rodině usměrníte někoho, kdo si na vás stále vyskakuje. Jedině tak si zlepšíte náladu a postavení mezi blízkými.",
        "health": "Regenerační koupele budou dnes velmi účinné. Mohou být bylinné či z aromatických esencí. Pomohou vaší psychice i tělu.",
        "tips": "Rozhovor s nadřízenými, urovnání sporů v rodině, nové kontakty, regenerační koupel, třídění soukromých e-mailů."
    },
    "leo": {
        "main": "Dnes vám bude vaše výřečnost a schopnost komunikace v některých situacích spíše na obtíž. Rádi byste si věci dělali po svém a názor k tomu jste schopni říct komukoliv a jakýmkoliv způsobem. Je lepší si však dávat pozor na pusu a ovládat se.",
        "love": "Může vás jen těšit, že jste si vybrali někoho, jako je váš současný partner. Oceňujete jeho chytrost a upřímnost.",
        "work": "Dokážete se dnes přihlásit o to, co vám v zaměstnání náleží. Také jste schopni se obhájit a nenechat si naložit víc úkolů.",
        "relationships": "Komunikace v rodině je pro vás dnes celkem náročná. Zdá se, že se blízcí nazlobí kvůli každé maličkosti. Neřešte to.",
        "health": "Přednost dejte příjemným prožitkům s partnerem. I to patří ke zdravému stylu života. Nebraňte se vášním a něžnostem.",
        "tips": "Příjemný den s partnerem, opatrnost při rozhovorech v širší rodině, poslech oblíbené hudby, příprava lehké večeře."
    },
    "virgo": {
        "main": "Dnešní den pojmete hodně pracovně, je pro vás stěžejní připravit se na celý týden. Snažte se rozvrhnout pracovní úkoly rozumně, abyste se nevyčerpali hned na začátku. Naštěstí se vám daří v milostné oblasti a to vám pomáhá udržet pohodu a klid.",
        "love": "Dnes budete doslova pohlceni úžasnou osobností vaší nové známosti. Máte společné životní názory a morální hodnoty.",
        "work": "Z pracovních povinností nejste zvyklí dělat si legraci ani holubník. Řád nebo harmonogram prací si nastavíte hned ode dneška.",
        "relationships": "Je možné, že jste v uplynulých dnech měli v rodině větší nebo častá nedorozumění. Blýská se na lepší časy, milé Panny.",
        "health": "K dobrému zdravotnímu stavu vám napomáhá také krásný partnerský vztah. Snažte se toto udržet co nejdéle, prospívá vám to.",
        "tips": "Společné chvilky s partnerem, nový pracovní rozvrh, urovnání sporů v širší rodině, příprava šatníku na zimu, úklid domova."
    },
    "libra": {
        "main": "Hned zkraje týdne se dostáváte pod tlak. Navalí se na vás velké množství pracovních povinností. Také v rodinných vztazích panuje napjatá atmosféra a to vy opravdu nemáte rádi. Snažte se více komunikovat s partnerem nebo přáteli, uleví se vám.",
        "love": "Daří se vám pomalu zlepšovat komunikaci s partnerem nebo přáteli. Jste za to rádi, protože jste zastánci harmonie mezi lidmi.",
        "work": "Na nával povinností, který se k vám ode dneška blíží, se raději připravte ihned. Můžete se v týdnu dostat pod velký tlak.",
        "relationships": "Trpíte vždy, když se v rodinném okolí projeví disharmonie ve vztazích. Nesnažte se však dnes do něčeho zasahovat.",
        "health": "Právě nepokoje v rodině vám mohou způsobit chmurnou náladu či depresivní pocity. Snažte se na to nemyslet a meditovat.",
        "tips": "Omezení rozhovorů v širší rodině, meditace, dechová cvičení, nastavení pracovního harmonogramu, rozhovor s přítelem."
    },
    "scorpio": {
        "main": "Problémy se mohou hned při pondělí vyskytnout v rodinném prostředí. Vaši milí mají oprávněný pocit, že se více věnujete své kariéře než jim. Nachystají se na vás a večer dostanete vynadáno. Raději však nic nekomentujte, víte, že mají v něčem pravdu.",
        "love": "Váš současný vztah začal nejprve dobrým přátelstvím. To se vám dnes ukáže jako velmi pozitivní, máte si stále co říct.",
        "work": "Vaše povolání je pro vás doslova osudové. Máte k němu nejen velký vztah, ale také máte talent. Toho si cení hlavně nadřízení.",
        "relationships": "Pracovní povinnosti dnes převládnou nad rodinnými. Dostanete doma trochu vynadáno, což vás zamrzí. Nic ale nekomentujte.",
        "health": "Máte sklony dělat vše na plné pecky. To se týká bohužel také vašich neřestí. Omezte je, co nejvíc to dnes půjde.",
        "tips": "Začínání nových pracovních projektů, kontakt s obchodními partnery, třídění firemní korespondence, účast na poradě firmy."
    },
    "sagittarius": {
        "main": "Máte sice dobře našlápnuto v kariéře, jen vaše tempo je opravdu závratné. Sice kolegy motivujete a nadřízené překvapujete, ale hrozí vám totální vyčerpání energie. Zkuste ubrat. Odpoledne vyrazte na delší procházku a zakažte si přemýšlet o práci.",
        "love": "To, co se zdálo jako velmi nadějný vztah, nakonec vezme za své. Nemusíte ale ničeho litovat, nebyli byste spokojení.",
        "work": "Sice je s vámi fantastická spolupráce, ale svým vysokým tempem si říkáte o absolutní vyčerpání organismu. Musíte ubrat.",
        "relationships": "Chraňte se toho pořídit domů nějaký výstřední kousek nábytku bez porady s ostatními. Budou jinak hodně uražení.",
        "health": "Procházka s pejskem v parku nebo v lese vám dnes opravdu udělá dobře. Potřebujete nabrat energii a vyhnout se konfliktům.",
        "tips": "Procházka se psem v parku, výcvik pejska, porada s rodinou o nákupech nábytku a vybavení domácnosti, hledání nové známosti."
    },
    "capricorn": {
        "main": "Tento týden pro vás začne velmi náročně. Především v pracovní oblasti a rodinné sféře. Potřebovali byste od všeho odpočinout. Jediné, co vám hvězdy radí, je zpomalit v práci a omezit kontakty s příbuznými. Dařit se vám bude v milostné sféře.",
        "love": "Nejsilnější milostné vibrace budete prožívat počínaje dneškem. Ti nezadaní z vás by se rozhodně neměli ničemu bránit.",
        "work": "Nestíháte si od práce skoro odpočinout a čas vám neskutečně rychle utíká. Naordinujte si odpočinek na nejbližší dny.",
        "relationships": "Jeden z vašich blízkých má k vašemu jednání nebo chování neustále výhrady, i když jsou naprosto mimo. Vyřiďte to s ním.",
        "health": "Dávejte větší pozor na svoje klouby. Sportovní aktivity vám nemusí udělat dobrou službu. Volte raději rehabilitaci.",
        "tips": "Lehká fyzická aktivita, rehabilitační cvičení, posilování zádového svalstva, urovnání sporů s příbuzným, plánování relaxace."
    },
    "aquarius": {
        "main": "Skleslou náladu se vám pokusí dnes vylepšit vaše rodina. Jste vyčerpaní a doslova otrávení ze zaměstnání. Dokonce začnete pomalu uvažovat o změně profese nebo firmy. Nedělejte zatím unáhlené kroky a snažte se odpočívat. Máte kolem sebe dobré přátele.",
        "love": "Jste stále pod hvězdnou ochranou, a tak se vám poštěstí potkávat příjemné a milé lidi. Pomůže vám to zvládnout těžší situace.",
        "work": "Cítíte se celkem vyčerpaní z toho, jak neustále musíte nadřízenému dokazovat, že si zasloužíte lepší plat nebo práci.",
        "relationships": "Rodina a blízcí si dnes povšimnou vaší skleslé nálady. Je jim jasné, že vás musí rozveselit a přivést na jiné myšlenky.",
        "health": "Chmurou náladu zaženete v okruhu svých blízkých a milých. Snažte se přijít na jiné myšlenky třeba četbou humorné literatury.",
        "tips": "Omezení komunikace s nadřízenými, plnění rutinních pracovních úkolů, zábavné aktivity s rodinou, četba, spánek."
    },
    "pisces": {
        "main": "Nedejte se hned počátkem týdne rozhodit poměrně nepřátelským přístupem někoho z vašich kolegů. Je zbytečné se rozčilovat nad hloupými pomluvami a závistí. Raději nad tím mávněte rukou a hledejte nové kontakty. Také můžete pozvat dobré přátele na večeři.",
        "love": "Čistý a kvalitní přátelský vztah můžete zničehonic navázat s člověkem, kterého potkáte na vzdělávací nebo prodejní akci.",
        "work": "Zjistíte, že v zaměstnání o vás kolují nepříjemné pomluvy. Místo toho, abyste šli po jejich šiřiteli, mávněte nad tím rukou.",
        "relationships": "Rádi byste si domů pozvali milé přátele nebo sousedy. Raději je předem obvolejte, abyste věděli, kdy s nimi můžete počítat.",
        "health": "Nezanedbávejte pravidelné prohlídky. Buďte zodpovědní a objednejte se již dnes. Budete mít klid na duši a čisté svědomí.",
        "tips": "Objednání se k praktickému lékaři na preventivní prohlídku, pozvánka pro přátele na společný den, navazování nových kontaktů."
    }
}