{
    "aries": {
        "main": "Stále pociťujete obrovský přísun energie, kterou máte problém trochu zvládat. Nesoupeřte dnes v práci s kolegy, raději se přidejte do týmu. Uvidíte, že taková spolupráce bývá prospěšná všem. Také doma se zkuste mírnit a jedovaté poznámky spolkněte.",
        "love": "Prudká energie, která vámi cloumá, je v podstatě v pořádku. Díky tomu si uvědomíte, co je pro vás ve vztazích důležité.",
        "work": "Snažte se s kolegy vycházet po dobrém a přestaňte s nimi soupeřit. Není vám v tomto přáno ani vyhrát, ani je obelstít.",
        "relationships": "Občas se k vám donese, že máte jedovaté nebo nepříjemné poznámky na rodinu. Zkuste se zamyslet, jestli to není pravda.",
        "health": "Pozornost byste měli věnovat pohybovému aparátu, konkrétně kyčlím a stehnům. I dnes se vám vyplatí masáže bylinnými gely.",
        "tips": "Týmová spolupráce s kolegy, úklid domácnosti, venčení pejska, procházka, péče o pohybový aparát, masáž nohou a chodidel."
    },
    "taurus": {
        "main": "Vaše pracovní výkony může nepříjemně ovlivnit stres z množství úkolů. Nedostatek koncentrace vás dovede k chybám, kterých byste mohli litovat. Také v soužití s partnerem může dojít k napětí a nedorozuměním. Lepší je počítat do deseti, než cokoliv řeknete.",
        "love": "Taky dokážete svého partnera pěkně popudit svými názory. To se vám zřejmě povede i dnes a čeká vás napjatý večer.",
        "work": "Větší míra stresu se podepisuje na vašich pracovních výkonech. Můžete se hůře soustředit a díky tomu nadělat nějaké ty chyby.",
        "relationships": "Vaše představy o změně domova jsou rodinou i přáteli velmi dobře hodnoceny. Pusťte se do jejich realizace, hned jak to půjde.",
        "health": "Játra by to chtělo lépe chránit. Docílíte toho jedině omezením alkoholu a tučných jídel. Zkuste také ostropestřec mariánský.",
        "tips": "Omezení alkoholu a tučných jídel, zařazení bylinek do stravy, rozhovor s rodinou o úpravách domova, plánování výletů."
    },
    "gemini": {
        "main": "Den bude spíše náročnější na psychiku a náladu. Kritický den si opravdu užijete v práci, kde musíte jednat opatrně a s rozvahou. V rodinných a partnerských vztazích to také zaskřípe. Někde se nedostává láska a někde je více kritiky, než snesete.",
        "love": "Zabolí vás reakce nového partnera na vaše vyznání vůči jemu. Není zřejmě tak empatický a vztah bere spíše na lehkou váhu.",
        "work": "Prožíváte kritické dny v zaměstnání. Zkuste se zklidnit, protože byste si mohli pokazit dosavadní úspěchy a reputaci.",
        "relationships": "Kdosi z rodiny vás pořád kritizuje, ale vlastní chyby jako by neviděl. Pokud se nechcete hádat, nebavte se s ním.",
        "health": "Při bolestech v krku kloktejte odvarem z tymiánu. Má vynikající dezinfekční a protivirový účinek. Ochráníte tak i své blízké.",
        "tips": "Nákup bylinek, péče o hlasivky a krk, opatrnost při komunikaci s kolegy a šéfem, příprava bylinných odvarů a tinktur."
    },
    "cancer": {
        "main": "Nedostává se vám dnes tolik energie, kolik byste potřebovali. Na vině je především obrovské množství pracovních úkolů, které jsou na vás v posledních dnech delegovány. Je třeba, abyste si energii doplnili vydatným odpočinkem. Základem je pořádný spánek.",
        "love": "Máte před sebou zřejmě člověka, kterému dělá problém otevřít se druhému hned v počátcích vztahu. Nespěchejte na něj.",
        "work": "Pod tíhou pracovních povinností se můžete začít hroutit. Je na vás vyvíjen velký tlak a pociťujete rychlý úbytek energie.",
        "relationships": "V rodině dáte jasně najevo, že si na vás nikdo s manipulativními metodami jen tak nepřijde. Citové vydírání není nic pro vás.",
        "health": "Pokud se chcete dobře vyspat, před spaním dlouze vyvětrejte a použijte příjemné ložní prádlo. Bude se vám krásně usínat.",
        "tips": "Rozhovor se členy rodiny, příprava ložnice před spaním, rande s novou známostí, vydatný odpočinek, meditační techniky."
    },
    "leo": {
        "main": "Pracovní povinnosti sice zvládáte, ale máte k tomu také dost připomínek. Jestliže se dnes dostanete s nadřízeným do křížku, pamatujte si, že to může pro vás mít opravdu dalekosáhlé následky. Raději važte slova. Jde vám opravdu o hodně, milí Lvi.",
        "love": "S novou známostí jste si velmi rychle padli do oka a dnes začnete plánovat společné aktivity na nejbližší dny.",
        "work": "S nadřízeným se dnes pokuste vést debatu v klidu. Jakmile přestřelíte, můžete si to v nejbližších dnech nepěkně odskákat.",
        "relationships": "Volte slova, jste přece velmi dobrými řečníky, ale občas i vám ujede nějaká ta ironie nebo sarkastická poznámka.",
        "health": "Vitaminovou bombu si dnes připravte v podobě čerstvého džusu nebo smoothie. Ovoce můžete použít čerstvé i zamražené.",
        "tips": "Příprava smoothie nebo fresh džusů, nákup čerstvého ovoce, obezřetnost při komunikaci s rodinou, schůzka s novým protějškem."
    },
    "virgo": {
        "main": "Nadále převažuje příjemná atmosféra v partnerské oblasti, a tak se dnes dokážete přenést přes určité problémy v širší rodině. Nebaví vás hádky, takže se raději stáhnete do svého soukromí a dáte si odstup. Zamyslete se však nad svým životním stylem.",
        "love": "Nový protějšek o vás jeví opravdu velký zájem a chce s vámi trávit co nejvíce času. Nenechte se dlouho přemlouvat.",
        "work": "Dokážete přesně zamířit na cíl a odhalit skryté problémy. Díky tomu jste pro kolegy i šéfy nepostradatelným článkem týmu.",
        "relationships": "Snažíte se vnímat situaci mezi nejbližšími spíše z té lepší stránky a vnášet mezi ně klid a rozvahu. Hádky vás nebaví.",
        "health": "Nervozitu často zaháníte přejídáním. Zvažte dnes, jaké zlozvyky byste mohli začít odbourávat již od dnešního dne.",
        "tips": "Úvahy o změně stravování, inspirace novými recepty, týmová spolupráce s kolegy, setkání s obchodním partnerem."
    },
    "libra": {
        "main": "Společnost dobrých přátel vám pomůže, zvažte, jak se dnes můžete s nimi zkontaktovat. Také někdo z kolegů vám vytrhne trn z paty. Nebudete si umět poradit s jistým pracovním úkolem, a tak se budete muset na někoho obrátit s žádostí o pomoc.",
        "love": "Budete zvažovat, že si s partnerem promluvíte o další budoucnosti vašeho vztahu. Jedná se však o pozitivní změny.",
        "work": "Pokuste se přizpůsobit v zaměstnání o něco více. Projevte snahu, uvidíte, že to vaši nadřízení v této době velmi ocení.",
        "relationships": "Příbuzní jsou vážní a situace je zřejmě vyhrocená. Vám však hvězdy nedoporučují se vměšovat do jejich záležitostí.",
        "health": "Je pro vás zásadní dostatečný příjem tekutin. Nemusí to být však jen nápoje, ale také polévky a šťavnaté ovoce či zelenina.",
        "tips": "Týmová spolupráce s kolegou, setkání s přáteli, dostatečný příjem tekutin, hydratační péče o pleť a vlasy, vydatný spánek."
    },
    "scorpio": {
        "main": "Požádejte s klidem šéfa o nějaký nový online kurz, který by vám pomohl v dalším seberozvoji a vzdělávání se v oboru. Prospět to může nejen vám, ale také celé firmě nebo alespoň týmu, ve kterém pracujete. Uvidíte, že se vám menší dravost vyplatí do budoucna.",
        "love": "S oblibou vyhledáváte společnost přátel. Je na zvážení, jaké možnosti dnes z toho, co se vám nabízí, využijete.",
        "work": "Nepropadejte panice, a pokud si s něčím nevíte rady, klidně to přiznejte. Kolegové vám určitě rádi pomohou, minimálně radou.",
        "relationships": "Pokusíte se dětem vynahradit čas, který jste na ně v posledních dnech neměli. Díky Měsíci ve Střelci máte bláznivé nápady.",
        "health": "Na odpočinek u televize dnes zapomeňte. Sportovní aktivity s potomky vám dají zabrat a doma padnete naprostým vyčerpáním.",
        "tips": "Zábavné a sportovní činnosti s dětmi, rozhovor s nadřízeným, hledání nových možností pro sebevzdělávání a profesní posun."
    },
    "sagittarius": {
        "main": "Nemáte trpělivost s chováním některých osob, které dnes potkáte. Odměřenost a neupřímnost nejsou vaše vlastnosti. Dáváte přednost férovému jednání a přátelským vztahům. Naštěstí v pracovní sféře vám toto nehrozí. Daří se vám prohlubovat dobré vztahy.",
        "love": "Nepotrpíte si v těchto dnech na odměřené osoby, které se pohybují podezřele často ve vašem okolí. Raději se stáhněte.",
        "work": "Nikdo se vám opravdu dnes nevyrovná v originálním přístupu k řešení dost komplikovaných pracovních úkolů. Kolegové závidí.",
        "relationships": "Nepostojíte na místě a pořád máte tendence k náročným pracím v domácnosti. Jenže vám takovým přístupem hrozí úraz.",
        "health": "Zabrat dostávají vaše játra, a to především kvůli sklonu k větší konzumaci alkoholu. Zkuste si naordinovat abstinenci na pár dní.",
        "tips": "Omezení konzumace alkoholu, porada s odborníkem o úplné abstinenci, opatrnost při pracovních a fyzických aktivitách."
    },
    "capricorn": {
        "main": "Věnujte více času seznamování se s novými lidmi, kteří vám do života dnes přijdou. Mohou vám totiž změnit pohled na věc a naučit vás něčemu novému. I kdyby mělo jít jen o přátelské vazby. Nejbližší rodina a děti jsou pro vás nesmírně důležití.",
        "love": "Nové nápadníky rozhodně neodmítejte, můžete přijít o opravdu kvalitního člověka do života. I kdyby to měl být jen kamarád.",
        "work": "Dojde vám, že určité povinnosti musíte brát s větším odstupem. Jinak byste se totálně vyčerpali hlavně po psychické stránce.",
        "relationships": "Důležité pro vás jsou vaše vztahy s nejbližší rodinou a vašimi dětmi. Mávnete proto rukou nad chováním svého okolí.",
        "health": "Zlobit vás může pokožka celého těla. Jestliže máte sklony k ekzémům, musíte tomu obětovat více péče a peněz za přípravky.",
        "tips": "Nákup dermokosmetiky, péče o pokožku těla, úprava jídelníčku, vydatný odpočinek, užívání magnézia v tabletách."
    },
    "aquarius": {
        "main": "Jednání na úřadech nebo v bankách nechte na vhodnější dobu. Nejenže byste tam strávili polovinu dne, ale mohli byste také pravděpodobně odejít s nepořízenou nebo nepříznivou zprávou. Raději si vyrazte na rande se zajímavým člověkem, který po vás touží.",
        "love": "Nový objev vás touží co nejdříve pozvat na rande. Nepočítá ani s vaším odmítnutím. Tak vyrazte, ať ho poznáte lépe.",
        "work": "Vyhlídky na vyřizování úředních požadavků nejsou pro dnešek úplně dobré. Nechte to raději na příhodnější dobu.",
        "relationships": "Za výkyvy nálad stojí neúspěchy v pracovní či úřední oblasti. Dejte si pozor, ať tím nerozzlobíte své milované doma.",
        "health": "Náladovost se nesnažte řešit alkoholem nebo jinými návykovými látkami. Tím si jedině ublížíte a bude vám ještě hůř.",
        "tips": "Abstinence a omezení návykových látek, vynechání důležitých úředních jednání, žhavé rande s novou známostí, příprava večeře."
    },
    "pisces": {
        "main": "Docela se vám bude dařit, co se týká úzké spolupráce s nadřízeným na důležitém projektu. Zdá se, jako byste měli totožné myšlenky a nápady. Do budoucna vás to může jen obohatit o další zkušenosti. Nová známost je možná o něco zdrženlivější, než si přejete.",
        "love": "Jestliže máte novou známost, která se zatím moc neprojevuje, nevěšte hlavu. Zřejmě potřebuje více času na sblížení.",
        "work": "Mezi vaším nadřízeným a vámi panuje naprostá harmonie. Nápady máte skoro totožné, až vás napadne telepatické propojení.",
        "relationships": "Den přeje příjemné atmosféře v rodině. Možná dostanete velmi cennou radu od někoho z vašich starších příbuzných.",
        "health": "Zdravou svačinku si můžete připravit také ze sušeného ovoce. Nejlepší bude to, co si sami připravíte doma z vlastního zdroje.",
        "tips": "Příprava zdravé svačiny, sušení ovoce a bylin, rozhovor se staršími příbuznými, úzká spolupráce s nadřízeným na projektu."
    }
}