{
    "aries": {
        "main": "Budete se cítit hned lépe, když se vám nad jistou životní situací podaří získat nadhled. Především to může být v pracovní oblasti, kde se neumíte tolik soustředit na nové projekty, a tudíž se musíte spokojit jen s rutinou. Nakonec to bude nejlepší.",
        "love": "Bude třeba možná pozměnit program, protože váš partner se z nějakého záhadného důvodu rozhodne bojkotovat předešlé domluvy.",
        "work": "Od rána budete mít jen myšlenky na to, aby byl konec pracovní doby a bude vám chybět koncentrace na povinnosti. Pozor na to!",
        "relationships": "Dopřejte svým potomkům, aby se dnes s vámi pobavili. Je třeba rozvíjet jejich vědomosti nebo postřeh při soutěžích a hrách.",
        "health": "Osvojte si dnes nějakou novou pohybovou aktivitu. Může to být ostrá chůze, badminton nebo pétanque v parku s přáteli.",
        "tips": "Nový akční sport, nákupy oblečení pro volný čas, třídění cd a dvd, renovace malého nábytku, výroba hraček pro děti."
    },
    "taurus": {
        "main": "Vy si nenecháte jen tak říct a půjdete si za svými povinnostmi jako buldok. Je jasné, že vaše zarputilost vás dovedla opravdu daleko, ale občas je také dobré zvolnit. Neúspěchy vás sice neodradí, ale vynakládáte na jejich nápravu velké množství energie.",
        "love": "Vaše fantazie pracuje na plné obrátky a vy máte velké představy o romantickém vztahu. Pozor, ať se neztratíte ve snění.",
        "work": "Jste velmi důslední a umanutí, takže se nenecháte dnes nějakým neúspěchem jen tak odradit. Naopak se do toho ještě více dáte.",
        "relationships": "Pokud vás popadnou choutky doma uklidit, přestavět pokoje nebo pracovnu, pusťte se do toho. Máte dobré nápady i energii.",
        "health": "Deskové hry jsou báječné na procvičení logiky a také postřehu. Nepodceňujte proto jejich hraní a přidejte se k dětem.",
        "tips": "Psaní humorných fejetonů, rezervace letenek, nákup plážového oblečení, studium nového cizího jazyka, poslech vinylových desek."
    },
    "gemini": {
        "main": "Dobrou náladu vám zajistí setkání s někým, koho znáte z dětství nebo školních let. Můžete zavzpomínat na staré časy, lumpárny a také na ostatní kamarády. Díky tomu budete uvolnění a nic vás jen tak nerozhodí. Na toto setkání budete dlouho vzpomínat.",
        "love": "Dobře se můžete zabavit s bývalými spolužáky nebo kamarády z dětství. Bude to pro vás příjemné překvapení a užijete si to.",
        "work": "Udělejte si pořádek ve všech dokumentech, které vám v týdnu prošly rukama. Bude třeba mít dobrý přehled a vše pod kontrolou.",
        "relationships": "Naplánujte si dobře nadcházející víkend. Je možné, že nápadů bude více a je nutné vybrat vhodný kompromis pro všechny.",
        "health": "Možná máte zkrácené šlachy a bolavé klouby, protáhněte si proto své tělo pár cviky z jógy nebo strečinku. Mohlo by to zabrat.",
        "tips": "Pracovní porada online, home office, příprava zeleninového salátu, objednání se na dentální hygienu, cvičení jógy."
    },
    "cancer": {
        "main": "Přestože je konec pracovního týdne, vy si pohov nedáte. Jako byste ani nevěděli, co je to odpočinek. Jste silní workoholici, ale to není nic pozitivního. Naopak se kvůli tomu dnes můžete dopustit dost zásadních chyb, které půjdou jen těžko odstranit.",
        "love": "Nové známosti vás rozhodně pobaví a budete si užívat jejich přítomnosti. Naštěstí berete vše s lehkostí a nadhledem.",
        "work": "Jako byste ani neuměli odpočívat. Jdete si za svým, hlava nehlava. To ale není úplně přínosné. Můžete udělat chybu.",
        "relationships": "Rodina očekává, že jim opět připravíte program na víkend. Dejte jim na vědomí, že vše nemusí ležet jen na vašich bedrech.",
        "health": "Domluvte si nějakém důsledném rehabilitační cvičení, při kterém si uvolníte záda či klouby, které vás dlouho trápí.",
        "tips": "Studium nového cizího jazyka, nákupu vzdělávací literatury a odborných časopisů, šití oblečení pro děti, sportovní aktivity."
    },
    "leo": {
        "main": "Partner se vám bude chtít zavděčit nebo vám jen udělat radost, a tak se rozhodne vás obdarovat něčím velmi hezkým. Než ho začnete podezírat z nevěry, měli byste si zjistit přesné informace. Bude složité se pak za nespravedlivé obviňování omluvit.",
        "love": "Váš partner vám bude chtít udělat radost nějakým pěkným dárkem. Rozhodně se tomu nebraňte, ale také ho nepodezírejte.",
        "work": "Zklidněte se a dnes nepropadejte závratnému tempu, na které jste najeli počátkem týdne. Svádí to k nezodpovědnosti.",
        "relationships": "Chystáte se na dovolenou? Tak se podívejte, zda si nemáte již nyní rezervovat letenky nebo pobyt za dobré ceny.",
        "health": "Pokud jste již dlouho nečetli nějakou zajímavou knížku, dnes to napravte. Nesmíte nechat svou fantazii zahálet.",
        "tips": "Plánování letní dovolené s rodinou, hledání nové zájmové činnosti, návštěva technického muzea, setkání se sourozenci."
    },
    "virgo": {
        "main": "Protože vám dnes už bude chybět energie, je celkem jasné, že se budete také méně ovládat. Můžete se kvůli tomu dostat do situace, kdy vám ujedou nervy a vy se dostanete do ostrého konfliktu. Radost vám udělá partner, který se bude zajímat o vaše starosti.",
        "love": "Váš miláček se dnes bude zajímat o vaši práci nebo jiné oblasti života. Budete mít z toho upřímnou radost, blíží se změny.",
        "work": "Jestliže se dnes na pracovišti vyskytnou problémy v oblasti komunikace, musíte si dávat dobrý pozor, aby vám neujely nervy.",
        "relationships": "Prospěl by vám prodloužený víkend nebo kratší pobyt ve wellness hotelu. Jste skoro u konce se silami a je třeba relaxovat.",
        "health": "Vybírejte si kvalitní oblečení z bavlny nebo lnu. Nebudete se tolik potit a kůže nebude zbytečně reagovat alergicky.",
        "tips": "Studium historie, plánování rodinné oslavy, setkání se sousedy, příprava lehkého občerstvení, četba romantického románu."
    },
    "libra": {
        "main": "Partner vás může nepříjemně překvapit tím, že si bude chtít vyhradit víkend jen pro sebe a své aktivity. Naznačí vám, že s vámi nepočítá, což vás může až rozčílit. Pokud si ale důvěřujete, není důvod se bát. Jde jen o to, aby si váš miláček odpočinul.",
        "love": "Protějšek vás dnes překvapí, protože si na vás vymámí volný víkend. Zřejmě má plán s přáteli, ale bohužel bez vás.",
        "work": "Dbejte na to, abyste si udrželi dobrou pověst v práci. Možná se někdo pokusí vás zdiskreditovat. Ale nemá proti vám šanci.",
        "relationships": "I dnes bude třeba dořešit mezi příbuznými jisté spory. Týkat se mohou přímo vás, takže tomu věnujte dostatek pozornosti.",
        "health": "Dobře vám udělá voda a plavání. Jestli máte chuť, vydejte se do nejbližšího plaveckého bazénu a dejte si do těla.",
        "tips": "Praní lůžkovin, úklid domácnosti, odpoledne s dětmi ve sportovním parku, nákup šperků, dokončení úředních záležitostí."
    },
    "scorpio": {
        "main": "Hodně vás zaskočí to, že na jisté pracovní záležitosti nestačíte. Budete si muset říct někomu o pomoc, nebo dokonce váš projekt či úkol svěřit někomu jinému. Doma se vám také nezadaří, protože si s partnerem připomenete staré křivdy a oheň bude na střeše.",
        "love": "Hádat se dnes můžete o starší záležitost, která mezi vámi a partnerem zůstala zřejmě nevyřešena. Ukončete to jednou provždy.",
        "work": "Jisté úkoly mohou být trochu nad vaše síly. Záleží na tom, jestli na ně raději přes víkend nechcete nabrat nové síly.",
        "relationships": "Lákat vás může sluníčko, mořský vzduch a teplý písek na pláži. Je načase začít plánovat letní dovolenou u moře.",
        "health": "Dbejte na hezkou úpravu rukou a především nehtů. Nechte si ruce ošetřit profesionálně v salonu, manikúra potom déle vydrží.",
        "tips": "Kreativní psaní, bikram jóga, nákup sportovního vybavení do domácnosti, sledování cestopisného dokumentu, tanec."
    },
    "sagittarius": {
        "main": "Vaši nejbližší přátelé mají zřejmě deficit vaší přítomnosti, protože většinu času trávíte v práci. Proto se není čemu divit, když vás doslova uprosí, abyste se společně setkali u skleničky dobrého vína. Nedejte se dlouho přemlouvat, bude vám s nimi fajn.",
        "love": "Přátelé vás zřejmě postrádají, takže se nedivte, že vás budou přemlouvat k setkání. Není to fajn pocit, že vás mají tak rádi?",
        "work": "Měli byste mít dobrý plán na své povinnosti. Je totiž potřeba dodržet časový harmonogram, který zaručuje úspěch.",
        "relationships": "Nebaví vás již hádky mezi příbuznými, takže se zdržíte všech komentářů. Naopak dáte najevo, aby vás s tím neobtěžovali.",
        "health": "Nezapomínejte tělu dodávat stále vitaminy. Hlavně by mělo jít o zinek, vápník, vitamin C a hořčík. Bohatě vám prospějí.",
        "tips": "Rezervace letní dovolené v lázních, kontrola cestovních dokumentů, studium aromaterapie, nákup výtvarných potřeb."
    },
    "capricorn": {
        "main": "Víte moc dobře, že se ve složitých situacích můžete obrátit s důvěrou na své přátele, kteří vás vyslechnou nebo vám i poradí. To samé se může stát dnes, kdy budete mít bolavou duši a budete se potřebovat někomu jen vypovídat ze svých strachů.",
        "love": "V těžších časech se můžete opřít o vaše blízké kamarády. Dnes toho můžete využít opravdu bez obav. Mají pro vás pochopení.",
        "work": "Ostatní kolegové mohou jen se závistí v oku sledovat, jak vám práce jde od ruky. Vy se ale nenecháte zdržovat ani odradit.",
        "relationships": "Nenechte zahálet své skryté talenty. Rodina jistě pochopí, že se chcete věnovat ve volném čase něčemu smysluplnému.",
        "health": "Kvalitně složená strava je základem pro správné fungování těla. Přemýšlejte o tom, jaká změna by vašemu organismu prospěla.",
        "tips": "Registrace ve výtvarném kurzu, sportovní aktivity s dětmi, četba cestopisů, návštěva wellness centra, thajské masáže."
    },
    "aquarius": {
        "main": "Dnes se rozhodně nudit nebudete. Ani v práci, ani v osobním životě. Můžete mít před sebou tolik povinnosti a aktivit, až vám hlava půjde kolem. Především si tedy uvědomte, co vše je nutné udělat, a ničím jiným se nezdržujte. Jinak naděláte chyby.",
        "love": "Hezké chvilky budou dnes pro ty z vás, kteří jste v novém a vzrušujícím vztahu. Stále se s partnerem ještě poznáváte.",
        "work": "Budete dnes trpět obavami, zda vše stihnete tak, jak jste si naplánovali. Chcete totiž odejít z práce včas domů.",
        "relationships": "S jistým členem rodiny máte stejné hobby a rádi spolu o něm hovoříte. Mohou to být knihy, sport nebo rukodělné práce.",
        "health": "Hodně dnes pijte. Lépe řečeno, myslete na to a dodržujte to opravdu zodpovědně. Prospěje to pleti, ledvinám i srdci.",
        "tips": "Setkání s přáteli u kávy, plánování víkendových aktivit mimo domov, nákupy letního oblečení a obuvi, hledání rodinné dovolené."
    },
    "pisces": {
        "main": "Kvůli nedávnému neúspěchu v lásce není nutné hned ze sebe dělat viníka celé události a zpytovat svědomí. Vezměte si jen dobrý příklad z toho, co vše se stalo, a poučte se. Promluvit si o tom můžete se svým důvěrným přítelem, který vám také dá dobrou radu.",
        "love": "Nesypte si popel na hlavu kvůli nedávnému rozchodu. Není to totiž jen vaše vina. Je to zbytečné ponižování před ostatními.",
        "work": "Dost vás zarazí pomluvy, které bude šířit jistý kolega. Překvapí vás, že se k tomu zrovna tato osoba vůbec snížila.",
        "relationships": "Pocítíte, že řešení všech rodinných záležitostí se pomalu posouvá vpřed tím správným směrem. Dost vám to uleví v rozhovorech.",
        "health": "Dopřát byste si mohli vývar. Nejenže je to výborná polévka, ale také udělá velkou službu vašim kloubům a pomůže při dietě.",
        "tips": "Psaní úředních dokumentů, kontrola cestovních zavazadel, úklid domácnosti, venčení pejska s přáteli v parku, četba časopisů."
    }
}