{
    "aries": {
        "main": "Dejte si velký pozor na to, abyste zodpovědně zacházeli se svými financemi. Nezapomínejte na to, jak obtížně je musíte vydělat, a proto si je raději dobře uložte a nekupujte nesmysly. Pokud přemýšlíte o nějakém vhodném investování, musíte oslovit odborníka.",
        "love": "Budete dnes naladění na požitky. A to jak v jídle, tak i v zážitcích. Máte náladu zkoušet nová jídla a nové věci.",
        "work": "Prověřte si vše, co je spojené s vámi zamýšlenými investicemi. Jakékoliv nákupy potřebujete mít doporučené někým důvěryhodným.",
        "relationships": "Zřejmě se hodně těšíte na rodinnou sešlost. A máte pravdu, bude moc fajn vidět opět všechny, které máte rádi.",
        "health": "Jestliže máte rádi ryby, dojděte si pro ty nejčerstvější úlovky do oblíbeného obchodu. Připravte si je podle vašich chutí.",
        "tips": "Nákupy na farmářském trhu, fotografování exotických pokrmů a surovin, výlet do nejbližší zoo, práce se sociálními sítěmi."
    },
    "taurus": {
        "main": "Sobotní den přeje návštěvám divadel, kin, galerií nebo muzeí. Ať už půjdete sami, nebo s nějakým doprovodem, bude vás to hodně bavit a také se dozvíte něco nového. Měli byste si z takovýchto aktivit udělat malý rituál, který budete důsledně dodržovat.",
        "love": "Dnešek by měl patřit kulturním akcím, na které se vydáte v doprovodu partnera. Jistě si najdete i čas na dobrou kávu.",
        "work": "Máte-li tendence dávat peníze do umění a kultury, není to špatný nápad. Umělecká díla jsou vlastně dobře uloženými financemi.",
        "relationships": "Čeká vás příjemný víkend, kdy se opravdu nebudete nudit. Ale nebude to hektické, právě naopak. Můžete se těšit.",
        "health": "Mořské plody vám jistě chutnají. Pokud jste ještě některé neochutnali, můžete je vyzkoušet na farmářském trhu.",
        "tips": "Příprava na podvečerní táborák, nákup čerstvého koření, rybaření, práce na zahradě, setkání s kamarády v hospůdce."
    },
    "gemini": {
        "main": "Musíte si především odpočinout po té psychické stránce. Jste po celém týdnu vyčerpaní, proto si tedy neplánuje opět nic náročného nebo adrenalinového. Naopak si vyberte takové aktivity, u kterých budete v klidu. Svěřte se do rukou přátelům, bude zábava.",
        "love": "Hezký sobotní den si můžete užít s kamarády. Ti se rozhodnou pro velmi zajímavý program, který vás bude také lákat.",
        "work": "Dejte si dobrý pozor na to, zda nemáte zvýšené zálohy na nájem či energie. Můžete se totiž dopustit chyby a obdržet pokutu.",
        "relationships": "Rádi byste si ověřili, jak moc jste manuálně zruční. Není nic jednoduššího než to vyzkoušet. Mohou to být úpravy domácnosti.",
        "health": "Sobotní oběd nemusí být jen domácí. Vyjděte si do oblíbené restaurace nebo bistra na kvalitní a dobré jídlo. Bude to fajn.",
        "tips": "Výlet mimo město, návštěva zajímavého muzea, výtvarné techniky, práce se dřevem, venčení pejska u nejbližší řeky."
    },
    "cancer": {
        "main": "Optimistickou náladu vám dnes pomohou udržet oblíbené činnosti. Možná jste velmi dobrými kuchaři, a tak se vrhnete do příprav rodinného oběda. Uvidíte, že se při vaření nejen odreagujete, ale také uděláte velkou radost všem vašim milovaným doma.",
        "love": "S partnerem si dopřejte něco dobrého na zub. Láska prochází žaludkem a vás dva dobré jídlo zřejmě spojuje. Není to fajn?",
        "work": "Peníze dnes investujte do zážitků. Vzpomínky vám nikdo nesebere. Pokud to tedy jde, vyrazte za kulturou a zajímavými akcemi.",
        "relationships": "Vážíte si toho, že můžete se svými blízkými dobře poobědvat. Proto si dnes dáte záležet na přípravě rodinného oběda.",
        "health": "Sobotní odpoledne věnujte relaxaci. Nemusíte ale jen ležet na gauči u televize. Můžete klidně pečovat o nové květiny.",
        "tips": "Výroba interiérových dekorací, návštěva starších příbuzných, procházka v lese, hraní míčových her s dětmi, golf, badminton."
    },
    "leo": {
        "main": "Protože myslíte na své blízké, budete někoho z nich chtít potěšit nebo příjemně překvapit. Malá pozornost, po které touží, by mohla toto vše splnit. Ale také to může být jen čas, který prožijete spolu. Zamyslete se nad tím, jaké překvapení to nakonec bude.",
        "love": "V lásce vám nyní nuda nehrozí. Můžete si dopřát vášnivé hrátky v ložnici a jiná milostná dobrodružství. Chcete si to užít.",
        "work": "Nemusíte dnes kupovat drahé dary blízkým jen proto, abyste jim udělali radost. Potěší je i maličkost a to, že si vzpomenete.",
        "relationships": "Bude třeba hledat vhodný kompromis pro sobotní program vaší rodiny. I vy se ale budete muset tentokrát dost přizpůsobit.",
        "health": "Najděte si nějaké zajímavé hobby, kterému se můžete věnovat kdykoliv. Zajistíte si tak jednu z oblíbených forem meditace.",
        "tips": "Návštěva aquaparku s rodinou, oběd v nové restauraci, podvečerní procházka městem, setkání s přáteli u skleničky."
    },
    "virgo": {
        "main": "S miláčkem se dostanete k zásadnímu rozhovoru ohledně vašeho vztahu. Připravte se na to, že to nebude vůbec jednoduché. Ovšem na druhou stranu budete rádi, když tato nepříjemná záležitost bude co nejdříve za vámi. Možná to pro vás nedopadne vůbec špatně.",
        "love": "Dnes nastane vhodný čas pro vážnější rozhovor s vaším protějškem. Musíte se ale na to dobře připravit, především emočně.",
        "work": "Dávejte si ode dneška nějaké úspory stranou, abyste byli připravení na nečekané výdaje. Brzy se vám tato taktika vyplatí.",
        "relationships": "Nedávejte dnes šanci ničemu jinému než sobotnímu programu s vaší rodinou. Je třeba upevňovat vzájemné vztahy společně.",
        "health": "Unavené oči si budou potřebovat odpočinout. Nejlépe uděláte, když vypnete televizi nebo počítač. Dopřejte si digitální detox.",
        "tips": "Příprava rodinného oběda, návštěva nejbližší městské zoo, fotografování, odpočinek ve wellness centru, aromaterapie."
    },
    "libra": {
        "main": "Dejte si dohromady rodinné finance a také rozpočet. Je jisté, že se potřebujete naučit zacházet s penězi daleko lépe, než tomu bylo doposud. Výdaje za domácnost ovlivňují různé faktory, kterým vy pomáháte svým nezodpovědným utrácením. Pozor na to.",
        "love": "S partou vašich dobrých přátel se můžete dohodnout na zajímavém programu. Lákat vás bude nový sport nebo večerní koncert.",
        "work": "Máte sklony utrácet peníze za zbytečnosti. Jako kdybyste vůbec nepřemýšleli nad současnou inflací a nárůstem cen.",
        "relationships": "Mezi vámi a některým z příbuzných vzplanou spory. Je za tím zřejmě nepřejícnost a možná i závist druhých vůči vám.",
        "health": "Pokud máte s pletí problémy, vsaďte na kvalitní, přírodní kosmetiku. Tu můžete zakoupit i na farmářských trzích.",
        "tips": "Pěstování zeleniny a bylinek, příprava rodinného oběda, odpolední návštěva kina, nové výtvarné aktivity s dětmi."
    },
    "scorpio": {
        "main": "Dnes se vám podaří najít dostatek času na to, abyste si mohli doma v klidu všichni sednout k jednomu stolu a dohodnout se na výběru dovolenkové destinace. Bude třeba najít kompromis, ale povést se vám to může. Naslouchejte přáním ostatních doma.",
        "love": "Mezi vámi a vaším miláčkem dnes bude váznout řeč. Zřejmě ani jeden nemáte sílu vymýšlet nová témata k hovorům.",
        "work": "Máte šanci dodělat doma vše, co vám doposud leželo na stole. Budete mít radost, ale musíte tomu věnovat docela dost času.",
        "relationships": "Jestliže plánujete letní dovolenou, musíte začít vybírat již nyní. Tak máte zaručeno, že najdete super destinaci.",
        "health": "Na pouti zapomeňte na to, že byste se přecpávali točenou vatou, klobásami a ledovou tříští. Koledovali byste si o problémy.",
        "tips": "Návštěva sportovního utkání, setkání s přáteli, odpolední káva ve městě, fotografování památek, nákup exotického jídla."
    },
    "sagittarius": {
        "main": "Měli byste se dnes podívat, zda jste nezmeškali otevření nové restaurace ve vašem okolí. Sobotní večer by se hodilo prožít trošku romanticky, tak neváhejte dnes svého miláčka přemluvit a vyrazte si za dobrým jídlem a hezkými společnými zážitky.",
        "love": "Už jste vyzkoušeli novou restauraci ve vašem městě nebo blízkém okolí? Možná si dnes takový večer užijete opravdu na maximum.",
        "work": "Přehledně si dnes sepište vše, co máte v příštím týdnu udělat nebo zaplatit. Uvidíte, že získáte úplně jiný náhled.",
        "relationships": "Dobře uděláte, když odmítnete společnost přátel a dáte přednost svým milým. Uvidíte, že kdosi velmi ocení vaši přítomnost.",
        "health": "Mezi báječné venkovní sporty patří volejbal, badminton nebo pétanque. S přáteli si můžete dnes vybrat jeden z nich.",
        "tips": "Třídění staršího oblečení pro charitu, úprava životopisu, hledání nového přivýdělku, odpolední spánek, venčení psa."
    },
    "capricorn": {
        "main": "Na prvním místě byste dnes měli mít prožití pěkných chvil. Nenechte se tahat někým po obchodních centrech, ale vyrazte na procházku do města, na výstavu nebo do kina. Určitě si to lépe užijete než utrácení peněz v obchodech. S partnerem si vyjděte vstříc.",
        "love": "Kulturní zážitky jsou dnes na prvním místě. Budete mít náladu na divadlo, kino, muzikál nebo výstavu. Vybírejte podle chuti.",
        "work": "Překontrolujte si své cestovní doklady, zda jim nevypršela platnost. Na poslední chvíli to opravdu nenechávejte.",
        "relationships": "Nebojte se toho, že byste ztratili dnes ve svých blízkých oporu. Mají vás rádi a postarají se o vaši dobrou náladu.",
        "health": "Rybaření je výborná zábava v momentě, kdy si chcete utřídit myšlenky o samotě. Navíc, den budete trávit na čerstvém vzduchu.",
        "tips": "Nákup nových knížek pro děti, registrace ve výtvarném kurzu, rámování rodinných fotografií, úklid domácí dílny."
    },
    "aquarius": {
        "main": "Děti by si zasloužily, abyste se věnovali jejich vzdělávání a také je podpořili při čtení zajímavých knížek. Můžete jim nejen nějaké nakoupit, ale také se s nimi pustit do jejich čtení. Potomci ocení to, že se jim věnujete a nekoukáte na televizi.",
        "love": "Vyjděte si dnes brzy dopoledne na nejbližší farmářský trh a nakupte si nějaké nové laskominy, dobré nápoje a květiny.",
        "work": "Vy si můžete dnes dovolit trochu utrácet. I tak ale mějte finance pod kontrolou a nenechte se strhnout vášněmi.",
        "relationships": "Nenechte se ovlivnit tím, že jsou knihy drahé. Nakupte dětem literaturu, ze které budou do budoucna rozvíjet fantazii.",
        "health": "Jestli máte chuť si dnes ugrilovat nějakou klobásku nebo opéct špekáček, dopřejte si to. Jen všeho s mírou.",
        "tips": "Servis jízdního kola, nákup drobného nábytku, zařizování letní kuchyně, pěstování zeleniny ve skleníku, telefonát s rodiči."
    },
    "pisces": {
        "main": "Dnešní den byste si měli užít s partnerem nebo rodinou na výletě. Naplánujte si zajímavý program a vyrazte hned brzo ráno, pokud to půjde. Je také možné, že zacílíte dál od domova a někde rádi zůstanete přes noc. Změna prostředí vám jen prospěje.",
        "love": "S novým protějškem si dnes najděte nové místo, kam se vydáte na výlet. Možná budete muset přenocovat v hotelu.",
        "work": "Řešte všechny úřední záležitosti v klidu a nechte si dostatek času na vytvoření správného postupu. Nemůžete tím nic pokazit.",
        "relationships": "Co takhle trochu kultury do vašeho sobotního programu? Je-li to možné, jděte. Vyberte si podle možností a nálady na zážitek.",
        "health": "Zkuste dnes omezit alkohol na nejmenší míru. Zítra to velmi oceníte, protože vás nebude bolet hlava ani žaludek.",
        "tips": "Odpolední procházka v přírodě, fotografování rodiny nebo přátel, grilování na terase, úklid domácnosti, návštěva kina."
    }
}