{
    "aries": {
        "main": "Červencové dny pro vás budou požehnáním v milostných a mezilidských vztazích. Mohou se vám vyplnit touhy, které dlouho nosíte v hlavě. Naopak s financemi můžete být v těchto dnech na štíru a budete neuvážení. To by se vám mohlo ošklivě vymstít.",
        "love": "Do druhého letního měsíce vstupujete s nadšením a velkými očekáváními, které by se vám mohly naplnit. V lásce máte zelenou.",
        "work": "V obchodních záležitostech se mějte na pozoru a nepodepisujte nic bez rozmyslu. Zbrklost by se vám nemusela vůbec vyplatit.",
        "relationships": "Neposednost a činorodost jsou vašimi hlavními znaky v tomto období. Mohou vám ale místo radosti způsobit také dost starostí.",
        "health": "Máte pocit, jako by vám ubývaly síly. Bude třeba více odpočívat přes letní dny a věnovat se odpočinkovým aktivitám.",
        "tips": "Plnění si prázdninových snů a plánů, hledání zboží na internetových obchodech, kontaktování přátel přes sociální sítě."
    },
    "taurus": {
        "main": "Začátek druhého letního měsíce pro vás bude trochu komplikovanější, než jste si představovali. Zejména osobní a rodinné záležitosti mohou být vystaveny tlaku a náročnějším situacím. Vy se k tomu musíte postavit čelem a zachovat klid. Vše se časem zlepší.",
        "love": "Věci v lásce nejdou podle plánu a vašich představ, což vás může dostat do špatného rozpoložení. Vše ale není ještě ztraceno.",
        "work": "Potrápit vás mohou finance. Máte před sebou důležité výdaje, ale není na to dost peněz. Bude třeba najít východisko.",
        "relationships": "Dávejte si v těchto dnech pozor, jelikož vám hrozí velké vyčerpání. Energie vám bude chybět pro rodinu a příbuzné.",
        "health": "S nástupem pořádných prázdnin máte energie opravdu mnoho. Ovšem také si dopřáváte přemíru jídla. Pozor na obezitu.",
        "tips": "Pečení koláče z čerstvého ovoce, pořádání zahradní párty pro rodinu, opalování, koupání, procházka v lese, houbaření."
    },
    "gemini": {
        "main": "Do července vlétnete rovnýma nohama jak uragán a budete si užívat každou oblast vašeho života. Postupujte pomalu, ale nebraňte se ničemu, co by vás mohlo posunout dál ve vaší životní cestě. Změny, které přijdou, budou jen k vašemu prospěchu.",
        "love": "Před vámi v této době budou radostné události, při kterých se setkáte a pobavíte se svými přáteli. Nechte všemu volný průběh.",
        "work": "Víte, které nabídky jsou tak výhodné, že je třeba je využít hned a ne čekat na příhodnější dobu. Ta již nemusí vůbec nastat.",
        "relationships": "Hodně vás mohou naplňovat plány, které máte připravené či připravujete pro sebe a svou rodinu. Prázdniny budou zajímavé.",
        "health": "Zřejmě jste v posledních dnech jeli opravdu na plno a nyní se zápřah projeví i tím, že máte slabší nervy a jste vyčerpaní.",
        "tips": "Romantická schůzka s partnerem, wellness procedury, bowling, klábosení s přáteli po telefonu, péče o starší příbuzné."
    },
    "cancer": {
        "main": "Vy se v milostné oblasti nemůžete nyní zklamat, protože nemáte žádná velká očekávání. To vám dovoluje dívat se na vše z té klidnější a rozumnější stránky. Dodává vám to nyní nadhled a také správné rozhodování v náročných životních situacích.",
        "love": "Zpočátku měsíce nebudete očekávat ve vztazích žádný posun. Ale kupodivu vám to nebude vadit a nebudete se litovat.",
        "work": "Velmi snadno v těchto dnech můžete přijít k penězům, což vám ještě více zlepší náladu. Finance si musíte uložit na horší časy.",
        "relationships": "Rady, které dáte někomu z rodiny, budou platné a velmi dobré. Je vidět, že se snažíte ostatním opravdu pomáhat.",
        "health": "Vaše psychické rozpoložení má vliv i na to, co konzumujete, aniž byste to tušili. Kontrolujte si denně příjem potravin.",
        "tips": "Víkendový program pro rodinu, plánování garden party s kamarády, odjezd mimo město, zpracování čerstvého ovoce a zeleniny."
    },
    "leo": {
        "main": "Zatím to na začátku letního měsíce moc dobře vypadat nebude, ale nebojte. Pokud překonáte počáteční nezdary, nejenže budete silnější, ale také později se vše obrátí k lepšímu a vám se uleví. Přeneste se přes jisté potíže s chladnou hlavu a bez emocí.",
        "love": "Jakmile se dostanete do potíží v milostné oblasti, budete se vztekat a být nepříjemní na ostatní kolem sebe. Brzděte.",
        "work": "Budete si muset dobře pohlídat všechny plánované investice v tomto měsíci. Hrozí vám citelné ztráty, pokud nebudete důslední.",
        "relationships": "V rodině je kdosi, s kým se nyní opravdu nemusíte potkat, a vaše vztahy jsou na bodu mrazu. Zatím je to bez zlepšení.",
        "health": "Druhý letní měsíc zajistí naprostou pohodu po fyzické stránce. Jste ve výborné kondici a tak si můžete dovolit více sportu.",
        "tips": "Dopoledne na vesnické pouti, balení zavazadel na dovolenou, příprava surovin na odpolední grilovačku, houbaření."
    },
    "virgo": {
        "main": "Hezká překvapení vám mohou přicházet do cesty hlavně v milostné oblasti. Tam si užijete dost nevšední zážitky a příjemné chvíle. Ostatní kolem vás vám budou projevovat obdiv a úctu. Zajímavé finanční výnosy také nebo v těchto dnech výjimkou.",
        "love": "V lásce mohou mnozí z vás očekávat velmi nevšední překvapení. Potěší vás zájem opačného pohlaví o vaši osůbku.",
        "work": "Příležitosti, které jsou nyní před vámi, vám mohou pomoci k hodně pěkným ziskům. Překvapit vás může zpráva ohledně financí.",
        "relationships": "Adrenalinové sporty rozhodně nejsou to, co byste měli v těchto dnech pokoušet. Hrozí vám zranění před dovolenou.",
        "health": "Zřejmě se dost oháníte v domácnosti nebo si dáváte do těla v posilovně, protože můžete pocítit silnější únavu nohou.",
        "tips": "Návštěva starších příbuzných, romantické hrátky s partnerem, odpolední ochutnávka vína ve vinotéce, večer v tanečním klubu."
    },
    "libra": {
        "main": "Nové známosti a kontakty budou nyní opravdu požehnáním. Můžete mezi nimi najít nové přátele, ale také zajímavou známost, pokud jste nezadaní a hledáte partnera. Stačí být jen otevření příležitostem a dívat se na svět s otevřenýma očima a srdcem.",
        "love": "Můžete mít štěstí na pohodové a fajnové známosti. Nebojte se navazovat nové kontakty, uvidíte, že z toho vzejde něco dobrého.",
        "work": "Hvězdy vám budou nakloněny, co se získávání financí týká. Máte štěstí na zajímavé investice do věcí, po kterých toužíte.",
        "relationships": "Pozornost si získá záměr změnit svou vizáž. Máte výborný cit pro módu a estetiku. Problém s tím tedy mít nebudete.",
        "health": "Je to sice zvláštní, ale vaše imunita přes léto nebude nic moc. Musíte ji posilovat pohybem na čerstvém vzduchu a otužováním.",
        "tips": "Dopolední úklid v domácnosti, práce na zahradě, opalování, sbírání ovoce, vaření z čerstvých surovin, vesnická zábava."
    },
    "scorpio": {
        "main": "Nový letní měsíc začínáte v nepříliš dobrých podmínkách a tak není divu, že budete trochu nervózní a nedůtkliví. Snažte se ale krotit emoce tak, abyste se nedostali do nepříjemných konfliktů. Mohli byste si tím zbytečně pokazit prázdninový víkend.",
        "love": "Trápit vás mohou neúspěchy v milostné oblasti. Planeta Venuše není v dobrém postavení vůči vašemu znamení a moc vám nepomáhá.",
        "work": "Štěstí ve finanční oblasti se vám nyní vyhýbá a vy tak můžete zbytečně prodělávat. Dejte si pohov od podezřelých transakcí.",
        "relationships": "Připadá vám, že se doma nikdo nesnaží o to vás pochopit, a tak ztrácíte trpělivost a chuť se bavit o dalších plánech.",
        "health": "Vám asi bude hodně chutnat, že? Máte totiž sklony rychle přibývat na váze. Ale také za tím mohou být jiné problémy.",
        "tips": "Skládání romantických písní pro partnera, výletní plavba po řece, návštěva zoologické zahrady, degustace cizích vín."
    },
    "sagittarius": {
        "main": "Vaše znamení do prázdninových dní vstupuje velmi pozitivně a také samá pozitiva můžete očekávat. Především milostná oblast bude bohatá na krásné zážitky a chvíle. Dnes se vám může splnit přání, a sice že se sblížíte se svým vysněným idolem.",
        "love": "Hvězdy pro vás zkraje prázdnin mají pozitivní zprávy o tom, že můžete získat srdce osůbky, po které dlouho prahnete.",
        "work": "To, že si v tomto měsíci můžete dopřávat luxusnějších věcí, je jasné. Jen se chraňte toho, abyste propadli hazardním hrám.",
        "relationships": "Připravili jste si nějaké plány již před delší dobou, a rádi byste je dotáhli k dokonalosti a také je splnili.",
        "health": "Dodržujte nyní více osobní hygienu, protože v tomto měsíci vám hrozí infekční onemocnění. To může být i velmi nepříjemné.",
        "tips": "Renovace interiéru domova, práce na zahradě, oprava elektrického spotřebiče, hraní na hudební nástroje, táborák."
    },
    "capricorn": {
        "main": "Kde se budete pohybovat s lehkostí a radostí, to je milostná oblast. Tam se můžete těšit na krásné chvíle a nová seznámení. Naopak ostatní roviny života vám budou trochu dělat vrásky na čele. A protože vaše znamení bere vše vážně, nebude to jednoduché.",
        "love": "Hned od prvního dne nového měsíce budete cítit, že se na vás v lásce něco pěkného chystá. Jen si ještě musíte počkat.",
        "work": "Starosti vám mohou přidělat jisté překážky při řešení úředních záležitostí. Bude třeba obrnit se trpělivostí a vytrvalostí.",
        "relationships": "Můžete se ocitnout v situaci, kdy se doma neshodnete s vaším protějškem a vznikne dusná atmosféra. Není dobré to vyhrotit.",
        "health": "Hrozit vám budou menší problémy s pokožkou. Vybírejte si dobrou a kvalitní kosmetiku, jak tělovou, tak na obličej.",
        "tips": "Důvěrný rozhovor s kamarádem, návštěva hudebního festivalu, oprava zahradního nábytku, sbírání sezónního ovoce."
    },
    "aquarius": {
        "main": "Budete se muset nyní zaměřit na domácí výdaje. Vaše bankovní konto nebo peněženka skoro zejí prázdnotou, ale výdaje tu pořád jsou. Podívejte se důkladně na vše, kde byste mohli nějakou tu korunu ušetřit, jistě si něco najdete a trochu vše zlepšíte.",
        "love": "Rozladit vás může chování vašeho partnera, které vás uvádí v nejistotu. Nestojíte nyní nohama pevně na zemi a to vám vadí.",
        "work": "Peněz moc nyní nemáte, ale i tak je neumíte ušetřit. Pořád totiž máte výdaje, které zastavit či omezit jen tak nejdou.",
        "relationships": "Máte pocit, že je toho na vás nyní příliš, a nejste tak daleko od pravdy. Sesypou se na vás úkoly ze všech stran.",
        "health": "Vaše nápady, věnovat se rizikovým sportům, raději nechte stranou. Hrozí vám zranění, které by vše zkomplikovalo.",
        "tips": "Romantická dopolední procházka u řeky, příprava na grilování s přáteli, kolektivní sportování v přírodě, koupání."
    },
    "pisces": {
        "main": "Velmi příjemně vkročíte do nového prázdninového měsíce, kdy se vám budou dařit všechny vaše aktivity, na které si vzpomenete. Pár jedinců vašeho znamení však může, přes všechno pozitivní, zasáhnout ochlazení v milostné oblasti. Trápit vás budou obavy.",
        "love": "V dlouhodobých vztazích může zavládnout ochlazení, které vás nepotěší a naopak vás rozesmutní. Vše vnímáte s obavami.",
        "work": "Finanční stránka vás tak moc netrápí, protože penízky vám nechybí. Můžete si dopřát tedy nějaké zajímavé investice.",
        "relationships": "Rádi v těchto dnech uvidíte své kamarády a přátele, se kterými si můžete udělat pohodové chvíle při posezení na zahradě.",
        "health": "Lymfatický systém vás může pozlobit tím, že nefunguje tak jak má. Tedy rychle. Bude třeba speciální masáž na rozhýbání.",
        "tips": "Setkání s novým idolem ze seznamky, venčení pejska u řeky, poslech oblíbené audiotéky, večer v letním kině s kamarády,"
    }
}