{
    "aries": {
        "main": "Máte stále hlavu plnou nápadů, takže se do toho opřete a některé konečně představte světu. Díky nim si totiž můžete v profesní sféře velmi přilepšit. Sebevědomí a chuť do života vám dává i nová láska. Jste plni optimistických výhledu do budoucna.",
        "love": "Planety jsou v takovém postavení, kdy vám jsou dopřány jen ty nejhezčí zážitky v lásce. Těšte se na překvapení.",
        "work": "Díky pozitivní vlivu planet máte stále co čerpat z vašich nápadů a vizí. Tak sem s nimi. Zajistíte si lepší pracovní pozici.",
        "relationships": "Máte-li nyní pár dní dovolené, některé z nich budete mít v plánu věnovat své zahrádce, terase nebo domácnosti.",
        "health": "Jestliže pocítíte potřebu odpočinku, neváhejte a dejte si přes den šlofíka. Je jasné, že máte sil málo a je třeba je doplnit.",
        "tips": "Zábavné dopoledne ve výtvarném kurzu, sepisování rodinné kroniky, večer v tanečním klubu s novým idolem, romantická procházka."
    },
    "taurus": {
        "main": "Musíte se naučit své nápady v pracovní oblasti prezentovat v klidu a tím správným způsobem. Jakmile totiž sáhnete k násilnějšímu prosazování svých zájmů, nebudete to mít jednoduché ani u kolegů, ani u vašich nadřízených. Nebuďte tak paličatí.",
        "love": "To, jak by měl vypadat váš potenciální partner, nosíte v hlavě velmi dlouho. Možná jsou to ale jen nedosažitelné sny.",
        "work": "Vaše názory na řešení jistého projektu jsou sice naprosto přesné a správné, ale protlačujete je násilně, což působí špatně.",
        "relationships": "Dnes se budete vnitřně potýkat s pocitem křivdy od někoho z rodiny. Nebude vám to příjemné, ale nedáte na sobě nic znát.",
        "health": "Pozor si dejte na nezřízené mlsání nějakých laskomin. Zvláště sladké z vás může udělat závislé osůbky. Brzděte.",
        "tips": "Nákupy starých pohlednic v antikvariátu, péče o zdraví domácích mazlíčků, příprava pohoštění na oslavu s rodinou."
    },
    "gemini": {
        "main": "Budete si dnes v duchu nadávat, protože jste si jisté pracovní povinnosti nechali na poslední chvíli a nyní se pod tlakem snažíte vše dokončit. Tím ale vznikají nepříjemné chyby a omyly. V lásce jednáte podobně, protože se řídíte pouze emocemi.",
        "love": "Riskujete velmi, když se nyní rozhodujete v mezilidských vztazích pouze na základě momentálních emocí. Měli byste se uklidnit.",
        "work": "Sami sebe dostanete do stresu, protože jste si nechali spoustu práce na konec měsíce a nebudete ji vůbec zvládat.",
        "relationships": "Není dobré, když při nějakém problému budete doma obviňovat všechny kolem. Není to od vás fér, protože jsou bez viny.",
        "health": "Nervy budete mít na pochodu. Nic si z toho ale nedělejte, občas jsou prostě vypjaté dny. Hlavně dostatečně odpočívejte.",
        "tips": "Kreativní práce, výroba letních dekorací ze sušených květin, péče o starších příbuzné, návštěva botanické zahrady, batikování."
    },
    "cancer": {
        "main": "Momentálně se můžete ocitnou v situaci, kdy budete váhat nad změnou zaměstnání, protože se vám naskytne opravdu lukrativní nabídka. Dlouho s odpovědí neváhejte, jelikož po takové šanci může skočit někdo jiný z vašich kolegů a vám zbydou jen oči pro pláč.",
        "love": "Neustále vysíláte spoustu pozitivní energie do okolí a lidé jsou k vám přitahováni jako můry za světlem. Nedivte se tomu.",
        "work": "Zlomovým bodem pro vás bude zvýšení platu, lepší pracovní pozice nebo slušné odměny. Už jste to od nadřízeného nečekali.",
        "relationships": "Vaříte rádi? Nebo vynikáte alespoň v jedné kuchařské disciplíně? Překvapte své blízké a připravte jim pochoutky.",
        "health": "Není dobré u jídla mít před sebou stále mobilní telefon a kontrolovat zprávy. Věnujte se potěšení z dobré stravy, je to lepší.",
        "tips": "Úklid garáže nebo sklepa, malování dětského pokoje, odpoledne v obchodě s domácím nábytkem a vybavením, poslech podcastu."
    },
    "leo": {
        "main": "Vaše prořízlá pusa je nyní velký problém. Přestože máte správné argumenty a víte to, neumíte je obhájit vhodnými slovy a používáte spíše nátlak a agresi. Zkuste se nad tím zamyslet a napravit to. Jinak se připravte na opravdu perné chvilky.",
        "love": "Váš současný milostný vztah je zřejmě na rozcestí a je jen na vás, jak a jestli vůbec chcete tímto způsobem pokračovat.",
        "work": "Stále používáte příliš silné argumenty na to, abyste si prosadili své. Ovšem ne všechno se vám kvůli tomu bude dařit.",
        "relationships": "Nejste zrovna konfliktní typy, takže jakýkoliv střet názorů s příbuznými vás docela dost potrápí. Pokuste se uklidnit situaci.",
        "health": "V tomto měsíci se nemusíte bát o to, že byste se cítili nepohodlně. Přesto byste neměli podcenit zdravý životní styl a pohodu.",
        "tips": "Ruční čištění automobilu, tvorba interiérových dekorací z látky, hledání nového zájmového kurzu, nákup cizojazyčné konverzace."
    },
    "virgo": {
        "main": "Mezi vámi a vaším nadřízeným se uklidnily napjaté vztahy, které přetrvávaly v uplynulých dnech. Budete z toho mít upřímnou radost a chuť se opět naplno zapojit do pracovního procesu. Navíc se pomalu mění i situace ve vašem milostném životě.",
        "love": "Vám, kteří jste byli dosud single, hvězdy přinášejí do života nové možnosti. Nesmíte se tedy k ničemu točit zády.",
        "work": "Máte dobře našlápnuto, aby se neshody mezi vámi a vaším šéfem z posledních dní daly opět do pořádku. Není nutné to protahovat.",
        "relationships": "Výtvarné činnosti mohou dnes přinést něco pěkného do vaší domácnosti. Věnujte se jim, pokud jste zruční a máte nápady.",
        "health": "Nesmíte se nechat přemoct myšlenkami, že zvládnete vše na první dobrou. Měli byste uvažovat, do kterých aktivit se pustíte.",
        "tips": "Zavařování ovoce a zeleniny z vlastní produkce, užívání potravinových doplňků, procházka po blízkém okolí, plánování oslavy."
    },
    "libra": {
        "main": "Momentálně je vaším partnerem kdosi, kdo je velmi přitažlivý, šarmantní, umí se chovat ve společnosti a má zdravé sebevědomí. S takovým člověkem vám životem půjde snadno a vesele. Můžete být rádi za tuto možnost. Konec července vás zastihne v pohodě.",
        "love": "Váš miláček se nebojí být vaší oporou a také vzorem. Ve společnosti je to člověk, za kterého se opravdu nemusíte stydět.",
        "work": "Ke konci měsíce se můžete pochválit za to, jak jste vše zvládli a ještě v rekordním čase. Je za vámi vidět kus práce.",
        "relationships": "Druhá polovina prázdnin je za dveřmi, a tak bude fajn opět přijít s novými nápady do srpnových dní. Máte kde brát.",
        "health": "Měli byste se zaměřit na to, jak vlastně žijete. Možná zanedbáváte cvičení, pohyb nebo zdravou stravu. A to je kámen úrazu.",
        "tips": "Procházka po historickém centru města, posezení u kávy a dezertu, zápis potomků do tanečních, poslech jazzové hudby."
    },
    "scorpio": {
        "main": "Momentálně je ve vašem životě kdosi, kdo si krade celou pozornost pro sebe a vyžaduje ji i od vás. Musíte si dobře rozmyslet, zda je tento člověk pro vás vhodný do budoucna. Je totiž možné, že se budete stále obětovat, ale na vás se nedostane.",
        "love": "Vám se rozhodně nebude líbit, když si vás kdosi uzurpuje pro sebe a vyžaduje si vaši plnou pozornost. Nemáte čas na sebe.",
        "work": "Nemusíte se nyní, když uzavíráte měsíc, hned vrhat do dalších projektů. Dokončete vše, co máte, a pak pokračujte novým úkolem.",
        "relationships": "Velice stoupnete v očích někoho doma, pokud se nenecháte dnes vykolejit někým cizím a přejdete jeho invektivy s nadhledem.",
        "health": "Pokud jste na dovolené ochutnávali místní speciality do bezvědomí, není se proč divit, že jste nabrali kila navrch.",
        "tips": "Hledání kurzu cizích jazyků, úklid domácnosti, objednání se na kosmetické nebo wellness procedury, četba detektivky."
    },
    "sagittarius": {
        "main": "Protože máte i ke konci letního měsíce dostatek sil na všechny úkoly, nemusíte se bát, že byste si nesplnili vše, co se od vás očekává. Navíc vám sílu dodává nová láska. Jen si dávejte pozor na přílišné prožívání emocí, mohlo by vás to také zmást.",
        "love": "Ve vašem životě je někdo, kdo vás naprosto uchvátil a jste z něj celí pryč. Dávejte si pozor, ať se nenecháte unést příliš.",
        "work": "Sálá z vás obrovské množství pozitivní energie a vaše okolí ví, že vás od ničeho jen tak neodradí. Také se nenecháte.",
        "relationships": "Nebude vám vůbec po chuti, že se vaši nejbližší doma nechtějí zúčastnit vašich plánů. Co kdybyste je ale nechali na pokoji?",
        "health": "Dávejte si pozor, abyste nepřišli do kontaktu s věcmi nebo předměty, na kterých ulpí mnoho bakterií. To je záruka nemoci.",
        "tips": "Poslech oblíbené audioknihy, sestavení hudebního playlistu do telefonu, práce na terase, renovace zahradního nábytku."
    },
    "capricorn": {
        "main": "Jakmile ráno otevřete oči, chopíte se svých povinností a vrhnete se do jejich plnění. Určitě vám vše půjde od ruky, protože energie máte na rozdávání. Také vás potěší zájem vašeho nového idolu a pozvánka na případnou romantickou schůzku ve městě.",
        "love": "Zřejmě vám do života vstoupila osoba, která se vám hodně líbí svým životním stylem a přístupem k životu. Je to pro vás ideál.",
        "work": "Ke konci týdne se vám může začít opět dařit. Můžete se těšit na to, že se s novým měsícem vše obrátí opět v dobré.",
        "relationships": "Atmosféra doma se stále drží v pohodě, a tak si můžete užít poslední červencové dny v naprosto příjemném souznění.",
        "health": "Rozhodně byste v těchto dnech neměli podceňovat sílu sluníčka. I přes oblačnost jeho paprsky stále opalují a žhnou.",
        "tips": "Sepisování podnikatelských nápadů k realizaci, konzultace u lékaře, odpoledne na městské plovárně, rehabilitační cviky."
    },
    "aquarius": {
        "main": "Možná jste očekávali od nové známosti více, než jste nakonec dostali, ale v podstatě můžete být rádi, že váš vztah nyní nepokračuje, protože to není člověk podle vašeho gusta. Jakmile se oklepete, budete hledat dál. A ta správná láska přijde!",
        "love": "Nemyslete na to, že jste se v někom zklamali. Je to především vina druhé strany. Vy jste šli do vztahu s otevřeným srdcem.",
        "work": "Budete u konce se silami, protože toho na vás po celý měsíc bylo opravdu dost. Potřebujete si odpočinout na dovolené.",
        "relationships": "Zřejmě nemáte někoho z rodiny za svou oblíbenou osobu, se kterou se musíte vídat při každé příležitosti, a dáte to najevo.",
        "health": "Není důvod obávat se toho, že jisté sportovní aktivity jsou adrenalinového charakteru, nemáte to zakázané, ale dávejte si pozor.",
        "tips": "Generální úklid a renovace domácnosti, čištění čalouněného nábytku, odpoledne v kině, jóga, dechová cvičení, meditace."
    },
    "pisces": {
        "main": "Jisté klepy, které se k vám dnes donesou, se mohou týkat někoho z vašich dobrých přátel a budou se vám zdát naprosto neuvěřitelné. Naštěstí máte dost rozumu, a než abyste své kamarády odsoudili, raději zachováte klid a zjistíte si podrobnosti.",
        "love": "Měli byste se nejprve informovat, a teprve pak dělat závěry v jisté situaci. Především ale stůjte na straně spravedlnosti.",
        "work": "Měsíc je u konce a vy se můžete radovat z toho, že máte své povinnosti dokončené. Možná právě vás čeká hezká dovolená.",
        "relationships": "Pokud si dnes vyberete masáž jakékoliv části těla, určitě uděláte dobře, když neopomenete šíji a krční páteř.",
        "health": "Rezervace hotelu na wellness víkend, návštěva veterináře s domácím mazlíčkem, úklid skříně, večeře v exotickém bistru."
    }
}