{
    "aries": {
        "main": "Přijdete s neotřelými pracovními nápady a revolučními kroky. Pokud budete opravdu chtít, podaří se vám je prosadit i zrealizovat. Musíte zvolit vhodnou formu prezentace svých vizí. Chce to však více trpělivost, kterou jako Berani občas postrádáte.",
        "love": "Váš partner potřebuje cítit více zájmu z vaší strany. Dejte mu dnes najevo svou náklonnost a lásku. Zaslouží si to.",
        "work": "Překontrolujte si všechny výdaje a platby. Máte momentálně v hlavě spoustu jiných myšlenek a snadno můžete přehlédnout resty.",
        "relationships": "Doma dnes vládne klid a pohoda. Děti se s koncem školního roku zklidnily a věnují se svým zájmům. Čeká vás pohodový den.",
        "health": "Jste neúnavní, ale energie pomalu ubývá. Někteří ji doplní aktivním odpočinkem. Může to být například kolektivní sport.",
        "tips": "Vyřizování e-mailů a telefonátů, kontrola plateb a výdajů, příjemný den s partnerem, kolektivní sporty, pohyb v přírodě."
    },
    "taurus": {
        "main": "Přestaňte dnes myslet na to, co se vám v životě nepodařilo, a soustřeďte se na to příjemné a krásné, co vás čeká. Netrapte se věcmi, které už nemůžete změnit. Pokud to je ve vašich silách, zvolíte příště jiný přístup. Buďte aktivní a najděte si nové hobby.",
        "love": "Cítíte, že s novým partnerem vám to tak neklape? Zkuste si s ním promluvit, jak situaci vidí on. Třeba zůstanete jen přátelé.",
        "work": "Dnes si odpusťte všechny zbytečné nákupy a penízky držte pod zámkem. Mohli byste za pár týdnů litovat unáhlené investice.",
        "relationships": "Vztahy s přáteli utužíte společnou zábavou. Co takhle uspořádat u vás doma menší večírek se společenskými hrami?",
        "health": "Jakýkoliv fyzický pohyb nebo sport je dnes žádaný. Prospěje vám trochu uvolnit energii, pokud to zrovna potřebujete.",
        "tips": "Sport, uspořádání večírku, společenské hry s přáteli, fyzické aktivity, opatrnost při nákupech, rozhovor s partnerem."
    },
    "gemini": {
        "main": "Čeká vás dnes náročný pracovní program, který zvládnete a budete na sebe právem pyšní. Do práce se zakousnete nejspíš tak moc, že ještě večer vám budou hlavou běhat různé nápady a kreativní myšlenky. Dopřejte si ale také rozumný odpočinek a relax.",
        "love": "I když to zatím tak nevypadá, hvězdy jsou na vaší straně a posílají k vám opravdu zajímavý protějšek. Mějte otevřené oči.",
        "work": "V zaměstnání se dnes rozhodně nudit nebudete a zřejmě kancelář opustíte jako jedni z posledních. Po práci jděte rovnou domů.",
        "relationships": "Domov pro vás dnes představuje oázu klidu a bezpečí, a poskytuje vám útočiště po náročném pracovním dni. Co víc si přát?",
        "health": "Potíže s dýcháním mohou mít i psychický podtext. Pokud jste v tyto dny hodně vytížení, může vás přepadnout panika.",
        "tips": "Práce přesčas, dýchací cvičení, odložení nevýhodných nákupů, kontrola pracovních úkolů, dobrá večeře, seznamování se."
    },
    "cancer": {
        "main": "S kolegy a spolupracovníky vám to dnes v práci perfektně klape. Vzájemně si pomáháte, takže sebemenší problémy zvládáte s přehledem a v klidu. Díky tomu dnes z práce zamíříte domů s čistou hlavou a budete mít daleko více síly než v minulých dnech.",
        "love": "S partnerem se dnes výborně pobavíte. Je možné, že jste si rezervovali lístky do kina nebo na nějakou kulturní akci.",
        "work": "Osvědčí se vám týmová práce jako vždy. S ostatními spolupracovníky tvoříte výbornou partu. Díky tomu vám práce utíká.",
        "relationships": "Pořiďte si domů nějakou novou společenskou, karetní nebo vědomostní hru. Překvapte tím děti nebo zbylé členy domácnosti.",
        "health": "Humor a dobrá nálada jsou lék na melancholickou náladu. Obklopte se lidmi s pozitivním a optimistickým přístupem k životu.",
        "tips": "Týmová práce s kolegy, pohodový večer s rodinou nebo partnerem, procházka se psem, vaření, meditace, nákup nových her."
    },
    "leo": {
        "main": "V otázce financí a peněz si vedete velmi dobře. Dávejte pozor, ať neusnete na vavřínech a nepřestanete se posouvat stále kupředu. Jinak váš peněžní zdroj pomalu vyschne. Neodkládejte žádné důležité povinnosti, zbytečně by se vám kupily na stole.",
        "love": "S partnerem dnes budete ve vzájemné symbióze. Nic vás nerozhází a den prožijete idylicky. Je před vámi klidné období.",
        "work": "Máte sklony jednat unáhleně a nerozvážně, co se nákupů a utrácení peněz týká. Sice vás to neohrozí, ale bude vás to mrzet.",
        "relationships": "Těšíte se na návštěvu někoho z příbuzných. Připravíte dobré pohoštění a u kávy proberete důležité rodinné záležitosti.",
        "health": "Pro vaše znamení je důležitý pohyb a výdej energie. Potřebujete prokrvit plíce a srdce, tak si vyberte lehčí kardio.",
        "tips": "Návštěva rodičů nebo sourozenců, zábava s přáteli, příprava pohoštění, nové recepty, rozhovor s rodinou, kardiocvičení."
    },
    "virgo": {
        "main": "Soustřeďte se dnes na svůj osobní život. Přemýšlejte, jestli se vám splnily vaše sny a cíle. Pokud ne, hledejte z této situace východisko. Každý svého štěstí strůjcem, tak jestli vám něco nevyhovuje, změňte to. Vaše intuice vás spolehlivě povede.",
        "love": "Jste vítaným a okouzlujícím společníkem každé party, kam jste pozvaní. Partner na vás ale může žárlit. Nedávejte mu záminku.",
        "work": "Čtěte, studujte, pracujte na sobě. V brzké době se vám budou hodit nové vědomosti. Zbytečně neutrácejte, není vám přáno.",
        "relationships": "Přátelé vás překvapí nečekanou návštěvou. Zpočátku budete mírně překvapeni, ale nakonec se posezení opravdu vydaří.",
        "health": "Honí vás mlsná? Dejte přednost zdravým potravinám, kvalitním sýrům, ovoci, zelenině. Sladkosti nechte v obchodě.",
        "tips": "Home office, on-line vzdělávání, jazykové kurzy, kreativní činnosti, nákup zdravých potravin, posezení s přáteli."
    },
    "libra": {
        "main": "Získali jste určité znalosti nebo zkušenosti, které se vám nyní velmi hodí. Využijete je především v profesní oblasti, kdy budete muset například improvizovat při nečekaných problémech. Nebojte se je ukázat nadřízeným nebo obchodním partnerům.",
        "love": "Štěstí přeje odvážným, milé Váhy. Překonejte svou ostýchavost a projevte sympatie člověku, který vás naprosto uchvátil.",
        "work": "Zkuste prezentovat své dovednosti originálním způsobem. Šance, že tím zaujmete v pracovní sféře, je téměř jistá.",
        "relationships": "Ujistěte se, že máte zaplacené všechny složenky a účty, abyste se nedostali do zbytečných problémů, například s elektřinou.",
        "health": "Poslouchejte své tělo, jaké signály vysílá. Pokud se cítíte dobře, není důvod něco měnit. V opačném případě navštivte lékaře.",
        "tips": "Organizace dokumentů, kontrola účtů a povinných plateb, vyřizování korespondence, příprava pracovní prezentace, nové kontakty."
    },
    "scorpio": {
        "main": "Vaše kreativita a představivost roste s každým dnem. Udržujte se v kondici, choďte včas spát a šetřete energií. Máte kolem sebe dobré přátele. Vydejte se dnes v jejich společnosti do oblíbené hospůdky nebo kavárny a proberte všechny novinky.",
        "love": "Jste náročnými milenci a vaše fantazie nezná mezí. Je pro vás občas těžké najít vhodný protějšek se stejným apetitem.",
        "work": "Dnes budete mít šťastnou ruku při určitých nákupech. Podaří se vám výhodná koupě, protože přesně víte, co chcete.",
        "relationships": "Využijte kreativní energii k úpravě interiéru nebo dekorací ve vašem obydlí. Zapojte také ostatní členy domácnosti.",
        "health": "Můžou vás dohnat vaše neřesti, obzvlášť přílišná konzumace alkoholu nebo kouření. Dopřejte tělu detox a očistu.",
        "tips": "Využití kreativních nápadů, dekorování interiéru domova, výhodné nákupy, hledání vhodného protějšku, detoxikace organismu."
    },
    "sagittarius": {
        "main": "Cítíte, že byste potřebovali změnu. Jestliže se týká vzhledu a nevíte si rady, využijte služeb vizážisty nebo stylisty a objednejte se do kadeřnictví. Máte nový náboj do života a chuť na sobě pracovat. Nezapomínejte ani na vzdělání a rozšiřování obzorů.",
        "love": "Zadaní jedinci si dnes budou chtít užít večer s partnerem, se vším všudy. Oddejte se milostným radovánkám a odreagujte se.",
        "work": "Investujte také do sebe. Do svého vzhledu a vzdělání, případně koníčků. Na internetu hledejte to, po čem delší dobu toužíte.",
        "relationships": "Děti vás dnes budou přemlouvat, abyste jim pořídili nějaké malé zvířátko. Můžete jim splnit přání a koupit třeba křečka.",
        "health": "Pociťujete větší zátěž na klouby, než jste zvyklí. Poraďte se v lékárně nebo s lékařem o vhodném kolagenovém přípravku.",
        "tips": "Nákup nového oblečení a doplňků, služby vizážisty, návštěva kadeřníka, koupě malého zvířátka pro děti, sebevzdělávání."
    },
    "capricorn": {
        "main": "Máte své nálady, takže vás může dnes urazit nevybíravá poznámka vašeho protějšku. Raději si odpusťte komentáře a nepouštějte se do hádek. Přebytečnou energii vybijete při sportu. Přemluvte k tomu i přátele nebo rodinu a užijte si společně zábavu.",
        "love": "V partnerském vztahu se může přehnat menší bouře. Protějšek si do vás rýpne a vás to bude mrzet. Nekazte si náladu hádkou.",
        "work": "Nechoďte nakupovat potraviny hladoví, utratili byste hodně peněz. Když už, kupte zdravější věci.",
        "relationships": "Vydejte se ven do přírody, zaběhat si, projet se na kole nebo si jděte zaplavat. Přiberte s sebou přátele nebo rodinu.",
        "health": "Na vybití stresu a přebytečné energie je nejlepší vhodná forma pohybu. Vyberte takový sport, který je vám nejbližší.",
        "tips": "Sportovní aktivity s přáteli nebo rodinou, plavání, běh, projížďka na kole, inline brusle, nákup zdravých potravin."
    },
    "aquarius": {
        "main": "Fantastický přístup, který si neustále zachováváte v práci, se vám bohatě vyplatí dnes i do budoucna. Vaše snahy vám mohou přinést nové vyhlídky do budoucna a otevřít vám mnohé dveře. Jen tak dál, Vodnáři, máte dobře našlápnuto ke kariérnímu postupu.",
        "love": "S drahou polovičkou se shodnete na tom, že je lepší zůstat doma, ve dvou, a věnovat se jeden druhému. Večer se rozmazlujte.",
        "work": "Hvězdy vám tyto dny přejí v oblasti financí a investic. Rozhodnete se koupit něco dražšího, vybírejte nadčasové zboží.",
        "relationships": "Den je jako stvořený pro rodinnou pohodu a klidnou atmosféru. Nenuťte sebe ani ostatní blízké do náročných povinností.",
        "health": "Psychická pohoda je základ pro spokojený život. Tyto dny se naštěstí cítíte vyrovnaně a máte čistou hlavu. Snažte si to udržet.",
        "tips": "Výhodné investice do kvalitního zboží, den s rodinou, příjemný den nebo večer s partnerem, čtení, relaxační koupel."
    },
    "pisces": {
        "main": "V průběhu dne nabudete na sebevědomí jak v pracovním, tak osobním životě. Uplynulé dny hvězdy zkoušely vaši trpělivost a odvahu. Nyní se karta obrací a vám se bude lépe dýchat. Práce vám půjde, v osobním životě začnete plánovat volnočasové aktivity.",
        "love": "Jste-li delší dobu bez partnera, podívejte se na nějakou seriózní seznamku nebo oslovte někoho přes sociální sítě.",
        "work": "Práce vám půjde od ruky a úkoly se budou zdát snazší. Máte dost energie pustit se do náročnějších věcí. Zatím nespěchejte.",
        "relationships": "Když to počasí dovolí, vydejte se s přáteli nebo rodinou na procházku městem nebo po okolí. Výlet zakončete v oblíbené hospůdce.",
        "health": "Máte sklony k přibírání na váze? Udělejte si revizi svého jídelníčku. Objevíte, že si dopřáváte něčeho víc, než je zdrávo.",
        "tips": "Výlet do města nebo po okolí, návštěva fitness centra, posezení s přáteli, rodinné aktivity, úprava jídelníčku, vaření."
    }
}