{
    "aries": {
        "main": "Přepadne vás sentimentální nálada a budete si chtít užít velikonoční svátky se vším všudy. Proto se s vaším miláčkem najednou přestanete hádat a budete se snažit vše napravit. Takové chování váš protějšek přijme s nadšením a udělá pro vás totéž.",
        "love": "Protože si přece jen chcete užívat současné velikonoční svátky, přestanete se se svým protějškem hádat a uklidníte se.",
        "work": "Nezapomněli jste zaplatit nějakou složenku nebo upomínku? Podívejte se pořádně do své poštovní schránky, zda tam něco není.",
        "relationships": "V sobotu začněte malovat kraslice, péct sušenky a plést pomlázky. Na farmářském trhu kupte potřebné suroviny a pomůcky.",
        "health": "Velké množství tvrdého alkoholu by vám mohlo přivodit nejen slušnou kocovinu, ale také žaludek na vodě, což jistě nechcete.",
        "tips": "Kontrola zásob ve spíži, nákup potravin na Velikonoce, příprava rodinného oběda, odpolední návštěva wellness centra."
    },
    "taurus": {
        "main": "Potěšit vás může dnešní dopoledne na nejbližších farmářských trzích, kde se sejdete se svými přáteli nebo tam vyrazíte s rodinou. Ochutnat můžete nejrůznější lahůdky a potraviny a také si něco z toho odnést domů, abyste mohli připravit sváteční oběd.",
        "love": "Jestliže dnes zajdete na setkání se svými přáteli, nezapomeňte se vrátit včas domů, abyste se připravili na zítřek.",
        "work": "Jestliže se dnes míníte vydat na farmářské trhy a nakoupit čerstvé suroviny na Velikonoce, dávejte si pozor, kolik utratíte.",
        "relationships": "Sobotní den věnujte svým nejbližším, se kterými se můžete již pečlivě připravit na velikonoční dny a vyzdobit si domov.",
        "health": "Máte-li možnost, zajděte si na nějaké příjemné masáže, které vám uvolní přetažené tělo. Nejlepší jsou ty s vonnými oleji.",
        "tips": "Hledání nových investičních příležitostí, nákup pomůcek a vybavení pro nové hobby, sázení kuchyňských bylinek do truhlíků."
    },
    "gemini": {
        "main": "Pravděpodobně máte domluvené návštěvy u vašich starších příbuzných a není dobré se z nich vymlouvat. Místo toho zajděte ještě do květinářství nebo do cukrárny a nakupte dobré dortíky, kterými si zpříjemníte posezení nad kávou a příjemným rozhovorem.",
        "love": "Sobotní den je vhodný k tomu, abyste navštívili své příbuzné ještě před velikonoční nedělí. Nezapomeňte na malé dárečky.",
        "work": "Jestliže jste se nedávno zúčastnili nějaké zajímavé soutěže, dnes by vás mohla potěšit zpráva o malé, ale příjemné výhře.",
        "relationships": "Už máte vyzdobený domov jarními a velikonočními dekoracemi? Pokud ne, dnes se do toho vrhněte a zapojte celou rodinu.",
        "health": "Pokud jste ještě nezačali se žádným sportem, měli byste to napravit. Pohyb rozproudí vaše zažívání a metabolismus.",
        "tips": "Dopoledne na farmářském trhu, nákup čerstvého ovoce a zeleniny, velikonoční výzdoba domácnosti, kino s přáteli."
    },
    "cancer": {
        "main": "Jako správní zrozenci vašeho znamení moc dobře víte, že láska prochází žaludkem. Pokud tedy máte svého miláčka opravdu rádi, dnes připravíte romantickou večeři s oblíbenými pokrmy a vytvoříte komfortní prostředí, abyste si ji mohli spolu užít.",
        "love": "Víte, že láska prochází žaludkem, proto si dnes pro sebe a vašeho nového partnera připravte romantickou večeři.",
        "work": "Vydejte se na nejbližší farmářský trh, kde si můžete nakoupit nejen čerstvé suroviny a květiny na velikonoční svátky.",
        "relationships": "Sice víte, že už je načase připravovat se na velikonoční neděli či pondělí, dnes si dáte ještě oddych a budete relaxovat.",
        "health": "Velký příliv energie byste měli vložit do něčeho užitečného. Pokud dnes nebudete sportovat, zkuste doma něco vytvořit.",
        "tips": "Hledání nového partnera na internetové seznamce, plánování letní dovolené u moře, sledování sportovního utkání v televizi."
    },
    "leo": {
        "main": "Vaše úspory v bance jsou skoro ty tam. Pokud si najdete nějaký zajímavý spořicí účet nebo vytvoříte harmonogram, který by vám do budoucna zajistil alespoň minimální rezervu na účtě, bude to výborné. Jestli si nevíte rady, bude třeba oslovit odborníky v oboru.",
        "love": "Setkání s rodiči nebo prarodiči vás může dnes přivést na jiné myšlenky a pomoci vám zapomenout na nepodařené pokusy v lásce.",
        "work": "Pokud se podíváte na výši vašeho bankovního konta, zjistíte, že je v katastrofálním stavu, a může vás to vyděsit.",
        "relationships": "Neminou vás zřejmě rodinné návštěvy, které vás ale můžou velmi potěšit. Odpočinete si od starostí a přijdete na jiné myšlenky.",
        "health": "Vaše tělo zaslouží více pohybu. Zkuste si dnes vyjít s rodinou na krásnou procházku do jarní přírody a vyčistit si hlavu.",
        "tips": "Pozdní romantická snídaně do postele, vášnivé hrátky s partnerem, velikonoční výzdoba domácnosti, divadelní představení."
    },
    "virgo": {
        "main": "Vám i vašemu miláčkovi udělá dnes velmi dobře romantická procházka. Pokud máte možnost, vyrazte si do historického centra města. Dejte si v pěkné kavárně dortík a kávu nebo se stavte v zajímavém baru na skleničku vína. Změna prostředí vám prospěje.",
        "love": "Během dne si najděte čas na romantickou procházku s vaším miláčkem. Ruku v ruce můžete vyrazit do historického centra města.",
        "work": "Pro velikonoční nadílku nebo suroviny k přípravě slavnostního oběda bude vhodné najít obchody, kde můžete uplatnit slevy.",
        "relationships": "Již dávno měly začít přípravy vaší domácnosti na velikonoční neděli a pondělí. Dnes ještě můžete dokoupit vše potřebné.",
        "health": "Dejte si dnes do těla a zkuste nějaké kardiocvičení. To vám pomůže nastartovat organismus a zrychlit metabolismus.",
        "tips": "Výlet vlakem do jiného města, exkurze v malém pivovaru, nákupy kosmetiky a drogerie, hraní na hudební nástroje."
    },
    "libra": {
        "main": "Měli byste dnes být velmi obezřetní, co se utrácení týká. Z vašeho účtu mizí peníze kosmickou rychlostí, a tak se může lehce stát, že budete na nule. Zkuste omezit některé výdaje za předměty, které si dopřáváte pouze z rozmaru a nejsou potřebné.",
        "love": "Ať už pojedete na návštěvu ke svým příbuzným, nebo k rodině vaší lásky, nezapomeňte na drobnosti, které hostitele potěší.",
        "work": "Dávejte si dnes velký pozor na zbytečné utrácení. Velice lehce se vám může stát, že vám nezbydou peníze na nutné výdaje.",
        "relationships": "Je nejvyšší čas začít s přípravami na velikonoční pondělí. Dnes si zkuste uplést svou vlastní pomlázku a nabarvit vajíčka.",
        "health": "Vašemu organismu prospěje, pokud budete pít více vody a méně tvrdého alkoholu. Pokud máte chuť, dejte si jen sklenku piva.",
        "tips": "Vášnivé ranní hrátky s partnerem, příprava na velikonoční pondělí, pletení pomlázky, klidný večer u televize."
    },
    "scorpio": {
        "main": "Pokud si stále neumíte uspořádat váš partnerský vztah a nemáte se svým protějškem nápad, jak to udělat, bude fajn, pokud se podíváte na internetu a najdete si odborníky v oboru. Není třeba se stydět za to, že vám se vztahem pomáhá partnerský poradce.",
        "love": "S partnerem potřebujete klid na to, abyste si uvědomili, zda váš vztah má ještě cenu udržovat. Vyhledejte v týdnu odborníky.",
        "work": "Dobře uděláte, pokud si dnes prohlédnete všechny letáky oblíbených obchodů, protože můžete najít zajímavé slevy.",
        "relationships": "Pokud si dnes vyrazíte se svými blízkými nebo přáteli na farmářský trh, jistě rádi ochutnáte nové nebo exotické lahůdky.",
        "health": "Zvolte si dnes takový pohyb, abyste s ním byli spokojeni, ale zároveň si své tělo nehuntovali na další volné dny.",
        "tips": "Příprava na velikonoční koledu, výzdoba domácnosti, pletení pomlázky, procházka v přírodě, vaření rodinné večeře."
    },
    "sagittarius": {
        "main": "Moc dobře uděláte, pokud se dnes se svým partnerem zavřete doma a vynecháte výjimečně společenská setkání. Potřebujete si popovídat, užít romantiku a vynahradit si vše, co jste v tomto týdnu ještě nestihli. Připravte si dobré jídlo a oblíbené pití.",
        "love": "Hodí se, abyste dnes zůstali doma a užívali si také romantiku. Oba dva si totiž máte za celý týden co vynahradit.",
        "work": "I když se vám opravdu daří v nejrůznějších investicích, přesto byste si měli dávat pozor na podvodné nabídky.",
        "relationships": "Planeta Saturn má za vinu to, že se v rodině vztahy zhoršují. Bude třeba zachovat klid a být trpělivý. Brzy bude lépe.",
        "health": "Máte-li možnost, zajděte si do wellness centra na příjemné masáže, které vám uleví od bolestí pohybového aparátu.",
        "tips": "Návštěvy u rodičů nebo u prarodičů, posezení u dobré kávy, rozhovory v rodině, příprava na velikonoční koledu, nové hobby."
    },
    "capricorn": {
        "main": "Pravděpodobně se dozvíte o nějaké zajímavé investiční příležitosti, kterou byste rádi využili. Bohužel nemáte tolik naspořených peněz, abyste se do toho nyní mohli pustit. Budete muset ještě vydržet, dokud se vám nepodaří potřebné peníze našetřit.",
        "love": "Budete si zřejmě chtít užívat milostné chvilky s človíčkem, který je čerstvě po vašem bok. Nic vám v tom nebrání.",
        "work": "Rádi byste do něčeho zajímavého investovali, ale nemáte peněz nazbyt. Budete muset ještě vydržet, než sumu nashromáždíte.",
        "relationships": "Po ránu byste měli zajít na farmářské trhy a nakoupit vše potřebné k přípravě na slavnostní oběd. Jen příliš neutrácejte.",
        "health": "Ve vaší domácí lékárničce by neměla chybět dezinfekce, jednak ta z lékárny, ale také nějaká bylinná tinktura.",
        "tips": "Dopolední nákupy na farmářském trhu, ochutnávka exotických potravin a nápojů, velikonoční výzdoba domácnosti, relax."
    },
    "aquarius": {
        "main": "Začněte se zabývat dekorací domova a využijte k tomu všechny velikonoční ozdoby, které máte. Pokud vám ještě něco chybí, vydejte se do hobbymarketu a nakupte potřebné. Také si některé můžete vyrobit spolu s dětmi, které to bude velmi bavit.",
        "love": "Komfortně se můžete cítit ve společnosti svých rodičů nebo prarodičů. Pokud je dnes navštívíte, neuděláte žádnou chybu.",
        "work": "Sice si můžete dovolit nakupovat, ale přesto přese všechno byste si měli své výdaje hlídat. Brzy můžete být na nule.",
        "relationships": "Máte nejvyšší čas, abyste si svou domácnost vyzdobili na velikonoční svátky. Díky vašemu estetickému cítění to bude krásné.",
        "health": "Z jisté nepříjemné situace vás dnes může bolet u srdce. Nebude to nic závažného, ale chytne vás panická úzkost a strach.",
        "tips": "Ranní něžnosti s partnerem, příprava snídaně do postele, ochutnávka exotických lahůdek na farmářském trhu, pletení pomlázky."
    },
    "pisces": {
        "main": "Možná stále ještě věříte vašemu protějšku, že s vámi myslí vše v dobrém. Bohužel u některých záležitostí tomu tak není a vy si musíte sundat růžové brýle z vašich očí včas, abyste nepadli úplně na dno. Pomoci vám mohou vaši dobří přátelé nebo rodina.",
        "love": "Měli byste si uvědomit, že ne všechny kroky, které vůči vám partner podniká, jsou myšleny v dobrém. Mohou být účelové.",
        "work": "Neměli byste myslet na pracovní povinnosti v zaměstnání, ale pouze na ty, které se týkají vašeho domova. Zaplaťte si resty.",
        "relationships": "Díky tomu, že projevíte jistou dávku shovívavosti vůči někomu z rodiny, napomůžete celé situaci a vylepšení vztahů.",
        "health": "Velikonoční svátky vás mohou zastihnout v dobrém rozmaru. I přesto si dávejte pozor na emoční výkyvy, které by vám škodily.",
        "tips": "Jarní úklid domácnosti, práce na zahradě, pletení pomlázky pro děti, velikonoční výzdoba domova, zdravotní procházka lesem."
    }
}