{
    "aries": {
        "main": "Dnešní den byste si měli užít tak, jak se na velikonoční pondělí sluší a patří. Dodržujte tradice a zvyky, jděte s dětmi na koledu a vychutnejte si sváteční oběd. Co se týká lásky, na pomoc vám nyní míří planety v čele s Venuší, která vám výrazně pomůže.",
        "love": "Vaši lásku vám nyní pomáhají zachraňovat planety a především rozmarná Venuše, která do vašeho vztahu opět vnese vášeň.",
        "work": "Dnešní velikonoční pondělí si velmi užijete, protože máte nejen rádi tradice a zvyky, ale hlavně nemusíte do zaměstnání.",
        "relationships": "Setkání s příbuznými se dnes vydaří a vy tak prožijete velice krásné velikonoční pondělí. I vaše ratolesti se budou bavit.",
        "health": "Je jasné, že váš jídelníček by měl projít zásadní změnou. Potřebujete odlehčit stravu a také sundat nějaké to kilo.",
        "tips": "Dodržování velikonočních zvyků a tradic, velikonoční koleda, příprava svátečního rodinného oběda, sledování hezkých pohádek."
    },
    "taurus": {
        "main": "Dnes si můžete užít velikonoční pondělí, ale také můžete zapracovat na mezilidských vztazích, především napříč rodinou. Je zřejmé, že s někým jste stále na štíru, ale sváteční den by toto mohl změnit. Zkuste se zamyslet nad tím, jak to udělat.",
        "love": "Dnes bude na pořadu dne vypilovat mezilidské vztahy a především ty v rodině. Při návštěvách se vám to může podařit.",
        "work": "Jedinou vaší dnešní pracovní náplní bude připravit sváteční oběd nebo jít s dětmi na velikonoční koledu. Užijete si to.",
        "relationships": "Protože je dnes velikonoční pondělí, budete se s nadšením věnovat své rodině a svým nejbližším. Svátek si náležitě užijete.",
        "health": "Budete se cítit velmi unavení a přetažení a nedivte se tomu. Poslední dny se velmi namáháte a málo relaxujete.",
        "tips": "Návštěva u starších příbuzných, velikonoční koleda s dětmi, hraní na strunné hudební nástroje, vědomostní hry s dětmi."
    },
    "gemini": {
        "main": "Připravili jste si již na dnešek pro své milované velikonoční nadílku? Vstaňte tedy brzy, abyste mohli koledníky obdarovat něčím milým nebo sladkým. Zbytek dne si užijte tak, jak to ke svátečnímu dni patří. Tedy v pohodě a bez zbytečného stresu.",
        "love": "Váš miláček velmi ocení, že jste si pro něj připravili velikonoční nadílku, protože pro vás má také něco pěkného.",
        "work": "Pravděpodobně vás čekají dnes jiné povinnosti než pracovní, protože je velikonoční pondělí. Jedinou vaší náplní bude vaření.",
        "relationships": "S nadšením se dnes postavíte do kuchyně a začnete připravovat velikonoční slavnostní oběd již brzy ráno. Úsilí se vyplatí.",
        "health": "Vaše tělo nyní bude zpracovávat lépe taková jídla, která nebudou příliš tučná a nebudou obsahovat červené maso.",
        "tips": "Sledování pohádek v televizi, velikonoční zvyky a tradice, návštěva starších příbuzných, oběd v nové restauraci."
    },
    "cancer": {
        "main": "Vy jste si včera všechno připravili na to, aby dnešní sváteční den proběhl v klidu a bez stresu. Tudíž můžete své milé obdarovat krásnou velikonoční nadílkou, připravit chutný sváteční oběd a po zbytek dne se věnovat patřičným aktivitám a zvykům.",
        "love": "Svou lásku dnes překvapíte krásnou velikonoční nadílkou. Nebojte se, také dostanete něco pěkného. Radost bude oboustranná.",
        "work": "Zřejmě patříte mezi ty jedince vašeho znamení, kteří i ve volném dni přemýšlejí o práci. Tak tomu bude i dnes. Vy nezahálíte.",
        "relationships": "Pravděpodobně máte ze včerejška již na dnešní den vše připravené. Můžete si teda užívat velikonoční pondělí, jak se patří.",
        "health": "Máte sice rychlý metabolismus, ale není dobré se tolik přejídat. Snažte se udržet lehký a vyvážený jídelníček.",
        "tips": "Velikonoční oslavy s rodinou, dodržování tradic a zvyků, hraní na hudební nástroje, čtení románu, luštění sudoku."
    },
    "leo": {
        "main": "Dnes byste se neměli nechat unést myšlenkami na práci, která vás zítra čeká, ale také byste se neměli věnovat tomu, co se v uplynulých dnech událo negativního. Naopak přivítejte s radostí, že se vztah mezi vámi a vaší láskou změnil k lepšímu.",
        "love": "Velmi oceníte chování své nové lásky, které se před několika dny změnilo k lepšímu. Na vztahu můžete začít pracovat.",
        "work": "Nenechte se svést myšlenkami na jakékoli pracovní povinnosti či na úklid domácnosti, pokud to není opravdu nutné.",
        "relationships": "Vaše estetické cítění vám umožnilo vyzdobit si domácnost na Velikonoce tak, jako se to ostatním nepovede.",
        "health": "Dbejte na to, aby váš jídelníček byl stále lehký. Honí vás totiž mlsná a vy byste kvůli tomu mohli nabrat nějaké to kilo.",
        "tips": "Chatování s kamarádem, rodinné oslavy Velikonoc, venčení psa v lese, relaxační a meditační techniky, brzký spánek."
    },
    "virgo": {
        "main": "Dnes je sváteční den a vy byste měli brzy vyskočit z postele, abyste obdarovali koledníky. Pokud však nemusíte, tak se svým partnerem zůstaňte za dveřmi ložnice ještě o nějakou chvilku déle a užívejte si ranní milostné hrátky. Ničemu tím neuškodíte.",
        "love": "Pokud chcete dnes mít krásné velikonoční pondělí, nevstávejte s miláčkem příliš brzo, ale věnujte se něžnostem.",
        "work": "Váš dnešní den nebude vůbec vypadat jako volný den. Od rána můžete být v kuchyni, chodit po koledách či návštěvách.",
        "relationships": "Krásné velikonoční pondělí prožijete v okruhu svých blízkých a nebude se vám chtít mezi lidi ani mezi přátele.",
        "health": "Zaměřte se na to, aby pohybové aktivity vyhovovaly přesně fyzické kondici a stavu vašeho těla. Jinak byste si mohli ublížit.",
        "tips": "Příprava velikonočního oběda, koledování s dětmi, dodržování tradic a zvyků, příprava na pracovní týden, klidný večer."
    },
    "libra": {
        "main": "Jestliže vás dnes čekají koledy s dětmi, dohlédněte na to, aby měly vše připravené a také uměly ty správné básničky. Přestože je sváteční den a vy si máte užívat zvyků a tradic se svými nejbližšími, v hlavě vám již proudí myšlenky na zítřejší den.",
        "love": "Protože jste si velikonoční nadílku pro svou lásku připravili již včera, dnes můžete s nadšením očekávat, jak se bude líbit.",
        "work": "Patříte mezi ty, kteří si i ve volném dni najdou chvilku na to, aby přemýšleli o svých pracovních povinnostech.",
        "relationships": "Všechny přípravy na dnešní den se vám zřejmě včera podařily na výbornou, proto si dnes můžete užít koledu s dětmi.",
        "health": "Nesmíte zanedbat pravidelný pitný režim, protože jinak můžete ublížit svým ledvinám. Vhodné jsou kvalitní minerálky.",
        "tips": "Dodržování velikonočních tradic, příprava výslužky pro koledníky, setkání s kamarády, odpolední káva se zákuskem."
    },
    "scorpio": {
        "main": "Zkuste dnes zapomenout na to, co se mezi vámi a vaší drahou polovičkou v minulých dnech stalo. Je velikonoční pondělí a vy byste si měli užívat volný a sváteční den trochu jinak než se vracet k hádkám a nevyřešeným problémům. Na to budete mít čas jindy.",
        "love": "Zapomeňte na chvíli na problémy, které se v uplynulých dnech mezi vámi dvěma staly a užijte si dnešní sváteční den.",
        "work": "Vám se dnešní volný den opravdu hodí, stejně tak jako celý prodloužený víkend. Zítra se vám do zaměstnání chtít nebude.",
        "relationships": "Sváteční pondělí je tu a vy se od brzkého rána budete těšit na koledu, předání výslužky vašim dětem a blízkým a dobrý oběd.",
        "health": "S novým sportováním začínejte opatrně, jelikož máte tendence ze začátku vše přepálit. Mohli byste si spíš uškodit.",
        "tips": "Vaření svátečního oběda pro rodinu, příprava výslužky pro koledníky, posezení s kamarády u velikonočního beránka a kávy."
    },
    "sagittarius": {
        "main": "Již od brzkého rána se budete věnovat zvykům a tradicím, které se vážou s velikonočním pondělím. Přestože si budete celý den chtít užít v pohodě, později odpoledne vás již přepadnou myšlenky na pracovní týden, a tak bude potřeba se připravit.",
        "love": "Velikonoční pondělí zřejmě tradičně prožijete při návštěvách svých příbuzných. Těšte se na příjemné zážitky a rozhovory.",
        "work": "Všechny vaše aktivity dnes budou směřovat pouze k oslavám svátečního dne a na práci si ani nevzpomenete. Večer se připravte.",
        "relationships": "Dnes máte šanci prožít krásné velikonoční pondělí s vaší rodinou pohromadě. Hlavně děti se těší na společnou koledu.",
        "health": "Pokud si nedáte pozor, dnes byste si mohli poranit dolní končetiny. Bude lepší, když se budete pohybovat s rozvahou.",
        "tips": "Vaření svátečního oběda, velikonoční koledování, dodržování tradic a zvyků, romantická procházka s drahou polovičkou."
    },
    "capricorn": {
        "main": "Sice byste si rádi užili velikonoční pondělí v klidu a bez stresu, nicméně jste taková povaha, že vám to nedá a chcete mít vše připravené naprosto perfektně. Nedivte se tomu, že již od rána budete pobíhat po domácnosti a všechny dirigovat.",
        "love": "Pokud se dnes vydáte na velikonoční koledu, vězte, že se potkáte s příjemnými sousedy, dobrými přáteli nebo také rodinou.",
        "work": "Vy jste jedni z mála, kteří si pracovní povinnosti neodpustí ani ve sváteční dni. Možná se budou stahovat pouze k domácnosti.",
        "relationships": "V kuchyni zřejmě excelujete, a tak není divu, že se již brzy ráno vrhnete do přípravy slavnostního oběda. Ten se povede.",
        "health": "Rádi byste dnes udělali spoustu věcí, ale chováte se zbrkle. Kvůli tomu se můžete dokonce i zranit. Pomalu, nic vám neuteče.",
        "tips": "Slavnostní oběd v oblíbené restauraci, venčení pejska s kamarády v lesoparku, fotografování velikonoční výzdoby."
    },
    "aquarius": {
        "main": "Rádi byste si dnes užili ještě poslední volný den, který máte, proto se ani na moment nebudete zabývat tím, co vás zítra čeká v zaměstnání. Přesto byste se později večer měli alespoň trochu připravit na to, že zítra vstáváte znovu do práce.",
        "love": "Jestli jste v dnešní sváteční den stále ještě sami, nemusíte smutnit, protože brzy se ve vašem životě objeví někdo nový.",
        "work": "Chcete si užívat veselí a velikonočního svátku a nemíníte myslet na žádné pracovní povinnosti. Jen večer se dobře připravte.",
        "relationships": "Pokud jste naučili své malé děti nějakou velikonoční koledu, zkuste si to s nimi ještě ráno potrénovat, aby se jim povedla.",
        "health": "Dnes se pokuste udržet své emoce v klidu. Není dobré, aby vás ovlivňovaly ostatní lidé svou negativitou.",
        "tips": "Dodržování velikonoční tradic a zvyků, koleda s dětmi, výslužka pro koledníky, slavnostní oběd se staršími příbuznými."
    },
    "pisces": {
        "main": "Sváteční náladu vám dnes může pokazit myšlenka na to, že se mezi vás a vašeho partnera snaží vloudit třetí osoba. Protože jste znamení, které velmi dobře pracuje se svou intuicí, možná nejste daleko od pravdy. Pokuste se opatrně zjistit, o co jde.",
        "love": "Náladu vám dnes pokazí domněnka, že se mezi vás a vašeho partnera snaží vloudit třetí osoba. Zkuste to opatrně zjistit.",
        "work": "Patříte mezi ty, kteří si v klidu oslaví velikonoční svátky, ale také nezapomínají na své povinnosti a zodpovědnost.",
        "relationships": "Dnešní den pro vás znamená příjemně prožitý čas s vašimi nejbližšími, výborný oběd a dodržování velikonočních tradic.",
        "health": "Jakmile vás začne jen malinko bolet hlava, měli byste to ihned řešit. Mohla by se vám rozjet ošklivá migréna a potrápit vás.",
        "tips": "Velikonoční oběd s rodinou, dopolední setkání s příbuznými, dodržování tradic a zvyků, odpolední odpočinek u pěkné knihy."
    }
}