{
    "aries": {
        "main": "Váš současný partnerský vztah má nakročeno k lepší budoucnosti. Oba dva cítíte, že by to mohlo fungovat, ale i přesto je dobré pro to něco stále dělat. Nezapomínejte, že jste na to dva a musíte spolupracovat. V práci nastane obdobná situace.",
        "love": "Daří se vám stále směřovat váš vztah k lepšímu. Oba s partnerem z toho budete mít velkou radost a také oba pookřejete.",
        "work": "Nesmíte podléhat dojmu, že se vše v práci spiklo proti vám. Něco je také pouze vaše chyba, musíte ji napravit.",
        "relationships": "Můžete se zastavit v zahradnictví a přikoupit ještě nějaké rostlinky a sazeničky, pokud myslíte, že vám na zahrádce chybí.",
        "health": "Také dnes budete mít slabší nervy a budou vás ovládat emoce. Nezapomínejte na to, že vám z toho není dobře od žaludku.",
        "tips": "Nové naplánování úředních schůzek, příprava tematického večírku pro kamarády, pořízení společenského oděvu na ples."
    },
    "taurus": {
        "main": "Měli byste se doma s rodinou zamyslet nad tím, jak bude vypadat vaše letošní letní dovolená. Pokud plánujete výlet do zahraničí k moři, bude dobré, když si začnete vyhledávat zájezd, který by vám všem vyhovoval. Je třeba rezervovat letenky nebo hotel?",
        "love": "Jestliže vám přece jen chybí někdo z kamarádů, stačí si s ním dnes zavolat nebo napsat zprávu. Je dobré o sobě vědět.",
        "work": "V práci nyní naštěstí vládne pohodová atmosféra mezi kolegy, a tak můžete společně pracovat na nových projektech.",
        "relationships": "Bude nutné začít pečlivě plánovat letní dovolenou, pokud se chystáte do zahraničí. Musíte mít naspořeno dost financí.",
        "health": "Naučte se více a kvalitněji odpočívat. Vaše tělo může být opravdu přetažené a hrozí vám nepříjemné absolutní vyhoření.",
        "tips": "Rande s novým partnerem, kontrola autolékárničky, rekreační běh v přírodě, cvičení pilates, vytvoření rodinné kuchařky."
    },
    "gemini": {
        "main": "Budete muset vyvinout značné úsilí k tomu, abyste v práci splnili vše, co se od vás očekává. Sice víte, že je před vámi volný víkend a vy si můžete odpočinout, ale nyní je potřeba pracovat. Věnujte tedy práci veškerou svou pozornost, vyplatí se to.",
        "love": "Zlepšení vztahů napříč rodinou vás motivovalo k tomu, abyste si naplánovali konkrétně již nějaký víkend na setkání.",
        "work": "Pomalu, ale jistě vám docházejí síly a ubývá i energie. Těšíte se na volný víkend, který přijde za chvíli a vy si odpočinete.",
        "relationships": "Rádi byste si vyrazili se svým partnerem do nějakého příjemného a útulného wellness hotýlku. Musíte to začít plánovat.",
        "health": "Z nedostatku tekutin vás může bolet hlava a může vám být špatně od žaludku, a dokonce i od srdce. Hlídejte si pitný režim.",
        "tips": "Zahradnické práce, nákup nového zahradnického náčiní a nářadí, rezervace dovolené v lázních, poslech vážné hudby."
    },
    "cancer": {
        "main": "Měli byste si s vaším partnerem najít takovou volnočasovou aktivitu, které se budete moct věnovat společně a bude vás oba dva bavit. Možná objevíte nový sport, možná objevíte nové kreativní činnosti, záleží jen na vašem rozhodnutí. Zvažte to.",
        "love": "Zkuste si najít se svým novým partnerem nějaký koníček, který by bavil vás oba a mohli jste se mu společně věnovat.",
        "work": "Vyřiďte si vše, co vám leží na pracovním stole. Ještě než bude úplný závěr pracovního týdne, potřebujete mít náskok.",
        "relationships": "V rodině může dojít ke změnám, které se vám vůbec nelíbí, ale bohužel je nyní musíte přijmout takové, jaké jsou.",
        "health": "Jste v opravdu dobré formě, a tak toho využijte. Zkuste se naučit nějaký nový sport nebo si upravte jídelníček.",
        "tips": "Zápis dětí do nového sportovního kroužku, objednávka potravin s dovážkou do domu, bezmasá večeře, poslech oblíbené hudby."
    },
    "leo": {
        "main": "Dokázali jste si v uplynulém týdnu splnit skoro všechny své povinnosti, a dokonce i na výbornou. Nyní záleží na tom, co si naplánujete na další pracovní týden. Buďte ve svých odhadech střídmí, abyste se zbytečně nedostali do stresující situace.",
        "love": "Je pravděpodobně si naplánujete nějaký hezký výlet na víkend, abyste si s partnerem užili jeden druhého a rozvíjeli váš vztah.",
        "work": "Hodně se vám uleví zjištěním, že máte skoro všechny své povinnosti dotažené do konce. Můžete se nyní věnovat administrativě.",
        "relationships": "Protože vás bude nudit stále se o něčem doma dohadovat, vyrazíte si do obchodního centra a koupíte si něco pěkného na sebe.",
        "health": "Jestliže se chystáte začít chodit do fitness centra, ale nevíte si rady se cviky, oslovte nějakého trenéra, který vám pomůže.",
        "tips": "Kontrola výdajů za domácnost, odpoledne ve wellness centru, objednání ke kadeřníkovi, telefonát s kamarádkou."
    },
    "virgo": {
        "main": "Tempo vaší práce může být nyní klidně volnější, protože máte splněno vše, co jste si předsevzali. Můžete si i popovídat s kolegy o tom, jaké byly vaše velikonoční svátky, a příjemně se pobavit u kávičky po obědě. Díky tomu upevníte vztahy na pracovišti.",
        "love": "Také dnes budete rádi zůstávat se svým miláčkem doma a věnovat se společným zálibám. Může mezi ně patřit i vaření.",
        "work": "Dovolte si dnes pracovat pomalejším tempem, protože vaše záležitosti jsou téměř hotové. Také si popovídejte s kolegy.",
        "relationships": "Je možné, že dnes prožijete s rodinou velmi hezký den, na který nebudete dlouho moc zapomenout. Nechte všemu volný průběh.",
        "health": "Dnes si dobře rozmyslete, jaká jídla budete konzumovat. Honí vás mlsná, ale mohlo by vám být špatně. Raději jezte dietněji.",
        "tips": "Objednání se ke stomatologovi na prohlídku, thajské masáže, zápis potomka do tanečních, ošetření u praktického lékaře."
    },
    "libra": {
        "main": "Měli byste využít konstelaci hvězd k tomu, abyste si vylepšili vaše plány na pracovním poli. Je pravděpodobné, že pokud se budete držet svých nynějších harmonogramů, dosáhnete toho, čeho chcete. V milostné oblasti vám hvězdy přejí na sto procent.",
        "love": "Něžností mezi vámi a vaším partnerem neubývá, ba naopak. Je vidět, že vám oběma společné chvilky hodně prospívají.",
        "work": "Pracovní záležitosti vám stále řídí planeta Mars, která zlobí a nedovolí vám pohnout se kupředu. Musíte ještě vydržet.",
        "relationships": "Přestože si to nemyslíte, vaše špatná nálada nebo negativní vyhlídky do budoucna mohou ovlivnit i myšlení vašich nejbližších.",
        "health": "Vašemu tělu neprospívá nadměrná konzumace alkoholických nápojů, především tvrdého alkoholu. Dejte si pauzu.",
        "tips": "Online pracovní porada, vyřizování úředních záležitostí, sestavení zápisu z porady, práce na projektu s novými kolegy."
    },
    "scorpio": {
        "main": "Dnes je možná dobrá chvíle, kdy byste si měli promluvit se svým nadřízeným o tom, jak vnímá vaše pracovní výsledky. Je pravděpodobné, že se dnes doberete k tomu, abyste za svou práci byli konečně správně ohodnoceni a získali nějaké benefity.",
        "love": "Můžete si gratulovat, protože začínající partnerská krize je zažehnána. Oba dva si z toho vezměte příklad do budoucna.",
        "work": "Vašemu nadřízenému se stále něco nezdá či nelíbí. Sice se snažíte, ale pořád to není dostatečné. Zkuste si s ním promluvit.",
        "relationships": "Možná si někdo z příbuzných na vás dnes zchladí žáhu. Vám se to líbit nebude a ozvete se zpět. Obrana je na místě.",
        "health": "Vaše fyzická kondice by zasloužila trochu vylepšit. Najděte si pár nových cviků na internetu a zkuste je praktikovat.",
        "tips": "Plánování třídního srazu, nákup exotických surovin na vaření, odpoledne ve wellness centru, objednání ke kadeřníkovi."
    },
    "sagittarius": {
        "main": "I když víte, že jste nyní v pracovních povinnostech trochu pozadu, neznamená to, že to vzdáte. I dnes budete bojovat o dobré pracovní výsledky. Také byste si měli naplánovat víkend se svým protějškem, protože je nutné změnit prostředí a uvolnit se.",
        "love": "Již dnes byste si měli se svým partnerem připravit takový program na víkend, abyste spolu byli o samotě a užili si to.",
        "work": "Přestože se vám v práci dnes moc dařit nebude, jste bojovníci a jen tak se nevzdáte. Budete se snažit najít nová řešení.",
        "relationships": "Máte-li dnes volné odpoledne nebo na večer, vezměte rodinku na příjemný film do kina či na dobrou večeři. Všem to prospěje.",
        "health": "Šetřete se při pohybu nebo při náročných fyzických aktivitách. Mohly by vás bolet klouby několik dní a bylo by to nepříjemné.",
        "tips": "Úprava stávajícího životopisu, hledání nového zaměstnání, zápis do rekvalifikačního kurzu, setkání s bývalým kolegou."
    },
    "capricorn": {
        "main": "Bude dobré, když se podíváte na své e-maily nebo upomínky, zda jste něco nezanedbali. Pokud ale najdete chybu a zjistíte, že jste něco opomenuli, není nač čekat, vyřiďte to ještě dnes. Se svou novou láskou můžete vyrazit dnes do rockového klubu.",
        "love": "Budete se se svým novým miláčkem hodně dobře bavit, ať už zůstanete spolu doma, nebo vyrazíte do společnosti přátel.",
        "work": "I přestože se vám do toho nebude chtít, dnes si uděláte pořádek v pracovních e-mailech a uklidíte si svůj pracovní stůl.",
        "relationships": "Máte sklony být dnes zbrklí a rádi byste doma něco opravili nebo vyčistili. Bohužel vám hrozí nepříjemné zranění.",
        "health": "Práce na zahradě vás sice baví, ale dnes byste to mohli přehnat a večer se nemusíte vůbec hnout, opatrně tedy.",
        "tips": "Fotografování jarní přírody, příprava relaxační koupele, návštěva trhů, procházka v botanické zahradě, setkání s rodiči."
    },
    "aquarius": {
        "main": "Měli byste zvážit, zda vám vaše současné zaměstnání přináší tolik uspokojení a zároveň finančního ohodnocení. Pokud ne, bude dobré, když se poohlédnete někde jinde. Vězte, že pokud si půjdete za tím, co vás baví, najdete nové a lepší zaměstnání.",
        "love": "Uvědomili jste si, že rodinu není dobré zanedbávat, a tak se nyní zamyslíte nad dalším vaším společným programem.",
        "work": "Dnes vám hlavou budou probíhat jen myšlenky na to, kolik vás vaše zaměstnání stojí sil a času. Možná přemýšlíte o změně.",
        "relationships": "Možná vás dnes napadne upravit si svůj domov tak, aby se vám v něm opět dobře bydlelo. Stojí za to zvážit nové tapety.",
        "health": "Pokud vás dnes něco rozčílí a vy se necháte strhnout hádkami, myslete na to, že vás to bude stát mnoho energie.",
        "tips": "Zakoupení permanentky do fitness centra, setkání s výživovým poradcem, úprava jídelníčku, nákup sportovního oblečení."
    },
    "pisces": {
        "main": "Měli byste se porozhlédnout kolem sebe, zda zbytečně nepodléháte tlakům a neřešíte nesmyslné problémy ve vztahu. Především si dávejte pozor na toxické osoby, které se vám snaží vnutit něco jiného, než si myslíte. Musíte jen odolat jejich nátlaku.",
        "love": "Pravděpodobně se k vám donesou zvěsti o tom, jak se chová váš protějšek ve společnosti, když s ním zrovna nejste.",
        "work": "Musíte se rozhodnout, co je pro vás v práci důležitější, zda vyšší plat, nebo zajímavé benefity. Podle toho se chovejte dál.",
        "relationships": "Na obzoru je doba, kdy se v rodině budou řešit nesmyslné spory. Pokud to bude možné, zkuste se jim vyhýbat alespoň chvíli.",
        "health": "Pokožka na vašem obličeji může být dehydrovaná a suchá z nadměrné konzumace slaných jídel nebo alkoholu. Zkuste se mírnit.",
        "tips": "Pořízení jarního oblečení, rezervace letenek, pořízení odborného časopisu či knížky, zápis do nového rekvalifikačního kurzu."
    }
}