{
    "aries": {
        "main": "Pánování víkendového program, do kterého jistě patří pálení čarodějnic, nechá partner zcela ve vaší dikci. Vy si s tím poradíte raz dva a nebudete se moct dočkat. Doma si ale dávejte pozor na své přehnané chování a požadavky na ostatní. Jste příliš nároční.",
        "love": "S partnerem už byste si dnes mohli plánovat program na víkend, jestliže se chystáte na pálení čarodějnic a setkání s přáteli.",
        "work": "Srovnejte si s kolegy vše, co je potřeba, určité vaše chování může být přes čáru. Je lepší mít v zaměstnání klid.",
        "relationships": "Dnes vás může rozčílit téměř všechno. Bude lepší, když si domů neponesete problémy z práce, protože rodina o to nestojí.",
        "health": "Také dnes na vás budou mít vliv různé emoce a výkyvy nálad, protože ne vše se vám daří. Nesmíte se ale rozčilovat.",
        "tips": "Telefonát se sourozenci, kosmetické a zkrášlovací procedury, hraní společenských her s dětmi, kreativní práce, meditace."
    },
    "taurus": {
        "main": "Jestliže se na pracovním poli bude schylovat ke konfliktům, bude nutné, abyste se drželi stranou. Není to totiž nic, do čeho byste se měli zapojovat. Raději myslete na to, co vás dnes čeká doma či ve společnosti kamarádů. Rozhodně je na co se těšit.",
        "love": "Dnešní odpoledne, podvečer či večer byste se měli spojit s lidmi, se kterými vám je velmi dobře a máte mnoho společného.",
        "work": "Je-li riziko, že by se také dnes mohl vyskytnout nějaký konflikt v zaměstnání, zkuste se nad to povznést a nezapojujte se.",
        "relationships": "Je možné, že ve vašem okolí jsou nějaké zajímavé aktivity, do kterých byste se rádi zapojili. Stačí se jen zeptat sousedů.",
        "health": "Naučte se kvalitně a správně odpočívat. Nejlepším způsobem jsou meditace a wellness procedury. Už něco z toho praktikujete?",
        "tips": "Plánování další budoucnosti s partnerem, hledání nového bydlení, návštěva partnerovy rodiny, založení spořicího účtu."
    },
    "gemini": {
        "main": "Bude třeba vyřešit záležitosti v milostném životě, který se rozhodně neubírá tak, jak jste si představovali. A bude třeba si přiznat pravdu a podle toho jednat. Myslete především na svou budoucnost. Uznáte také to, že lidé kolem vás měli pravdu.",
        "love": "Možná si konečně začínáte uvědomovat, že lidé kolem vás říkali o vašem novém partnerovi pravdu. Musíte to vyřešit.",
        "work": "S kolegy se vám dnes bude velmi hezky spolupracovat a společně dokážete najít kompromis při řešení týmového projektu.",
        "relationships": "Věnujte dost pozornosti a snahy svému vzhledu. Nyní máte na to, abyste si vylepšili vizáž a byli sami se sebou spokojeni.",
        "health": "Zatuhlá krční páteř bývá spouštěčem bolestí hlavy a migrén. Pomohou masáže a správné cvičení, které najdete na internetu.",
        "tips": "Zápis do nového rekvalifikačního kurzu, účast na školení, pořádání pracovní porady, golf s rodinou, péče o domácnost."
    },
    "cancer": {
        "main": "Jakmile dnes něco pokazíte v mezilidských vztazích, půjde to velmi těžko napravit. Myslete na to, jestliže se již budete nadechovat k argumentům. Možná stojí za to nad něčím dnes mávnout rukou a přejít rýpavé poznámky. Druhou stranu to vyvede z konceptu.",
        "love": "Pokud se vám dnes povede pokazit něco mezi vámi a vaším novým partnerem, jen tak lehce to napravit nepůjde. Myslete na to.",
        "work": "Vašemu nadřízenému neujde změna chování mezi vámi a vašimi kolegy. Brzy se vás může zeptat na to, co se vlastně děje.",
        "relationships": "Vhodné aktivity by vám mohly pomoci při zvládání stresu a negativních emocí, jež se ve vás hromadí. Určitě nějaké najdete.",
        "health": "Vaše dobrá fyzická i psychická kondice o něčem svědčí, zřejmě se velmi pečlivě staráte o svůj organismus i duši.",
        "tips": "Setkání s kamarády, domácí kino, odpoledne na výtvarném workshopu, rozhovory s blízkým člověkem, vycházka za kulturou."
    },
    "leo": {
        "main": "Láska je nyní ve vašem životě na prvním místě. Pravděpodobně máte zájem s někým novým vztah upevnit a posunout ho dál. Máte k tomu nejlepší podmínky, dotyčný člověk vaše city bude opětovat. Pomocnou ruku vám v práci dnes podá zkušenější kolega.",
        "love": "V milostných vztazích jste nyní hodně spokojení, protože se opět věci dávají do pohybu a vy zažíváte chvíle štěstí.",
        "work": "Pokud dnes budete mít problém s nějakým pracovním projektem, klidně můžete přijmout pomoc kolegy. Myslí to upřímně.",
        "relationships": "Zjistíte, že je lepší věnovat energii a čas i jiným záležitostem v domácnosti nebo rodině a na ostatní raději zapomenout.",
        "health": "Jestliže nemáte nikoho, kdo by vás naučil základní cviky ve fitness centru, musíte si objednat soukromého trenéra.",
        "tips": "Nákup potravin s dovážkou do domu, příprava rodinné večeře, zdravotní procházka v přírodě, zábava s potomky, četba magazínů."
    },
    "virgo": {
        "main": "Máte stále obavy, že si k sobě nevyberete vhodného partnera, proto se budete vyhýbat jakékoliv společnosti. Děláte ale pravý opak toho, co by bylo dobré. Na další dny si naplánujte setkání s přáteli a choďte více mezi lidi, můžete potkat někoho zajímavého.",
        "love": "Nechcete se ve svém rozhodnutí unáhlit a vybrat si někoho, kdo to s vámi nemyslí upřímně. Společnosti se budete vyhýbat.",
        "work": "Pozor si dávejte na zvýšené investice, které by vás mohly mrzet, proto jakékoli takové nápady předem s někým proberte.",
        "relationships": "Zajímat vás může tajemno a duchovno. Než se ale pustíte do studia okultních věd, měli byste si být vědomi toho, o co jde.",
        "health": "Máte tendence mezi hlavními jídly vždy něco sladkého uzobávat. To ale nepomáhá vaší dietě. Zkuste si udržet pevnou vůli.",
        "tips": "Hledání nových obchodních partnerů a pracovních kontaktů, káva v příjemné kavárně, třídění odpadu, procházka přírodou."
    },
    "libra": {
        "main": "Snažte se v práci od rána držet nějaké slušné tempo, které vám umožní všechny úkoly do konce měsíce zvládnout bez potíží. Není dobré věci odkládat, mohli byste něco zapomenout vyřídit. Odpoledne si krásně vyčistíte hlavu nějakým zajímavým sportem.",
        "love": "Také dnes vás může váš nový idol přesvědčit o tom, že nerad jen tak nečinně sedí na místě. Dostane vás do pohybu.",
        "work": "Ke konci pracovního týdne byste si měli ještě jednou překontrolovat firemní poštu a e-maily. Je důležité nic neopomenout.",
        "relationships": "Rodinu dnes vezměte na zajímavý výlet do města, za historickými památkami či kulturou. Líbit se může nová výstava v muzeu.",
        "health": "Alkoholické nápoje či koktejly byste měli konzumovat pouze v omezené míře, pokud chcete zhubnout. Alkohol má hodně cukru.",
        "tips": "Školení nových kolegů, příprava s dětmi do sportovního kroužku, hlídání mladších sourozenců, kreativní a výtvarné aktivity."
    },
    "scorpio": {
        "main": "Nové kamarády najdete v zájmové klubu nebo na nějakém workshopu. Uvidíte, že vás kromě společných zálib mohou pojit také názory na život či zkušenosti. Protože však nemáte rádi rutinu, budou tyto spolky zřejmě něčím charakteristické a jiné.",
        "love": "Je pravděpodobné, že s lidmi, se kterými máte společné hobby, začnete trávit více volného času a najdete mezi nimi přátele.",
        "work": "I když to váš nadřízený nedává najevo, nelituje svého rozhodnutí, že vás v jisté věci podpořil, a bude se na vás spoléhat i dál.",
        "relationships": "Rozhodně byste rádi vyzkoušeli něco vzrušujícího a adrenalinového. Přestaly vás pravděpodobně bavit stereotypní zážitky.",
        "health": "Jestliže víte, že vaše fyzická kondice není nic moc, je načase začít s nějakým cvičením. Výsledky budou viditelné již brzy.",
        "tips": "Romantická schůzka s partnerem, seznamování na online seznamce, návštěva umělecké galerie, zábava v rockovém klubu."
    },
    "sagittarius": {
        "main": "Dejte si pozor, abyste na svého partnera nebyli stále tolik přísní. Snaží se, seč může, aby vám vyšel vstříc, jen není jeho aktivita příliš rychlá. Vaše snažení v práci je na tom o mnoho lépe, máte za sebou hmatatelné výsledky, které vás posunou vpřed.",
        "love": "Možná nejsou kroky vašeho partnera k nápravě mezi vámi dost rychlé, ale musíte uznat, že se snaží. Nic mu nevyčítejte.",
        "work": "Ukáže se, že vaše snahy nevyšly vůbec nadarmo a za vámi jsou velké pokroky. I do budoucna tomu může být podobně.",
        "relationships": "Místo toho, abyste se doma poflakovali, zaměřte se na vše, co odkládáte a leží doma nedodělané. Bude toho hodně.",
        "health": "Jestliže se dnes vrhnete příliš aktivně do sportování, nedivte se, že vás večer budou bolet šlachy i klouby. Chce to pomalu.",
        "tips": "Vedení malého týmu kolegů, příprava na služební cestu, hledání slev na internetu, večeře v krásné restauraci s partnerem."
    },
    "capricorn": {
        "main": "Aniž by se k tomu nějak vyjadřoval, přijme váš partner všechny vaše požadavky na změnu svého chování. Je jasné, že o vztah s vámi není ochoten přijít, ale naopak má snahu vás udržet pospolu. I proto se k němu nyní nechovejte jako rodič, ale jako partner.",
        "love": "Váš partner přijme vaše nová ultimáta, aniž by si z vás dělal legraci. Uvědomí si, že máte pravdu, a bude se snažit.",
        "work": "Měli byste se snažit napravit veškeré konflikty na pracovišti a vysvětlit si s kolegy nedorozumění. Všem se vám uleví.",
        "relationships": "Nesnažte se doma nutit někoho do aktivit, které se mu nezdají, nebo na ně nemá fyzickou kondici. Místo toho oslovte přátele.",
        "health": "Práce doma by neměla zbývat jen na vás, protože je jí mnoho a vy se můžete velmi unavit. Budete potřebovat pomocníka.",
        "tips": "Dokončování náročných pracovních povinností, pochůzky po úřadech, rozhovory s partnerem, skládání zkoušek v autoškole."
    },
    "aquarius": {
        "main": "Dávejte si dobrý pozor na to, co budete dnes podepisovat. Možná příliš spěcháte na nějaké vyřešení problematické záležitosti, ale tím můžete udělat horší chybu. Počkejte tedy naprosto v klidu na to, až budete mít relevantní informace k dispozici.",
        "love": "Momentálně prožíváte krásné dny s přáteli, s rodinou nebo s kolegy. Mezilidské vztahy jsou na velmi dobré úrovni.",
        "work": "Při podepisování nějakých soukromých úředních smluv máte tendence volit špatné kroky a situaci zlehčovat. To není správné.",
        "relationships": "Zútulňování domova by mělo být na pořadu dne. Máte skvělé nápady a vkus, tak proč to dnes nevyužít a nevytvořit něco pěkného?",
        "health": "Jestliže se dnes s někým pustíte do konfliktu, vězte, že taková hádka vám může sebrat obrovské množství energie.",
        "tips": "Řešení záležitostí s novým protějškem, samostudium cizího jazyka, zápis do nového kurzu, konzultace s odborníkem."
    },
    "pisces": {
        "main": "V tomto měsíci jste si nemohli vynachválit spolupráci na nejrůznějších projektech se svými kolegy. Vaše pohodové vztahy mohou pokračovat i v následujícím měsíci. Stačí jen být v pohodě a nepropadat chmurám nebo katastrofickým scénářům. A to vy zvládnete.",
        "love": "Pomalu, ale jistě by u vás měly mizet pochybnosti, co se týká vašeho vztahu. Partnerovi byste měli více důvěřovat.",
        "work": "Spolupráce v tomto měsíci jde s kolegy báječně. Zvláště na jednom projektu se můžete všichni podílet a být úspěšní.",
        "relationships": "Snažte se zvládnout své emoce, protože zbytečně nabíháte na lest někoho z příbuzenstva a ten se baví vaším rozčilováním.",
        "health": "Pečujte o pokožku na obličeji velmi svědomitě. Ne každý krém je pro vás vhodný. Hlídejte si složení. To platí i pro muže.",
        "tips": "Rozhovor s partnerem, příprava oběda, zahradničení, úklid, meditace, servis jízdního kola, venčení pejska v parku."
    }
}