{
    "aries": {
        "main": "Nebojte se dnes ve svém životě udělat radikální změny. Hlavně tehdy, máte-li nějaké zlozvyky a vyloženě špatné návyky. Díky novoluní se jich můžete velmi snadno zbavit, hvězdy jsou tomu nakloněny. Odložte tedy alkohol nebo cigarety a zkuste to vydržet.",
        "love": "Stále můžete čerpat z přízně hvězd, které vám do cesty posílají opravdu zajímavé osoby. Využít byste toho měli na maximum.",
        "work": "Zdá se, že v soukromých záležitostech jste dnes v pravou chvíli na správném místě. Měli byste se těchto šancí chopit ihned.",
        "relationships": "Dobře si naplánujte dnešní den, ať neskáčete z jedné činnosti na druhou. Zbytečně byste se rozčilovali na všechny kolem.",
        "health": "Dnes si domů z obchodu nebo trhu přinesete nějaké ty laskominy a budete je chtít hned vyzkoušet. Pozor na přejídání.",
        "tips": "Návštěva farmářského trhu, příprava pozdního oběda, paddleboarding, odpoledne u vody, houbaření, odpočinek u televize."
    },
    "taurus": {
        "main": "Vás se dnešní novoluní dotkne v tom směru, že od sebe musíte odpojit osoby, které vám značně ubírají na energii. Možná doplácíte na svou dobráckou povahu nebo naivitu. Ale rozhodně si tím škodíte. Udělejte menší seznam těch, kteří nejsou pravými přáteli.",
        "love": "Jakékoliv toxické vztahy, o kterých víte, se snažte přerušit. Novoluní je k tomu jako stvořené. Čekají vás lepší zážitky.",
        "work": "Peníze ubývají z vašeho konta kvapem a vy máte co dělat, abyste to ukočírovali. Je třeba se zamyslet, jak si přivydělat.",
        "relationships": "Věnujte sobotu aktivitám s rodinou, o kterých již delší dobu mluvíte. Zkuste si splnit jednu věc, na kterou se těšíte.",
        "health": "Pohyb na čerstvém vzduchu vám jednoznačně dělá dobře. Je to ale právě kardio cvičení, které vás pořádně rozproudí.",
        "tips": "Zahradnické práce, čištění bazénu, procházka po okolí, fotografování přírody v lese, plážový volejbal s přáteli."
    },
    "gemini": {
        "main": "Co kdybyste si také konečně udělali čas jen sami na sebe a svého partnera? Buďte více sobečtí a takový den si dopřejte. Nikdo jiný totiž ve vztahu kromě vás dvou není. Zapracovat na něm musíte sami. Tím, že podpoříte vášeň mezi vámi, uděláte hodně.",
        "love": "Partner i vy si zasloužíte nějakou tu chvilku o samotě, bez ostatních. Udělejte si ji dnes a užijte si vášně a erotiku.",
        "work": "Přísun peněz na vaše konto je stálý a vyrovnaný, takže se nemusíte bát finančního kolapsu. Něco pěkného si můžete koupit.",
        "relationships": "Výlet mimo domov je dobrým nápadem pro celou vaši rodinku. Přibalte plavky a opalovací krém. Domů se dostanete se soumrakem.",
        "health": "I vám dělají potěšení umělecké nebo výtvarné činnosti. A máte jich rovnou několik. Vyberte si dnes tu, která vás těší nejvíc.",
        "tips": "Celodenní výlet do sportovního parku, fotografování, oběd mimo domov, odpočinek na zahradě, večerní táborák se sousedy."
    },
    "cancer": {
        "main": "Zajímavý program se vám povede vymyslet s kamarády. Je jisté, že se budete báječně bavit a přijdete na jiné myšlenky. Na takový výlet budete navíc dlouho vzpomínat v dobrém a je téměř jisté, že si ho brzy znovu zopakujete. Možná z toho bude tradice.",
        "love": "Vydejte se někam za poznáním. Ať už to bude výlet s přáteli na kolech, nebo degustace vín, bude to především zábava.",
        "work": "Využijte toho, že jste nyní ve velmi dobré kondici, co se týká komunikaci s ostatními. Můžete si zajistit výhodné smlouvy.",
        "relationships": "Určitě máte plno práce kolem domu nebo na zahradě. Udělejte si ale také během dne čas na zasloužený odpočinek s rodinkou.",
        "health": "Vydáte-li se na raft s partou kamarádů, zbytečně neriskujte a chovejte se zodpovědně. Jedině tak si to užijete v pohodě.",
        "tips": "Návštěva zoologické zahrady, stanování v kempu, sjíždění vody s přáteli, plánování letních aktivit, četba detektivek."
    },
    "leo": {
        "main": "Domácí účetnictví, povinné platby a zapomenuté pokuty. To bude téma sobotního dne. Máte doslova poslední šanci, jak se zachránit bez toho, aniž byste byli později sankcionováni. Naštěstí máte velkou příležitost k úspěšnému dokončení všeho potřebného.",
        "love": "Složité okamžiky ve vztazích vás neminou ani dnes. Nedejte se však dohnat ke vzteku. Tím by se vše jen zhoršilo.",
        "work": "Pozor na nečekané a nepříjemné výdaje, jako jsou pokuty nebo poplatky. Kontrolujte vše raději dvakrát, ať něco neopomenete.",
        "relationships": "Rizikové aktivity by dnes neměly patřit mezi hlavní náplň dne. Naopak si najděte klidnější činnosti, které vás budou bavit.",
        "health": "Při sbírání hub si musíte být jistí svými úlovky. Pokud se vám některá houba nezdá, do košíku ji raději nedávejte.",
        "tips": "Luštění křížovek, návštěva letního kina, houbaření, práce na zahradě, setkání se sourozenci, pečení sladkých koláčů."
    },
    "virgo": {
        "main": "Většinou jste labužníci a rádi zkoušíte i něco nového. Pokud máte možnost, vyjděte s kamarády na farmářský trh. Najdete tam spoustu laskomin, které můžete ochutnat a případně si je odnést domů. Jistě si s přáteli nebo rodinkou přijdete opravdu na své.",
        "love": "Pokud rádi mlsáte, určitě si dnes s přáteli nebo partnerem nenechte ujít nejbližší farmářský trh. Čeká vás mnoho zážitků.",
        "work": "Důležité smlouvy a vážná rozhodnutí by dnes měly jít opravdu stranou. Hvězdy vám stále nevytvořily vhodné podmínky k obchodům.",
        "relationships": "Věnujte se během dne také získávání informací. Ty můžete pak předat svým potomkům nebo se do průzkumu pustit s nimi.",
        "health": "Na přípravu ovocné šťávy nebo limonády potřebujete především čerstvé suroviny. Představivosti se pak meze nekladou.",
        "tips": "Výroba domácího likéru, nákup čerstvého ovoce a zeleniny, sledování sportovního utkání, péče o starší příbuzné, venčení psa."
    },
    "libra": {
        "main": "Někteří z vás si v hlavě zbytečně vytvářejí domněnky, že je jim partner nevěrný nebo že plánuje rozchod. I protějšek může mít své slabé dny, kdy jeho láska k vám sice trvá, ale projev je o něco horší. Nevytvářejte proto nesmyslné konflikty.",
        "love": "Nedělejte si těžkou hlavu z toho, že by vás současný partner chtěl opustit. Vaše obavy jsou zcela neopodstatněné.",
        "work": "Ne vše může dnes probíhat podle vašich představ. Zvláště při nákupech se nemusí vše zdařit tak, jak jste si naplánovali.",
        "relationships": "Měli byste převzít také svůj díl zodpovědnosti při péči o starší příbuzné. Je to spravedlivé vůči nim i ostatní rodině.",
        "health": "Ve wellness centru si zvolte takovou proceduru, která je vám dnes nejbližší. Odpočinete si při ní tak jako tak.",
        "tips": "Výlet do wellness centra, saunování, detoxikační dieta, nový stravovací plán, sestavení hudebního playlistu ke cvičení."
    },
    "scorpio": {
        "main": "Měli byste zkusit napravovat vše, co se vám v týdnu podařilo pokazit. Začít musíte ale u sebe. Jakmile nepochopíte, co je vaší slabinou, nic se nezmění. Pokud ale půjdete do sebe, protějšek to zaznamená ihned a jeho chování se rázem promění.",
        "love": "Bude třeba sáhnout si do svědomí a uvědomit si, že chyby zpravidla bývají na obou stranách. Tedy i na té vaší.",
        "work": "Chcete mít vše, na co se podíváte. A nejlépe ihned. To je bohužel dost destruktivní chování vůči vašim penězům.",
        "relationships": "Máte-li možnost, vypravte se dnes někam k vodě. Zázračně vám zklidní mysl a ještě si užijete vodní radovánky s rodinou.",
        "health": "Meditace je velmi dobrá pro urovnání myšlenek a celkové zklidnění. Měli byste se naučit pár základních cviků, pomohou vám.",
        "tips": "Výlet na zajímavý zámek, projížďka na elektrokole, wellness, meditační a dechová cvičení, žhavé rande s novou známostí."
    },
    "sagittarius": {
        "main": "Vaší chybou, i když ne z vlastního přičinění, je to, že jste idealisté. Máte vše zjednodušené a všechny možné překážky si nepřipouštíte. Pak snadno dochází k tomu, že jste zklamaní a frustrovaní. Když budete na vše pohlížet rozumněji, bude vám lépe.",
        "love": "Možná máte o vztazích zkreslené představy a to je ta chyba. Respekt si musí partneři projevovat dobrovolně a vzájemně.",
        "work": "Stále jste v přízni hvězd a můžete si dovolit utratit větší sumu v letních slevách. Využijte toho pro nákup dražšího zboží.",
        "relationships": "Jak se dnes k letní sobotě postavíte, je jen na vás. Rozhodně byste neměli jen tak lelkovat doma bez cíle. Jděte příkladem.",
        "health": "Při ochutnávkách alkoholu si dávejte dobrý pozor. V letních měsících hrozí kocovina dřív, než se nadějete. Takže opatrně.",
        "tips": "Dopoledne na farmářském trhu, setkání s přáteli, degustace vína, celodenní výlet na kole, lenošení s knihou na zahradě."
    },
    "capricorn": {
        "main": "Každý má své slabší dny a vás to zastihlo právě dnes. I když máte chuť a sílu to změnit, je vám dáno krizí projít a poučit se z ní. Jedná se hlavně o mezilidské vztahy, které projdou opravdovou zkouškou. Na konci jasně uvidíte, co má v životě cenu.",
        "love": "Procházíte dnes těžkým obdobím, které se nedá nijak odstranit. Musíte zatnout zuby a počkat, až se vše přežene.",
        "work": "Jakékoliv půjčky nebo úvěry by dnes měly jít totálně mimo vás. Hvězdy vám takové aktivity rozhodně nedoporučují.",
        "relationships": "Celodenní výlet za novými památkami by mohl nadchnout vás i vaše nejbližší. Dobře to naplánujte, ať si všichni užijete.",
        "health": "Sestavte si nový a o něco lehčí jídelníček. Na vaší postavě to bude brzy znát a budete příkladem pro ostatní doma.",
        "tips": "Příprava rodinného oběda, nový odlehčený jídelníček, výroba zahradních dekorací, kreativní práce, poslech oblíbené audiotéky."
    },
    "aquarius": {
        "main": "V obtížnějších situacích, kdy se hůře spoří každá koruna, funguje osvědčená obálková metoda. Začněte si ode dneška odkládat do zvláštní obálky nějaký malý obnos a pokuste se ho neutratit. Uvidíte, že se vám za čas ušetřené peníze mohou velmi hodit.",
        "love": "Jestliže máte dojem, že o vás protějšek ztrácí zájem, měli byste si v tom udělat jasno. Mlčením anebo hádkami se to nevyřeší.",
        "work": "Pokud máte problémy s tím ušetřit nějakou korunu navíc, zkuste si odkládat menší obnos pravidelně do obálky a buďte důslední.",
        "relationships": "Kdosi z příbuzných se bude snažit o nápravu vašeho vzájemného vztahu. Pokud se bude chtít omluvit, dejte mu šanci.",
        "health": "Zvykněte si na čerstvém vzduchu po ránu na pár protahovacích a probouzecích cviků. Den bude pak v úplně jiném rytmu.",
        "tips": "Ranní cvičení na čerstvém vzduchu, vegetariánský oběd, opalování, paddleboarding, hraní deskových a karetních her."
    },
    "pisces": {
        "main": "Ani nebude vědět jak, ale vyrojí se kolem vás samí pochybní obchodníci. Budou vám nabízet na první pohled prvotřídní zboží, které je ale v podstatě šunt. Máte naštěstí dost zkušeností a rozumu, abyste takové nabídky odmítli a dali si příště větší pozor.",
        "love": "V okolí máte spoustu zajímavých lidí, které by stálo za to poznat. Stačí si jen sundat klapky z očí a více si věřit.",
        "work": "Je vám přáno prohlédnout dnešní lsti vychytralých obchodníků. Díky tomu se ušetříte zklamání a nadměrných výdajů.",
        "relationships": "Jestliže vám chybí návštěvy kina, proč si nepřipravíte doma své vlastní? Určitě máte oblíbené filmy, které chcete vidět.",
        "health": "Vědomostní a karetní hry vás nejen vrátí do dětství, ale báječně vám nastartují vaše šedé buňky mozkové. Tak se snažte.",
        "tips": "Celodenní výlet k příbuzným, poslech oblíbené hudby, hraní vědomostních her s dětmi, rybaření, plánování výletu na neděli."
    }
}