{
    "aries": {
        "main": "Využijte šancí, které vám posílají hvězdy v milostné oblasti. Každý z vás si přijde na své. Naopak v práci zvolněte, protože nemáte svůj den a nic nejde podle představ. Netrapte se tak tím, co nemůžete změnit, a pusťte se do toho, co vám jde jedna báseň.",
        "love": "V lásce by se vám dnes mohlo výrazně dařit, zvlášť pokud se chcete seznámit s někým novým. Hvězdy přejí kontaktům.",
        "work": "Není pro vás dnes jednoduché prosadit si v práci své nápady a inovace. Je možné, že dokonce soupeříte s kolegy o prvenství.",
        "relationships": "Plánujete-li rodinnou dovolenou, zřejmě zatoužíte po luxusním prostředí. Je možné, že letos se pořádně rozšoupnete.",
        "health": "Pozornost věnujte především krevnímu oběhu a srdíčku. Nerozčilujte se zbytečnostmi a snažte se zůstat v klidu.",
        "tips": "Nové pracovní projekty, plánování rodinné dovolené, nákup letního oblečení, sportovní aktivity v přírodě, venčení psa."
    },
    "taurus": {
        "main": "Týden nezačnete dobře a budete z toho pěkně naštvaní. Ani v lásce, ani v práci to nebude žádná sláva. Zkuste ale vydržet a použijte k tomu svou pověstnou trpělivost. Chce to jen dnešní den přežít s co nejmenšími újmami. Najděte si koníček, který vás potěší.",
        "love": "Jako by vám osud házel klacky pod nohy. V lásce se vám zatím nedaří a vy si s tím nevíte rady. Využijte své trpělivosti.",
        "work": "Šéf vám nevyhoví ve vašich požadavcích. Není divu, že začnete být v zaměstnání nespokojení a budete přemýšlet, jak dál.",
        "relationships": "S někým doma vám nefunguje komunikace a vy nevíte, co s tím. Nechte stranou náročná témata, ať nevznikne hádka.",
        "health": "Pokud to půjde, nakupte si domů co nejvíce čerstvých surovin z lokálních zdrojů. Je to určitě nejpřirozenější strava.",
        "tips": "Plánování návštěvy příbuzných, piknik v přírodě, servis automobilu, nákup sportovního vybavení, venčení pejska s kamarády."
    },
    "gemini": {
        "main": "Jste ve výborné formě. Na všech frontách budete slavit úspěchy. Je to především díky vaší povaze, kdy neradi zůstáváte na místě, ale naopak se neustále posouváte vpřed. Dávejte si pozor na energii a její přílišný výdej. Nebude jednoduché ji nabrat zpět.",
        "love": "Rozhodně vás dnes nevykolejí nápadně jiné chování nové známosti. Mávnete nad tím ruku a vydáte se mezi své přátele.",
        "work": "Pracujete na plné obrátky a hlava vám funguje bez chyby. Pozor na to, abyste si ale nevyčerpali veškerou energii.",
        "relationships": "Báječné nápady pro vaši rodinu jsou hlavním tahákem zábavy pro tento týden, potažmo pro dnešní den. Skvělé! Jste inspirativní.",
        "health": "Dodržujte správný pitný režim. Podporujete tím funkci ledvin. Dejte přednost čisté vodě, nejlépe přefiltrované.",
        "tips": "Rybaření, výtvarné techniky, servis jízdního kola, telefonát s příbuznými, dobrovolnické práce, třídění staršího oblečení."
    },
    "cancer": {
        "main": "Nelíbí se vám, že v oblasti lásky jste dnes za outsidery. Záleží také na vaší snaze a tom, jak tuto věc chcete řešit. Nebojte se být více odvážní a také optimističtí. Inspirujte se tím, jak akční jste v práci. To by vám mohlo dodat více sebevědomí.",
        "love": "Láska jde tak trochu kolem vás i dnes. Není to pro vás komfortní, a tak se rozhodnete s tím něco konečně dělat.",
        "work": "V hlavě se vám to zajímavými nápady jen hemží. Nebojte se je přednést nadřízenému, určitě z vaší iniciativy bude nadšený.",
        "relationships": "Někdo z přátel vás dnes může nečekaně překvapit svou návštěvou. I když s tím nepočítáte, kamaráda neodmítnete.",
        "health": "Zkuste od sebe odstřihnout vše, co vám zásadním způsobem narušuje psychiku. Mohou to být toxické vztahy či škodlivé návyky.",
        "tips": "Úprava domácnosti, výroba dekorací, nákup hraček pro děti, četba literatury faktu, jóga podle internetu, zdravá strava."
    },
    "leo": {
        "main": "Práce vám přináší uspokojení již od počátku týdne. Rozhodně se nebojte toho, že by se vám zničehonic přestalo dařit. Máte výborně nakročeno k dalším úspěchům, stačí jen udržet nastavenou laťku. Navíc vám to kompenzuje neúspěchy na milostném poli.",
        "love": "Červencové dny vám moc lásky zatím neposkytly a ani dnes to nebude jinak. Máte z toho těžkou hlavu a trápení na duši.",
        "work": "Optimismus se vás dnes v práci bude naštěstí držet. Nemusíte se obávat toho, že by vám něco nečekaného mohlo pokazit náladu.",
        "relationships": "Toužíte-li po tom, aby vám nejbližší zalichotili, snažte se o změnu vzhledu nebo alespoň stylu oblékání. Budete mít úspěch.",
        "health": "Zapomeňte pro dnešek na konzumaci alkoholu. Dejte šanci svým játrům na odpočinek a regeneraci od takové zátěže.",
        "tips": "Kreativní práce, nové projekty, romantická procházka po městě, péče o pokožku těla, nákup dermokosmetiky, odpolední spánek."
    },
    "virgo": {
        "main": "Nezadaní jedinci se začnou pomalu rozhlížet kolem sebe, jestli tam náhodou není někdo výjimečný. Kupodivu to nevzdáte a využijete všech možných dostupných prostředků, jak se seznámit s novými lidmi. Věřte, že se vám tak využitá šance bohatě vyplatí.",
        "love": "Pondělí vás zastihne v příjemném rozpoložení. Vy, kteří jste stále single, najednou pocítíte touhu po seznamování a lásce.",
        "work": "Pocit, že nadřízený je neochotný a nepříjemný, není jen váš. Shodnete se na tom s kolegy, ale budete to ignorovat.",
        "relationships": "S rodinou můžete dnes řešit bez obav vše, co vás trápí. Jsou připraveni vám podat pomocnou ruku, aniž by vás soudili.",
        "health": "Dnes je vhodný den k tomu, abyste pečovali o svou hřívu. Střih i barva déle vydrží. Svěřte se do rukou odborníků.",
        "tips": "Sestavení dietního jídelníčku, nákup čerstvých surovin, odpolední relaxace s knihou, samostudium cizích jazyků."
    },
    "libra": {
        "main": "Stále jste jako na klíček a jdete z jednoho úkolu okamžitě na druhý. Je fajn, že máte tolik energie a umíte ji využít. Pozor na to, abyste se ale nevydali ze všech sil již dnes. Čeká vás totiž celkem nabitý týden a budete potřebovat energii.",
        "love": "Single jedincům může přijít do cesty velmi atraktivní osoba, která se jim může stát partnerem pro život. Mějte oči otevřené.",
        "work": "Nemáte stání a pořád na sobě pracujete. Je důležité, aby vaše snaha byla správně namířena. Pak se nemine účinkem.",
        "relationships": "Jste tahouni domácnosti a silná osobnost. Kdokoliv se na vás dnes obrátí s prosbou o pomoc, budete mu k dispozici bez řečí.",
        "health": "Do mrazničky si uložte nasbírané ovoce. Neztratí příliš vitaminů a hodí se vám do báječných smoothie koktejlů.",
        "tips": "Péče o zahradu, samosběr ovoce a zeleniny, oběd s kamarády ve městě, návštěva koupaliště, nákup krmiva pro domácí mazlíčky."
    },
    "scorpio": {
        "main": "Jdete od extrému k extrému. V milostných záležitostech se pohybujete v pesimistickém rozpoložení, ale v zaměstnání jde vše daleko lépe. Zkuste se inspirovat právě tam. Uvidíte, že podobné vzorce chování vám mohou pomoci překonat současné trable.",
        "love": "Planeta Venuše vám situaci v lásce a vztazích opravdu neulehčí. Dusíte v sobě vztek a zklamání, že vše nejde podle vás.",
        "work": "Změny ve vašem jednání zaznamená nadřízený celkem rychle. Je vidět, že vás opustila vzpurná nálada a období protestů.",
        "relationships": "Začínáte měnit chování i vůči vašim nejbližším. Téměř okamžitě pocítíte změnu nálady také u nich. To by vás mělo motivovat.",
        "health": "Jestliže se budete dnes pohybovat více v přírodě, dávejte si pozor na klíšťata a jiný hmyz. Používejte správné repelenty.",
        "tips": "Cvičení v přírodě, kolektivní míčové hry s dětmi, plánování rodinné dovolené, nákup kempinkových potřeb, grilování."
    },
    "sagittarius": {
        "main": "Do nového týdne vstoupíte úspěšně ve všech oblastech života. Nebojte se, že jak rychle úspěch přišel, tak se stejně rychle ztratí. Máte dostatek sil udržet si takový standard, stačí jen myslet optimisticky. Využijte všech možností nejlépe, jak to půjde.",
        "love": "I dnešní den si pro vás připravil v lásce výzvy. Záleží na vás, jak se k tomu postavíte. Využijte pozitiv na maximum.",
        "work": "V zaměstnání se vám daří podávat stabilní a sebevědomé výkony. Jste na dobré cestě dosáhnout vysněných profesních cílů.",
        "relationships": "Horko těžko se budete domlouvat v rodině o plánech na další letní dny. Je třeba více respektu jednoho k druhému.",
        "health": "Práce na zahradě vám dnes může s jistotou zlepšit psychiku. Postačí i péče o balkonové květiny nebo rostliny.",
        "tips": "Houbaření, koupání, návštěva historické památky, návštěva venkovního koncertu, konzultace s praktickým lékařem."
    },
    "capricorn": {
        "main": "Přestože je léto v plném proudu a slunečných dní je dost, vám energie prostě chybí. Je to také tím, že se vždy snažíte jet naplno a neošidíte žádnou oblast vašeho života. Načase by bylo zvolnit. Je-li to možné, požádejte šéfa o kratší volno již dnes.",
        "love": "Pomalu, ale jistě odplouvají pochybnosti o vašem současném vztahu. Uleví se vám, byla to pro vás obrovská zátěž.",
        "work": "Cítíte, že vám docházejí síly v pracovních povinnostech. Zamyslete se nad kratší dovolenou, která by vám značně prospěla.",
        "relationships": "Hlavou vám běhají samé výborné nápady na zábavu a aktivní prožití volného času. Jediné, co vám chybí, je bohužel energie.",
        "health": "Pozor si dejte na dlouhodobém pobytu na slunci. Je třeba dodržovat správný pitný režim a vyhýbat se konzumaci alkoholu.",
        "tips": "Nové pracovní projekty, třídění soukromé korespondence, trénování běhu na závody, venčení pejska v lesoparku, jízda na kole."
    },
    "aquarius": {
        "main": "Bude nutné se hned od rána chopit práce zhurta. Nadřízený vám bez okolků sdělí, že pokud nepřidáte na tempu a snaze, můžete se přinejmenším připravit o odměny nebo dosavadní plat. Ztráta zaměstnání by byla krajním řešením, ale ne nepředstavitelným.",
        "love": "Ve vztahu to není žádná sláva. Potřebujete k sobě někoho, kdo je pro každou legraci a nechce jen sedět doma na gauči.",
        "work": "V zaměstnání budete nuceni přidat. Alespoň to vám naznačí nadřízený. A přidá pohrůžku, pokud to nebude podle jeho představ.",
        "relationships": "Věnujte více času do zvelebování domova. Máte šikovné ruce a dobré nápady. Může se vám podařit něco originálního.",
        "health": "Do těla je nutné stále doplňovat hořčík, který zabrání křečím dolních končetin, zlepší náladu a podpoří funkci srdce.",
        "tips": "Studium v rekvalifikačním kurzu, nákup řezaných květin, nové recepty, sestavení hudebního playlistu, sledování soutěže."
    },
    "pisces": {
        "main": "Jste jako dynamo a pro ostatní tedy velkou inspirací. Kolegové vám dnes stěží budou dýchat na záda. Opatrně ale nakládejte se silami, které vám kvapem mohou ubývat. Potřebovat je budete na celý týden, tak zvolněte. Na všechno máte dost času.",
        "love": "Zadaní jedinci se mohou dnes ve vztahu cítit poněkud stísněně. Panuje mezi vámi napětí a jistá míra nedůvěry.",
        "work": "V zaměstnání všechny můžete dnes jen příjemně překvapit. Vaše motivace je pro vaše spolupracovníky doslova nakažlivá.",
        "relationships": "Rádi byste změnili něco na své vizáži. Pokud si ale nejste jistí, nechte si poradit od někoho z rodiny, kdo v tom umí chodit.",
        "health": "Péče o chrup je naprosto nezbytná a samozřejmá. Pokud vás něco trápí, ihned se objednejte ke svému stomatologovi.",
        "tips": "Účast ve vědomostní soutěži, hraní deskových her s dětmi, kolektivní míčové hry s přáteli, aquagymnastika, plavání."
    }
}