{
    "aries": {
        "main": "Máte rádi akční zábavu. Nejde jen o adrenalinové sporty. Pouze neradi sedíte na místě s rukama v klíně. Proto ani v neděli toto nebude váš plán. Naopak se vydáte do přírody za sportovními aktivitami. Na výběr máte z mnoha možností, které vás uspokojí.",
        "love": "S protějškem se nebojte vydat na nová místa. Objevíte něco, poučíte se a dobře pobavíte. Volný den tak nebude nudný.",
        "work": "Doma na vás dnes mohou čekat jisté dokumenty, které je třeba zkontrolovat a odeslat. Neodkládejte to, je to důležité.",
        "relationships": "Vymyslet nedělní program pro rodinu nebude nic složitého. Díky počasí se můžete vybírat z outdoorových aktivit.",
        "health": "Nebojte si dnes přispat nebo si dopřát odpolední spánek. Potřebujete nabrat síly a spánek je k tomu nejlepším způsobem.",
        "tips": "Setkání se spolužáky, pečení sladkých dezertů, rehabilitační cvičení, meditační techniky, úklid domácnosti, deskové hry."
    },
    "taurus": {
        "main": "Od zítra vás opět čeká fofr, takže neděli byste měli věnovat pouze a jen relaxaci. Ať už si zvolíte své oblíbené hobby, nebo jen tak budete polehávat s dobrou knihou na pohovce, je to správné. Dokonce doporučené. Je důležité, abyste měli čas jen pro sebe.",
        "love": "Velké změny v neděli neočekávejte. Bohužel se situace v partnerském vztahu nezlepší a vaše rozmrzelost bude pokračovat.",
        "work": "Zamyslete se nad tím, jak si finanční stránku vylepšit nějakým zajímavým způsobem. Třeba prodejem staršího zboží na internetu.",
        "relationships": "Dejte si dnes oddechový den, abyste se mohli připravit na nový týden. Uvítají to ale překvapivě všichni v domácnosti.",
        "health": "O svůj chrup se musíte pečlivě starat. Naučte správné ústní hygieně také své děti. Kvalitní přípravky zakoupíte téměř všude.",
        "tips": "Grilování se sousedy, kolektivní míčové hry, tenis, turnaj v šipkách s kamarády, návštěva střelnice, nákup oblečení na léto."
    },
    "gemini": {
        "main": "Dokonale vám dnes bude vyhovovat intimní prostředí domova a rodiny. Kdokoliv by vás přemlouval k výletům nebo odpoledni ve společnosti, nemá šanci na úspěch. Jestli opustíte stěny domova, tak jen pro to, abyste si vyšli na příjemnou procházku s miláčkem.",
        "love": "Romantická procházka letním podvečerem je něco, co jste dlouho společně s miláčkem neudělali. Tak to dnes honem napravte.",
        "work": "Výherní los za pár drobných vás může docela příjemně překvapit. Sice to nevypadá na miliony, ale hezká částka to být může.",
        "relationships": "Do společnosti vás dnes nikdo nedostane. Se svými nejbližšími si den užijete doma v klidném prostředí a s dobrým jídlem.",
        "health": "Pozor na alergické reakce po štípnutí hmyzem. Neobvyklé projevy nechte raději ihned prohlédnout u nejbližšího lékaře.",
        "tips": "Oprava zahradního nábytku, čištění automobilu, servis jízdního kola, karetní hry, odpočinek u televize, odpolední spánek."
    },
    "cancer": {
        "main": "Neděle s sebou nese příjemné uvolnění ve všech oblastech života. Konečně začínáte být spokojení a je to na vás vidět. Je před vámi ještě dlouhá cesta, a tak se nesmíte nechat ukolébat dnešními drobnými úspěchy. Opět je vše pouze ve vašich rukách.",
        "love": "Sympatie mezi vámi a novým idolem mohou dnes nabírat na intenzitě. Nechte se nést emocemi a nic víc neplánujte.",
        "work": "Hoďte dnes všechny povinnosti, finanční záležitosti a domácí práce za hlavu. Neděli využijte k zaslouženému odpočinku.",
        "relationships": "Zkuste si dnes užít den lépe než včera a navrhněte doma nějaký zajímavý výlet. Nemusíte cestovat daleko, abyste se pobavili.",
        "health": "Pokud vás honí chuť na sladké, dejte přednost čerstvému ovoci. I z toho se dá připravit kvalitní a velmi dobrá zmrzlina.",
        "tips": "Sledování televizní soutěže, péče o domácí mazlíčky, turnaj v pokeru s kamarády, houbaření, návštěva zoologické zahrady."
    },
    "leo": {
        "main": "Není důvod, abyste si dělali velkou hlavu z toho, že jste nějaký ten pátek sami. Celkem takovou situaci uvítají především ti z vás, kteří si potřebují dát v hlavě do pořádku rozházené myšlenky. I společenskému znamení, jako jste vy, občasná samota pomůže.",
        "love": "Ti z vás, kteří se rozhodnou pro dočasnou samotu, toho určitě litovat nebudou. Někdy i vy potřebujete čas jen pro sebe.",
        "work": "Podvědomě tušíte, že vám finance utíkají pod rukama, a to celkem zbytečně. Dnes k takovým způsobům zaujmete jasné stanovisko.",
        "relationships": "Odpolední grilování s rodinou je dobrý nápad. Určitě se tak vyhnete přípravě večeře a ještě si dlouho společně posedíte.",
        "health": "Při výletech nezapomínejte na vhodné oblečení a obuv. Zajistíte si tak pohodlí a také ochranu před možnými výkyvy počasí.",
        "tips": "Kardio cvičení v přírodě, nákup sportovního oblečení, hra na hudební nástroj s dětmi, sestavení nového play listu."
    },
    "virgo": {
        "main": "Nebojte se přátelům představit svůj nový protějšek. Nemáte co ztratit, naopak. Váš nový partner je příjemně překvapí a nakonec vám všichni tento vztah schválí. I díky tomu, že se vám do tváře vrátil úsměv a působíte na své okolí šťastněji.",
        "love": "U přátel bude váš nový idol slavit úspěchy. Konečně budou spokojení s vaším výběrem, protože o vás měli obavy.",
        "work": "Odmítnout nežádoucí nabídky vám dnes rozhodně vadit nebude. Naopak se v tom můžete celkem vyžívat. Sami víte, co je správně.",
        "relationships": "Pokud máte zahrádku nebo alespoň terasu, jistě vám dnes udělá radost postarat se o své rostliny a sesbírat letní plody.",
        "health": "Nepřehánějte to s průmyslovými dochucovadly, pokud se chystáte grilovat. Raději si připravte domácí marinády a dipy.",
        "tips": "Sázení léčivých bylinek, četba historického románu, luštění křížovek, sledování vědomostní soutěže, deskové hry."
    },
    "libra": {
        "main": "Neděle je sice od slova nedělat, ale vám to dnes nebude vyhovovat. Naopak se chopíte domácích prací a uděláte vše pro to, abyste se zbavili restů z uplynulého týdne. Především to ale bude příprava na týden nový. Dopřejte si i část dne na čerstvém vzduchu.",
        "love": "Romantická procházka s novou láskou vás nabije emocemi nejen na dnešní den, ale i do nového týdne. Láska z vás sálá do okolí.",
        "work": "V krátkém čase jste dnes schopní doma udělat tolik práce, jako jste nestihli za celý týden. Vše vám půjde jako po másle.",
        "relationships": "Počasí vás určitě vyláká ven z domu. Nebraňte se lenošení u vody nebo volné procházce v přírodě. Určitě vynechte sport.",
        "health": "Studené nápoje vám mohou snadno přivodit angínu. V létě je to opravdu nepříjemná záležitost, která vyžaduje delší léčbu.",
        "tips": "Celodenní turnaj v šipkách, odpolední spánek, návštěva aquaparku, výroba domácího sýra, příprava bylinného odvaru."
    },
    "scorpio": {
        "main": "Jakmile si svůj protějšek začnete příliš přivlastňovat, může vyvstat problém. Kontrolujte více svou žárlivost a nedůvěru vůči partnerovi. Není důvod, proč byste si měli vytvářet katastrofické scénáře a zbytečně ničit nervy sobě i dotyčné osobě.",
        "love": "Pozor na návaly žárlivosti z vaší strany. Pamatujte na to, že nikoho nemůžete vlastnit a takto se láska druhému neprojevuje.",
        "work": "Neděli si nechte spíše jako odpočinkový den a snažte se nabrat síly. Odsuňte alespoň dnes myšlenky na úřední záležitosti.",
        "relationships": "Ani dnes nezahálejte doma a vydejte se za poznáním. Jistě máte vyhlédnuté památky, které jste ještě nenavštívili.",
        "health": "Jestliže se chystáte k vodě, nezapomeňte si vhodné ochranné prostředky a také malou zdravou svačinku. Jistě vám vyhládne.",
        "tips": "Houbaření, kontrola cestovních dokladů, příprava na rodinnou dovolenou, úklid domácnosti, mytí oken, návštěva festivalu."
    },
    "sagittarius": {
        "main": "Z postele dnes nemusíte vyskočit s prvním kuropěním. Naopak si trošku zalenošte a nikam se nehoňte. V příjemném rozpoložení můžete pokračovat i během dne. Opalování a koupání je jednou z možností, jak si dobít energii na další náročný týden.",
        "love": "Rozladění z chování některých přátel bude pokračovat i v neděli. Zkuste se přes to přenést s nadhledem a větším klidem.",
        "work": "Máte štěstí, že jste dostali do vínku chladnější uvažování. Nehrozí tak, že byste z nedostatku financí propadli panice.",
        "relationships": "Lenošení u vody je výborným nápadem. Jestliže bude dostatek sluníčka, nic vás ani vaše nejbližší doma neudrží.",
        "health": "Projížďka na kole nebo koloběžce je běžná forma pohybu. Nezapomínejte ale v žádném případě na ochranné prostředky.",
        "tips": "Rodinná oslava, komunikace s rodinou, projížďka na elektrokole, výroba domácího likéru, samosběr ovoce na farmě."
    },
    "capricorn": {
        "main": "Jste spíše introverti, a tak se není čemu divit, že si dnes chcete jít po svém. Potřebujete se dostat do pohody a utříbit si myšlenky. Rodina pro vás bude mít pochopení, ostatně jako vždy. Nechají vás naprosto v klidu, dokud to budete potřebovat.",
        "love": "Romantické rande, procházka přírodou nebo toulky po městě jsou možnými variantami, jak se dnes se svým miláčkem odreagovat.",
        "work": "V případě finančních potíží se neváhejte poradit s dobrým přítelem. Jistě společně najdete z nepříjemné situace východisko.",
        "relationships": "Měli byste si občas najít chvilku sami pro sebe. Rodina jistě pochopí, že potřebujete klid na utříbení neklidné mysli.",
        "health": "Příjemná hudba a oblíbené koníčky jsou dva způsoby, jak si dnes zlepšit den a zrelaxovat se do nového pracovního týdne.",
        "tips": "Vydatný spánek, kreativní psaní, rámování obrazů, výroba domácích dekorací, nákup nové domácí elektroniky a potřeb."
    },
    "aquarius": {
        "main": "Pocítíte potřebu věnovat se více svému protějšku. Pokud to jde, vyhraďte si čas jen pro vás dva. Nejlépe vám bude za dveřmi ložnice, kde se romantice a vášním meze klást nebudou. Navíc si můžete i otevřeně promluvit o tom, jak to bude s vámi dál.",
        "love": "Je čas na to, abyste s partnerem byli jen sami dva. Zařiďte se podle toho a užijte si spolu romantiku a vášeň.",
        "work": "Neinvestujte do zbytečností, které vás za pár dní omrzí. Zamyslete se spíše nad spořením pro vás nebo pro vaše děti.",
        "relationships": "Ani dnes nebudete mít klid a jste v jednom kole. Povinnosti vás doslova pohltí a vy budete rádi, když se večer zastavíte.",
        "health": "Meditační cvičení byste si měli osvojit. Zkuste si jich pár najít na internetu. Uvidíte, že vám budou prospěšné.",
        "tips": "Návštěva koupaliště, sledování sportovního přenosu, rybaření, nákup letního oblečení a obuvi, účast ve vědomostní soutěži."
    },
    "pisces": {
        "main": "Nedělní rodinný oběd si s klidem můžete nechat dovézt z vaší oblíbené restaurace. Můžete tak ušetřený čas věnovat příjemnější aktivitám, jako je třeba lenošení, opalování a koupání. Doma proti tomuto rozhodně nikdo nebude mít žádnou námitku.",
        "love": "I dnes byste měli svému protějšku dát najevo lásku a city, které k němu chováte. Stále máte spolu co napravovat.",
        "work": "Pokud se chystáte někam vycestovat, poohlédněte se po kvalitním cestovním pojištění. Raději si připlaťte, ať máte vše pokryté.",
        "relationships": "Neděli využijte k obědu s rodinou, lenošení s knihou a popíjení kávy nebo lahodného drinku. Zasloužíte si relax.",
        "health": "Opatrní buďte při výkyvech počasí. Nejen vhodné oblečení, ale také správné chování při bouřce vám může zachránit život.",
        "tips": "Návštěva příbuzných, táborák s dětmi, hra na hudební nástroje, zpěv, příprava domácí zmrzliny, odpolední relax s knihou."
    }
}