{
    "aries": {
        "main": "Den byste si měli pečlivě rozdělit mezi práci a osobní život. Je třeba, abyste si nastavili rovnováhu a nedávali přednost jen jedné oblasti života. Díky tomu pak můžete být více spokojení a podle toho se budete k ostatním také chovat.",
        "love": "Odpolední program si udělejte jen ve dvou. Není nutné, aby vás doprovázelo mnoho kamarádů. Máte si stále co říct.",
        "work": "Dávejte si pozor na to, co dnes řeknete šéfovi. Vaše slova si totiž může vyložit zcela jinak a konflikt bude na světě.",
        "relationships": "Vaše prostořekost se může přenést z práce domů. Otázkou je, zda i tam bude na vaše jízlivé poznámky někdo zvědavý.",
        "health": "Dodržujte pitný režim, který zabrání bolestem hlavy a špatné funkci ledvin. Přednost má čistá voda a minerálky.",
        "tips": "Nové pracovní projekty, piknik s přáteli na louce, venčení pejska, servis sportovního vybavení, návštěva wellness."
    },
    "taurus": {
        "main": "Komunikaci v osobních záležitostech se snažte odložit na jindy. I když na vás bude kdosi tlačit, stůjte si za svým. Rozhovory by se totiž mohly vymknout kontrole a vznikly by zbytečné rozbroje navíc. Věnujte svou energii nadále do pracovních záležitostí.",
        "love": "Ani dnes vám nebude tolik přáno v oblasti lásky. Nesmíte však řešit nastalou situaci hněvem, ke kterému nebude daleko.",
        "work": "Nadřízený si povšimne vaší snahy a dá vám to najevo. Pokud nepolevíte, můžete brzy očekávat příjemné odměny nebo postup.",
        "relationships": "Dnes se ani náhodou nepouštějte do rozhovorů s osobou, která je momentálně nazlobená. Skončilo by to naprostým fiaskem.",
        "health": "Hlava vás může bolet ze změny počasí, ale také od krční páteře. Vyzkoušejte rehabilitační cviky, které by vám mohly ulevit.",
        "tips": "Nákup sportovních potřeb, kontrola cestovních dokladů, práce se sociálními sítěmi, venčení a výcvik psa, kreativní práce."
    },
    "gemini": {
        "main": "Setkání s kamarády, ať už při sportu nebo v oblíbené hospůdce, vám jednoznačně zlepší náladu. Přijdete na jiné myšlenky a na práci můžete alespoň na chvíli zapomenout. Nepřehánějte to s konzumací alkoholu, zítra na vás opět čekají pracovní povinnosti.",
        "love": "Bez problémů se dnes můžete potkat s několika přáteli a příjemně se pobavit. Jistě máte spoustu aktivit, které vás spojují.",
        "work": "V zaměstnání dnes zaujmete vedoucí pozici. Kolegové proti tomu určitě nic mít nebudou. Umíte využít své i jejich schopnosti.",
        "relationships": "Rádi byste navštívili více kulturních akcí. Doma se poraďte, které můžete navštívit a jaké jsou pro to podmínky.",
        "health": "Kosti, zuby a nehty. To vše se dá velmi dobře podpořit vitaminy a potravinovými doplňky. Pokud vás něco trápí, víte, jak na to.",
        "tips": "Setkání s přáteli, úklid půdy, třídění knih a časopisů, fotografování zvířat a přírody, běh lesem, rybaření, koupání."
    },
    "cancer": {
        "main": "Nezadaní zřejmě dnes lásku úporně vyhledávat nebudou. Postačí vám dobří přátelé a jejich společnost. Aktivit na zábavu se najde jistě dost. Navíc i dnes toužíte spíše po nových poznatcích a zážitcích než po milostných hrátkách. Na ty brzy přijde ale také čas.",
        "love": "Místo toho, abyste hledali lásku, baví vás spíše přátelské a kamarádské vztahy. Dychtíte po poznávání, nikoliv po romantice.",
        "work": "Zajímavými myšlenkami doslova hýříte a není divu, že jimi dnes zaujmete svého šéfa. Máte velkou příležitost zazářit.",
        "relationships": "Nepodléhejte stresu, který se na vás doma valí. Raději situaci vnímejte s mírným odstupem a snažte se smýšlet optimisticky.",
        "health": "Věnujte pečlivou pozornost svému úsměvu. Bělost a lesk zubům vrátíte i domácí péčí. Poptejte se v lékárně na přípravky.",
        "tips": "Příprava nové pracovní prezentace, spolupráce s kolegy, třídění firemní pošty, nákup nového nábytku do domácnosti."
    },
    "leo": {
        "main": "Buďte více opatrní a hlídejte si soukromí. V okolí je jistá osoba, která vámi svěřené a dost důvěrné informace může cíleně předávat dál. To se samozřejmě může otočit proti vám a budete mít co dělat, abyste si napravili pověst mezi ostatními.",
        "love": "Dost dobře se vám nevede, co se milostných projevů týká. Jste jako slon v porcelánu a marně hledáte romantická slova.",
        "work": "Pozor, komu co a v jakých souvislostech v práci říkáte. Možná vám něco nechtěně ujede, ale následky mohou být katastrofální.",
        "relationships": "Lákat vás mohou sportovní aktivity, které tak trochu hraničí s rizikem. Dávejte si pozor, abyste si nepokazili zbytek léta.",
        "health": "Oteklé nohy mohou být zapříčiněny sedavým způsobem života, nedostatkem pohybu nebo zadržováním vody v těle. Věnujte jim péči.",
        "tips": "Nákup rybářských potřeb, minigolf s přáteli, koupání v řece, sledování oblíbené detektivky, telefonát s příbuznými."
    },
    "virgo": {
        "main": "Nový idol vás zřejmě překvapí svými povahovými rysy, o kterých jste zatím neměli tušení. Začnete si ho vážit mnohem víc než dosud. To s sebou ponese také větší milostné vzrušení a chuť se více sblížit. Dejte to patřičně najevo, bude to stát za to.",
        "love": "Na svém novém protějšku vás dnes mohou zaujmout vlastnosti, kterých jste si doposud nevšimli. Bude vás přitahovat ještě víc.",
        "work": "V zaměstnání mohou dnes zaúřadovat ve váš prospěch zkušenosti. Protože jste pracanti, máte jich více než ostatní kolegové.",
        "relationships": "Změnu interiéru v domácnosti máte sice již vymyšlenou, ale raději to ještě proberte s ostatními doma. Předejdete problémům.",
        "health": "Na sluníčku byste si měli chránit pleť vhodnými opalovacími prostředky. Nezapomínejte ani na oči a noste sluneční brýle.",
        "tips": "Hra na hudební nástroje, nákup letního oblečení, účast ve vědomostních soutěžích, výroba léčivých sirupů a likérů."
    },
    "libra": {
        "main": "Partner vás zásobuje opravdu zábavnými aktivitami a vám nebude dělat problém si vybrat některou z nich. Pokud máte děti, můžete je zapojit, ovšem tak, abyste neohrozili své i jejich zdraví. Navíc si můžete zahrát vědomostní hry a využít tak své znalosti.",
        "love": "S protějškem se jednoznačně shodnete na plánech pro dnešní den. Nic vám tedy nebrání realizovat vaše bláznivé nápady.",
        "work": "Den pro vás bude náročný, ale vy jej zvládnete na jedničku. Dokonce ani nikdo nepozná, že máte povinností nad hlavu.",
        "relationships": "Komunikace napříč rodinou je bez problémů. Není nic, co by vám dnes dělalo starosti, a můžete si užít hezký den.",
        "health": "Nakupte si domů nějaké nenáročné cvičební pomůcky. S nimi se můžete pustit do pravidelného pohybu a zlepšit si fyzičku.",
        "tips": "Výtvarné techniky, podvečerní táborák s dětmi, hra na hudební nástroje, péče o sportovní náčiní, servis domácího spotřebiče."
    },
    "scorpio": {
        "main": "Vaše změna v chování nezůstane bez povšimnutí. Okolí vnímá, že jste zmírnili rétoriku a na tváři se vám objevil úsměv. Proto se dnes v práci začnou dít změny, které jsou jen ku prospěchu celého týmu. Doma drahé polovičce také rozzáříte den.",
        "love": "Snažte se vymyslet nějaký originální program pro vás i vašeho miláčka. Připravte mu příjemné romantické odpoledne.",
        "work": "S kolegy si dnes užijete příjemný den v práci. Na společných úkolech se bude pracovat daleko jednodušeji díky spolupráci.",
        "relationships": "Blízká rodina vás příjemně překvapí a vy si uvědomíte, že se lze radovat z maličkostí a obyčejných dennodenní zážitků.",
        "health": "Běh v přírodě je skvělou formou, jak si po práci vyčistit hlavu. Do sluchátek si dejte oblíbenou hudbu nebo poslouchejte audioknihu.",
        "tips": "Výroba interiérových dekorací, práce se sociálními sítěmi, registrace na online seznamce, péče o pokožku těla, wellness."
    },
    "sagittarius": {
        "main": "Omezte poučování ostatních doma. Sice jste momentálně jako raketa a vše vám jde jedna báseň. To ale neznamená, že se musíte chovat povýšeně. Jděte doma svým blízkým příkladem v tom, jak umíte druhé podpořit a respektovat je i s jejich chybami.",
        "love": "Hlavu nosíte v oblacích, protože vás na schůzku dnes pozve atraktivní protějšek. Buďte však realisté a berte vše s rezervou.",
        "work": "Rozložte si úkoly tak, abyste mohli vše dělat v klidu. Tím se vyvarujete chyb a budete mít ze své snahy dobrý pocit.",
        "relationships": "Dávat někomu doma dnes kázání je zbytečné. Sami nejste perfektní, a tak nemáte jeden druhému co vyčítat. Je to jen stres.",
        "health": "Domácnost udržujte čistou, především jestliže máte domácí mazlíky. Je nutné předcházet zbytečnému vzniku alergií.",
        "tips": "Rehabilitační masáže, dechová cvičení, lekce tance podle internetu, výlet do letního kina, návštěva přírodního koupaliště."
    },
    "capricorn": {
        "main": "V milostných záležitostech se objeví trhliny. Jestli jste to ještě úplně nevzdali, tak se zkuste s partnerem dohodnout, jak vlastně pokračovat dál. Při troše dobré vůle najdete oboustranně výhodné kompromisy. Ještě na tom zkuste zapracovat.",
        "love": "Dojde vám, že cosi v partnerském vztahu chybí. Vyžaduje to aktivitu vás obou. Je třeba, abyste si o tom znovu promluvili.",
        "work": "Chce to lepší plánování všech povinností. Skáčete z jedné věci na druhou a to je v podstatě pro vás to nejhorší.",
        "relationships": "Buďte více otevření a společenští. Rodina vycítí vaši odtažitost a neví, na čem s vámi jsou. Vytvářejí si špatné domněnky.",
        "health": "Plavání je přirozená forma pohybu, která ulevuje namoženému tělu a formuje postavu. Chce to ale pravidelnou návštěvu bazénu.",
        "tips": "Rybaření, surfing, minigolf, příprava vegetariánského oběda, výlet do botanické zahrady, péče o mladší sourozence."
    },
    "aquarius": {
        "main": "Ani dnes nebudete mít jednoduchý den. Hromadí se ve vás frustrace ze všeho, co se vám nedaří. A to se projeví v komunikaci směrem k vašemu okolí. Zachovejte klid, ale nenechte se stále využívat. Pomohly by vám lekce asertivity. Zamyslete se nad tím.",
        "love": "Vnitřně se hodně trápíte tím, že to mezi vámi a protějškem momentálně neklape. Musíte ale zachovat klid a nedělat paniku.",
        "work": "Povýšenost a uraženost není vhodná komunikační technika směrem k nadřízeným. Kvality máte, ale je nutné být pokornější.",
        "relationships": "Dojde vám trpělivost s nějakými povinnostmi, které vykonáváte pouze vy. Nechte ostatní, aby se také snažili a odpočívejte.",
        "health": "Opatrní buďte při manipulaci s nejrůznějšími chemikáliemi nebo nátěrovými látkami. Můžete se snadno nadýchat zplodin.",
        "tips": "Příprava na letní dovolenou, nákup kosmetiky, sledování televizní soutěže, hra na pc, grilování se sousedy, procházka."
    },
    "pisces": {
        "main": "Strhne vás možná nepříjemná nálada ve společnosti, možná vaše osobní pochyby. Každopádně byste se měli co nejdříve vzpamatovat. Smutky a deprese totiž snižují obranyschopnost vašeho organismu. Jistě najdete ve svém životě také důležitá pozitiva.",
        "love": "Děláte si negativní představy o tom, kam v mezilidských vztazích směřujete. Dovede vás to k nečekanému splínu.",
        "work": "Chuť na sobě pracovat pramení z toho, že doma vládne špatná nálada a vy potřebujete zaměstnat hlavu něčím jiným.",
        "relationships": "Po konverzaci s někým doma máte hlavu plnou nesmyslných informací. Využijte počasí a jděte se projít nebo si zasportovat.",
        "health": "Poslechem oblíbené hudby a relaxací na gauči si můžete skvěle odpočinout po náročném pracovním dni. Stačí jen chvilka.",
        "tips": "Nákup společenských her, sportovní aktivity v přírodě, houbaření, skladování ovoce a zeleniny, zahradnické práce."
    }
}