{
    "aries": {
        "main": "Pondělí pro vás bude příjemné. Nebojte se tedy toho, že by se některé situace mohly vymknout kontrole. Naopak byste se měli nechat nést přirozeně dnem a nic násilím neměnit. Občas i vy musíte svou snahu upozadit a nechat aktivitu na ostatních.",
        "love": "Vaše drahá polovička vás plánuje něčím příjemným překvapit. Ať už to bude malý dárek, nebo romantická večeře při svíčkách.",
        "work": "Věříte si a to je dobře. Víte, že jste v práci schopní překonat nejrůznější překážky. Dnešek vám odhalí ta nejlepší řešení.",
        "relationships": "Doma se vám budou věnovat více než jindy. Nebojte se požádat o pomoc, ruku k dílu ochotně přiloží všichni v domácnosti.",
        "health": "Snažte se konzumovat co nejvíce čerstvého ovoce a zeleniny. Jsou plné vitaminu C, který tělo potřebuje bez debat.",
        "tips": "Nové pracovní projekty, návštěva muzea, studium cizího jazyka, účast ve vědomostní soutěži, kreativní psaní, blogování."
    },
    "taurus": {
        "main": "Umíte si velmi dobře poradit v práci se všemi nástrahami a zvládáte je s přehledem. To samé byste měli uplatnit v partnerském vztahu. Není nutné tlačit na pilu a vše komunikovat křikem. Při troše dobré vůle najdete východisko z problémů klidnou cestou.",
        "love": "Stále si musíte dávat pozor na nečekané výbuchy vzteku, které s vámi cloumají. V partnerském vztahu to může uškodit nejvíce.",
        "work": "Dobrými nápady oplýváte. Není důvod si je nechávat pro sebe, někde v šuplíku. Představte je nadřízenému ještě dnes.",
        "relationships": "S trochou dobré vůle se vám doma bude dařit komunikace. Pomohou vám v tom ostatní, kteří se situaci přizpůsobí.",
        "health": "Péče o pokožku těla zahrnuje kromě jiného i masáže. Vyberte si takové, které vám uleví i na duši, je to třeba.",
        "tips": "Projížďka na elektrokole, slunění, stanování, nákup sportovní obuvi, úklid domácí dílny nebo garáže, příprava rodinné večeře."
    },
    "gemini": {
        "main": "Náladu vám trochu pokazí nadřízení v práci. Je jisté, že i přes vaši neustálou snahu se na vás nedostává s odměnami. Nejraději byste bouchli pěstí do stolu a vše si vyříkali. Ale tušíte, že dnes na to není ještě ten správný čas. Vaše chvíle teprve přijde.",
        "love": "Rádi byste podnikli něco neobvyklého. Je otázka, zda váš protějšek stojí o ty samé zážitky jako vy. Chce to kompromis.",
        "work": "Mohou se vyskytnout problémy s tím, že vaši nadřízení jsou laxní ve vyplácení odměn. Neberte to prozatím tak vážně.",
        "relationships": "Jistý člen rodiny vám může vyčítat nezájem o dění v rodině. Musíte mu vysvětlit o co jde. Máte totiž své důvody.",
        "health": "Zařaďte do jídelníčku více ovoce a zeleniny, které obsahují hodně vody. Jsou skvělým doplňkem do pitného režimu.",
        "tips": "IT školení, návštěva aquaparku, nové exotické recepty, setkání se sousedy, třídění soukromé korespondence, psaní kuchařky."
    },
    "cancer": {
        "main": "Spokojenost by vám přinesl fungující partnerský vztah nebo rodinný život. Nesmíte zůstat na jednom místě a přijmout jen to, co se vám nabízí. Jděte si za svými touhami a cíli. V těchto dnes je velmi platná vizualizace. Představivosti se meze nekladou.",
        "love": "Hodně věcí se ve vašem milostném životě změnilo, ale změny pokračují i nadále. Touha po naplnění je silnější než vy.",
        "work": "Máte na to, abyste v zaměstnání excelovali. Nevzdávejte snahu, brzy se vám dostane odměny. Buď ve formě odměn nebo povýšení.",
        "relationships": "Moc radosti si doma neužíváte, ale lepší bude to nedávat tolik najevo. Nejste zřejmě jediní, komu něco v rodině vadí.",
        "health": "Fyzickým pohybem se dnes kromě sportu může rozumět také větší úklid domácnosti. Chopte se čisticích prostředků.",
        "tips": "Nové obchodní projekty, komunikace s klienty, káva s kolegy v parku, vegetariánská strava, plánování víkendu s rodinou."
    },
    "leo": {
        "main": "Na pořadu dne bude zklidnění na všech frontách. Upřednostněte chladnější uvažování. Nic není tak horké a máte zatím čas na řešení všech věcí, které vás trápí. Nemusíte se přetvařovat, ale neslibujte nikomu něco, co nemůžete splnit. Hlavně sami sobě.",
        "love": "Budete rádi, když se mezi vámi a protějškem ušetříte her, které nikam nevedou. Alespoň pro vás. Máte rádi přímé jednání.",
        "work": "Určité pracovní povinnosti jsou na hranici vašich možností. Zatím to na sobě nedávejte příliš znát a snažte se.",
        "relationships": "Přestaňte se dohadovat s někým, s kým není kloudná řeč. Je to bohužel stále jedno a to samé. Ničemu nepomůžete.",
        "health": "Ani v létě se nemusíte bát zahájit lehkou dietu. Naopak máte mnoho možností, jak si upravit jídelníček zcela přirozeně.",
        "tips": "Pěstování léčivých bylinek, výroba domácího likéru, práce se sociálními sítěmi, nové koníčky, vědomostní soutěže s dětmi."
    },
    "virgo": {
        "main": "Je jen na vás, jak využijete konstelace současných dní, potažmo energie dnešního dne. Víte moc dobře, že máte na víc. Pokud tedy máte tajné kariérní sny, které jsou stále nenaplněné, neváhejte pokračovat v jejich naplnění. Začněte s tím už dnes.",
        "love": "Na vašem partnerovi vás opět a zase překvapí jeho vyspělost. Dokáže vám dnes, že se můžete o jeho osobu opřít.",
        "work": "Nacházíte se v situaci, kdy se můžete posunout dále. Záleží na vás, zda chcete. Určitě stojí za to se o to alespoň pokusit.",
        "relationships": "Vaše myšlenky a nápady mohou dnes mířit jiným směrem, než je obvyklé. Rodina pravděpodobně neví, jak na to reagovat.",
        "health": "Plánované lékařské zákroky neodkládejte na pozdější dobu, nemusely by se uskutečnit. Navíc je na ně dobrý čas.",
        "tips": "Celodenní horská túra, návštěva sportovního parku s dětmi, jízda na bobové dráze, projížďka výletní lodí za město."
    },
    "libra": {
        "main": "Víte, že nemusíte s druhými souhlasit, ale také to neznamená, že se okamžitě rozkmotříte. To samé se vám může stát dnes doma s vaším protějškem. To, že má trochu odlišné názory, není nic, co byste museli radikálně řešit. Jste silné osobnosti oba dva.",
        "love": "Rozumíte si s protějškem v mnoha životních oblastech. Nemusíte si dělat hlavu z toho, že malé odlišnosti váš vztah zničí.",
        "work": "Neděste se toho, že pokud se pustíte do riskantních postupů v práci, budete neúspěšní. Pád vám určitě nehrozí.",
        "relationships": "Neplýtvejte svými silami na věci, které nemůžete ovlivnit. Veškerá řešení a snahy přenechejte ostatním příbuzným.",
        "health": "Návštěva dentální hygieny a zubaře je nutná. Snažte se dodržet správnou péči o chrup, ať později neřešíte problémy.",
        "tips": "Odpočinek ve wellness centru, aromatické masáže, manikúra, pedikúra, poslech oblíbené audioknihy, venčení psa s přáteli."
    },
    "scorpio": {
        "main": "Od ostatních dnes očekáváte, že své povinnosti budou plnit naplno, ale sami se do práce moc nehrnete. Bohužel je to dost průhledná taktika a nevyplatí se vám. Raději se seberte a s ostatními se o práci podělte nebo alespoň ochotněji spolupracujte.",
        "love": "Nátlakem na druhé ničeho nedosáhnete. Jen tak můžete ale přijít o vzácné kamarády, přátele, nebo dokonce partnera.",
        "work": "Tím, že se rozhodnete v důležitých věcech nespolupracovat s ostatními, ničeho nedosáhnete. Budete ostatním jen trnem v oku.",
        "relationships": "Oplýváte silami, ale doma se vám do povinností moc nechce. Ostatní vám to ale dají najevo a vám nezbude než se přizpůsobit.",
        "health": "Upravené ruce jsou vizitkou všech. Základní manikúru zvládnete s přehledem v pohodlí domova. Stačí správné přípravky.",
        "tips": "Účast ve vědomostní soutěži, nové exotické recepty, tvorba rodinné kuchařky, návštěva příbuzných, četba cizojazyčných knih."
    },
    "sagittarius": {
        "main": "Pocítíte lehký stres již od počátku týdne. Nenechte se tím příliš ovlivnit. Bude fajn, když udržíte zdravou rovnováhu ve všem. Není třeba, abyste hned propadali panice, ale také neházejte vše za hlavu. Zodpovědný přístup k životu je prostě nezbytný.",
        "love": "To, že se nový objev začíná chovat podivně, se vám vůbec nelíbí. Je načase zjistit, co se s dotyčnou osobou děje.",
        "work": "Snažte se nepodlehnout nátlaku okolí a své povinnosti si plňte tak, jak jste zvyklí. Jinak naděláte mnoho zbytečných chyb.",
        "relationships": "Bude třeba doma probrat jistou situaci, na kterou se různí v domácnosti názory. Chce to klid a vstřícný kompromis.",
        "health": "Jestliže máte chuť si změnit vizáž, dejte se do toho. Svěřte se ale do rukou odborníkům, sami raději nic nedělejte.",
        "tips": "Samostudium, úprava životopisu, kontrola plateb za domácnost, nákup letního oblečení a obuvi, fotografování v přírodě."
    },
    "capricorn": {
        "main": "Naučte se eliminovat vaši přirozenou podezíravost a obavy z toho, že neuspějete. Zbytečně si sami sobě přiděláváte stres. Dnes můžete s novým přístupem hned začít, a to v té nejdůležitější oblasti života, což je láska. Otevřete srdce novým šancím.",
        "love": "Hrnou se k vám romantické nabídky. Pokud jste single, věnujte tomu pozornost. Mezi kontakty může být jeden velmi zajímavý.",
        "work": "Máte ve zvyku být podezíraví a vytvářet si domněnky předem. Bohužel se tím zbytečně nervujete, stejně jako dnes.",
        "relationships": "Budete se muset naučit se také o své domácí povinnosti dělit s ostatním. Jinak se udřete. Začněte s tím již dneska.",
        "health": "Běh lesem vás skvěle unaví, ale také vám vyčistí hlavu. Do sluchátek to bude chtít motivační nebo rychlou hudbu.",
        "tips": "Pěstování bonsají, vodní sporty s přáteli, plánování letní dovolené pod stanem, servis automobilu, procházka lesem."
    },
    "aquarius": {
        "main": "Seberte odvahu a přijměte všechny problémy v práci se vztyčenou hlavou. Je nutné, abyste udělali vše pro jejich vyřešení. I když by měl být dnešní den nepříjemný, dá se to zvládnout. Máte dost sil, chce to pouze se koncentrovat na to důležité.",
        "love": "Pořád ve vás zůstává nepříjemný pocit, že partner si jede po svém. Možná byste mu měli dát ochutnat jeho vlastní medicínu.",
        "work": "Bude nutné, abyste se postavili čelem k problémům, které vyvstaly v zaměstnání. Tvářit se, že se nic neděje, znamená problém.",
        "relationships": "Tíhu všech rodinných starostí jako byste nesli na svých ramenou jen vy. Musíte si udělat v rodině pořádek a rozdělit práci.",
        "health": "Pokud to počasí dovolí, vyrazte se vykoupat k vodě. Stačí, když to bude i oblíbený vodní tok, nemusíte na koupaliště.",
        "tips": "Návštěva u sourozenců, plánování rodinných oslav, nákup v hobby marketu, příprava exotického pokrmu, sestavení playlistu."
    },
    "pisces": {
        "main": "Týden nezačíná dobře v soukromém životě, ale co se týká práce, je to úplně naopak. Tak využijte na maximum toho, co dobrého vám nyní hvězdy přinášejí. Ostatní zatím nechte být, čas na vyřešení problémů přijde. Chce to zajistit alespoň jednu rovinu života.",
        "love": "Rozhodně se nedá říct, že byste prožívali ve vztazích to nejlepší období. Ani dnešek nepřinese žádnou velkou úlevu.",
        "work": "Dobře by se vám mohlo dařit v pracovní oblasti. Záleží na tom, zda zvednete hozenou rukavici a přijmete novou práci.",
        "relationships": "Máte velká očekávání od druhé poloviny prázdnin. Je třeba si vše ale dobře naplánovat, ať nejste ve výsledku zklamaní.",
        "health": "Do těla se vám při pobytu na sluníčku dostává tolik potřebný vitamin D. Udržuje v pořádku vaše kosti a psychiku.",
        "tips": "Karetní hry s přáteli, minigolf, plánování tuzemské dovolené s rodinou, telefonát s rodiči, nákup kempingových potřeb."
    }
}