{
    "aries": {
        "main": "Dobře vám to půjde v práci. Dokonce se odvážíte některé ze svých dobrých nápadů převést do praxe. Nebojte se zaimprovizovat a projevit svou fantazii. Je možné, že přinesete firmě pokrokové postupy, které se mohou opravdu osvědčit do budoucna.",
        "love": "Akční přátelé vám vyhovují. Potřebujete kolem sebe lidi plné energie. Dnes si užijte něco nového, třeba ze sportu.",
        "work": "Vaše plány se vám pomalu, ale jistě daří plnit. Navíc máte skvělou intuici, a tak si můžete dovolit více riskovat.",
        "relationships": "Nenechte se ovlivnit názory příbuzných, se kterými se tak často nevídáte. Neznají vaše rodinné poměry a jsou na omylu.",
        "health": "Nezapomínejte na správný pitný režim. Šálek kávy doplňte alespoň malou sklenkou čisté vody nebo kvalitní minerálky.",
        "tips": "Kolektivní sporty s přáteli, opalování se, rybaření, plánování kratší dovolené, grilování s rodinou, četba románů."
    },
    "taurus": {
        "main": "Dnes se vám nepovede v mezilidských vztazích zrovna dobře. Díky jistým náznakům ale konečně pochopíte, že jisté situace musíte řešit více v klidu. Emoce běžně tak mocně neprojevujete, ale okolnosti vás nenechávají klidnými. Zkuste se vrátit do své polohy.",
        "love": "Dejte volný průchod záležitostem, které nemůžete dnes vyřešit. Lépe bude počkat si na vhodnější chvíli k rozhovorům.",
        "work": "Je znát, že vám na vaší kariéře záleží a nejste líní. Především se to pozná na vašich výsledcích. Pracujte na sobě i nadále.",
        "relationships": "Využijte toho, že to doma trochu funguje, a poddejte se atmosféře. Výbojné komentáře si tentokrát intuitivně odpustíte.",
        "health": "Do stravy si zařaďte více zelených čerstvých bylinek. Spolehlivě nahradí koření a navíc jimi krásně ozdobíte jakékoliv jídlo.",
        "tips": "Studium nového cizího jazyka, rekvalifikační kurz, práce se sociálními sítěmi, posezení s přáteli v oblíbené hospůdce."
    },
    "gemini": {
        "main": "Jste rozpolcení, jak se na správné Blížence patří. Vám to ale nepřináší dnes žádný pozitivní pocit. Naopak byste rádi měli své jisté. Budete se muset snažit sami a vyhledat si takovou činnost, která vás naplní uspokojením. Nikdo jiný to za vás neudělá.",
        "love": "Svůj čas byste měli věnovat těm lidem, se kterými vás pojí stejné záměry. Proto se vyhněte všemu, do čeho byste se nutili.",
        "work": "Stále ve vás rezonuje to, že se vám nedostává ocenění vašich pracovních schopností. Dejte tomu pár dní času, vše se vyjasní.",
        "relationships": "Nejraději byste trávili čas mimo domov. A nejlépe o samotě. Ale to není to pravé. Jste součástí rodiny, tak na to pamatujte.",
        "health": "Bolesti hlavy vám způsobí přílišné koukání do počítače nebo mobilního telefonu. Dejte si alespoň na část dne s tímto pauzu.",
        "tips": "Poslech oblíbené audioknihy, venčení psa s přáteli, návštěva divadla, kontrola cestovních dokladů a zavazadel."
    },
    "cancer": {
        "main": "Jestliže máte vedle sebe někoho, kdo by s vámi rád trávil více času, neodmítejte ho. Je škoda se připravit o něco tak hezkého. Dodejte si sebevědomí a jděte do toho. Zadaným dnes osud připravil zkoušku. Musíte dát dohromady rozkmotřené příbuzné.",
        "love": "Své city neskrývejte. Pokud máte v blízkosti někoho, kdo je vám je schopen opětovat, využijte toho na maximum.",
        "work": "Co si umanete, toho dosáhnete. U vás je výhoda to, že je to vždy po dobrém a bez nepříjemností. Jste zkrátka dobří diplomaté.",
        "relationships": "Nepropadejte obavám, že události v rodině zůstanou nevyřešené. Doba na vyjasnění ještě přijde, jen to není dnes.",
        "health": "Pozor na adrenalinové sporty. Nenechte se vyprovokovat k riskantním pohybům, které by vás mohly stát zdraví. Hrozí úrazy.",
        "tips": "Třídění rodinných fotografií, venčení a výcvik pejska, kontrola úředních dokumentů, sledování sportovního klání, badminton."
    },
    "leo": {
        "main": "Držte se i dnes svých zásad a jednejte upřímně. V budoucnu oceníte, že jste nesešli z cesty. Raději si mysl občerstvěte procházkou s rodinkou na místa, která máte v oblibě. Doplnit energii můžete v oblíbené hospůdce dobrým jídlem nebo nápoji.",
        "love": "Pokud hledáte partnera do života, určitě vyhlížíte člověka rovného a s pevnými zásadami. Ostatní vám připadá pod úroveň.",
        "work": "Váš nadřízený si dnes nebude brát servítky. Víte, že vaše pracovní výkonnost je na hraně. Ovšem ustojíte to se ctí.",
        "relationships": "Prospěje vám procházka s rodinou nebo přáteli po místech, která máte rádi, a na která máte vzpomínky. Udělá vám to radost.",
        "health": "Lymfatický systém lze nastartovat vhodnými masážemi. Ty by měl ale provádět zkušený masér. Objednejte se hned, jak to půjde.",
        "tips": "Celodenní pobyt na koupališti, vodní radovánky, servis sportovního náčiní, setkání s přáteli, vegetariánské pokrmy."
    },
    "virgo": {
        "main": "Hvězdy vám do dlouhodobého vztahu přinášejí oživení. Zapátrejte v paměti, jistě totiž máte proč. Vzrušení a zamilovanost ze začátku vašeho vztahu by se mohla hodit. Dojde vám, proč jste s partnerem spolu a proč stojí za to být spolu i nadále.",
        "love": "V dlouhodobém vztahu může dnes mezi vámi opět přeskočit jiskra. Zavzpomínejte na vzrušující doby, kdy jste se seznámili.",
        "work": "Pokud zůstanete stát na místě a neuděláte nic pro své sny, budete si to vyčítat. Zamyslete se nad tím, kde chcete být za rok.",
        "relationships": "Informace, které jste nasbírali v nějaké oblasti by neměly zůstávat jen u vás. Podělte se o ně alespoň se svými dětmi.",
        "health": "Masírujte si unavené nohy a oteklé kotníky bylinnými a chladivými gely. Také pomůže osvěžující koupel a otužování.",
        "tips": "Kreativní psaní, výtvarné techniky, nákup modelářských potřeb, paddleboarding, kardio cvičení v přírodě, grilování."
    },
    "libra": {
        "main": "Přišel čas na to, abyste si hlavu vyčistili také nějakou svojí zálibou. Pokud se někdo z rodiny bude chtít přidat, nebraňte mu. Jinak se ale nenechte odradit a vyhraďte si na to alespoň část dne. Uvidíte, že téměř okamžitě přijdete na jiné myšlenky.",
        "love": "Ať už máte názory jakékoliv, s partnerem se dokážete nakonec dohodnout na kompromisu. To je to pravé partnerství.",
        "work": "Obdiv ostatních kolegů si získáte svým neortodoxním přístupem k řešení jistých projektů. Je vidět, že si v oboru věříte.",
        "relationships": "Zaměřte se na kreativní činnosti, které mohou přinést radost nejen vám, ale i ostatním doma. Výroba dekorací je dobrý příklad.",
        "health": "vhodné přípravky a pomůcky pro péči o zoubky potřebují také vaše děti. Je nutné do nich ale také pořádně zainvestovat.",
        "tips": "Úprava životopisu, hledání nové letní brigády, vzdělávání se v oboru, vaření vegetariánských jídel, venčení psa s přáteli."
    },
    "scorpio": {
        "main": "Pomůže vám rada někoho z příbuzných, kteří si již své v životě odžili. Získáte odstup a náhled na vaši životní situaci bude najednou jiný. Dnes se podle toho řiďte. Zkuste si tento pocit zapamatovat co nejdéle, určitě se vám to bude ještě hodit.",
        "love": "Zkuste se více vcítit do situace vašeho protějšku. Stále totiž bojuje s vaší tvrdohlavostí. Možná mu už ale docházejí síly.",
        "work": "Bude fajn, když se dnes také zamyslíte nad tím, že některé vaše kroky v pracovních záležitostech nejsou zrovna správné.",
        "relationships": "Zpětnou vazbu na nepříjemnosti v profesním životě vám dá kdosi ze starších příbuzných. Měli byste mu dobře naslouchat.",
        "health": "Dietní jídelníček si nastavíte sami a bez nutnosti odborné rady. Tedy pokud zápasíte jen s několika málo kily navíc.",
        "tips": "Ruční mytí automobilu, návštěva technického muzea, výlet do zoologické zahrady, fotografování, práce se sociálními sítěmi."
    },
    "sagittarius": {
        "main": "Vše má své meze a vám tak dojde, že v určitých situacích ze sebe děláte blázna. Je načase, abyste si zjednali respekt u dotyčné osoby. Nemusí to jít ale hned násilím, stačí asertivní prohlášení, za kterým si budete důsledně stát. Nebojte se toho.",
        "love": "Uvědomte si, že nikdo nestojí za to, abyste se ponižovali. Jste silné osobnosti, které se svého vysněného vztahu dočkají.",
        "work": "Sice pracujete na maximum, ale na vaší výplatní pásce to vidět stále není. Nejlepší bude se zeptat nadřízených, kde je chyba.",
        "relationships": "Zdlouhavé konverzace vás nebaví. Nejraději byste, aby šlo všechno podle vás bez debat. Bohužel to tak fungovat nebude.",
        "health": "I ostrá chůze terénem je výborná forma pohybu. Pomoci si můžete nordic walking hůlkami. Udrží vás v tempu a správném pohybu.",
        "tips": "Četba odborné literatury, týmová spolupráce s kolegy, romantická večeře ve dvou, plánování víkendu ve wellness centru."
    },
    "capricorn": {
        "main": "Překážky si vytváříte hlavě sami v sobě. Jakmile přestanete brát vše tak smrtelně vážně, zjistíte, že věci jsou možná trochu jiné, než jak jste je doposud vnímali. Jděte naproti příležitostem, které se před vámi objeví. Uvidíte, že živote je vlastně fajn.",
        "love": "Planeta Venuše je v příznivé konstelaci. Získat můžete nové přátele nebo kamarády, kteří jsou přesně podle vašeho gusta.",
        "work": "Atmosféra na pracovišti je dnes podstatně lepší a vám tak spadne kámen ze srdce. Díky tomu se lépe soustředíte.",
        "relationships": "Aby vaše domácnost běžela jak po drátkách, je nutné, aby se do chodu zapojili všichni. Práci rozdělte spravedlivě, ale všem.",
        "health": "Plaváním si zpevňujete postavu a také rehabilitujete namožené či nemocné klouby. Dopřejte si tuto formu pohybu.",
        "tips": "Registrace na online seznamce, večeře s přáteli ve městě, vědomostní hry s rodinou, sledování oblíbeného filmu, procházka."
    },
    "aquarius": {
        "main": "Nastavení pracovního harmonogramu na další dny je přesně to, co potřebujete. Máte problém udržet myšlenky pohromadě a snadno můžete zapomenout na důležité povinnosti. Síly vám berou také problémy v partnerském vztahu, kam často dnes budete v mysli utíkat.",
        "love": "Nemá cenu druhého nutit do věcí, které mu nevyhovují. Jděte si dnes po svém programu a partnera nechte jeho vlastnímu osudu.",
        "work": "Berte vážně slova nadřízených. Možná vám jen prozatím mezi řádky dávají najevo, že jsou vaším přístupem k práci zklamaní.",
        "relationships": "Trpělivosti vám na domov moc nezbývá. Máte toho totiž dost v práci a stres si přenášíte jednoduše do domácího prostředí.",
        "health": "Ovocné nebo zeleninové smoothie z čerstvých surovin skvěle doplní bylinky a rostlinné mléko. Naučte to konzumovat i vaše děti.",
        "tips": "Hledání nové práce, úprava životopisu, rekvalifikační kurzy, nákup kancelářských potřeb, setkání s rodiči, domácí karaoke."
    },
    "pisces": {
        "main": "Zaměřte svou snahu na další osobnostní rozvoj. Hodit by se vám to mělo hlavně v práci. Pokud to půjde, zajistěte si nový rekvalifikační kurz, studium nového cizího jazyka nebo IT školení. Do budoucna vám to pomůže v posunu za lepším místem i platem.",
        "love": "Události mezi vámi a protějškem vás nutí dělat si katastrofické scénáře. Panikařením ale ničeho nedosáhnete. Chce to klid.",
        "work": "Kariérní růst můžete ještě podpořit dalším vzděláváním. Samostudium je dobrou variantou, jak si rozšířit obzory.",
        "relationships": "Vyvarujte se prozatím inovativním nápadům, o které stojíte jen vy. Doma byste se mohli setkat s naprostým nepochopením.",
        "health": "Pitný režim není jen o vodě. Také si můžete tekutiny doplnit polévkami a ovocem či zeleninou s vysokým obsahem vody.",
        "tips": "Sestavení nového playlistu, registrace na online seznamce, péče o starší příbuzné, zajištění rodinné dovolené u moře."
    }
}