{
    "aries": {
        "main": "Nový měsíc začínáte tím, že jste opět ve své kůži. Tedy paličatí, neústupní a občas i dost otravní. Tak pomalu začněte brzdit, jinak opět pojedete ve stejných kolejích, i když jste si dali jiná předsevzetí. Pomůže vám čas o samotě a rozjímání.",
        "love": "I trpělivost má své meze. U znamení jako je to vaše, to platí extra. Naštvat se dnes můžete na svůj protějšek, než mrkne.",
        "work": "Jdete často hlavou proti zdi, názory ostatních nemají žádnou váhu. Dnešek je toho zářným příkladem. Vnímejte, co je kolem vás.",
        "relationships": "Doma to nestojí za moc a velký podíl na tom bude mít i vaše podrážděná nálada. Nesmíte si na bližních vybíjet zlost.",
        "health": "Je třeba, abyste sportovali pravidelně, a ne jen jednou za čas. Naučte se zodpovědnosti vůči vlastnímu tělu a zdraví.",
        "tips": "Nové obchodní kontakty, nákup nového oblečení na jaro, návštěva kadeřnictví, thajské masáže, studium aromaterapie."
    },
    "taurus": {
        "main": "Rádi byste ihned vykřičeli do světa své nové milostné zážitky. Jste však příliš pohlceni emocemi a může se stát, že vaše vyjadřování a sdělení budou až moc konkrétní. Pozor na to, mohli byste tím zranit partnerovu důvěru a zadělat si na problémy ve vztahu.",
        "love": "Toužíte se svým přátelům pochlubit se svými zážitky z milostné oblasti. Musíte si ale dobře rozmyslet, co vše prozradíte.",
        "work": "Velké pracovní nasazení začíná přinášet své první výsledky. To vás motivuje ještě k větším výkonům, které budou stát za to.",
        "relationships": "Chladné počasí vám nezabrání v tom, abyste si dnes vyrazili za sportem. Přiberte s sebou zbytek domácnosti, bude to zábava.",
        "health": "Hlavu pomůže vyčistit jakákoliv meditační technika. Patří mezi ně také výtvarné umění nebo hudba. Volte to, co vás baví.",
        "tips": "Hra na hudební nástroje s přáteli, založení hudební skupiny, rekvalifikační kurz v oboru, výroba koláží z fotek."
    },
    "gemini": {
        "main": "V práci to dnes bude opravdu drama. Nadřízenému se příliš nelíbí vaše sebedůvěra, se kterou se vrháte do náročných projektů. Vy sice svým schopnostem věříte, ale on už méně. Nechte ho při tom, a chopte se něčeho lehčího. Později se ukáže, kdo měl pravdu.",
        "love": "Zaskočit vás může chování vašeho nového protějšku. Je značně odlišné od toho, jak se choval zpočátku vaší známosti.",
        "work": "Podle vašeho nadřízeného jen přeceňujete své síly. Má strach, že se holedbáte zkušenostmi, které vůbec nemáte.",
        "relationships": "Doma si o vás dnes budou myslet, že jste dětinští. Na vině může být vaše nové hobby, kterému jste naprosto propadli.",
        "health": "Měli byste se dát po náročném začátku roku opět do pořádku. A to jak po fyzické, tak po psychické stránce. Začněte znovu žít.",
        "tips": "Nákup cizojazyčné odborné literatury, venčení psa, zkoušení exotických receptů, sledování detektivního seriálu."
    },
    "cancer": {
        "main": "Doma se od partnera dočkáte kritiky a nepříliš empatického jednání. Máte pocit, že si s vámi pouze zahrává a nemyslí to s vaším vztahem vážné. Ruku na srdce, nejste trochu vztahovační? Podívejte se na váš vztah s odstupem. Zjistíte, že nejste bez viny.",
        "love": "Zadaní z vašeho znamení se mohou setkat s nepříjemnými situacemi ve vztahu. Váš partner se projevuje hodně kriticky vůči vám.",
        "work": "V práci to nebude procházka růžovým sadem. Od počátku nového měsíce v sobě budete dusit jistou dávku nespokojenosti.",
        "relationships": "Delší dobu se u vás doma odehrávají náročné situace. Vám už ale docházejí síly. Požádejte příbuzné o pomoc nebo radu.",
        "health": "Mírné otužování vám opravdu neublíží. Naučte se střídat teplou a studenou sprchu, prokrvíte tím pokožku a probudíte se.",
        "tips": "Studium kaligrafie, psaní milostných dopisů partnerovi, výroba interiérových dekorací z keramiky, telefonát s příbuznými."
    },
    "leo": {
        "main": "V zaměstnání marně hledáte nové nápady a inspiraci. Zasekli jste se v jednom bodě a nejste schopní se posunout dál. Bude třeba rady od staršího, zkušenějšího kolegy. Požádejte si o ni včas a nestyďte se. V takové situaci se totiž ocitl skoro každý.",
        "love": "Nezadané jedince z vás rozhodně dlouhodobý vztah momentálně neláká. Dnešek věnujte spíše sobě a svým kamarádům.",
        "work": "Schází vám dostatek inspirace. To je pro vás docela zásadní problém. Tak se nedivte, že vám jde vše pomaleji než obvykle.",
        "relationships": "Doma si ostatní povšimnou, že jaksi nejste ve své kůži. Bude třeba ale také spolupráce z vaší strany, aby se vše zlepšilo.",
        "health": "Škrábání v krku spolehlivě odstraní pastilky s islandským lišejníkem. Měli byste je v zimním období mít v zásobě.",
        "tips": "Servis zimního sportovního vybavení, oprava domácího spotřebiče, renovace drobného nábytku, generální úklid domova."
    },
    "virgo": {
        "main": "Nechcete zbytečně ztrácet čas při namlouvání si nového protějšku. Protože se vám hodně líbí a máte strach, že by vás někdo mohl předběhnout, půjdete na to zpříma. Nutno říct, že sice protějšek trochu zaskočíte, ale také mu vaše snaha bude imponovat.",
        "love": "Na nějaké složité nadbíhání svému idolu nemáte čas ani náladu. Jdete na to dnes zpříma, což je v podstatě ta nejlepší cesta.",
        "work": "Měli byste udělat vše pro to, abyste se konečně pohnuli z místa a šli si za svým profesním snem. Nic vám nebrání.",
        "relationships": "Vy svou rodinu podporujete na každém kroku. Dnes se vaše péče opět projeví v tom nejlepším světle. Radovat se budou děti.",
        "health": "Před spaním odložte mobil nebo tablet. Je to velký prohřešek, který má dost špatný vliv na vaše usínání a zrak.",
        "tips": "Návštěva odborného lékaře, dodržování pitného režimu, rezervace lázeňského pobytu, procházka v lese, fotografování."
    },
    "libra": {
        "main": "Jakmile se dnes dopátráte toho, že jste v milostném vztahu zřejmě napáchali dost velké škody, může to s vámi otřást. Doposud jste si mylně mysleli, že jste v právu. Bude nutné se z toho poučit, a jít opět dál se vztyčenou hlavou. Učený z nebe nespadl.",
        "love": "Starost vám přidělá zjištění, že možná za některými problémy ve vztahu stojíte vy. Budete to chtít velkou dávku sebereflexe.",
        "work": "Přestože jste velmi diplomatické a vytrvalé znamení, mohou se dnes objevit potíže, které neustojíte se ctí.",
        "relationships": "Kdosi z rodiny stále trousí jedovaté poznámky. Vám už ale začíná docházet trpělivost a může se tak strhnout konflikt.",
        "health": "Zvolněte tempo. Nemusíte za každou cenu dodržet vše, co jste si předsevzali. Zřejmě jste si dali dost vysoko laťku.",
        "tips": "Psaní milostných dopisů, sestavení hudebního playlistu, meditační a dechová cvičení, plánování dovolené s rodinou."
    },
    "scorpio": {
        "main": "Váš milostný život se nyní odehrává na růžovém obláčku a vše je zalité sluncem. Tak krásně se cítíte po boku nového partnera. Spokojenost je však i z jeho strany, a tak vám v budování perspektivního a pevného vztahu nic nebrání. Snažte se co nejvíc.",
        "love": "Máte-li vedle sebe nového partnera, váš život je momentálně jen v těch nejrůžovějších barvách. Užijte si to naplno.",
        "work": "V práci vaši společnost s nadšením vyhledává mnoho kolegů. Jste pro ně nevyčerpatelnou studnicí humoru a dobré nálady.",
        "relationships": "Zima vás baví, a tak nemáte problém trávit také dost času venku. Jistě máte své oblíbené sporty, které provozujete.",
        "health": "Pijte hodně čisté vody. Pomůže vám po svátcích čistit tělo. Přidat si do ní můžete i plátek bio citronu pro osvěžení.",
        "tips": "Nákup starožitných předmětů, venčení pejska v lesoparku, hledání nové brigády pro děti, kurz keramiky, meditace."
    },
    "sagittarius": {
        "main": "Single jedinci z vašeho znamení budou vyhledávat dnes velmi netradiční známosti a kontakty. Prahnete po exotice ve vztahu. Pokud mluvíte i cizími jazyky, není problém si takové osůbky vyhledat na sociálních sítích. Odvaha vám rozhodně nechybí.",
        "love": "Nezadaní z vás zatouží po exotice. Pokud ovládáte cizí jazyk, není problém si najít přátele z opačného konce světa.",
        "work": "Trpělivost vašeho šéfa není bezmezná. Dejte si na to pozor, pokud se dnes budete chtít z něčeho vymanit nebo ulít.",
        "relationships": "Nápadů máte opravdu hodně. Ovšem jejich realizace je tak náročná, že by bylo fajn od nich raději upustit. Doma to vidí stejně.",
        "health": "Ostřejší koření pomůže skvěle pročistit organismus a nastartovat proces hubnutí. Jde hlavně o zázvor, kurkumu a chilli.",
        "tips": "Nákup oblečení ve slevách, návštěva autoservisu, doplnění domácí lékárničky, plánování letní dovolené v zahraničí."
    },
    "capricorn": {
        "main": "Možná v sobě dlouho tutláte umělecké sklony. Je to škoda, protože jste velmi nadaní a váš talent nikdo kromě vás nevidí. Dodejte si odvahy a něco ze svých výtvorů ukažte svému okolí nebo je vystavte na internetu. Zájem může být až nečekaně velký.",
        "love": "Vás nyní potkalo v lásce doslova pohádkové období. Na co si vzpomenete, to se vám může podařit zrealizovat podle představ.",
        "work": "Nechybí vám průbojnost. To vám dává možnost dosáhnout svých vysněných cílů. I tak se ale budete muset hodně snažit.",
        "relationships": "Máte skrytý umělecký talent. Bude fajn, když si dnes ověříte, jak na vaši tvorbu budou reagovat vaši nejbližší.",
        "health": "Odstraňte ze svého jídelníčku sladké limonády. Místo toho si raději dopřejte kvalitní minerálku. Ta může mít příchutě.",
        "tips": "Studium cizího jazyka online, milostné sms s partnerem, luštění rébusů a kvízů, fotografování zátiší, rekreační běh v lese."
    },
    "aquarius": {
        "main": "Místo toho, abyste dostáli své pověsti společenského člověka, zavřete se dnes doma o samotě a budete rozjímat o životě. Kamarádi si o vás budou dělat obavy a nepřestanou vás bombardovat zprávami, dokud jim neodpovíte. Vysvětlete jim to na rovinu.",
        "love": "Na vaše poměry je neobvyklé, že jste se dnes uzavřeli sami do sebe. Vaše okolí si s tím může lámat hlavu a bude vyzvídat.",
        "work": "Vše vám jde dnes pomaleji než obvykle. Je jasné, že vám došly síly hned zpočátku nového měsíce. Pozor na chyby v práci.",
        "relationships": "Přepadly vás chmury a nejlépe se cítíte v bezpečí domova. Někteří příbuzní vaše chování nebudou chápat, ale nechte je při tom.",
        "health": "Tučná jídla, která kralovala posledním týdnům, nahraďte něčím dietnějším. Potřebujete více energie a to omáčky nezajistí.",
        "tips": "Rehabilitační cvičení s terapeutem, home office, pořízení hudebního nástroje, kreativní psaní, projížďka na kole."
    },
    "pisces": {
        "main": "Zaměřte se dnes na to, jak si upravit jídelníček a něco dobrého udělat pro své tělo. Chcete se v něm cítit dobře a také dobře vypadat. Sáhnout budete muset k razantnějším kroků, které ale brzy přinesou své ovoce. Poradit vám může i zkušený odborník.",
        "love": "Možná patříte mezi ty šťastlivce, kteří prožívají momentálně velkou lásku. Dnešní den bude tedy pro vás plný radosti.",
        "work": "Práce vám jde od počátku února od ruky. Nemáte potíže se poprat i s nástrahami a ostatní kolegové si za vámi chodí pro radu.",
        "relationships": "Pokud jste se rozhodli pro změnu životosprávy, nezůstanete v tom sami. Kdosi z rodiny se k vám přidá a bude z toho i zábava.",
        "health": "Potřebujete být fit. Posilujte svou imunitu výtažky z hlívy ústřičné. Dnes jsou bez problémů dostupné v lékárnách.",
        "tips": "Zimní sporty s přáteli, plánování rodinné dovolené u moře, saunování, otužování, dechová cvičení, hobby činnosti."
    }
}