{
    "aries": {
        "main": "Místo toho, abyste druhým projevili více respektu a tolerance, máte tendence je ihned soudit a poučovat. Pozor na to, ostatní začínají být na vaše rýpavé poznámky alergičtí. Abyste nakonec nezůstali sami, bude třeba se více ovládat a usmívat se na svět.",
        "love": "Na ostatních vás může jedině rozčílit to, že nejsou stejně bezchybní jako vy. I když to dnes může být také zpochybnitelné.",
        "work": "Nechte-li, aby si o vás na pracovišti všichni mysleli, že jste bručoun a nervák, snažte se chovat přívětivěji.",
        "relationships": "Rodina vám dá zcela jasně najevo, že si dnes přejí mít každý svůj klid. Tak je respektujte, jinak vám to brzy oplatí.",
        "health": "Dejte si na chvíli pauzu od sledování médií a internetu. Potřebujete také pozitivní zprávy a informace než jen pohromy.",
        "tips": "Zařizování domácí pracovny, nákup drobného nábytku, renovace domácnosti, úklid, večeře s dovážkou z restaurace."
    },
    "taurus": {
        "main": "Podle svých možností a také možností vašich přátel, se dohodněte na nějaké schůzce či zajímavé činnosti. Není dobré vymlouvat se na pandemii a zanedbávat vaše kamarádství. Stejně jako vy jim, chybí i oni vám. Postačí vám dnes i setkání u kávy.",
        "love": "Nezanedbávejte své kamarády jen proto, že je vše omezené. Naopak se snažte udržet vztahy jakýmkoliv dobrým způsobem.",
        "work": "Další únorový den je pro vás v práci pozitivní a úspěšný. Nebojte se přijít s novými nápady, jistě se jeden z nich uchytí.",
        "relationships": "Jestliže vás čeká návštěva starších příbuzných, spojená s péčí o ně, jistě to nebude nic hrozného. Rádi vás vidí.",
        "health": "Správná technika rehabilitačních cviků na páteř vám může hodně ulevit od bolesti a zatuhnutí. Zvlášť když v práci jen sedíte.",
        "tips": "Příprava bylinných odvarů k inhalaci, meditační cviky, rehabilitace páteře pod dohledem odborníka, plavání, sauna."
    },
    "gemini": {
        "main": "Více než slepování nefunkčního vztahu byste se měli věnovat práci. Máte zjevné problémy v komunikaci s vaším nadřízeným, což vám na náladě nepřidává. Ruku na srdce, máte na tom také svůj podíl, a tak se musíte snažit i vy. Nebude to jednoduché.",
        "love": "Vaše partnerské vazby s jistou osobou se zdají být minulostí. Na vině bude váš rozdílný způsob života a volného času.",
        "work": "Bude třeba více zapracovat na prohloubení důvěry mezi vámi a vaším šéfem. Možná se jen bojíte projevit, abyste se neshodili.",
        "relationships": "I když se to neposlouchá dobře, rodina vám dá zřetelně najevo, že se doma jen flákáte a nepomáháte. Sáhněte si do svědomí.",
        "health": "Změna stravy by vám mohla dost vyhovovat. Zamyslete se nad tím, zda vám chutná jiná kuchyně, nebo jen zvolíte detox.",
        "tips": "Výcvik pejska ve skupině a pod dohledem cvičitele, třídění soukromé korespondence, psaní romantické poezie, úprava stravy."
    },
    "cancer": {
        "main": "Dobře uděláte, pokud si v práci budete hledět svého. Závodění a soupeření s druhými kolegy je dětinské. Můžete tak nadělat přešlapy, které by vás mrzely později. Pokud se budete ale zaměřovat na kvalitní výkony, jste vítězem už nyní. Myslete na to.",
        "love": "Mezi vašimi přáteli a vámi se mohou projevit jisté rozdíly ve vnímání současné situace ve společnosti. Neotevírejte ta témata.",
        "work": "Není vůbec nutné soupeřit s ostatními kolegy ve výkonech. Raději se soustřeďte na to, abyste nedělali mnoho chyb.",
        "relationships": "Potřebujete mít alespoň někde klid, a to by dnes mohl být váš domov. Malé konflikty ostatních necháte bez povšimnutí.",
        "health": "Dodržování správného pitného režimu je dobré por vaše tělo, ale také především pro vaši pleť. Myslete na to.",
        "tips": "Venkovní sportovní aktivity s kamarády, kreativní a výtvarné činnosti, studium kaligrafie, poslech vinylových desek."
    },
    "leo": {
        "main": "Před vašimi blízkými byste měli přestat tajit důležité záležitosti. Možná si je chcete vyřešit sami, ale přesto byste měli svou rodinu informovat. Mohou si dělat zbytečné obavy a bude je to mrzet. Uvidíte, že kdosi z nich vám může výrazně pomoci.",
        "love": "Máte-li chuť na špásování a flirtování, tomu se meze nekladou. Jen si dávejte pozor, zda váš objekt zájmu nemá již závazky.",
        "work": "Vaše současné zaměstnání váš může nudit. Zbytečně se trápit nemá cenu, proto zvažte všechny své možnosti na novou profesi.",
        "relationships": "Doma byste s ostatními měli více komunikovat. Pokud si něco necháváte stále pro sebe, rodina pojme zbytečné podezření.",
        "health": "Bolesti hlavy mohou být způsobeny výkyvy počasí a také blokací krční páteře. Prověřte všechny možnosti, než půjdete k lékaři.",
        "tips": "Cvičení jógy podle instruktora, zápis do rekvalifikačních kurzů, návštěva wellness centra, sauna, plavání, solná jeskyně."
    },
    "virgo": {
        "main": "Pozornost byste měli zaměřit k rodinnému životu, pokud tedy rodinu máte. Před vámi jsou plány na zahraniční dovolenou a bude třeba je vypilovat. Sice ještě nemůžete naplánovat vše do puntíku, ale už tomu můžete dát obrysy. Bude třeba komunikovat v klidu.",
        "love": "Pro svádění byste dnes udělali skoro všechno. Vy si zvolíte atraktivní vizáž a svůdný parfém. K flirtování to bohatě stačí.",
        "work": "Podle ostatních máte skvěle našlápnuto v kariéře. Proč si tedy stále vymýšlíte zbytečné důvody, jak vše oddálit?",
        "relationships": "Jestliže jste pod vánočním stromečkem našli nějaké společenské hry, máte nejvyšší čas je vyzkoušet. Můžete hned dnes.",
        "health": "Dejte si pauzu od alkoholu, uzenin a sladkostí. Díky tomu se vám může výrazně upravit hladina cukru v těle.",
        "tips": "Kontrola cestovních zavazadel, pochůzky po úřadech, plánování exotické dovolené s přáteli, odpolední siesta s knihou."
    },
    "libra": {
        "main": "Jisté legrácky na úkor vašich příbuzných si neodpustíte, ale počítejte s tím, že vám to vrátí. Vše udržujte v dobrém tónu a nesklouzněte k urážení či hrubostem. Pokud si dnes budete doma chtít udělat něco dobrého k jídlu, vytáhněte gril.",
        "love": "Zjistíte, že možná při seznamování děláte velké chyby, a proto odcházíte domů s nepořízenou. Chce to radu od přátel.",
        "work": "Jste náchylní k tomu, abyste se rozčílili z každého drobného problému. Je to ale škoda hlavně pro vás, děláte kolem dusno.",
        "relationships": "Pošťuchování v legraci si dnes užijete se svými sourozenci nebo jinými příbuznými. Nezapomínejte, že má ale vše své hranice.",
        "health": "Fyzický pohyb vám pomůže rozhýbat tělo i v tomto zimním, chladném počasí. Začněte zvolna, ale buďte vytrvalí. Půjde to.",
        "tips": "Zpívání s dětmi, hraní na nový hudební nástroj, četba cizojazyčné literatury, večeře na grilu, servis a mytí auta."
    },
    "scorpio": {
        "main": "Do poslední minuty dnes využijte pracovní dobu. Možná nemáte povinností tolik, ale máte tendence prokrastinovat a povídat si s kolegy u kafíčka. Ke konci týdne to ale není moc dobrá strategie, myslete na to. Hrozí přesčasy v práci i zítra.",
        "love": "S protějškem se můžete s klidem vydat do společnosti. Budete si notovat s vašimi přáteli a zábava bude báječná.",
        "work": "Pokud ke konci týdne nemáte vše v práci hotovo a jste ve skluzu, bude to chtít zabrat. Jinak budete i zítra v práci přesčas.",
        "relationships": "Pomalu ale jistě byste měli začít plánovat letní dovolenou s rodinou. Podmínky vás donutí volit jiné způsoby cestování.",
        "health": "Když budete pravidelně cvičit své šedé buňky mozkové, vězte, že děláte dobře. Najděte si dnes chvilku na křížovku.",
        "tips": "Odnos přebytečného oblečení do charity, luštění křížovek, pečení slaného koláče, hra na hudební nástroje s dětmi."
    },
    "sagittarius": {
        "main": "V řadách vašich přátel se vyskytuje dost lidí, ke kterým máte blízko. Je tam ale i jedna osůbka, která vás přitahuje víc než ostatní. Jakmile dnes zjistíte, že i tento člověk cítí k vám to samé, nic vám v dalších krocích nebrání. Možná z toho něco bude.",
        "love": "Máte kolem sebe hodně přátel, ale jen jeden člověk je vám extra blízký. Možná se z toho časem vyvine i něco jiného.",
        "work": "Chybí vám pokora a mírnost. Máte sklony přeceňovat své výkony, ale ty jsou zatím jen průměrné. Snažte se daleko víc.",
        "relationships": "Bude třeba i dnes pracovat s dětmi na jejich školních projektech. Možná se u toho dokonce i zapotíte, jak to bude náročné.",
        "health": "Při procházce v chladném počasí je důležité dobré oblečení a obuv. Není od věci si vzít i funkční termoprádlo.",
        "tips": "Milostné sms s partnerem, romantická schůzka, večeře ve dvou, procházka s dětmi v parku, skládání romantických písní."
    },
    "capricorn": {
        "main": "Velmi si rozumíte se svou drahou polovičkou, kterou jste potkali nedávno. Konečně máte tedy vedle sebe někoho, s nímž si můžete dnes udělat plány na nadcházející víkend, nebo dokonce na letní dovolenou. Užívejte si jeden druhého, co to jen jde.",
        "love": "Váš miláček může být jemnější duše a snílek, což vy nejste. Ale právě proto si spolu rozumíte a skvěle se doplňujete.",
        "work": "V práci předvádíte skvělé výkony, takže se nedivte, když vám šéf vysekne poklonu. Půjdete domu nadutí pýchou a uspokojením.",
        "relationships": "Věnovat se domácnosti dnes po práci se vám chtít nebude, ale nemáte na vybranou. Jste na to totiž sami, bez pomocníků.",
        "health": "Zkuste, dneškem počínaje, vařit trochu jiné pokrmy. Zaměňte českou kuchyni za něco exotického. Uvidíte že sklidíte ovace.",
        "tips": "Plánování rodinného víkendu na horách, nákup zimního oblečení, nákup domácí kuchařky, taneční lekce s partnerem ve studiu."
    },
    "aquarius": {
        "main": "Protože toho máte z práce dost, na pozvání od přátel do společnosti byste nejraději zapomněli. Ovšem vaši kamarádi budou neústupní. Pokud už se tedy dnes někam vydáte, zapomeňte na dlouhé ponocování a přemíru alkoholu. Zítřek by byl katastrofa.",
        "love": "Nebude se vám za žádnou cenu chtít mezi lidi, ale přesto se necháte umluvit svými přáteli. Nesmíte však dlouho ponocovat.",
        "work": "V práci se mohou dnes vyskytnout menší problémy, přes které se vy ale přenesete celkem snadno. A to díky své povaze.",
        "relationships": "Rádi se vzděláváte a jste zvídaví? Doplňte si domácí knihovnu o zajímavé kousky. Určitě to ocení i ostatní doma.",
        "health": "Pokud můžete, předplaťte si lekce s trenérem v oblíbeném fitku. Měli byste si před létem trochu vyrýsovat postavu.",
        "tips": "Nákup veterinárních přípravků, sledování sportovního přenosu, poslech jazzové hudby, venčení pejska s přáteli."
    },
    "pisces": {
        "main": "Místo toho, abyste po práci vyrazili za svými přáteli a prožili s nimi večer, zůstanete doma i se svým novým objevem. Romantické chvíle, které se chystáte prožít, vám totiž přátelé neposkytnou. Ale vaše rozhodnutí budou muset respektovat.",
        "love": "Se svým miláčkem dnes nevytáhnete paty z domu. Ani jeden totiž nestojíte o setkávání se s přáteli, když máte doma lásku.",
        "work": "V práci si nevedete špatně, ale také vám docházejí síly. Na víkendový odpočinek se těšíte jako ještě nikdy předtím.",
        "relationships": "Nechte si od svých přátel nebo příbuzných poradit zajímavé volnočasové aktivity. Možná si nějakou z nich vyberete.",
        "health": "Pozor na to, kolik času trávíte na sociálních sítích. Někdy to může hraničit dokonce i se závislostí na mobilu nebo tabletu.",
        "tips": "Úklid domácnosti, odpolední relax u příjemné hudby, plánování víkendu s rodinou, výroba šperků z korálků a drátků."
    }
}