{
    "aries": {
        "main": "Pokud nemáte rodinu či dlouhodobý vztah, nic zásadního dnes nečekejte. Nové známosti jsou dost povrchní a vás brzy taková společnost omrzí. Jestliže chcete do života najít nového partnera, budete muset ještě hledat. Nebude to vůbec jednoduché.",
        "love": "Mezi vašimi novými kontakty není žádný takový, který by stál za hlubší poznání. Zatím si z toho nedělejte hlavu.",
        "work": "Je jedno, zdali jste vedoucí v práci nebo ne. Vaše kroky a přístup k ostatním jsou bedlivě sledovány. Kdosi má na vás pifku.",
        "relationships": "Dnes rozhodně nepřemýšlíte nezaujatě. Naopak máte vše zkreslené, takže se vyhněte vynášení soudů nad ostatními.",
        "health": "Každá masáž hlavy při mytí vlasů je účinná. Prokrvení pokožky vás zbaví únavy a také bolestí hlavy ze zatuhlé páteře.",
        "tips": "Telefonát se spolužákem, příprava na víkendový pobyt mimo město, rodinná večeře, kreslení, luštění sudoku a křížovek."
    },
    "taurus": {
        "main": "Užíváte si teplé místo na slunci a nehodláte se ho jen tak vzdát. Když se ve vašem okolí objeví člověk, který vaše postavení ohrožuje, vytasíte své tajné zbraně. Konkurenci v zaměstnání roznesete na kopytech a dáte tak výstrahu pro všechny budoucí.",
        "love": "Vy umíte zaujmout ostatní svými historkami jako nikdo. Jste okamžitě středem dnešní společnosti vašich přátel a kamarádů.",
        "work": "Nenechte se umluvit k něčemu, s čím v podstatě nesouhlasíte. Zbytečně byste se dostali do problémů. Držte se od toho dál.",
        "relationships": "Do restaurace se vám zřejmě moc chtít nebude, ale to neznamená, že si něco dobrého nemůžete objednat s dovážkou.",
        "health": "Únava, která se na vás dnes podepíše, je zřejmě zapříčiněna nedostatkem spánku. Nesmíte tolik ponocovat u televize.",
        "tips": "Studium kaligrafie, práce se sociálními sítěmi, třídění oblečení pro charitu, večeře s dovážkou z oblíbené restaurace."
    },
    "gemini": {
        "main": "Snažte se, aby pátek byl pro vás co nejpříjemnějším dnem. Dokončete si své pracovní úkoly tak, abyste mohli z práce odejít včas domů. Potřebujete relaxovat a připravit se na víkend. Jestliže se chcete v létě vydat na dovolenou k moři, zjistěte si ceny.",
        "love": "Místo toho, abyste se doma rozčilovali s partnerem, zvolíte si večer ve společnosti dobrých přátel. Prospěje vám to.",
        "work": "Jestliže se vám podařilo dodělat si vše potřebné a přitom se s nikým nepohádat, máte vyhráno. Alespoň protentokrát.",
        "relationships": "Situace doma vás donutí zalézt si někam do koutku a věnovat se svým zálibám nebo knížkám. Hádat se totiž nechcete.",
        "health": "Abyste se v létě cítili ve svém těle dobře, bude třeba nastavit nějaké účinné cvičení v posilovně. Poraďte se s trenérem.",
        "tips": "Úřední jednání, založení spořicího účtu, kontrola pracovních povinností, návštěva fitness centra, procházka v přírodě."
    },
    "cancer": {
        "main": "Jestliže vás čeká víkend na horách, bude třeba, abyste již dnes měli zabalená zavazadla a byli připraveni na cestu. Zítřejší ráno by vás mohlo dostat pod tlak. Také si ušetřete čas tím, že si k večeři nakoupíte oblíbené lahůdky a nebudete muset vařit.",
        "love": "Mezi vámi a partnerem vázne komunikace, a tak byste jí dnes měli odložit. Raději se věnujte praktické stránce vztahu.",
        "work": "V práci nebude dobré se hádat nebo hašteřit. Nemáte dostatek informací, abyste mohli někomu oponovat v jeho postoji.",
        "relationships": "Jestliže vás zítra čeká odjezd mimo město, zabalte si zavazadlo již dnes. Ušetříte si tím mnoho starostí a spěchu.",
        "health": "V zimním období je třeba stále posilovat imunitu a odolnost organismu. Zkuste také pomalé otužování ve sprše. Tělo to ocení.",
        "tips": "Servis sportovního vybavení, kontrola cestovních zavazadel, telefonát se staršími příbuznými, nákup lahůdek na rodinnou večeři."
    },
    "leo": {
        "main": "V práci si dnes můžete sáhnout na dno kvůli tomu, že se vyskytnou nějaké problémy, které bude třeba řešit urgentně. Vy si s nimi poradíte, ale bude vás to stát dost sil. Domů se tak můžete dostat absolutně bez energie a nazlobení. Držte nervy na uzdě.",
        "love": "Plány na večer prožitý mezi vašimi přáteli ve společnosti nemůže nic narušit. Dobře se nalaďte, čeká vás dobrá zábava.",
        "work": "Bude třeba, abyste se v práci vypořádali s překážkami, které se dnes vyskytnou. Místo rozčilování vezměte rozum do hrsti.",
        "relationships": "Nenechte doma dojít situaci tak daleko, že byste se všichni pohádali. Je jisté, že jste unavení a dost podráždění.",
        "health": "Snažte se konzumovat více ryb a plodů moře. Je to také dobrá změna pro vaše tělo. Naučte se šikovné recepty a úpravy pokrmů.",
        "tips": "Úklid pracovního stolu, nákup ve starožitnictví, příprava na víkend mimo domov, sledování detektivního seriálu."
    },
    "virgo": {
        "main": "Své okolí uchvátíte svým specifickým smyslem pro humor a také svými znalostmi. Máte dnes nad ostatními navrch, ale využijte toho jen pro zábavu. Pokud se večer chystáte prožít doma se svou rodinou, bude se vám k domácímu kinu jistě hodit dobrý popcorn.",
        "love": "Vaše tajné zbraně jsou ve vaší vtipné konverzaci. Tím si dnes k sobě přitáhnete pozornost osůbky, po které dlouho toužíte.",
        "work": "Byla by škoda, kdybyste si své nápady vyplýtvali dnes najednou. Ty opravdu dobré mají ještě svůj čas, než je pošlete ven.",
        "relationships": "Doma sklidíte ovace tím, jak velký máte přehled. Můžete si totiž dobře naplánovat společnou letní exotickou dovolenou.",
        "health": "Pro lepší péči o tělo se svěřte do rukou odborníkům Návštěva kosmetického salonu nebo wellness centra bude stačit.",
        "tips": "Kreativní psaní, plánování rodinné dovolené, nákup čerstvých potravin na trhu, domácí kino, poslech jazzové hudby."
    },
    "libra": {
        "main": "Pokud patříte mezi ty jedince, kteří jsou více stydliví při seznamování, dnes se určitě nemusíte bát, že byste se shodili. Dejte si hodně záležet na své vizáži, pokud vyrážíte večer do společnosti. Uvidíte, že své sehraje i dobře zvolený parfém.",
        "love": "Chystáte-li se dnes do společnosti, ujistěte se o svém vzhledu. Dejte si na něm hodně záležet, budete v centru dění.",
        "work": "Žádné vyřizování si osobních účtů s nějakým kolegou vám štěstí nepřinese. Raději jděte z práce domů s tím, že to necháte být.",
        "relationships": "Pozor při náročných sportovních výkonech. Můžete si neopatrností přivodit velmi nepříjemné zranění dolních končetin.",
        "health": "Mezi výborné relaxační metody patří také výtvarné umění. Pokud k němu máte sklony, jistě víte, co vám vyléčí duši.",
        "tips": "Telefonát se staršími příbuznými, poslech nové audiotéky, nákup potravin s dovážkou do domu, kontrola výdajů za domácnost."
    },
    "scorpio": {
        "main": "Váš nový miláček ohromí vaše přátele. Konečně si o vás mohou přestat dělat starosti, protože máte po boku solidního partnera do života. Z vás navíc na dálku čiší zamilovanost a lepší nálada. Dnes se spolu všichni můžete ve společnosti dobře pobavit.",
        "love": "Vaši přátelé jsou rádi, že jste si k sobě našli odpovídající protějšek. Konečně jim ho také ale musíte představit.",
        "work": "V zaměstnání jste si vysloužili respekt svou tvrdou dřinou. Je to pouze vaše zásluha, že jste na této pozici.",
        "relationships": "Víkend na horách nebo ve wellness hotýlku vás láká. Potřebujete odpočívat. Pokud máte možnost, přizpůsobte si tomu plány.",
        "health": "Hlava potřebuje nutně odpočinek. Po náročném týdnu se není čemu divit. Nejlepší budou masáže a wellness procedury.",
        "tips": "Výcvik pejska s instruktorem, fotografování památek, plánování víkendových aktivit, práce pro charitu, wellness procedury."
    },
    "sagittarius": {
        "main": "Stále se necítíte na vážný vztah? Tak potom nesmíte vašim potenciálním nápadníkům dávat falešné naděje. Buďte upřímní a féroví k nim i k sobě. Popravdě, žhavý románek si můžete užít daleko lépe bez velkých očekávání. Nemůžete tím nic ztratit.",
        "love": "Velké plány na dlouhodobý vztah vás zřejmě zatím minuly. Vyhovují vám kamarádské vztahy nebo žhavé flirty na jednu noc.",
        "work": "Pokud si dnes odložíte nějaké povinnosti na příští týden, vězte, že můžete mít problém. Raději to dodělejte dnes.",
        "relationships": "Vaše rodinné úspory jsou zřejmě tenčí, než jste si mysleli. Tudíž na některé záležitosti vám nezbývá dostatek peněz.",
        "health": "Více zeleniny by se mělo objevovat ve vašem jídelníčku. Tělo by si zasloužilo odlehčenou stravu, bohatou na vitaminy.",
        "tips": "Oprava domácího spotřebiče, meditační a dechová cvičení, péče o starší příbuzné, nákup audioknih, úklid sklepa."
    },
    "capricorn": {
        "main": "To, že byste si za svou tvrdou dřinu v práci zasloužili lepší plat, si myslí i vaši nejbližší. Možná ale zvažte, zda vůbec takovou práci chcete ještě vykonávat a zda se nepodívat po něčem novém. Máte na to dost odvahy? Tak se do toho dejte hned.",
        "love": "Drahoušek se dnes postará o kouzelnou atmosféru u vás doma. A to tak, že se vám nebude chtít vytáhnout paty z postele.",
        "work": "Protože si svou práci děláte stále dobře a neflákáte se, jsou vidět výsledky. Ovšem je nutné si o víkendu odpočinout.",
        "relationships": "Doma se dnes o program nemusíte starat. Vezmou si ho na starosti vaši blízcí, a možná dokonce vaše děti. Můžete jim věřit.",
        "health": "V zimním období jsou velmi oblíbené polévky. Zejména pak vývary. Ty vás totiž dokážou postavit na nohy téměř ihned.",
        "tips": "Večer s rodinou, plánování víkendových aktivit na horách, objednávka jídla z oblíbené restaurace, kontrola soukromých e-mailů."
    },
    "aquarius": {
        "main": "Již dlouho jste si nikam nevyrazili a začínáte se těšit na dnešní večer. Máte skvělou příležitost na zaslouženou zábavu s milovanými přáteli. Nebojte se trochu se odvázat a užít si tak krásný večer v kruhu těch, kteří vám už moc chyběli!",
        "love": "Dnes postačí, když svým přátelům zatelefonujete a omluvíte se z plánovaného setkání. Stále bojujete s únavou.",
        "work": "Spadne vám kámen ze srdce, že jste stihli své povinnosti na minutu přesně a nemusíte zůstávat v práci dlouho přesčas.",
        "relationships": "Nevyhnete se rodinné radě o tom, kam se vydat v létě nebo co budete do domácnosti pořizovat. I když se vám nechce, přidejte se.",
        "health": "Chcete-li se dobře cítit, začněte se hýbat. Kila půjdou dolů sama, pokud si zvolíte pravidelný pohyb přesně pro vás.",
        "tips": "Pokerový turnaj s rodinou, pořízení vstupenek do divadla, domácí kino, plánování letní dovolené, psaní poezie."
    },
    "pisces": {
        "main": "Jakmile dnes v práci dokončíte poslední úkol, nic vás tam už neudrží. Těšíte se domů jako malé děcko, ale přesto se můžete ještě po cestě stavit v oblíbeném obchodě a donést domů pár lahůdek k večeři. Také může hned vyrazit na příjemný wellness pobyt.",
        "love": "S miláčkem učiníte důležité rozhodnutí ohledně dnešního večera. Raději zůstanete zalezlí v posteli a užijete si jeden druhého.",
        "work": "Vydáte-li se dnes do obchodů, můžete utratit víc, než jste původně plánovali. Ale domů si donesete lahůdky podle vašeho gusta.",
        "relationships": "Možná se na poslední chvíli rozhodnete pro nějaký zajímavý víkendový pobyt mimo město. Pokud doma nemáte nic na práci, jeďte.",
        "health": "Pozor na prochladnutí ledvin a bederní páteře. Dbejte na oblečení, které bude tuto část vašeho těla pečlivě chránit.",
        "tips": "Úklid pracovního stolu, kontrola firemní korespondence, plánování víkendového pobytu, nákup potravin a lahůdek."
    }
}