{
    "aries": {
        "main": "Konečně se se svými přáteli můžete vydat na divadelní nebo filmové představení. Také vás mohou lákat muzikály. Ale proč byste vlastně nemohli jít na všechno? Dobře se domluvte do následujících dní a zakupte si vstupenky včas. Bude to zábava!",
        "love": "Naplánujte si návštěvu kina nebo divadla s kamarády a zakupte si včas vstupenky. Jistě vám taková zábava už chyběla.",
        "work": "Máte pocit, že je vše proti vám. Hledáte spravedlnost, ale nesoustředíte se na svou práci. To není ta správná cesta.",
        "relationships": "Konečně se doma můžete realizovat, protože si kdosi z příbuzných přijde pro radu. Nutno říct, že tentokrát to bude účinné.",
        "health": "Dodržujte pitný režim. Zima je období, kdy můžete zařadit nejrůznější chutné čaje, které vás osvěží, hydratují a prohřejí.",
        "tips": "Čtení historických knih, nákup čerstvých surovin na trhu, poslech audiotéky, cvičení jógy ve studiu, rekreační běh v přírodě."
    },
    "taurus": {
        "main": "Je možné, že se vám do života připlete tak okouzlující člověk, že si nebudete vědět rady se svou zvědavostí. Chcete ho poznat blíže a zároveň se budete bát svých citů. Nechte tomu volný průběh. Pokud jste nezadaní oba dva, bude to ještě dost zajímavé.",
        "love": "Kdosi vás uchvátí natolik, že absolutně propadnete jeho kouzlu. Pravděpodobně jste takový nával citů nyní neočekávali.",
        "work": "Místo toho, abyste na ostatní v práci byli nepříjemní, starejte se hlavně o své úkoly. Ve volném čase přemýšlejte, jak dál.",
        "relationships": "Nový koníček, který vás před pár dny naprosto uchvátil, vás začíná nudit. Je to tím, že do toho neustále investujete peníze.",
        "health": "Cvičte a pravidelně se hýbejte. Možná bojujete s nějakými kily navíc, a tak potřebujete kromě úpravy stravy ještě pohyb.",
        "tips": "Nákup nového hudebního nástroje, plánování rodinné dovolené v zahraničí, posilování a rehabilitační cvičení, plavání."
    },
    "gemini": {
        "main": "V práci jste před ostatními opět napřed. I když o tom nikde nemluvíte, dostáváte pochvaly téměř za vše. Ostatní kolegové si mohou jen závistivě šuškat a přemýšlet, kde se ve vás ta fantazie a iniciativa berou. Vy se můžete jen spokojeně usmívat.",
        "love": "Pro vás bude i dnes stěžejní to, že si s někým dobře popovídáte, a dáte tomu přednost před krátkodobým románkem.",
        "work": "Těšíte se z nových pracovních výzev a přemýšlíte jak dál. Vaše inovátorské nápady vás mohou dostat opravdu daleko. Tak odvahu!",
        "relationships": "Můžete své blízké příjemně překvapit tím, že se začnete více zajímat o chod domácnosti a vztahy v příbuzenstvu.",
        "health": "Omezte absolutně příjem alkoholu. Ten může způsobit pomalé, ale znatelné přibírání na váze. Uvidíte, jak to zabere.",
        "tips": "Milostné sms s partnerem, cvičení ve fitness pod dohledem trenéra, nákup zahradnických potřeb, renovace drobného nábytku."
    },
    "cancer": {
        "main": "V zaměstnání se nesnažte na ostatní zapůsobit tím, že si naberete spoustu práce. Velmi snadno se vám může stát, že nestihnete téměř nic a budete muset opět požádat kolegy o strpení nebo pomoc. Je třeba, abyste si uvědomili dobře své možnosti.",
        "love": "Pokud momentálně nemáte žádný vztah, ani vám nechybí. Vy si to plně vynahradíte s kamarády. Těch máte opravdu dost.",
        "work": "Nesnažte se dělat ramena a brát za každou cenu všechny úkoly. Nemáte tolik času, abyste je všechny mohli dodělat sami.",
        "relationships": "Vyhněte se dnes radikální změně vašeho vzhledu. Mohli byste napáchat více škody, než aby to bylo přínosné a slušivé.",
        "health": "Dejte si pozor na to, co dnes budete jíst. Máte tendence k neobvyklým kombinacím, které vám můžou udělat problém.",
        "tips": "Nákupy v antikvariátu, sbírání známek, sledování dokumentárního pořadu, procházka po blízkém okolí, tvorba jarních dekorací."
    },
    "leo": {
        "main": "Mezi vámi a partnerem je napjatá situace hlavně proto, že jste dost umínění a nechcete si nechat spoustu věcí vysvětlit. To, že máte svou hlavu, vám v tomto případě ale vůbec nepomáhá. Naopak to škodí vám i vašemu vztahu. Zamyslete se nad tím.",
        "love": "Máte tendence si vše vysvětlovat po svém a nebude s vámi dnes rozumná řeč. Pozor na to, váš partner je z toho unavený.",
        "work": "Zřejmě vás něco srazilo na kolena. Ale nezapomínejte na to, jaké máte kvality, a uvědomte si je. Je třeba sebevědomí.",
        "relationships": "Neztrácíte naději a ke starostem doma se dnes postavíte čelem. Rodina na vás stále spoléhá a vy máte zodpovědnost i za ně.",
        "health": "Den byste měli začínat dobrou a vydatnou snídaní. Potřebujete energii na běžné činnosti, především v zimním období.",
        "tips": "Návštěva veterinární kliniky, psaní humorných fejetonů, nákup nového počítače, servis domácího spotřebiče, meditace."
    },
    "virgo": {
        "main": "Seberte odvahu a při první příležitosti se chopte nového projektu, kde byste mohli být ve vedení týmu. Vy na to totiž máte schopnosti a kuráž. Jde jen o to vystihnout tu pravou chvíli. Opravdu se necháte zahanbit moc sebevědomým, ale méně schopným kolegou?",
        "love": "Jestliže pojmete podezření, že si vás miláček kupuje drahými dárky, musíte si to hned ujasnit. Nejlepší bude přímá otázka.",
        "work": "Máte na to, abyste se pomalu postavili do čela týmu. Jste dobrým příkladem a umíte své kolegy motivovat. Což je vždy potřeba.",
        "relationships": "Vaši blízcí zírají, jaký máte v jistém oboru přehled. Není divu, že si skoro celá rodina k vám chodí pro rady a pomoc.",
        "health": "Uvolnit mysl vám dnes pomůže oblíbená literatura nebo zajímavý časopis. Musíte přestat myslet na starosti dnešní doby.",
        "tips": "Příprava úředních dokumentů, konzultace na úřadech, nákup oběda v oblíbené restauraci, úklid balkonu nebo terasy."
    },
    "libra": {
        "main": "Doma se začíná vylepšovat napjatá situace. Tedy především mezi vámi a někým z příbuzných. Dostane se vám pocty a dotyčná osoba sama nabídne smír. Není nad to, když máte pravdu. Ale také byste měli nabídku s pokorou a vděkem přijmout. Bylo načase.",
        "love": "Zkuste se více pohybovat mezi lidmi, kteří vám také mohou něco nového předat nebo vás něco naučit. Je to změna k lepšímu.",
        "work": "Díky spolupráci s kolegy na jistém úkolu se mezi vámi vytvoří dobré pracovní vazby. Do budoucna to oceníte ještě mnohokrát.",
        "relationships": "Protistrana, se kterou jste byli na kordy, dnes přijde s omluvou a nabídkou smíru. To se vám už bude zamlouvat.",
        "health": "Upravte si svou domácí pracovnu tak, abyste měli především pohodlí a také dostatek světla. Jinak namáháte tělo i zrak.",
        "tips": "Pořízení nového hudebního nástroje, příprava rodinného oběda, psaní domácích úkolů s dětmi, romantické hrátky s partnerem."
    },
    "scorpio": {
        "main": "Odvážní lidé patří do vašeho blízkého okolí. Pokud se někdo takový dnes vyskytne, ihned si ho lapíte pro sebe. Budete mít totiž parťáka, se kterým budete moct probírat všechno, co vám běhá hlavou. Nemusí ale vůbec přitom jít o milenecký vztah.",
        "love": "Rádi se budete dnes držet ve společnosti člověka, který má jasné názory a nebojí se je říct. Máte rádi lidi odvážné.",
        "work": "Možná by stálo za úvahu přihlásit se do vzdělávacího programu nebo workshopu. Zvýšíte svou kvalifikaci i ve prospěch firmy.",
        "relationships": "Nechte si zatím veškeré nápady pro sebe. Kdosi z rodiny vám je může pohanit nebo se snažit je ukrást. To by byla škoda.",
        "health": "Přebytečnou energii spolehlivě z těla odstraní sex a milostné hrátky. Vy si s tím jistě dnes poradíte bez velkých problémů.",
        "tips": "Plánování rodinné jarní dovolené, kontrola u praktického lékaře, nákup jarního oblečení a obuvi, setkání s kamarádem u kávy."
    },
    "sagittarius": {
        "main": "Váš nadřízený, zdá se, nad vámi ještě nezlomil hůl a dá vám druhou šanci. Snažte se ji nepromarnit. Protože pokud se vám to povede i tentokrát, máte smůlu. Ale jestliže toho využijete na maximum, máte možnost se opět vrátit na výsluní. Tak se zamyslete.",
        "love": "Myšlenky se mohou stáčet k osobě, se kterou jste v posledních dnech více v kontaktu než kdykoliv předtím. Máte k sobě blízko.",
        "work": "Pokud dostanete od šéfa druhou šanci, neměli byste ji zahazovat. Chopte se příležitosti a vytáhněte ze sebe maximum.",
        "relationships": "V rodině urovnáte nedávné spory, kdy jste někomu řekli pěkně od plic svůj názor. Omluva tentokrát přijde od vás.",
        "health": "Pečujte o svůj účes. Pokud to jde, navštivte svého kadeřníka, jistě ví, co vaše vlasy doopravdy v zimě potřebují.",
        "tips": "Příprava nepečeného dezertu, fotografování květinových aranžmá, psaní milostných sms partnerovi, wellness procedury."
    },
    "capricorn": {
        "main": "Přepadnou vás opět myšlenky na to, že byste se vrhli na dráhu podnikatele. Máte totiž pro něco vytříbený cit a víte, že by vám to šlo. Jediné, co vám brání, je vaše zodpovědná povaha. Musíte si velmi dobře tentokrát své kroky rozmyslet. Je to důležité.",
        "love": "Pokud k tomu ještě nedošlo, tak se to na vás chystá. Miláček by vás rád pozval na romantickou večeři při svíčkách.",
        "work": "Zamyslete se nad tím, zda nemáte využít některých svých zkušeností a začít podnikat. Možná máte talent, ale nezkusili jste to.",
        "relationships": "Při venčení pejska si můžete s dětmi povídat o tom, jak jim jde škola nebo o jaké zájmové kroužky by měly zájem.",
        "health": "Odložte pracovní povinnosti alespoň doma a uvolněte se. Ku pomoci by vám mohly být nějaké kreativní činnosti a hudba.",
        "tips": "Aromaterapie, vydatný odpolední spánek, čtení vzdělávacích publikací, práce se sociálními sítěmi, meditační a dechová cvičení."
    },
    "aquarius": {
        "main": "Místo toho, abyste stále nostalgicky hleděli do starých časů, seberte odvahu a podívejte se životu zpříma do očí. Není důvod, proč byste stále měli vysedávat doma s rukama v klíně. Vydejte se mezi přátele a začněte znovu žít. Máte jedinečnou šanci!",
        "love": "Hlavu vzhůru! Nebudete přece smutnit celý týden. Místo utápění se ve vzpomínkách musíte dát svému životu nový směr.",
        "work": "Pokud si chcete u svého nadřízeného vylepšit reputaci, bude to chtít mírnější rétoriku a přirozené chování. Což vám chybí.",
        "relationships": "To, že skáčete doma z jedné věci na druhou vám moc energie nedává, ba naopak. Musíte si v tom udělat pořádek a soulad.",
        "health": "Jste-li manuálně zruční, jistě máte o zábavu ve svém volném čase postaráno. Vyrobte si něco, co vám udělá radost i užitek.",
        "tips": "Nákup nových sportovních potřeb, dietní úprava jídelníčku, plánování fitness pobytu s přáteli, nákup čerstvých potravin."
    },
    "pisces": {
        "main": "Protože vás v zaměstnání čekají velké projekty, bude třeba pracovat ve větším týmu s kolegy. Vás to ale vůbec nerozhodí, naopak víte, že vaši kolegové zastanou dost práce, a tak se s tím nebudete muset lopotit sami. Spokojenost se odrazí v osobním životě.",
        "love": "Planeta Venuše vám do života přináší spoustu radosti. Nebojte se budoucnosti a užívejte si každou romantickou chvilku.",
        "work": "V práci se vám dobře funguje momentálně spíše v týmu. Nemusíte se tak starat o běh celého projektu sami a máte pomocníky.",
        "relationships": "Vás studené počasí od outdoorových aktivit neodradí. Stejně tak vaše děti. Vydejte se společně na městské kluziště.",
        "health": "Vydatný spánek je pro vás důležitý. Jděte si včas lehnout, ať má vaše tělo dostatek času na regeneraci a odpočinek.",
        "tips": "Dokončení pracovních úkolů, firemní online porada, nový pracovní harmonogram, odpolední káva s kolegy, cvičení s trenérem."
    }
}