{
    "aries": {
        "main": "Pátek začínáte s dobrou náladou a s vědomím, že je před vámi poslední pracovní den. Sice musíte stále bojovat s rutinními úkoly, ale den v zaměstnání vám uteče raz dva. Pokud jste to ještě neudělali, naplánujte si dnes příjemné aktivity na víkend.",
        "love": "Večer si vyjděte s novým objevem někam do společnosti. Ať už zvolíte kino, nebo příjemnou restauraci, bude vám spolu dobře.",
        "work": "S nadřízeným se tyto dny nemůžete na ničem shodnout. Jděte mu raději z cesty, týden přece nechcete zakončit hádkou.",
        "relationships": "Vaši nejbližší vám pravděpodobně předloží seznam aktivit, které by s vámi rádi prožili během víkendu. Nápady to budou dobré.",
        "health": "Přepracovanému tělu dopřejte odpočinek, případně lehký strečink, vynechte alkoholické nápoje a raději si dejte lehkou večeři.",
        "tips": "Strečink, jóga, plavání, deskové a karetní hry s dětmi, přesazování květin, výroba domácí limonády, sběr léčivých bylinek."
    },
    "taurus": {
        "main": "Cítíte, že byste dnes mohli najít opravdu dobré přátele. Máte kolem sebe spoustu zajímavých lidí, kteří sdílejí stejné názory na život jako vy. Zkuste překročit svoje pravidla, jsou okolo vás i jiné, zajímavé příběhy, ze kterých můžete čerpat zkušenosti.",
        "love": "Vaši společnost začínají vyhledávat lidé, u kterých by vás to ani nenapadlo. Možná jste změnili přístup k životu.",
        "work": "Stále držíte pevnou ruku nad výdaji za domácnost. I tak si dnes překontrolujte všechny složenky a platby, ať vám něco neunikne.",
        "relationships": "Páteční večer strávíte v klidu, v kruhu rodiny. Nic a nikdo vás nepřemluví k jiné zábavě. Dnes oceníte klid a pohodu.",
        "health": "Potřebujete-li uvolnit přebytečnou energii, vyrazte na projížďku na kole nebo si dejte pár kilometrů ostré chůze.",
        "tips": "Projížďka na kole v přírodě, kardiocvičení, nákup proteinových přípravků, kontrola složenek a telefonních účtů."
    },
    "gemini": {
        "main": "Důvěřivost, kterou dnes disponujete, nemusí být to pravé. Ani v práci, ani v soukromém životě. Buďte raději obezřetní a držte se zpět. Lépe jednat pomaleji než později napravovat chyby. Stálo by vás to hodně úsilí.",
        "love": "Lákavá slůvka na vás neplatí. Máte své zkušenosti a více věříte činům než slovům. Díky tomu máte kolem sebe správné lidi.",
        "work": "Obchodní partnery nebo nadřízené nadchnete svou kreativitou, důsledností a přesností, se kterou splníte zadané úkoly.",
        "relationships": "Najděte pro sebe i své blízké zajímavé a zábavné činnosti na letní den. Jinak se budete jen nudit. Zkuste muzea v okolí.",
        "health": "Probiotika udělají vašemu zažívání dobře. Nemusí být jen ve formě pilulek. Zkuste kefírové nebo acidofilní mléko.",
        "tips": "Péče o zažívání, nákup probiotických přípravků, výlet do muzea, jízda parníkem po řece, kreativní přístup k projektům."
    },
    "cancer": {
        "main": "Zajímají vás inspirativní věci a duchovní stránka života. Díky tomu se dostanete k zajímavým informacím a materiálům, které vás nesmírně obohatí. Lákat vás začnou i věci mírně tajemné a záhadné. Inspirace také přináší internet a sociální sítě.",
        "love": "Neházejte flintu do žita, Raci. Záležitosti milostného charakteru nebudou tak horké, jak se na první pohled zdají.",
        "work": "Peníze si hlídejte, jak to jen jde. Ztrácíte chvílemi přehled o výdajích a to vás může zanedlouho přivést do potíží.",
        "relationships": "Uvařte si dobrou večeři a poseďte se svými drahými u jednoho stolu. Věnujte se také dětem a zahrajte si s nimi oblíbené hry.",
        "health": "Probiotika a probiotické kultury prospívají vašemu zažívání. Můžete je užívat v pilulkách nebo v potravinách a nápojích.",
        "tips": "Společenské hry s rodinou nebo přáteli, italská kuchyně, objednání potravin on-line, četba literatury faktu."
    },
    "leo": {
        "main": "Smysl pro humor vás neopouští ani pod tíhou pracovních povinností. Nad vodou vás drží pomyšlení, že je pátek, a vy si už v hlavě plánujete nejen dnešní večer, ale i nadcházející víkend. Nenechte se příliš unést, ať neuděláte v závěru týdne chybu.",
        "love": "Jste schopní zamotat hlavu sebevědomému člověku, kterého se druzí tak trochu bojí. Vy ale víte, jak na to, že?",
        "work": "Možná jste se rozhodli věnovat novému sportu a potřebujete novou výbavu. Můžete si to dovolit. Nakupujte on-line.",
        "relationships": "Máte mnoho nápadů na výlety s rodinou nebo přáteli. Dnes uskutečněte jeden z nich. Při cestách buďte více opatrní.",
        "health": "Nepozornost vás může dovést k nepříjemnému zranění. Buďte proto rozvážnější a pomalejší, ať nemáte zkažené léto.",
        "tips": "Opatrnost při pohybu nebo sportu, plánování výletů, pořízení permanentky do fitness centra, čtení humorných povídek."
    },
    "virgo": {
        "main": "S kolegou se nemusíte shodnout na postupu při řešení společného pracovního projektu. Šéfa to rozhodně nepotěší, takže páteční nálada v zaměstnání je na bodu mrazu. Je vhodné zvážit, zda kolegovi neustoupit a nedohodnout se na vzájemném kompromisu.",
        "love": "Schůzka s novým objevem se může nepříjemně zvrtnout. Jeho chování nemusí odpovídat vašim představám, a tak se raději vypaříte.",
        "work": "Stále jste schopní své finance držet na účtě a zbytečné investice a nákupy odložit. Máte dostatek vůle, alespoň dnes.",
        "relationships": "Někomu z příbuzných se povede vás urazit, při kritice vašeho domu. Máte pocit, že vám pouze závidí. Nejste daleko od pravdy.",
        "health": "Chtělo by to více pohybu, milé Panny. Rádi jíte a málo se hýbete. Nastavte si mezi tímto rovnováhu a uvidíte, že to půjde.",
        "tips": "Kreativní psaní, nové fyzické aktivity a sporty, ruční práce, péče o domácí mazlíčky, výroba domácí marmelády, pečení."
    },
    "libra": {
        "main": "Dejte si pozor, aby vás dnes nadřízení nenachytali. Sledují vás totiž ostřížím zrakem, kvůli vaší snížené pracovní morálce. Nedejte jim tedy šanci, aby si vás pozvali na kobereček a vyčinili vám. Zkazilo by vám to nejen pátek, ale i celý víkend.",
        "love": "Plány na společný víkend s novým objevem jsou více než slibné. Těšíte se a hlavou vám běhají nejrůznější scénáře.",
        "work": "Při uzavírání obchodů v pracovní sféře si k jednání pozvěte kolegu, kterému věříte. Nejste si jisti svým úsudkem.",
        "relationships": "Ani vás nenapadne dnes vyrazit někam do víru zábavy. Doma v kruhu rodiny se, po náročném týdnu, cítíte nejlépe.",
        "health": "Ženy, narozené ve znamení Vah, si dnes mají udělat čas a dopřát péči svým rukám a nohám někde v salonu krásy.",
        "tips": "Večer s rodinou, sledování oblíbeného seriálu, vydatný spánek, milostné hrátky, spolupráce s kolegy, plánování víkendu."
    },
    "scorpio": {
        "main": "Ani v pátek nepodléháte stresu z množství pracovních povinností. Naopak se vám zdá, že pod tlakem jste výkonnější. To si ale zatím nechte pro sebe, milí Štíři. Plány na víkend si děláte převážně aktivní. Po celý den hýříte dobrou náladou a vitalitou.",
        "love": "Miláčkovi byste dnes rádi opět ukázali, kdo je v ložnici králem. Už bylo načase, v poslední době jste jen pracovali.",
        "work": "Těžko se najde někdo, kdo by se vás snažil jakkoliv obelstít. Podle vašich prvních reakcí zjistí, že by tvrdě narazil.",
        "relationships": "Večer se sejděte na malé posezení s mladšími příbuznými nebo sousedy. Přijdete na jiné myšlenky a dobře se všichni pobavíte.",
        "health": "Nepřehánějte to dnes s alkoholem a jinými neřestmi. Mohli byste si uhnat nepříjemnou kocovinu, která by vám zkazila víkend.",
        "tips": "Omezení konzumace alkoholu, posezení se sousedy, společenské hry, randění, návštěva koncertu nebo představení."
    },
    "sagittarius": {
        "main": "Nedejte se rozhodit reakcemi okolí na vaše pracovní úspěchy. Někdo opravdu může být zhrzený a zklamaný sám ze sebe, ale zkritizuje vás. Bude vás to mrzet, a pokud máte chuť se bránit, zvolte mírné a asertivní jednání. Jste přece na jiné úrovni.",
        "love": "Žádná zajímavá osoba z vašeho okolí nemá šanci uniknout vaší pozornosti. Navazujete kontakty doslova na každém kroku.",
        "work": "Luna a Mars stojí stále při vás, co se profese týká. Nehrozí vám pád na dno a jste opravdu silná konkurence pro své okolí.",
        "relationships": "Doma budete muset přistoupit na kompromis a dohodnout se s partnerem, jakou věc do domácnosti momentálně potřebujete víc.",
        "health": "Jóga je jedno z velmi účinných meditačních a relaxačních cvičení. Není však tak snadná, jak se na první pohled zdá.",
        "tips": "Relaxační a dechová cvičení, lekce jógy, uzavření kompromisu s partnerem, úspěšné jednání v práci, navazování kontaktů."
    },
    "capricorn": {
        "main": "Pracovní týden se chýlí ke konci a vám se konečně uleví. Naplánujte si na víkend odpočinkové aktivity. Záleží na tom, čemu dáte přednost a s kým se jich chcete účastnit. Snažte se dohnat všechny resty, ať z práce odejdete s čistou hlavou. Večer strávíte doma.",
        "love": "Ani váš partner už nemá náladu na slovní půtky a přestřelky. Raději si spolu dáte dobrou večeři a sklenku vína.",
        "work": "Pokud nemáte náladu na přeplněné obchody s potravinami, nechte si dnes nákup na víkend dovézt domů. Jednou začas to je fajn.",
        "relationships": "Čas po práci budete nejraději věnovat svým blízkým. V pohodlí domova se cítíte uvolněně a bezpečně, nikdo vás nenutí k práci.",
        "health": "Tělo by si zasloužilo péči v podobě sauny, vířivky nebo masáže. Pokud nevyrazíte dnes, naplánujte to na nejbližší možný den.",
        "tips": "Návštěva wellness, večer v kruhu rodiny, nákup knížek pro děti, sekání trávy, procházka městem, nákup kosmetiky."
    },
    "aquarius": {
        "main": "V mezilidských vztazích se to dnes trochu pokazí. Není to však nic závažného či trvalého. Spíš půjde o rozdílné názory na současnou situaci. Nakonec vše hodíte za hlavu a nebudete si tím kazit páteční den. Kompromis je správné řešení celé záležitosti.",
        "love": "Ve vztahu se může přehnat menší bouřka. Je nutné si nesrovnalosti vyjasnit. Uleví se vám, že víte, na čem jste. Není to zlé.",
        "work": "K reklamování nekvalitního zboží si připravte všechny potřebné doklady. Bez nich vám hrozí neúspěch a vyhozené peníze.",
        "relationships": "Dětem je potřeba vymyslet opravdu zábavný prázdninový program. Nudou už se můžou ukousat a zkoušejí na vás všechny finty.",
        "health": "Energetické a kolové nápoje vyměňte za minerálky, freshe nebo smoothie. Jejich prospěšnost je nezpochybnitelná.",
        "tips": "Příprava smoothie a fresh nápojů, vymýšlení aktivit pro děti, návštěva malé zoo, reklamace nekvalitního zboží."
    },
    "pisces": {
        "main": "Pátek začínáte s radostí a optimismem. Hlavně vzhledem k tomu, že je to váš poslední pracovní den v tomto týdnu. Úkoly vám jdou lehce od ruky a pracovní doba uteče jako voda. Nezůstávejte přesčas a spěchejte domů ke své rodině, se kterou máte plány.",
        "love": "S miláčkem si chcete vynahradit uplynulé večery, kdy jste na sebe neměli tolik času. Romantika za dveřmi ložnice je žádaná.",
        "work": "Pamatujte na to, že také můžou přijít nenadále finanční výdaje. Na účtě si peníze šetřete a neutrácejte za zbytečnosti.",
        "relationships": "Rodina, zvláště děti si na vás připravily překvapení ve formě společného večera. Dokonce vám můžou uvařit i večeři.",
        "health": "Honí vás mlsná, ale hrozí, že si pokazíte žaludek. Vzpomeňte si na pamlsky a lahůdky, které si dnes raději odpustíte.",
        "tips": "Založení spořicího účtu, vyřizování domácí korespondence, romantické zážitky s partnerem, péče o vzhled, omezení sladkostí."
    }
}