{
    "aries": {
        "main": "Dlouhodobě se vám nyní nedaří v zaměstnání prosadit svoje názory a postupy. Dnes se zamyslíte nad možnou změnou v profesní oblasti. Zvažte dobře, zda současná situace není přechodná a jaké vlastně máte do budoucna vyhlídky. Poraďte se také s rodinou.",
        "love": "Svým živočišným chováním a přístupem k životu lákáte do svých sítí nejednu zajímavou osobu. Ne všichni ale vaše tempo vydrží.",
        "work": "Pokud uvažujete o změně zaměstnání, poohlédněte se na internetu po odborných radách a nápadech, jak se prosadit.",
        "relationships": "Rodina vám dnes poskytne velkou oporu při důležitých rozhodnutích. Nebojte se zvednout telefon třeba večer a požádat o radu.",
        "health": "Vztek ve vás vyvolává určitá nejistota, co se týká vaší budoucnosti. Pokud vám to pomůže, jděte si zaběhat do lesa.",
        "tips": "Hledání nového zaměstnání, Získávání důležitých informací z webu, porada s rodinou, běh v lese, návštěva fitness centra."
    },
    "taurus": {
        "main": "Určitá situace v kruhu širší rodiny vás zasáhne a doslova vykolejí. Nenechte se zbytečně vyprovokovat ke konfrontacím a konfliktům. Berte věci s nadhledem, na jejich vyřešení stejně nemáte velký vliv. Nechali byste se totiž špatně ovlivnit.",
        "love": "Jeden z vašich blízkých přátel vás doslova donutí k rozhodnutí, které dlouho odkládáte. Věřte tomu, že to s vámi myslí dobře.",
        "work": "Při podepisování důležitých smluv a dokumentů dávejte velký pozor na věci psané malým písmem a pod čarou. Můžou být zrádné.",
        "relationships": "Z příbuzných vás někdo rozčílí natolik, že budete chvíli nepříčetní. Zkuste si ovšem zachovat tvář a neukazujte mu svůj hněv.",
        "health": "Dnes máte potíže se zvládáním vzteku. Zbytečně však přetěžujete nejen srdce, ale i nervový systém. Uvolníte se při masáži.",
        "tips": "Řešení konfliktů v rámci rodiny, podepisování obchodních dokumentů, opatrnost při jednáních s úřady, masáže, vydatný spánek."
    },
    "gemini": {
        "main": "Jste jako vítr, milí Blíženci. Ale není to úplně to pravé ořechové, co se navazování nových známostí týká. Máte sklony k přílišné důvěře k cizím lidem, a zklamání je na světě. Zvláště pokud se to bude týkat vašich financí. Můžete dostat velmi špatnou radu.",
        "love": "Nesmutněte, že jste zatím sami. S kamarády máte mnoho společných aktivit a zrovna dnes společně vyrazíte za kulturou.",
        "work": "Finance jsou dnes pro vás ožehavé téma. Jste spořiví, ale občas máte tendence riskovat. Ne všechno je vždy výhodné.",
        "relationships": "Radost vám dělají děti svojí šikovností a zručností. Zřejmě máte výtvarně či kreativně nadané potomky. Buďte pyšní.",
        "health": "Nezapomínejte na hydrataci. Tekutiny do těla dostanete také ovocem, zeleninou či polévkami. Záleží, na co máte chuť.",
        "tips": "Opatrnost při uzavírání obchodních smluv, hlídání finančních transakcí, návštěva letního kina, setkání s přáteli."
    },
    "cancer": {
        "main": "Nadřízený zřejmě velkoryse přehlédne vaše občasné výkyvy nálad, dnes mu totiž ukážete, že jste zaslouženě členem jeho týmu. Mezi vaše devízy, se kterými může počítat, patří přesnost, zodpovědnost, vytrvalost a nasazení. O práci se opravdu bát nemusíte.",
        "love": "S partnerem si vyjasníte předchozí neshody. Zjistíte, že to vlastně nebylo nic vážného. Příště více komunikujte.",
        "work": "Bleskově zamítnete nevýhodné půjčky nebo úvěry, které by měly vyřešit vaši finanční tíseň. Poraďte se o tom s přítelem.",
        "relationships": "To, že s vámi někdo z rodiny nesouhlasí, vás nechává naprosto chladnými. Víte, že každý má právo na svůj názor.",
        "health": "Honí vás mlsná? Dopřejte si, na co máte chuť, ale jen v omezeném množství. Hrozí žaludeční nevolnosti a problémy.",
        "tips": "Týmová spolupráce v zaměstnání, finanční výpomoc od přátel, urovnání dohadů s partnerem, poslech oblíbené hudby."
    },
    "leo": {
        "main": "Smyslem pro humor oplýváte normálně. Dnes vám ale výrazně pomůže odvrátit hrozbu negativních emocí směrem k vám. Jste rozjetí a v zápalu práce můžete své kolegy urazit nejapnými poznámkami o jejich výkonech. Dávejte si pozor na svoje chování.",
        "love": "Přátelé mají starosti o to, že jste již nějakou dobu sami, a tak vám domluví schůzku s někým novým. Trefí se vám do vkusu.",
        "work": "Štěstí stojí při vás. Kupte si los, menší výhra vás potěší. Není to nic závratného, ale dobré víno se za ni bude dát pořídit.",
        "relationships": "Doma si dnes uděláte menší grilování a posedíte pohromadě zase u jednoho stolu. Pozorně naslouchejte hlavně dětem.",
        "health": "Antioxidanty mají velmi pozitivní vliv na fungování celého těla. Pro vás obzvlášť, co se činnosti srdce a tepen týká.",
        "tips": "Urovnání sporů na pracovišti, nezávazné rande, rozhovor s dětmi, grilování, nákup doplňků zdraví, koupě výherního losu."
    },
    "virgo": {
        "main": "Při řešení jakýchkoliv úředních záležitostí dnes nepanikařte a snažte se zachovat chladnou hlavu. Nic není zatím tak horké. Zjistěte si všechny potřebné informace a ověřte detaily. Uvidíte, že najdete spolehlivé a hlavně překvapivě jednoduché řešení.",
        "love": "Přes sociální sítě vás může oslovit osoba, která se na první pohled jeví sympaticky. Postupně zjistíte, že jde jen o flirt.",
        "work": "Ovládněte své chutě někoho z kolegů zpražit. Zřejmě nedělá věci, tak jak by měl. Zkuste se ho nejprve zeptat, co se děje.",
        "relationships": "Brzděte s rozhazováním peněz, i když vás potomci budou přemlouvat k nákupu čehokoliv. Vysvětlete jim, proč jim nevyhovíte.",
        "health": "Touha po dokonalosti vás paradoxně přivádí do úzkostí. Přestaňte trápit sami sebe a uznejte své slabé stránky.",
        "tips": "Návštěva úředních institucí, rozhovor s kolegou, káva s přáteli, nové kontakty ze sociálních sítí, procházka se psem."
    },
    "libra": {
        "main": "Planeta Merkur stále zlobí vaše znamení v pracovní sféře. Jednejte opatrně a raději si jízlivé poznámky o kvalitě práce ostatních nechte pro sebe. Rozhodili byste si dobré vztahy s kolegy nebo nadřízenými, což není vhodné. Je to jen přechodná fáze.",
        "love": "S novým objevem jste si natolik sedli, že přemýšlíte o společném výletu. Nejlépe prodlouženém víkendu v blízkém zahraničí.",
        "work": "Sklony utrácet jsou u vás dnes největší riziko. Hlavně proto, že na investicích můžete zásadně prodělat. Nedejte se nachytat.",
        "relationships": "Vrátila se vám vitalita a síla, což ocení především nejbližší okolí. Den bude více než zábavný, hlavně pro vaše děti.",
        "health": "Může vás potrápit nepříjemná vyrážka. Pátrejte především v potravinách, které dnes konzumujete. Pomůžou vám antihistaminika.",
        "tips": "Udržování dobrých vztahů na pracovišti, oběd s kolegy, omezení nákupů, plánování prodlouženého víkendu, péče o pokožku těla."
    },
    "scorpio": {
        "main": "Neberte si dnes na svá bedra žádné další pracovní úkoly nebo náročnější povinnosti. Pomalu vám ubývá energie a snadno byste se mohli dostat pod tlak. Zrovna to by vám dobrou službu neudělalo. Slušně, ale asertivně odmítněte požadavky šéfa, pochopí to.",
        "love": "Budete potřebovat odpočívat a relaxovat, ale i tak neodmítejte zájem partnera. Večer může být pěkně žhavý i pro vás.",
        "work": "Zajímáte se o různé investiční možnosti a většinou máte správný odhad. Dnes si jen mapujte trh a odolejte svodům.",
        "relationships": "Přestože vás neopouští humor a optimismus, budete si dnes potřebovat odpočinout od lidí. Přátelé i rodina to pochopí.",
        "health": "Relax si představuje každý po svém. Vyberte si, co vám vyhovuje. Můžete si jít zaběhat, zacvičit, projet se na kole.",
        "tips": "Zvolnění v pracovní oblasti, zvažování investičních příležitostí, třídění e-mailové komunikace, lehká sportovní aktivita."
    },
    "sagittarius": {
        "main": "V práci jste stále a ještě si ji nosíte domů. Nedivte se, že se to partnerovi vůbec nelíbí. Díky tomu nemáte čas si popovídat, natož si užít společný večer ve dvou. Dnes to zkuste napravit. Uvidíte, že si intimní hrátky oba opravdu užijete.",
        "love": "I na dlouhodobém vztahu se musí pracovat. Nezapomínejte kvůli každodenním povinnostem na svou drahou polovičku.",
        "work": "Pracovní povinnosti vás zaměstnávají opravdu hodně a věnujete jim veškerou energii. Díky tomu nemáte čas na nic jiného.",
        "relationships": "Kdosi z příbuzných se rozhodl, že bude zkoušet vaši dobrotu a ochotu pomoci. Jeho chování spíše však připomíná manipulaci.",
        "health": "Jestli máte rádi zmrzlinu, zkuste si ji připravit z domácích surovin. Uvidíte, že vám bez konzervantů bude chutnat lépe.",
        "tips": "Zkoušení nových receptů, rozhovor s příbuznými, hraní počítačových her, intimní večer s partnerem, venčení pejska."
    },
    "capricorn": {
        "main": "Dnes máte opět tendenci si vzít práci domů, Naštěstí si to rozmyslíte a pracovní resty necháte na druhý den. Doma si udělejte příjemný večer s rodinou u televize nebo při společném posezení. Hvězdy vám přejí v oblasti nákupů a výhodných investic.",
        "love": "Nezadané Kozorohy čeká výzva v podobě rande a nezávazného flirtu. Využijte toho a užijte si i toto krátkodobé rozptýlení.",
        "work": "Dnes máte velmi dobrou možnost získat zajímavou věc. Pokud se pustíte do obchodování, je vám přáno. Nezůstávejte pozadu.",
        "relationships": "Doma si s nejbližšími uděláte příjemný den. Odpoledne si připravte dobroty na gril a společně si pochutnejte.",
        "health": "Vyzkoušejte nový zajímavý recept. Může to být nový zeleninový nebo ovocný salát, cizokrajný pokrm nebo domácí koláče.",
        "tips": "Příjemný den s rodinou, grilování, nezávazný flirt, rande, nové kulinářské zkušenosti, výhodné nákupy, vydatný spánek."
    },
    "aquarius": {
        "main": "Ve vzduchu je pozvání na rande. Pokud je vám protějšek alespoň trochu sympatický, tak se nebraňte schůzce. Možná soudíte knihu podle obalu, ale obsah vás může velmi překvapit. Využijte také přízně hvězd, co se zaměstnání týká. Máte šanci najít to pravé.",
        "love": "Ve vašem hledáčku uvízla jedna velmi zajímavá osůbka. Dejte šanci seznámení. Pokud to bude nutné, buďte aktivnější.",
        "work": "Pokud stále hledáte tu pravou práci, tak máte v těchto dnech šanci najít něco zajímavého. Také ale musíte jít štěstí naproti.",
        "relationships": "V rodinném prostředí se nebudete chtít unavovat pracovními povinnostmi. Odpoledne nebo večer se ponese v příjemném duchu.",
        "health": "Na přetíženou mysl zabírá nejvíce vydatný spánek. Zkuste již dnes jít dříve spát. Uvidíte, že se vám to bude zítra hodit.",
        "tips": "Hledání nové práce na internetu, sebevzdělávání, nové seznámení, rande, výuka cizích jazyků, péče o zahradu, vydatný spánek."
    },
    "pisces": {
        "main": "Stále excelujete v profesní oblasti. Ať už jste zaměstnanci, nebo pracujete sami na sebe, do cesty vám přicházejí slibné možnosti a nabídky na budoucí projekty či spolupráce. Jestliže si potřebujete utřídit myšlenky, vydejte se do přírody nebo k vodě.",
        "love": "Při seznamování si dávejte pozor na to, abyste se nedávali hned všanc novým osobám. Nejprve zjistěte jejich úmysly.",
        "work": "V profesní oblasti odvádíte nadstandardní výkony. Máte šanci dotáhnout rozdělané projekty zdárně do konce. Čeká vás odměna.",
        "relationships": "Rádi trávíte čas s nejbližšími. Ti, co mají rodinu, dnešní den věnují jí. Užijete si výlet do lesa nebo k rybníku.",
        "health": "Dopřejte si dnes čerstvý zeleninový salát. Možná vám zachutná čekanka, která je výborná na detoxikaci těla. Vyzkoušejte ji.",
        "tips": "Nové pracovní nabídky, obchodní jednání, opatrnost při jednání s cizími lidmi, výlet s rodinou do lesa nebo k rybníku."
    }
}