{
    "aries": {
        "main": "Mnoho prostoru k manévrování v náročných milostných záležitostech tedy opravdu nemáte. Bude třeba udělat kompromisy, které sice budou nad vaše zásady, ale ve výsledku vám mohou hodně prospět. Je k tomu ovšem třeba i spolupráce druhé strany.",
        "love": "V dlouhodobých partnerských vztazích není moc prostoru k tomu, aby se něco vylepšilo nebo samo spravilo. Chce to čas.",
        "work": "Páteční den nebude ničím výjimečný, ale i tak můžete opět o malinký krůček postoupit k vysněným pracovním metám.",
        "relationships": "Naplánujte něco pěkného na první listopadový víkend. Možná vás na nápad přivedou vaše ratolesti a bude to stát za to.",
        "health": "Vysedávání někde venku není vůbec dobrý nápad. Mohli byste si sice užít, ale odnesli byste to pořádným nachlazením.",
        "tips": "Setkání s přáteli u degustačního menu v nové restauraci, ochutnávka vína, nákupy vánočních dárků v e-shopu, nové sporty."
    },
    "taurus": {
        "main": "Pusu máte dnes hodně nabroušenou a neberete si servítky, především na pracovišti. Tam si ale můžete ošklivě naběhnout, protože kolegové si vaše jízlivé poznámky nedají líbit a vznikne přestřelka. Ta by mohla navíc mít dlouhodobě negativní dopady.",
        "love": "Máte nyní šance k sobě přitahovat lidi, kteří to s vámi myslí upřímně. Tedy ne žádné povrchní známé nebo krátkodobé románky.",
        "work": "Rozdílné názory panují mezi vámi a kolegy, tudíž může docházet k rychlým výměnám názorů. Dávejte si pozor na prostořekost.",
        "relationships": "Tím, že si nebudete hlídat svou rétoriku, můžete napáchat škody v rodině, které jen tak ničím neodčiníte. Pozor na to.",
        "health": "Nepodceňujte zrádnost studených a chlazených nápojů. Můžete si uhnat nepříjemný zánět v krku a zůstanete ležet s léky.",
        "tips": "Vyřizování úředních restů, odpolední káva v oblíbeném bistru, fotografování portrétů na zakázku, večeře s rodinou."
    },
    "gemini": {
        "main": "Máte chuť si nyní nabrat ještě nějaké povinnosti na svá bedra, abyste ostatními dokázali, že jste ve svém oboru špička. Bohužel na to není nyní vhodná doba a vy můžete své schopnosti dost přecenit. Dávejte si pozor na vaše přehnané sebevědomí.",
        "love": "S mnoha lidmi nyní nejste na stejné vlně, a tak dochází k mnoha malým, ale nepříjemným nedorozuměním. Nepodceňujte je.",
        "work": "Neberte si toho na sebe příliš jen proto, abyste si zajistili nějaké pracovní výhody. Opak je pravdou a vás čeká stres.",
        "relationships": "V tomto měsíci jste vystaveni velkému riziku, které s sebou nesou adrenalinové sporty, riskantní aktivity a akce.",
        "health": "Pokud se dnes vydáte večer za zábavou, možná zůstanete vzhůru dlouho do noci. Druhý den ale bude třeba odpočívat.",
        "tips": "Home office, třídění pracovních i soukromých e-mailů, nákup kancelářského vybavení, sportovní aktivity s dětmi, rychlá večeře."
    },
    "cancer": {
        "main": "V lásce vám pomáhá Venuše, v práci Merkur. Obě tyto planety jsou ve velmi hezkém a pozitivním postavení vůči vašemu znamení a přinesou vám jen pozitivní prospěch. Nemusíte se proto bát, že byste v něčem šlápli vedle nebo udělali velkou chybu.",
        "love": "Stále nad vámi bdí romantická Venuše, a tudíž si můžete užívat jen pěkné a romantické chvíle. Nenechte si žádnou utéct.",
        "work": "Merkur, zásobárna nevšedních myšlenek a nápadů, vám do cesty stále hrne nové a nové podněty, kterých by byla škoda nevyužít.",
        "relationships": "Dnes byste si měli udělat volnější odpoledne či večer, protože toho máte za sebou docela dost. V kruhu rodiny najdete klid.",
        "health": "Alkohol si dopřejte jen v omezeném množství, protože jste schopni si podráždit játra a slinivku. Vynechte tvrdý alkohol.",
        "tips": "Pořízení zahraniční dermokosmetiky v e-shopu, kontrola u stomatologa, úprava jídelníčku, nákup nábytku do dětského pokojíku."
    },
    "leo": {
        "main": "Ani dnes to nebudete mít jednoduché. Nejenže si vše komplikujete sami, ale také některá z protistran nemá stejné názory jako vy a vznikají zbytečná nedorozumění. Občas ale i vy musíte pokorně sklonit hlavu a uznat, že ne ve všem máte pravdu.",
        "love": "Vztek můžete mít jen sami na sebe. Jelikož neumíte nyní ovládat své emoce, nedivte se, že ostatní reagují tak, jak reagují.",
        "work": "Můžete si dnes vyložit požadavky nadřízeného jako naprosto nepřípustné a zbytečné. Bohužel bude nutné uznat, kdo je šéfem.",
        "relationships": "Plánujte zajímavá přátelská setkání. Hvězdy přejí tomu, abyste si udělali nějaký zábavný večírek, včetně kostýmů.",
        "health": "Úrazy vám budou hrozit po celý listopad, proto nespěchejte, nejezděte rychle v autě a dávejte si pozor při sportu.",
        "tips": "Wellness procedury, online nákupy dárků pod stromeček, výroba interiérových dekorací, fotografování v přírodě."
    },
    "virgo": {
        "main": "Vyzařujete pozitivní energii a sex-appeal do světa a lidé jsou k vám magicky přitahováni, aniž by tušili proč. Pokud toho využijete ve svůj prospěch, ale v dobrém, budou se dít doslova zázraky. Nesmíte ničeho ale zneužívat, obrátilo by se to proti vám.",
        "love": "Lidé kolem vás mohou být nyní fascinováni tím, jakou auru přitažlivosti vlastně máte. Nebojte se toho využít ke svému dobru.",
        "work": "Využívejte ve prospěch plnění vašich snů také to, že jsou s vámi zajedno vaši kolegové. Spolupráce je totiž klíčovým momentem.",
        "relationships": "Mnoho vašich blízkých si vám nyní nedovolí oponovat, tudíž můžete nabýt dojmu, že máte ve všem pravdu. Ale tak tomu není.",
        "health": "Kombinování různých druhů alkoholu není správné pro vaše zažívání. Dnes si dopřejte jen kvalitní víno nebo pivo.",
        "tips": "Plánování rodinné dovolené na horách v zahraničí, péče o domácí mazlíčky, hledání předvánoční brigády, studium cizího jazyka."
    },
    "libra": {
        "main": "Z pracovního stolu odklidíte všechny resty, abyste do příštího týdne vkročili bez obav a s novou energií. Dejte si záležet na tom, abyste ale nespěchali a udělali vše potřebné bez chyb. Po práci si ale nesmíte nechat ujít možnost jít se bavit.",
        "love": "Pokud vás čekají nějaké společenské události, byla by škoda, kdybyste je na poslední chvíli odřekli. Vyplatí se vám jít.",
        "work": "Dejte si záležet na tom, abyste za sebou nezanechali do příštího týdne nějaké zbytečné resty. Mysleli byste na ně celý víkend.",
        "relationships": "Neměli byste nyní odmítat jakékoliv pozvánky do společnosti nebo podněty k tomu, jak uspořádat parádní večírek.",
        "health": "Překontrolujte si, zda všechna vaše tělová mléka, krémy nebo emulze jsou stále správného data, nikoliv prošlé.",
        "tips": "Nákup nového kancelářského vybavení, kontrola výdajů za domácnost v posledním měsíci, pořízení vánočních dárků v e-shopu."
    },
    "scorpio": {
        "main": "Vaše libido dnes může být na vrcholu za celý týden, takže se nebudete bránit jakémukoliv flirtování, a pokud nemáte trvalý vztah, tak také románku na jednu noc. Vaše fantazie vás i váš protějšek dovedou k zajímavým erotickým dobrodružstvím.",
        "love": "Páteční večer je jako stvořený k randění a flirtování. To vám není cizí, jen si dávejte pozor na vaši velkou fantazii.",
        "work": "Budete rádi, když dnes opustíte zaměstnání a nedojde k nějaké konfrontaci nebo nepříjemnosti. Ale bude vás to stát dost sil.",
        "relationships": "Nesnažte se dnes nutit rodinu do nadměrných výkonů, domácích prací a sportovních aktivit. Otrávíte je na celý víkend.",
        "health": "Nové cvičení v posilovně by vám mohlo pomoci od nadbytku energie a zároveň vás dostat do formy. Tělo to ocení.",
        "tips": "Deskové a soutěžní hry s přáteli, četba zahraniční literatury, psaní básní, reklamace domácího spotřebiče, studium astrologie."
    },
    "sagittarius": {
        "main": "I když máte dnes představu o tom, kolik toho zvládnete, ne vše se podaří. Ale i tak toho uděláte dost a budete z toho mít dobrý pocit. V lásce vás mohou jisté záležitosti stále mást a klamat, ale nebojte se, za pár dní budete mluvit úplně jinak.",
        "love": "I přestože jste možná zklamaní vývojem ve vašem vztahu, blíží se dny, kdy se vše obrátí v dobré. Vydržte pár dní.",
        "work": "Možná se vám dnes nepodaří dosáhnout všeho, co jste si ráno předsevzali. Ale zvládnete toho víc než dost, nebojte.",
        "relationships": "Zaměřte svou pozornost tam, kde můžete dnes rozjet kreativní činnost nebo nějaké nové hobby. Máte skrytý talent.",
        "health": "Správnou stravou byste mohli docílit toho, že nebudete tak unavení, ale naopak tělu dodáte jídlem správnou energii.",
        "tips": "Zařizování domácího výtvarného ateliéru, nákup vinylových desek v antikvariátu, domácí pokerový turnaj s přáteli."
    },
    "capricorn": {
        "main": "Bude se vám dařit téměř ve všem, na co sáhnete, takže páteční den bude jako malovaný a konečně vám po dlouhé době bude dobře na duši. Máte dnes dojem, že se na vás konečně usmálo štěstí, a budete si zaslouženě svou budoucnost malovat narůžovo.",
        "love": "Děláte si velké naděje, že váš současný partner je pro vás ta pravá osůbka do budoucna. Zatím to tak i vypadá.",
        "work": "Planety Merkur a Pluto jsou na vaší straně a stále zatím pracují ve váš prospěch. Jde o přísun nových nápadů a dobrou intuici.",
        "relationships": "Nové oblečení a obuv na zimu už byste si měli pořídit dávno. Možná dnes ale uvažujete o změně stylu a začnete znovu.",
        "health": "Dávejte si dobrý pozor, pokud dnes půjdete domů za tmy, protože můžete zakopnout a nehezky si poranit dolní končetiny.",
        "tips": "Sepsání nového životopisu, hledání předvánoční brigády, plánování rodinné dovolené v zahraničním wellness hotelu."
    },
    "aquarius": {
        "main": "Jistě dnes vylovíte ze své paměti nějaký nápad, na který zatím nepřišla řada. A bude se vám sakramentsky hodit, protože nových moc nemáte a nejsou tak kvalitní. Vezměte tedy své starší myšlenky a trochu je přizpůsobte současnosti. Uvidíte, že zafungují.",
        "love": "Vydržte ještě pár dní, protože se vše v lásce začne obracet k lepšímu. Dnes neházejte flintu do žita a bavte se.",
        "work": "Nové nápady ne a ne přijít. Nevadí, jistě vytáhnete z rukávu nějaký, který jste opomněli a teď se hodí. Stačí drobná změna.",
        "relationships": "V kruhu nejbližších vám dnes bude nejlépe. Domácí kino a dobré jídlo i pití mohou pohodovou atmosféru umocnit.",
        "health": "Dbejte na správnou zubní hygienu, protože vás mohou pozlobit zuby a bolest to nebude příjemná. Také si zajděte k zubaři.",
        "tips": "Třídění staršího oblečení pro charitu, hledání partnera přes online seznamku, poslech jazzové hudby z vinylové desky."
    },
    "pisces": {
        "main": "Ani se nemusíte tolik snažit a své kolegy předeženete ve všem mílovými kroky. Není to tím, že by byli pomalí, ale tím, že vám prostě všechno vychází tak, jak jste si předsevzali. Nezapomeňte se ale také jít večer pobavit, čeká tam na vás překvapení.",
        "love": "Ve společnosti dnes můžete narazit na někoho velmi okouzlujícího a z této osůbky nespustíte oči. Sympatie jsou oboustranné.",
        "work": "Své kolegy předháníte velice jednoduše a ke konci týdne vám jen stěží budou dýchat na záda. Domů tedy půjdete nadšení.",
        "relationships": "I v rodině a rodinných vztazích bude platit, dvakrát měřit a jednou řezat. Máte tendence být zbrklí a to přináší problém.",
        "health": "Podpořte své zdraví, které je sice dobré, nějakými zajímavými bylinnými léky nebo přípravky. Uvidíte, že prospějí i tak.",
        "tips": "Zaplacení zimní dovolené na horách, úklid pracovny, oběd s přáteli v restauraci, degustace vína a exotických lahůdek."
    }
}