{
    "aries": {
        "main": "Láska vám může nyní dělat vrásky na čele, a to především těm, kteří jsou v dlouhodobém vztahu. Hvězdy nejsou na vaší straně, ale naopak vám situaci komplikují. Je to pro vás od nich výzva, abyste se naučili důležité věci řešit jinak a dělat kompromisy.",
        "love": "Planetě Venuši se moc z opozice vůči vašemu znamení nechce, a tak budete muset ještě pár dní vydržet, než se umoudří.",
        "work": "Možná potřebujete společenské oblečení, ale bude třeba jeho výběr neodfláknout a být pečliví. Jinak ho budete brzy vracet.",
        "relationships": "Příprava rodinného oběda může být fajn, pokud se do ní zapojí ještě někdo kromě vás. Společné vaření buduje vztahy.",
        "health": "Dnes si uvařte dobrý bylinný čaj, zachumlejte se do teplé deky a odpočívejte s knížkou v ruce. Potřebujete nabrat síly.",
        "tips": "Sledování oblíbeného seriálu, pořízení vstupenek na vánoční koncert nové kapely, plánování lázeňského pobytu v zahraničí."
    },
    "taurus": {
        "main": "Neděle některým z vás dopřeje klid a samotu, kterou i když zpočátku nechcete, nakonec oceníte. Musíte si nechat některé myšlenky a pocity uzrát, a k tomu je třeba čas. Ti z vás, kteří jsou nyní nezadaní, mohou přemýšlet, zda se vůbec chtějí vázat.",
        "love": "Osvědčí se vám to, že si dnes dopřejete klid a čas jen sami pro sebe. Máte chuť si dát odstup od všech vztahů a závazků.",
        "work": "Ani obchodování vám nebude dělat radost. Máte přehnaná očekávání a vidíte za vším velké zisky. Ale opak je pravdou.",
        "relationships": "Vaše děti mohou zatoužit po setkání a programu s kamarády. Neměli byste jim bránit, ale naopak jim více důvěřovat.",
        "health": "Držte se v teple, a pokud se vydáte na krátkou procházku do přírody, dobře se oblečte. Dávejte také pozor na terén.",
        "tips": "Rezervace rodinné dovolené na horách, nákup zimního sportovního oblečení a vybavení pro děti, hledání předvánoční brigády."
    },
    "gemini": {
        "main": "Hospodařte se svými financemi řádně a zodpovědně. Ovšem to neznamená, že budete škrti a svým blízkým nepořídíte něco hezkého nebo dobrého. Nezadaným či těm, kteří mají ve vztahu nesrovnalosti, bude ještě chvíli romantika a láska cuchat nervy.",
        "love": "Nemusíte se bát, že by současné dny, kdy si nejste ničím jistí, přetrvávaly dlouhou dobu. Brzy si na ně ani nevzpomenete.",
        "work": "I přestože nyní velkým nedostatkem peněz netrpíte, bude třeba myslet na nenadálé výdaje, které vás mohou potkat.",
        "relationships": "Možná byste si nějakým hezkým a neobvyklým způsobem rádi zútulnili dům či byt. Nechte se inspirovat zahraničními trendy.",
        "health": "Odpoledne si vyhraďte čas na trochu meditace a nějakého odpočinku. Můžete to pojmout i umělecky nebo výtvarně.",
        "tips": "Dopoledne v technickém muzeu, příprava s dětmi do školy, hraní her na pc s kamarády, thajské masáže, lehká večeře."
    },
    "cancer": {
        "main": "Neděle by se měla nést v duchu klidu, soukromí a lásky. Nenechte se vytáhnout někam do obchodního centra, mezi davy lidí. Raději si společně s partnerem uvařte dobrý oběd a den si užijte v blízkosti. Za dveřmi ložnice se mohou odehrát krásné věci.",
        "love": "Pravděpodobně si chcete se svou novou láskou dopřát více soukromí, proto se dnes nevydáte do společnosti, ale zůstanete doma.",
        "work": "Dnes nechte stranou veškeré obchodní transakce, myšlenky na to, jak ještě nějaké peníze vydělat. Raději si užívejte neděle.",
        "relationships": "Snažte se o to, aby vaše nálada dnes spíše odpovídala tomu, jak jsou naladění vaši nejbližší, než tomu, jak se cítíte vy.",
        "health": "Dávejte si pozor při sportovních aktivitách, ve kterých si nejste ještě jistí. Mohli byste to přehnat s aktivitou.",
        "tips": "Nákup luxusních interiérových dekorací, poslech oblíbené audiotéky, renovace dětského pokoje, posilovací cvičení na nohy."
    },
    "leo": {
        "main": "Umíte být někdy opravdu nesmlouvaví v tom, jak se vyjádříte směrem k druhým. Někoho z rodiny nebo přátel to ale může dost ranit a vy se budete hodně dlouho snažit tento trapas uhladit. Hlídejte si také své finance a především výdaje za domácnost.",
        "love": "Opatrně s tím, jak nakládáte se svými emocemi a náladami vůči ostatním. Někdo nový se může zaleknout vaší přímosti.",
        "work": "Každý příjem, který se dnes projeví na vašem účtě, budete pečlivě monitorovat. A děláte dobře. Víte, kde a co můžete získat.",
        "relationships": "Nemáte toho dnes po dlouhém týdnu již dost? Možná se vám úplně nechce, ale klid a odpočinek vám jedině prospějí.",
        "health": "Pokud vám nebude dobře, není nic jednoduššího než si dopřát dietu a také nějaké bylinné kapky, které trávení uklidní.",
        "tips": "Nákupy potravin online s dovážkou do domu, pořízení vánočních dárků pro přátele přes zahraniční e-shopy, hledání nové brigády."
    },
    "virgo": {
        "main": "Jdete-li dnes na rande, dejte si hodně záležet na výběru oblečení, parfému a doplňků. Týká se to samozřejmě i mužů. Váš protějšek se bude pak ve vaší společnosti cítit opravdu dobře a bude na vás pyšný. I pohled na vás dva bude pro okolí příjemný.",
        "love": "Máte-li před sebou první schůzku s novým idolem, nepodceňujte přípravu a snažte se o perfektní vzhled a dojem.",
        "work": "Nějaký malý dáreček k dobru, v podobě výhry, vám může spadnout do klína. To by vás ale nemělo donutit, abyste riskovali víc.",
        "relationships": "Den může být parádní pouze tehdy, nebudete-li po ostatních doma nic požadovat. Dejte průchod i svým vlastním zájmům.",
        "health": "Olejová lázeň se správnými přísadami do koupele bude mít pozitivní vliv na vaši pokožku. Stačí jen vědět, co si vybrat.",
        "tips": "Příprava s dětmi do školy, péče o pokojové rostliny, třídění rodinných fotografií, generální úklid garáže nebo sklepa."
    },
    "libra": {
        "main": "Pravděpodobně vás překvapí jistá darovaná věc, kterou obdržíte. Jedná se totiž o něco, co má především osobní hodnotu, nikoliv jen tu finanční. Může vás zahřát na srdci, že jste se novými majiteli stali právě vy. Zřejmě k vám má dotyčný blízko.",
        "love": "Vedle sebe si představujete někoho, kdo bude o něco živelnější než vy, ale stejně zábavný a empatický. To nebude problém.",
        "work": "Může se stát, že vám kdosi daruje něco velmi pěkného a cenného. Pravděpodobně půjde o předmět, který se dědí v rodině.",
        "relationships": "Kamarádi vám rozhodně nedají košem, pokud je přizvete na nějakou zajímavou akci nebo sportovní aktivitu. Užijete si to.",
        "health": "I vy musíte někdy odpočívat. Pro vás to ale může být formou procházky v přírodě, kdy si vyčistíte hlavu i plíce.",
        "tips": "Výroba dekorací z podzimních sušených květin, příprava domácího pečeného čaje, nákup zimních sportovních potřeb a oblečení."
    },
    "scorpio": {
        "main": "Neuvážené jednání se vám nemusí vyplatit především v investicích, nákupech a obchodování všeobecně. Dejte raději na radu někoho zkušeného, kdo vám nyní promluví do duše. Později si toho budete cenit, protože byste udělali nenapravitelnou chybu.",
        "love": "Pokud se nezačnete ovládat a nepřestanete žárlit, později budete svých slov a činů opravdu hodně litovat. Přemýšlejte o tom.",
        "work": "V tyto dny musí být vaše rozhodnutí pomalá, rozvážná a po dohodě nebo poradě s někým zkušeným. Zbrklost vám zadělá na problém.",
        "relationships": "Prospěl by vám odpočinek, a to nejen fyzický, ale i psychický a především digitální detox. Tělo i hlava si to žádají.",
        "health": "Zvýšená únava vás bude pronásledovat celý tento měsíc. Je to i tím, že vás mnoho věcí stresuje a vyčerpává do dna.",
        "tips": "Vydatná rodinná snídaně, příprava na nový pracovní týden, plánování týdenních aktivit pro děti, odpoledne ve wellness centru."
    },
    "sagittarius": {
        "main": "Rodinná návštěva se vám bude dnes líbit. I když si na to moc nepotrpíte, nakonec se se svými příbuznými dobře najíte a hezky si spolu popovídáte. To vám pomůže zapomenout na pracovní povinnosti, nedorozumění ve vztazích nebo finanční problémy.",
        "love": "Setkání s blízkými příbuznými, dobrý oběd a posezení. To vše vám dnes může moc prospět a zlepšit náladu, tak to neodmítejte.",
        "work": "Udělejte si finanční rezervu, která se vám bude brzy hodit na nějaký vysněný předmět. Bude navíc za dobré peníze.",
        "relationships": "Podívejte se na internetu nebo v obchodě, co by vás tak mohlo inspirovat pro nákup vánočních dárků, a udělejte si seznam.",
        "health": "Dopřejte si dnes vydatný spánek nebo kratšího šlofíka po obědě. Pomůže vám to dočerpat další síly, které budou brzy třeba.",
        "tips": "Vernisáž v umělecké galerii, oběd v příjemném bistru, poslech rockové hudby, hraní pc her, četba světových hororů."
    },
    "capricorn": {
        "main": "Nová láska vás zcela pohltila, takže se vydáte na další schůzku s partnerem a budete si užívat každou společnou chvilku. Plánů bude dostatek, stačí se jen rozhodnout. Vám ale půjde hlavně o to, že budete v přítomnosti svého idolu, a nic jiného neřešíte.",
        "love": "Nedělní den budete chtít prožít ve společnosti své nové lásky a spřádáte velké plány, kam jít a co společného podniknout.",
        "work": "Při pohledu na své bankovní konto se vám udělá dobře u srdce. Je jasné, že se vám nyní daří investovat a následně spořit.",
        "relationships": "Vůbec vám nebude vadit, pokud si dnes ostatní doma půjdou po svém. Sami se totiž chcete věnovat svému oblíbenému hobby.",
        "health": "Po teplé koupeli si tělo promažte dobrým tělovým mlékem nebo krémem. Nezapomínejte hlavně na velké klouby a končetiny.",
        "tips": "Setkání se staršími příbuznými a rodinná oslava, pořízení řezaných květin, zákusů a chlebíčků, studium kaligrafie."
    },
    "aquarius": {
        "main": "Vaše důležitá životní rozhodnutí budete přehodnocovat ještě v neděli. Je toho na vás hodně a bude třeba najít dnes klid a trochu soukromí. Vypněte mobilní telefon, televizi, pusťte si oblíbenou hudbu a věnujte se pouze sobě a svým myšlenkám.",
        "love": "Uleví se vám, pokud dnes vynecháte jakékoliv téma hledání nového partnera nebo řešení trablů ve vztahu. Potřebujete nadhled.",
        "work": "Plány k zamýšleným obchodním transakcím jsou nedokonalé a nedotažené. Bude třeba je přehodnotit, nebo dokonce zrušit.",
        "relationships": "Sychravé počasí vás dnes možná zavede někam na příjemné masáže či do sauny. Rodina či přátelé se jistě rádi přidají.",
        "health": "Dobrý, a teplý bylinný čaj vám dnes udělá dobře. Nemusí to být nechutné pití, jak se mnozí domníváte. Stačí jen hledat.",
        "tips": "Rekreační sporty v přírodě, saunování, vířivka, profesionální péče o pokožku těla, četba cizojazyčné literatury."
    },
    "pisces": {
        "main": "Pokud se k vám dnes dostanou nějaké informace, které nebudou příjemné, nesmíte se podle nich hned rozhodovat. Musíte si je ověřit a řešit vše, až budete mít jasno. Neuvážené, až hysterické kroky vás mohou později velmi mrzet. Hvězdy doporučují být v klidu.",
        "love": "Zbrklá rozhodnutí na základě neověřených informací jsou pro váš vztah doslova katastrofa. Nedělejte nic takového.",
        "work": "Váš nápad je skvělý, ale pokud se o něj z velké části nepřičiníte sami, nic z toho nebude. Vaše píle se vám vyplatí.",
        "relationships": "Sklony k sebelítosti u vás může vyvolat spíše fyzická i psychická únava než nějaký rodinný problém či konflikt.",
        "health": "Vitalitu podpoříte správným jídlem a vitaminy. Kombinujte hodně zeleniny a masa, vajíčka a sýry. Je zapotřebí více proteinů.",
        "tips": "Setkání s rodinou u nedělního oběda, nákupy interiérových dekorací ze sušených květin, příprava s dětmi do školy."
    }
}