{
    "aries": {
        "main": "Druhý volný den vás dnes může zavát do obchodních center, protože nechcete nechat nákupy vánočních dárků pro své milé na poslední chvíli. Také se můžete podívat po nových ozdobách na stromeček a dekoracích na dům nebo balkon. Hezky vás to naladí.",
        "love": "S kamarády se v sobotu vydejte za zajímavými zážitky, při kterých se můžete něco nového navíc dozvědět nebo naučit.",
        "work": "Sice můžete nyní mít více malých zisků, které plní vaše konto, ale nejsou to takové, které by vás zajistily na delší dobu.",
        "relationships": "Blížící se Vánoce vás mohou vyhnat do obchodního centra, abyste se porozhlédli po nové výzdobě a tematických dekoracích.",
        "health": "Na to, abyste dnes posedávali někde venku před restaurací nebo na farmářském trhu, počasí opravdu není. Bylo by to o zdraví.",
        "tips": "Výlet za zajímavými památkami, renovace drobnějšího nábytku, výroba vánočních dekorací, luštění hádanek s dětmi."
    },
    "taurus": {
        "main": "Dnešní den zřejmě prožijete ve společnosti svých blízkých při rodinných setkáních. Budete se těšit z dobrého oběda, příjemných rozhovorů a posezení u kávy. Doplnit to můžete hezkou procházkou po blízkém okolí a nakonec spočinout doma v pohodlí.",
        "love": "Rodinné návštěvy máte celkem rádi, a tak se na tu dnešní budete těšit. Sobotní den by tak měl být pohodový a klidný.",
        "work": "Buďte velmi opatrní, pokud se necháte přemluvit k nějakému obchodu, o kterém v současnosti víte opravdu málo.",
        "relationships": "Pokud se dnes máte zúčastnit rodinné oslavy, nezapomeňte si kromě dárečků přibalit i dobrou náladu a úsměv na tváři.",
        "health": "Při dnešní procházce vás mohou prohřát teplé nápoje, pečené kaštany nebo trdelník. Dejte si to, na co budete mít chuť.",
        "tips": "Posezení s novými sousedy, drobný úklid, péče o pokojové rostliny, nákupy pro starší příbuzné, hledání zimní dovolené."
    },
    "gemini": {
        "main": "Dostane se vám zřejmě velkého překvapení ve formě lichotek od někoho, o koho delší dobu usilujete. Splní se vám tak vaše tajná přání a můžete naplno vyjádřit své sympatie. Uznáte, že se vám vyplatila trpělivost a snaha o porozumění novému protějšku.",
        "love": "Kdosi vám dnes zcela nečekaně může projevit své city, a to takovým způsobem, že vás naprosto chytne za srdce.",
        "work": "Berte dnešní den takový, jaký je. Tedy volný, bez předsudků a myšlenek na pracovní povinností. Nejsou tak důležité.",
        "relationships": "Nákupy na trzích se nemusí točit jen kolem jídla, ale také již kolem pořizování dárků pod stromeček. Budete mít šťastnou ruku.",
        "health": "Den začněte opravdu vydatnou a rozmanitou snídaní, protože budete potřebovat energii na plány, které jste si připravili.",
        "tips": "Tréninky ve fitness centru pod dohledem trenéra, výtvarné práce s dětmi, večerní divadelní představení, venčení pejska."
    },
    "cancer": {
        "main": "Váš protějšek ani vy nejste zřejmě příliš spokojení s dosavadním průběhem vašeho vztahu, a tak sáhnete k rozhovoru. Pokud oba ustoupíte od ješitného a urážlivého chování, doberete se k zajímavým výsledkům, které váš vztah ještě neukončí, ale právě naopak.",
        "love": "Současná situace ve vašem partnerství se může jevit jako bezvýchodná. Bude nutný vážnější rozhovor s protějškem.",
        "work": "Místo toho, abyste se svým partnerem řešili věci kolem práce, věnujte se raději tomu, jak vylepšit vás současný vztah.",
        "relationships": "Snažíte se být oporou a vrbou pro ostatní doma, ale jaksi zapomínáte na sebe. Věnujte potřebný čas také regeneraci.",
        "health": "Na nějaké problémy se zažíváním již nebude stačit úprava jídelníčku, ale bude dobré co nejdříve navštívit lékaře.",
        "tips": "Degustace nových vín na trzích ve městě, pečení vánočního cukroví, nákupy vinylových desek s oblíbenou hudbou."
    },
    "leo": {
        "main": "Připravíte si dnes pro své přátelé velmi příjemný večírek s nějakým zajímavým tématem. Vzhledem k tomu, že umíte vykouzlit krásnou a pohodovou atmosféru, nedivte se, když budete končit někdy nad ránem. To vše si ale vynahradíte dostatečným odpočinkem.",
        "love": "Váš nový protějšek si zaslouží jemnější zacházení a více tolerance. Vše se nesmí řídit jen vašimi nápady a pocity.",
        "work": "Dnešní volný den byste měli věnovat tomu, co vás baví a z čeho máte s partnerem ta největší potěšení. Oba víte, co to je.",
        "relationships": "Pokud dnes dojde na přátelská posezení u vás doma, jistě víte, jak vykouzlit příjemnou atmosféru a užít si to se vším všudy.",
        "health": "Dejte si pozor při používání chemikálií při úklidu nebo čištění. Můžete si potřísnit pokožku na rukou a nadýchat se výparů.",
        "tips": "Rodinná oslava, plánování jarního pobytu v lázních pro starší příbuzné, příprava grogu nebo svařeného vína, pečení kaštanů."
    },
    "virgo": {
        "main": "Natolik se dnes oddáte vášním se svým novým partnerem, že ve vás ale také vyvstane jistá míra žárlivosti a budete mít co dělat, abyste se ovládli. Raději to svému miláčkovi sdělte ihned a mírnou formou, aby nakonec z vašeho vztahu nebyla katastrofa.",
        "love": "S novým vztahem mohou přijít nejen obrovské vášně, ale také žárlivost. Budete se muset krotit natolik, abyste nic neohrozili.",
        "work": "Sobotní den vás bude lákat k tomu, abyste si konečně splnili také něco ze svých plánů. Volte je podle momentální nálady.",
        "relationships": "Dobře uděláte, pokud si pro oba volné dny či jen pro dnešek zvolíte jiné místo než domov. Tam na vás padá ponorková nemoc.",
        "health": "V jídle byste se měli trochu krotit, protože se vám může z mastných a tučných jídel udělat špatně a skončíte v nemocnici.",
        "tips": "Romantické hrátky s novým miláčkem, oběd v mexickém bistru, odpolední procházka městem, večer v domácím prostředí."
    },
    "libra": {
        "main": "Dnes si dopřejte pomalejší start do volného dne a zůstaňte déle v posteli. Nepospíchejte ani s přípravou oběda, nebo si na jídlo vyjděte do oblíbené restaurace a věnujte čas svým blízkým. Planety navíc dodávají vašemu milostnému životu pořádnou jiskru.",
        "love": "Stále nad vaším milostným životem bdí Venuše a dodává pořád nové a nové podněty k nalezení kvalitního partnera.",
        "work": "Věnujte se dnes tomu, na co nemáte přes pracovní týden volno. Mohou to být domácí práce a větší úklid. To vám udělá i radost.",
        "relationships": "Delší spánek vám dnes jedině prospěje. Nemusíte si dělat starosti s tím, že do soboty vkročíte poněkud později a pomaleji.",
        "health": "Pokožku rukou při práci s čisticími prostředky chraňte gumovými rukavicemi. Předejdete ekzémům a alergickým reakcím.",
        "tips": "Nákupy zimního vybavení a oblečení pro děti, poslech rockové hudby, plánování vánočních svátků, sraz s kamarádem."
    },
    "scorpio": {
        "main": "Máte-li tu možnost, nenechte si ujít příležitost k tomu, abyste si svého miláčka zatáhli do ložnice a užili si spolu erotiky a vášní, co je libo. Uvidíte, že se díky tomu rozplynou i předešlá nedorozumění a oba si budete moct konečně oddychnout od napětí.",
        "love": "Na vašeho partnera nyní může fungovat jediné, a to je vaše umění v milostné oblasti. Tím můžete hodně věcí napravit.",
        "work": "Volný den byste měli využít ve svůj vlastní prospěch. Dejte se do věcí, které vám leží dlouho na stole a je třeba jim dát řád.",
        "relationships": "Rozhodně se nebudete hroutit z toho, že vám kdosi na poslední chvíli zrušit společnou akci, ale zlobit se v duchu můžete.",
        "health": "Můžete si dovolit hodně náročné, dokonce i adrenalinové sporty, protože máte opravdu energii a sílu je zvládnout.",
        "tips": "Dopoledne s dětmi v přírodě, lehký oběd, péče o domácí mazlíčky, odpolední relax s knížkou, večer v rockovém klubu s přáteli."
    },
    "sagittarius": {
        "main": "Přátelé vás sice mohou stále přemlouvat k tomu, abyste jim konečně představili svou novou známost, ale vám se do toho ještě nechce. Rádi byste si svůj nový idol užili dosytosti sami a v soukromí. Vaše drahá polovička nebude namítat vůbec nic.",
        "love": "Není od věci s novou známostí zůstat doma a věnovat se bližšímu poznávání jeden druhého. Na velkou společnost je čas.",
        "work": "Sobotní den si budete chtít užít konečně po svém a nechcete se dívat na to, jak vám z kapsy mizí peníze za zbytečnosti.",
        "relationships": "Nákupy vánočních dárků můžete realizovat i přes internetové obchody. Stačí jen vědět, na co se máte přesně zaměřit.",
        "health": "Dopřejte si dnes nějaké příjemné wellness procedury, které vás prohřejí a zároveň proberou k životu. Může to být i parní lázeň.",
        "tips": "Cvičení ve fitness centru, kosmetické a wellness procedury, pořizování vánočních dárků v kamenném obchodě, meditace."
    },
    "capricorn": {
        "main": "Zkuste se dnes alespoň na pár hodin vymanit z domácího prostředí, kde pomalu hrozí ponorková nemoc. Na výběr máte z mnoha možností, stačí se jen rozhodnout, nemůžete udělat chybu. Večer zjistíte, jak je vlastně fajn občas opustit zdi domova.",
        "love": "Krátká změna prostředí, jako je procházka, návštěva přátel nebo příbuzných, či podvečerní kino. To vše dnes pomůže.",
        "work": "Užívat si můžete dnes nákupů na blížící se Vánoce a nebudete litovat. Je možné, že pořídíte dárečky za hezké ceny.",
        "relationships": "Pomůže vám malá změna prostředí. Nemusíte na výlet do dalekého města, stačí si vyjít na procházku, do kina nebo na nákupy.",
        "health": "Jakékoliv rutinní a stále stejné pohyby vám mohou způsobit bolesti pohybového aparátu. Rozhodně zapomeňte na akční sporty.",
        "tips": "Ruční mytí a čištění auta, nákupy surovin pro pečení vánočního cukroví, setkání s bývalým kolegou ve městě, tanec."
    },
    "aquarius": {
        "main": "Druhý volný den máte možnost prožít v klidu, bez zásadních rozhodnutí a ve společnosti těch, se kterými je vám dobře. Nemusíte se do ničeho nutit, a naopak si můžete zvolit program podle svého gusta. Dokonce se můžete věnovat svému hobby o samotě.",
        "love": "S někým novým se postupně posunujete do další fáze, kdy se oba chcete lépe poznat. Nic vám nebrání v tom začít s tím dnes.",
        "work": "Oddejte se dnes odpočinku v kruhu rodiny a nedělejte si plány na večer ve společnosti. Vám prospěje intimita rodinného kruhu.",
        "relationships": "Vyjděte si za kulturou, protože jedině tak si můžete vyčistit hlavu. Dobře uděláte návštěvou kina nebo koncertu.",
        "health": "I na sebemenší poranění a zánět byste měli mít vybavenou lékárničku, která bude obsahovat také obvazový materiál.",
        "tips": "Dopolední sledování pohádek s dětmi, hraní deskových a vědomostní her, procházka s pejskem po okolí, sportovní aktivity."
    },
    "pisces": {
        "main": "Nespěchejte na svůj nový idol, nic tím nezmůžete. Vašemu vztahu naopak prospěje volnější tempo, s pomalejším sbližováním. I ve vás panují jisté obavy, a tak je třeba, aby si vše sedlo samo a přirozeně. Mnozí z vás začnou pořizovat vánoční dárky.",
        "love": "S novou známostí si užívejte tak, jak jen to jde, a berte všechno volnějším způsobem. Zatím máte na všechno dost času.",
        "work": "Cokoliv bude dnes spojeno s obchodováním, není to, do čeho byste se měli bezhlavě pouštět. Je vám doporučena zdrženlivost.",
        "relationships": "Zajděte se podívat do obchodů, protože se blíží Vánoce a budete potřebovat mít přehled o tom, co pořídit pod stromeček.",
        "health": "Energie máte tolik, že do postele půjdete hodně pozdě, ale druhý den z ní vyskočíte brzy. Nemáte problém s kratším spaním.",
        "tips": "Zápis do nového jazykového kurzu, výměna milostných sms s partnerem, oběd z nové restaurace, rekreační běh v přírodě."
    }
}