{
    "aries": {
        "main": "Snažte se i dnešní volný den prožít v pohodě, protože si můžete dovolit prokrastinovat. To ale není ten správný program na volný den pro vás, jelikož jste velmi akční a neradi vysedáváte doma. Dobře vám udělají práce s květinami, rostlinami a půdou.",
        "love": "Protože nemusíte zítra do práce, můžete si dnes s partnerem připravit romantickou večeři a možná i trochu ponocovat.",
        "work": "Může se stát, že vyhrajete menší sumičku v loterii. Určitě vás taková zpráva dnes potěší a vykouzlí úsměv na tváři.",
        "relationships": "Dnes byste měli rozhodně více odpočívat. Věnujte se zahradničení, udělejte si krásnou procházku v přírodě a relaxujte.",
        "health": "Omezte pobyt v prašném či zakouřeném prostředí. Nedělá to dobře vašim plícím, potřebujete pohyb na čerstvém vzduchu.",
        "tips": "Pozdní snídaně, romantika s partnerem, vaření rodinného oběda, procházka k řece, výzdoba interiéru, úklid domácnosti."
    },
    "taurus": {
        "main": "S vaším protějškem byste den měli začít romanticky, protože pak to tak bude i pokračovat. Chcete-li tedy mít neděli romantickou, není to vůbec nemožné. Začněte tím, že si uděláte výbornou snídani do postele, a nezapomeňte na něžnosti, které k tomu patří.",
        "love": "Dopřejte si pozdní vstávání, ranní mazlení nebo snídani do postele. Můžete si dovolit cokoli, co vás s partnerem napadne.",
        "work": "Nedělní atmosféra vás přinutí, abyste pouze relaxovali a nechali domácí práce na jiný den. Popravdě vám nic neutíká.",
        "relationships": "Nedělní den byste měli věnovat pobytu v přírodě a na čerstvém vzduchu. Alespoň krátká změna prostředí vám hodně pomůže.",
        "health": "Pozor si musíte dávat ještě po večerech, kdy se ochladí. Mohli byste nepříjemně nastydnout a způsobit si problémy.",
        "tips": "Kreativní práce s dětmi, plánování renovace domácnosti, odpolední setkání s kamarády, sportování na čerstvém vzduchu."
    },
    "gemini": {
        "main": "Dávejte si dnes dobrý pozor, pokud budete platit cokoliv přes internet. Bude nutné, abyste si překontrolovali všechny údaje, a také komu co platíte. Díky tomu se můžete ušetřit nepříjemností a chyb. Doma ze skříní vyřaďte staré oblečení pro charitu.",
        "love": "Dnes byste si mohli užít docela krásné chvíle v lásce, pokud za sebou zanecháváte pochybnosti a nebudete se vyptávat.",
        "work": "Opatrní byste měli být v momentě, kdy budete dnes hradit něco platební kartou přes internet. Musíte dobře znát obchodníka.",
        "relationships": "Projděte si své skříně s oblečením a vyřaďte vše, co vám již není, nebo se vám nelíbí. Můžete udělat radost někomu jinému.",
        "health": "Také dnes se snažte neplýtvat silami na zbytečné věci. Dělejte jen to nejnutnější a po zbytek dne odpočívejte.",
        "tips": "Sázení léčivých bylinek, nákupy v zahradnictví, výroba interiérových dekorací, sepisování citátů o lásce, taneční lekce."
    },
    "cancer": {
        "main": "Jakákoliv změna prostředí vám udělá dobře. Stačí i pokud to bude jen krátká odpolední procházka ve městě a zastávka na kávu někde cestou. Nad ničím dnes nepřemýšlejte a nechte se unést příjemnou atmosférou. Nejvíc to bude fungovat v nových vztazích.",
        "love": "Neodmítejte dnes opět pozvánku svého nového miláčka na romantickou procházku do města. Uvidíte, že vám spolu bude báječně.",
        "work": "Sice máte zítra ještě volný den, ale i tak se vám již budou honit hlavou myšlenky na práci. Zkuste zatím odpočívat.",
        "relationships": "Naštěstí se dnes nemusíte připravovat ještě do práce, takže si s rodinou užijte krásnou neděli a vyrazte na výlet.",
        "health": "Každé sousto byste měli pořádně rozžvýkat. Jakmile budete hltat, budete mít břicho plné vzduchu a bude vás bolet.",
        "tips": "Výlet do jiného města, projížďka na elektrokole, procházka s pejskem, fotografování přírody, posezení na terase."
    },
    "leo": {
        "main": "Rozhodně dnes nezůstávejte sami doma. Jakmile dostanete pozvánku na schůzku nebo výlet, neodmítejte to, ale začněte se hned chystat. V těchto dnech by vám samotným bylo doma smutno. Společnost dobrých kamarádů je přesně to, co teď potřebujete.",
        "love": "Ani dnes byste neměli zůstávat zbytečně zavření doma, ale vyrazte si ven s lidmi, které máte rádi. Mohou to být i sourozenci.",
        "work": "Jestliže dnes najdete chvilku času, měli byste si důkladněji prověřit nejrůznější dokumenty, které vám leží delší dobu doma.",
        "relationships": "Jakýkoliv výlet do cizího města vás dnes může velmi obohatit. Objevíte nové památky, zajímavá místa a něco se přiučíte.",
        "health": "Vyhněte se dnes konfliktním situacím, vašemu srdci nedělá takové rozčilování vůbec dobře. Raději si přečtěte hezkou knížku.",
        "tips": "Romantické hrátky s partnerem, třídění rodinných fotografií, sepisování citátů, úklid dětského pokojíku, hledání brigády."
    },
    "virgo": {
        "main": "Určitě se dnes nevyhýbejte žádným večírkům a posezením. Nejenže budou zábavné a neotřelé, ale také se můžete seznámit se spoustou nových a zajímavých lidí. Během dne si dávejte pozor na riskantní investiční obchody. Můžete se ošklivě zmýlit.",
        "love": "Protože vás zítra čeká opět volný den, není nutné si zakazovat jakoukoli večerní zábavu. Vyrazte do společnosti a bavte se.",
        "work": "Jestliže se dnes chcete zabývat obchodními a investičními příležitostmi, postupujte pomalu, abyste se nerozhodli chybně.",
        "relationships": "Možná se ve vašem okolí koná nějaká tradiční vesnická pouť. Vyrazte si s rodinou nebo přáteli a zavzpomínejte na dětství.",
        "health": "I když je dnes neděle, váš oběd nemusí být tučný. Najděte si recept na zdravé, lehké jídlo z bílého masa a zeleniny.",
        "tips": "Oběd u rodičů nebo prarodičů, péče o zahrádku, bowling, odpoledne ve sportovním parku, četba historického románu."
    },
    "libra": {
        "main": "Jestliže máte chuť, svolejte dnes narychlo své přátele a uspořádejte tematický večírek se spoustou dobrého jídla, pití a zábavy. Uvidíte, že se nebudete nudit, navíc si můžete dovolit trochu ponocovat, protože máte stále volno. Den přeje zábavě.",
        "love": "Udělejte si se svým miláčkem krásnou procházku v přírodě. Ruku v ruce se vám půjde dobře a můžete probrat společné plány.",
        "work": "Nedovolte, aby vám myšlenky na vaše zaměstnání pokazily tento i zítřejší den. Máte volno. Relaxujte, odpočívejte a bavte se.",
        "relationships": "Dnes byste se mohli zúčastnit příjemného společenského posezení s přáteli či milými sousedy. Možná uspořádáte večírek vy.",
        "health": "Humor je kořením života. Dobrá nálada vám také zajistí správnou obranyschopnost organismu. Musíte se umět smát a bavit se.",
        "tips": "Pozdní oběd, práce se sociálními sítěmi, studium astrologie, hraní na hudební nástroje s přáteli, kaligrafie, pilates."
    },
    "scorpio": {
        "main": "Vy a váš nový partner máte dnes šanci prožít naprosto fantastický den. Oddejte se romantickým hrátkám a věnujte se jeden druhému. Pozvánky od přátel do společnosti odmítněte s naprosto čistým svědomím, protože o nic rozhodně nyní nepřicházíte.",
        "love": "Neděle může být vůbec tím nejromantičtějším dnem tohoto týdne. Váš nový partner přijde s krásným překvapením pro vás oba.",
        "work": "Vaše estetické cítění je opravdu super. Vyřádíte se na vylepšování vzhledu domácnosti a sklidíte za to oprávněný obdiv.",
        "relationships": "Jestliže máte další nápady, jak obnovit svůj šatník, nezbývá, než se do toho pustit již dnes. Vyřaďte staré věci.",
        "health": "Pokud dnes budete cítit menší únavu, klidně se přes den prospěte. Pomůžete tím dobrému zdraví a budete mít více sil.",
        "tips": "Dopolední sportovní aktivity s kamarády, výběr letní dovolené z katalogu, odpolední divadelní představení, jóga."
    },
    "sagittarius": {
        "main": "Buďte dnes velmi opatrní na finance, se kterými budete hospodařit. Je možné, že jste si žili nad poměry, i když vaše finanční situace nebyla tak růžová. Dobře uděláte, pokud si připravíte nějaký plán, jak budete s penězi zacházet do budoucna.",
        "love": "Uvidíte, že jakmile přestanete na svého partnera naléhat a tlačit na pilu, jeho chování se může změnit. To je správná cesta.",
        "work": "Věnujte zvýšenou pozornost tomu, kolik vlastně utrácíte peněz. Je nutné nyní utáhnout opasky a chvíli také spořit.",
        "relationships": "Klidně můžete dnes nechat vymýšlení programu na volný den na ostatních členech rodiny. Jejich nápady nejsou špatné.",
        "health": "Najděte si takovou formu volnočasové aktivity, která vám bude dělat radost. Při té totiž můžete načerpat i novou energii.",
        "tips": "Ranní milostné hrátky s partnerem, snídaně do postele, oběd v oblíbené restauraci, procházka městem, káva s přáteli."
    },
    "capricorn": {
        "main": "Dobrý program na dnešní den vám nabídnou přátelé, ke kterým se můžete přidat. Bude to rozhodně lepší než zůstávat o samotě doma a propadat skepsi. Nejenže se dozvíte novinky, ale také se můžete svěřit někomu se svými starostmi a hned vám bude lépe.",
        "love": "Také dnes se nabízí čas prožitý s přáteli a kamarády, se kterými si rádi popovídáte. Dozvíte se spoustu novinek.",
        "work": "Dnes si dávejte pozor na finance a výdaje. Můžete dostat neočekávanou pokutu, která nebude jen pár drobných korun.",
        "relationships": "Protože vás zítra čeká další volný den, můžete se dnes věnovat svým koníčkům a přípravu do práce nechte na zítra.",
        "health": "Občasné užívání nesteroidních antirevmatik není nic proti ničemu. Lékař vám dobře poradí, která si můžete dovolit brát.",
        "tips": "Nové hobby aktivity, procházka v botanické zahradě, třídění rodinných fotografií, výroba uměleckých koláží do interiéru."
    },
    "aquarius": {
        "main": "Jestliže máte k dispozici nějaké korunky navíc, bude fajn, když si je odložíte stranou a nebudete na ně sahat. Hodit se vám totiž mohou brzy na dovolenou nebo jiné letní aktivity. Musíte mít ovšem silnou vůli a neutratit je za něco nesmyslného.",
        "love": "Dnes se váš partner projeví opravdu dost panovačně a to se vám nebude vůbec líbit, proto mu to dáte hlasitě najevo.",
        "work": "S penězi, které máte nyní navíc, naložte tak, jak by bylo vhodné. Tedy uschovat je na horší časy a nesahat na ně.",
        "relationships": "Můžete si dnes udělat parádní večírek s vašimi přáteli doma. Vymyslete téma a podle toho připravte výzdobu a občerstvení.",
        "health": "Ostřejší kořeněná jídla vám mohou zatěžovat ledviny, aniž byste o tom věděli. Konzumujte je nyní opravdu s mírou.",
        "tips": "Příprava na odpolední piknik s rodinou, dopolední sportování v prostředí domova, hraní vědomostních her, mytí auta."
    },
    "pisces": {
        "main": "Dnes si s partnerem udělejte romantickou procházku na krásné místo ve vašem městě. Nemáte kam spěchat, proto si dopřejete i kávu a dortík v oblíbené kavárně. Není nutné řešit nějaké složité a vážné téma. Oddejte se atmosféře dnešního dne a relaxujte.",
        "love": "Dopřát si můžete romantickou procházku, zakončenou v příjemné kavárně. Partner i vy si takovou pohodičku zasloužíte.",
        "work": "Po náročném období přichází odměna za vaši trpělivost a snahu. Máte vyřešeny všechny nesnáze, dluhy a upomínky?",
        "relationships": "Druhý víkendový den si můžete dovolit ponocovat. Připravte si domácí kino, nějaké dobré koktejly, lahůdky a bavte se.",
        "health": "Nohy od kolen dolů byste si měli denně sprchovat střídavě teplou a studenou vodou, pomůžete tak k jejich prokrvení.",
        "tips": "Pozdní snídaně, nákup vstupenek do kina, poslech nové audioknihy, romantická koupel s partnerem, aranžování květin do vázy."
    }
}