{
    "aries": {
        "main": "Bude třeba se oprostit od toho, jak se k vám nyní chová váš nadřízený. Nejste v tom sami, ale zřejmě si vybíjí frustraci i na vašich spolupracovnících. Dobře tedy uděláte, pokud si budete plnit pracovní povinnosti a šéfa necháte jeho problémům.",
        "love": "Pokud dnes budete chtít oslovit někoho, na koho si dlouho pomýšlíte, máte nyní ty nejlepší předpoklady, že budete úspěšní.",
        "work": "Neberte příliš osobně to, že nadřízený se nyní chová nepříjemně. Na práci máte důležitější věci než zkoumání jeho nálady.",
        "relationships": "Nastal čas, abyste dodělali vše, co ještě není dokončeno a doděláno. Vrhněte se do toho s vyhrnutými rukávy.",
        "health": "Lehce poznáte, že jste přepracovaní, jakmile budete podráždění a nespokojení se s vším a vždy. Bude nutné zvolnit.",
        "tips": "Úklid pracovny, posezení s letitým známým, návštěva sportovní haly nebo fitness centra, pěstování léčivých bylinek."
    },
    "taurus": {
        "main": "Bude nutné řešit okamžitě nedobrou situaci v zaměstnání, pokud se taková vyskytne. Není čas na nějaké vyčkávání. Později už by bylo hodně složité s tím něco dělat. Zřejmě půjde o chybu z vaší strany, která by mohla být fatální. Buďte opatrní.",
        "love": "Uvidíte, že když přestanete tolik tlačit na pilu, prožijete krásné chvíle se svým partnerem. Uznáte, že je to lepší.",
        "work": "Jestliže se dostanete do nepříjemné situace, bude třeba ji začít okamžitě řešit, abyste ji mohli napravit. Bude to složité.",
        "relationships": "Rýpavou náladu kohosi z příbuzných budete nyní odnášet právě vy, což si nenecháte jen tak líbit a rázně se ozvete.",
        "health": "Vybít energii při sportu je záležitost, ze které nemáte zisky, ale zato dostanete něco lepšího. Zdraví a odreagování se.",
        "tips": "Studijní semináře, nákup oblečení na letní sezónu, péče o domácnost, odpočinek u dobré knihy nebo hudby, plánování v diáři."
    },
    "gemini": {
        "main": "Sice byste rádi nového partnera do života, ale tak nějak podvědomě tušíte, že nejste připraveni. Udělejte to sami pro sebe a snažte se dát do pořádku co nejdříve. Uvidíte, že potom půjde vše jak po drátku. Také se můžete více zaměřit na svou kariéru.",
        "love": "Jestliže chcete někoho nového po svém boku, budete si nyní muset dát dohromady svůj život tak, abyste byli připravení.",
        "work": "Planeta Mars pracuje ve váš prospěch, a tak se není třeba divit, že se vám daří být průbojní a zvládat vše s přehledem.",
        "relationships": "Vašim blízkým se bude hodně zamlouvat změna vizáže, do které jste se pustili. Víte, co vám sluší a co můžete s klidem nosit.",
        "health": "Dbejte na čistý vzduch v místnostech doma. Zkuste si pořídit čističku vzduchu, větrejte a používejte difuzéry s aromaoleji.",
        "tips": "Lepší organizace práce, nákupy zákusků a chlebíčků, nákup sportovních potřeb, obuvi i oděvů, venčení pejska v lese."
    },
    "cancer": {
        "main": "Uvědomte si, že vedle vás je človíček, kterému nejste lhostejní. Takže byste se měli přestat chovat chladně, ale otevřít své srdce tomuto citu. Můžete být překvapení tím, že budete schopní nakonec milovat a chtít s někým sdílet své soukromí a život.",
        "love": "Uvidíte, že pokud se celým srdcem odevzdáte nové lásce, budete nadmíru spokojení. Chce to jen být otevření všemu.",
        "work": "Pracovní nasazení a trpělivost. To je to, co na vás dnes vaši kolegové hodně ocení, když jim budete s něčím pomáhat.",
        "relationships": "Volnočasové aktivity u vás mohou přejít na další úroveň a zaujmout ve vašem životě naprosto jiné, důležité místo.",
        "health": "Jakékoliv netradiční sporty u vás mají přednost, protože se u nich dobře bavíte a také si zlepšujete fyzickou kondici.",
        "tips": "Řešené problémů ve vztahu, hledání nových možných finančních investic, úřední pochůzky, sportování pro radost."
    },
    "leo": {
        "main": "Máte dnes slušně nabito, co se týká výbušného chování a také slovních útoků. Je jasné, že máte zaděláno na pořádný konflikt, jakmile se nebudete ovládat. V milostných vztazích jsou konflikty naprosto nechtěné, ale to samé může být i v práci.",
        "love": "Vyvolávání konfliktů a konfrontací jsou vaší specialitou. Musíte si však uvědomit, u koho jsou vhodné. V lásce určitě ne.",
        "work": "I když se zdá, že Mars pracuje ve váš prospěch, bohužel je v nepříjemném postavení s Jupiterem, a tak vám práce moc nepůjde.",
        "relationships": "Spor s někým z rodiny může vést k dlouhodobému odloučení vás dvou. To vás může později mrzet, ale náprava je složitá.",
        "health": "Do ložnice nepatří nic jiného než romantické hrátky a spánek. Televize, práce nebo notebook nikoliv. Zařiďte si to tak.",
        "tips": "Nákup trendy oděvů a doplňků, dlouhý telefonát s rodinou, chatování s kamarádem, relaxace v oblíbeném wellness centru."
    },
    "virgo": {
        "main": "Vaše schopnosti teamleadra jsou nezpochybnitelné. Aniž by to vaši kolegové zaznamenali, díky vám a vaší motivaci se posouvají vpřed naprosto nenásilně. To je vaší hlavní předností, a tak se na vedoucím místě můžete pohybovat již velmi dlouho.",
        "love": "Potkat můžete osůbku, která vám věnuje dostatek pozornosti a obdivuje vás. To vám samozřejmě okamžitě polichotí.",
        "work": "Jako vedoucí týmu umíte ostatní kolegy posouvat kupředu, aniž by to dotyční tušili. Máte schopnost je motivovat nenápadně.",
        "relationships": "Vaši přátelé vám mohou ukázat tajemství jisté volnočasové aktivity, která se vám okamžitě zalíbí, a budete ji chtít zkusit.",
        "health": "Jakmile se dnes budete pohybovat na ulicích, dávejte si pozor i na správné přecházení silnice. Dodržujte pravidla.",
        "tips": "Obchodní a pracovní jednání, navazování nových obchodních kontaktů, četba odborné literatury, konzultace u psychologa."
    },
    "libra": {
        "main": "V mezilidských vztazích hledáte dobrodružství a napětí, nebo velkou romantiku. Čili emoce každým coulem. Také se podle toho budete dnes chovat. Některým to ale můžete připadat přes čáru, proto si dávejte pozor na to, jak na ostatní dnes vlastně působíte.",
        "love": "Rádi byste v mezilidských vztazích zažívali více dobrodružství a vzrušení. Podle toho se budete také dnes chovat.",
        "work": "Konečně by se vám mohlo začít lépe dařit zvládat své pracovní úkoly. Máte jasnou vizi, kam se do konce měsíce chcete dostat.",
        "relationships": "Nemáte-li ještě jasno o programu na letní prázdniny nebo o dovolené, dnes je vhodná doba, abyste to začali konečně řešit.",
        "health": "Jestliže byste rádi sekli s kouřením, musíte mít dost odvahy a síly. Pomohou vám i přátelé, kteří vás podpoří při této snaze.",
        "tips": "Jazykové kurzy, školní zkoušky, psaní milostných písniček, hledání zájmového kroužku pro děti, rezervace letního tábora."
    },
    "scorpio": {
        "main": "Váš miláček může dnes mít všeho nad hlavu a především vašeho nesnesitelného chování, takže jeho nervy pracují a zničehonic tu může být rozchod. Dávejte si dobrý pozor, protože jste od konce vztahu opravdu jen krůček. To není hezká vyhlídka.",
        "love": "Jestliže nebudete ovládat své emoce, hlavně žárlivost, váš partner se může rozhodnout pro radikální kroky ve vztahu.",
        "work": "Může vás přepadnout silná nervozita z toho, že nestíháte všechny své povinnosti a začínáte zmatkovat. To je to nejhorší.",
        "relationships": "Chcete si užívat více pohody a příjemných věcí, proto se rozhodnete pro wellness procedury v nejbližším centru.",
        "health": "Stravování ve fastfoodech nebo restauracích není zrovna to pravé ořechové. Může to dnes naprosto zdecimovat vaše zažívání.",
        "tips": "Samostatná práce na projektu, procházka o samotě lesem, vonná teplá koupel, meditační a dechová cvičení, rezervace dovolené."
    },
    "sagittarius": {
        "main": "Sice nemáte spokojený milostný život, ale to ostatní je značně v pohodě. V práci vám jde vše tak, jak jste si připravili, a to samé se odehraje doma, kde na vás čekají resty. Ty dnes doděláte s takovou rychlostí, že budete sami dost překvapení.",
        "love": "Nezadaní z vás si mohou užít dostatek zábavy, pokud se nebudete bránit výletům do společnosti. Můžete se hodně dobře bavit.",
        "work": "Dodržujte všechny kroky, které jste si stanovili pro plnění pracovních povinností. Jde o to, abyste něco nepřeskočili.",
        "relationships": "To, co jste dlouho odkládali, dnes zvládnete kosmickou rychlostí. Na konci dne budete mít ze sebe velkou radost.",
        "health": "Jednou začas si můžete zahřešit v jídle. Ovšem ne natolik, abyste skončili v nemocnici s podrážděným žlučníkem.",
        "tips": "Brouzdání po internetových obchodech, večeře v kruhu rodiny, aktivní odpočinek, vyřizování soukromých emailů, půst."
    },
    "capricorn": {
        "main": "Vás partner si pravděpodobně z vašich společných úspor dopřává pro sebe dost drahé či nepotřebné věci. Dostat se kvůli tomu můžete do obrovských konfliktů. Sami víte, jak náročný nyní život je a neradi byste skončili s dluhy na krku a očima pro pláč.",
        "love": "Budete se muset dnes pravděpodobně přizpůsobit finanční situaci, do které vás přivedl protějšek. Musíte ustoupit.",
        "work": "Občas máte ostrý jazyk i vy, a tak si musíte dnes v práci dávat velký pozor, abyste si neotevřeli ústa na své nadřízené.",
        "relationships": "Možná máte nějaký talent, který půjde snadno přeměnit ve vedlejší pracovní činnost. Spojíte tak příjemné s užitečným.",
        "health": "Dřívější uléhání do postele vám udělá dobře. Musíte se to naučit, protože fáze spánku nelze stále podceňovat a přecházet.",
        "tips": "Sestavení harmonogramu domácích prací, návštěva u mladších příbuzných, psaní milostných básní pro nového partnera."
    },
    "aquarius": {
        "main": "Dnes není vhodný den k tomu, abyste se k čemukoliv slovně vyjadřovali, jelikož máte slušně nabito a nebudete si brát servítky. Vašemu okolí postačí výraz ve vašem obličeji, aby vědělo, že je opravdu zle. Raději se tedy ponořte do svých koníčků a zálib.",
        "love": "Panovačnost vašeho partnera vám dnes poleze krkem a dáte mu to také najevo. Možná ale neumíte použít správná slova.",
        "work": "Nic nepůjde podle vašich představ a vy se můžete docela nepříjemně spálit, pokud si nedáte dobrý pozor. Postupujte pomalu.",
        "relationships": "Vyhýbejte se otevřeným debatám s příbuznými, jak to jen půjde. Vaše myšlenky si nechte pro sebe, uvidíte, že je to jen dobře.",
        "health": "Výrazné změny počasí neudělají době vašemu tělu. Můžete mít nízký tlak nebo být náchylní k nachlazení. Pozor tedy na výkyvy.",
        "tips": "Pomáhání přátelům v náročné situaci, kontrola dokumentů pro účetnictví, večeře v nové restauraci, úklid pracovny."
    },
    "pisces": {
        "main": "Vedle vás by měl stát člověk, který je stejného ražení jako vy a ještě vám dokáže v jistých chvílích poskytnout velkou oporu. Možná ale právě někdo takový ve vašem okolí je, jen jste ho ještě nezaznamenali naplno. Dívejte se pořádně kolem sebe.",
        "love": "Zasloužíte si někoho, kdo ocení vaši pracovitost, loajalitu, čisté úmysly a schopnost milovat. Ten někdo je ale blízko vás.",
        "work": "Nová práce, která se nyní objeví před vámi, bude nejen dobře placená pozice, ale také stabilní a s vyhlídkou na další posun.",
        "relationships": "Blízký přítel vám může dát pár dobrých tipů na skvělé knížky, ať už odborné, či klasickou literaturu. Bude to nápomocné.",
        "health": "Doma byste si měli častěji větrat nebo zkusit používat čističku vzduchu. Udělá to s vaším dýcháním doslova divy.",
        "tips": "Rutinní kancelářské práce, společné nákupy jídla na týden, odpoledne s dětmi v aquaparku, hraní her na počítači."
    }
}