{
    "aries": {
        "main": "Musíte zapomenout na to, jako problémy neustále řešíte v zaměstnání a především s vaším nadřízeným. Není dobré se nyní pouštět do jakékoliv sporu, protože není šance na úspěch. Pokud si půjdete po svém a vaše výsledky budou vynikající, nic vám nehrozí.",
        "love": "Jestliže dnes budete toužit po někom, na koho si dlouho děláte zálusk, dodejte si odvahy a oslovte ho. Hvězdy vám přejí.",
        "work": "Musíte se odosobnit od toho, jak se nyní chová váš šéf. Nejste jediní, na které pohlíží nepříjemně a nešetří kritikou.",
        "relationships": "Dejte se ihned doma do práce, jakmile se objeví nějaké resty. Bude potřeba dokončit vše, než přijdou prázdniny.",
        "health": "Budete se muset zamyslet nad tím, jak se staráte o své zdraví. Kvůli práci jste dost vyčerpaní a hlavně podráždění.",
        "tips": "Náročná obchodní jednání, nová obchodní prezentace, setkání s novým obchodním partnerem, taneční, večeře ve dvou."
    },
    "taurus": {
        "main": "Jestliže se v práci schyluje k průšvihu, budete se muset postarat o to, abyste tím byli co nejméně zasažení. Není vhodná doba k tomu, abyste nad tím mávli rukou. Naopak se postarejte o to, aby vaše pověst neutrpěla, pokud jste v tom nevinně.",
        "love": "Jakmile si přestanete ve vztahu prosazovat jen to své, bude hned líp. Uvolní se zablokované energie mezi vámi a partnerem.",
        "work": "Neměli byste nechat nepříjemné věci na pracovišti jen tak. Musíte se naučit bránit, jinak s tím budete neustále zápasit.",
        "relationships": "Budete si muset zřejmě vyslechnout nějaké poznámky na svou adresu, které k vám směřuje kdosi z rodiny. Musíte se bránit.",
        "health": "Sportovní aktivity jsou pro vás vhodné také z toho důvodu, že se zcela přirozeně zbavíte přebytečné energie, která vám vadí.",
        "tips": "Setkání s kolegy, nová prezentace výrobků, pochůzky po úřadech, práce se sociálními sítěmi, večeře v kruhu rodiny."
    },
    "gemini": {
        "main": "Nového partnera do života si přejete, ale že byste pro to museli dělat něco víc, není nutné. Naopak netlačte na pilu a buďte spíše otevření všemu, co se kolem děje. Díky tomu se můžete potkat s lidmi, kteří vám téměř okamžitě padnou do oka.",
        "love": "Musíte si ujasnit, co od vztahů vlastně čekáte, protože jedině tak si můžete najít nového a kvalitního partnera.",
        "work": "Hvězdy nyní pracují pro vás, a tak se nemusíte bát toho, že byste neuspěli s vašimi nápady, prosadíte se raz dva.",
        "relationships": "Líbit se můžete svému okolí a také vaše rodina vám schválí změny, kterými jste prošli. To je báječný pocit, že?",
        "health": "Už jste uvažovali o koupi čističky do bytu? Pokud ještě ne, možná byste měli, protože pomůže vašim slabším plicím.",
        "tips": "Posezení s kamarády, hraní na kytaru, plánování letních prázdnin s rodinou, masáže zad, meditace, dechová cvičení."
    },
    "cancer": {
        "main": "Zřejmě máte po svém boku někoho, kdo vám rozhodně není lhostejný a chováte k němu velké city. Ty byste ale měli umět dát najevo dříve, než se tato osůbka rozhodne jít svou vlastní cestou o dům dál. Citu ve svém srdci máte opravdu dostatek.",
        "love": "Do nové lásky nebo vztahu musíte hodně investovat, bez toho to nepůjde. Seberte odvahu a věřte na zázraky. Dějí se.",
        "work": "Ke cti vám je vaše obrovská pracovitost a zatvrzelost. Za svými každodenními povinnostmi si jdete neohroženě a bez obav.",
        "relationships": "Vaše nové hobby vás bude opravdu hodně naplňovat, a to až natolik, že k němu přemluvíte i své přátele, kterým se to zalíbí.",
        "health": "Dnes u vás dostanou zelenou nějaké velmi netradiční hobby aktivity. Může jít o nové sporty nebo pohyb ve zvláštním terénu.",
        "tips": "Obchodní jednání, oběd s novým obchodním partnerem, pracovní workshop, cvičení komunikačních dovedností pro obchod."
    },
    "leo": {
        "main": "Pozor na svá slova, protože jste dnes v ráži a budete se těžko ovládat. hrozí vám slušný konflikt, jakmile dáte průchod všemu, co se vám momentálně honí hlavou. V lásce bude platit obdobná rada. Dejte si tedy radši pohov od jedovatých poznámek.",
        "love": "Vaší velkou předností je vyvolávání a udržování napětí. To byste si ale měli tentokrát odpustit. Je to špatně.",
        "work": "Práce vám nyní moc nejde a to vás může přivádět k šílenství. Bude třeba zvolnit a podívat se na problémy podrobněji.",
        "relationships": "S někým z rodiny se dnes dostanete do bodu, kdy si dáte na čas od sebe pokoj. Je to nejlepší rozhodnutí, než se vše uklidní.",
        "health": "V ložnici si s partnerem užívejte spíše romantiku než sledování mobilního telefonu či televize. Ty tam nepatří.",
        "tips": "Administrativní a kancelářské činnosti, domácí práce, wellness procedury, kosmetika, masáže, pedikúra, manikúra."
    },
    "virgo": {
        "main": "Váš talent vést svůj tým podřízených je nezpochybnitelný. Vaši kolegové jsou touto myšlenkou docela nadšeni, protože vaše schopnosti vidí také. Vaší hlavní předností je, že se umíte ke svým kolegům chovat rovnocenně. Važte si takové důvěry.",
        "love": "Líbit se vám bude zájem někoho, kdo to s vámi prostě umí. Jeho lichotkám a nadbíhání dlouho nevydržíte vzdorovat.",
        "work": "Máte schopnosti vést svůj tým lidí velmi dobře, aniž by ostatní měli ponětí, kam je vlastně směrujete. To je vám ke cti.",
        "relationships": "Někdo z kamarádů vám doporučí jisté kurzy nebo workshopy, které by vás mohly hodně bavit. Zřejmě jste našli to pravé.",
        "health": "Buďte opatrní, jestliže se dnes budete pohybovat v rušném městském provozu. Máte nižší koncentraci a to může problém.",
        "tips": "Harmonogram domácích výdajů, telefonát s bývalým kolegou, zábavný večer s přáteli, cvičení ve fitness centru s trenérem."
    },
    "libra": {
        "main": "V lásce hledáte velkou romantiku, milostná dobrodružství a příběhy téměř jako z románu. Ovšem v běžném životě může být vše jinak. Nenechte se otrávit tím, že některé z vašich představ nevyjdou. Byli byste jen snílky, kterým unikne podstata vztahů.",
        "love": "V mezilidských vztazích se možná trochu nudíte a rádi byste zažívali více vzrušení. Není ale chyba také na vaší straně?",
        "work": "Máte zcela jasné představy o tom, kam se chcete v práci dostat a co pro to udělat. Můžete se těšit na výborné výsledky.",
        "relationships": "Letní prázdniny se blíží a vy si budete muset začít hledat a plánovat nějaký program. Bude to chtít kompromisy a toleranci.",
        "health": "Máte chuť skoncovat se svými neřestmi? Je vhodná doba a nápomocné vám mohou být přípravky z lékárny nebo přírodní léky.",
        "tips": "Plánování nových pracovních projektů, cvičení ve fitness centru, plánování letní dovolené s přáteli, hraní her."
    },
    "scorpio": {
        "main": "Dejte si dnes pozor, protože zřejmě svého partnera něčím pěkně štvete. Dá vám to najevo a hádka může být na světě. A věřte, že tentokrát by byl konflikt opravdu vážný, s téměř nulovými šancemi na urovnání. Tak co si tedy vyberete do budoucna?",
        "love": "Žárlivost je vaším velkým problémem, který vám způsobuje problémy téměř vždy. Musíte se naučit ovládat a důvěřovat protějšku.",
        "work": "Nesmíte se nechat strhnout pochybami a nervozitou z toho, že máte na vše příliš málo času. Nadělali byste větší chyby.",
        "relationships": "Vaše tělo si zaslouží, abyste mu dodali také nějakou péči. Spravit vše může dobrá masáž nebo péče v kosmetickém salonu.",
        "health": "Snažte se své jídlo raději připravovat doma z čerstvých surovin. Vynechte na pár dní stravování z restaurací a fast foodů.",
        "tips": "Vyřizování soukromých e-mailů, objednání si jídla s dovážkou do domu, nové recepty, vaření s partnerem, odpočinek u televize."
    },
    "sagittarius": {
        "main": "Váš milostný život není uspokojivý, to víte moc dobře. Ale na druhou stranu jste úspěšní v ostatních oblastech. Nemáte si na co stěžovat ani v pracovní sféře, kde se naplňují vaše předsevzetí a připravené plány. V domácím prostředí panuje obdobná pohoda.",
        "love": "Ve společnosti přátel se dnes můžete opravdu dobře bavit. Pokud jste nezadaní, není vyloučené hezké seznámení s někým.",
        "work": "Držte se pravidel a harmonogramu, co jste si nastavili. Díky tomu se můžete spolehnout, že vše dokončíte tak, jak máte.",
        "relationships": "Vyhrňte si rukávy a pusťte se do práce, která vám leží doma již delší dobu. Budete překvapení, jak vám to půjde.",
        "health": "Pokud dnes máte chuť na nějaké laskominky, dopřejte si je, avšak v omezeném množství, ať si nepokazíte váš jídelníček.",
        "tips": "Plánování schůzek s klienty, zábava s kamarády, procházka s rodinou v přírodě, hledání wellness víkendu pro miláčka."
    },
    "capricorn": {
        "main": "Vaše rodinné úspory se pravděpodobně dostaly do povážlivě špatných čísel. Na vině může být nezřízené chování vašeho protějšku, který si vyhazuje z kopýtka a vy s tím nemůžete nic dělat. Bude nutný vážný rozhovor, jinak vše skončí dost špatně.",
        "love": "Finanční situace vás ve vztahu může potrápit. Budete se muset na vše podívat jinou optikou, jinak se hodně rozčílíte.",
        "work": "Velký pozor si dnes dejte při hovorech s nadřízenými. Můžete se dostat do problémů kvůli vaší proříznuté puse.",
        "relationships": "Zauvažujte o tom, že pokud máte nějaké hobby, ve kterém opravdu vynikáte, můžete z něj udělat slušný příjem peněz",
        "health": "Dobře vám udělá, pokud si upravíte svou spánkovou hygienu. Není nutné stále ponocovat kvůli televizi nebo mobilnímu telefonu.",
        "tips": "Nová obchodní jednání, konverzace v cizím jazyce s lektorem, četba magazínů a denního tisku, nákup módních časopisů."
    },
    "aquarius": {
        "main": "Vaše rodina přesně pozná, kdy je zle, aniž byste museli prohodit jediné slovo. Stačí jim výraz ve tváři a gesta. Buďte dnes opatrní, pokud si procházíte nějakou krizí, protože to nemusíte ustát a explodujete. To se odrazí na atmosféře doma.",
        "love": "Váš protějšek vám poleze opět na nervy tím, jak se k vám bude chovat. Těžko už vydržíte jeho nadřazenost a tvrdohlavost.",
        "work": "To, co jste si naplánovali, vezme za své. Nic se vám nebude dařit podle představ a to je něco pro vaši psychiku.",
        "relationships": "Debaty v rodině jsou nyní velmi riskantní. Můžete se dostat k třaskavým tématům, která vás rozdělují na dva tábory.",
        "health": "Pozor na výkyvy počasí, protože podceňujete možná nízký tlak nebo naopak výrazné teplo. To vám neudělá vůbec dobře.",
        "tips": "Důležitá obchodní jednání, obě s novým obchodním partnerem, odpolední wellness procedury, odpočinek u televize."
    },
    "pisces": {
        "main": "Pravděpodobně po vašem boku stojí osoba, která je vám velkou oporou, když ji potřebujete, aniž byste si o to museli říkat. Má velkou dávku empatie a spolehlivě rozezná, kdy a co se děje. Pokládáte to v podstatě za zázrak a také máte částečně pravdu.",
        "love": "Někde ve vašem okolí je jistá osůbka, která se hodně snaží o vaši pozornost. Sundejte si klapky z očí a důvěřujte osudu.",
        "work": "Jestliže dostanete novou pracovní nabídku, neměli byste příliš dlouho váhat, protože se podobná již nemusí objevit.",
        "relationships": "Dostanete výborné tipy na to, které knížky nebo hry koupit svým dětem. Neměli byste váhat, pořiďte je včas.",
        "health": "Udržujte si doma čerstvý vzduch a čisté prostředí bez prachu a nečistot. V tom vám mohou pomoci skvělé přístroje a pomocníci.",
        "tips": "Pracovní pohovor v agentuře, káva s kolegy, rodinná večeře, plánování letních prázdnin s rodinou, rande s partnerem."
    }
}