{
    "aries": {
        "main": "Musíte si uvědomit, že se vaše předpoklady v milostných záležitostech nemusí shodovat s tím, co vlastně dostáváte zpět. Bude nutné pravděpodobně změnit pohled na vztahy všeobecně, abyste si zbytečně v budoucnu neubližovali. Je to pro vaše dobro.",
        "love": "Vaše sny a naděje, které nyní vkládáte do mezilidských vztahů, jsou trochu naivní. Musíte se mírnit a být realisté.",
        "work": "Tento den je posledním v měsíci květnu a vy musíte překontrolovat vše, co jste vykonali v zaměstnání. Může vás to zdržet.",
        "relationships": "Odpočinkové aktivity vám prospějí, zvlášť pokud vyrazíte se svými nejbližšími. Procházka vám udělá dobře na duši.",
        "health": "Návštěvy lékaře nejsou vaše oblíbené. I přesto nepodceňujte preventivní prohlídky, které nic nestojí, jen váš čas.",
        "tips": "Pohybové aktivity na čerstvém vzduchu, zapojení ostatních členů rodiny do plánování letních prázdnin, odpočinek s knihou."
    },
    "taurus": {
        "main": "V zaměstnání se snažte zachovat klid a nevypěnit při každé sebemenší krizové situaci. Přišli byste nejen o přízeň kolegů, ale také o dost energie. A protože je závěr měsíce, máte jistě jiné starosti než se dohadovat o nesmyslech. Myslete na to.",
        "love": "Vaše nová láska je velmi pozitivní človíček a vám to absolutně vyhovuje. Umí vás totiž potěšit a upřímně rozesmát.",
        "work": "Zapomeňte na to, že existuje něco jako nepříjemná atmosféra na pracovišti. Dělejte si své povinnosti, je závěr měsíce.",
        "relationships": "Kdosi z příbuzných naštěstí změnil svou rétoriku vůči vám, a tak se vztahy v rodině daly opět do pořádku. Bude vás to těšit.",
        "health": "Buďte trochu sobečtí a starejte se také sami o sebe, jelikož se dost zanedbáváte ve prospěch druhých lidí kolem vás.",
        "tips": "Úklid pracovního stolu, grilování se sousedy, návštěva sportovního parku nebo fitness areny, sázení léčivých bylinek."
    },
    "gemini": {
        "main": "V milostné oblasti se nyní do popředí dostane konkrétní kontakt s jistou osůbkou, která vám padne do oka téměř hned. Pokud jste nezadaní, může to pro vás být opravdu zlomový moment. V opačném případě si raději nechte zajít chuť, ublížili byste partnerovi.",
        "love": "V lásce byste si měli zvyknout na to, že se vám mohou dít naprosto neočekáváné, ale pozitivní věci. Budete jak na kolotoči.",
        "work": "Přestože je konec měsíce, vy si s nápady nedáte pokoj. Máte štěstí, že vašeho nadřízeného to neunavuje, ale naopak baví.",
        "relationships": "Váš šatník by potřeboval vyměnit nebo alespoň probrat. Staré kousky dejte na charitu a vyrazte se znovu hodit do gala.",
        "health": "Máte-li nepříjemné pocity či bolesti, není dobré otálet, ale vydejte se za svým ošetřujícím lékařem. Vyšetření vám neublíží.",
        "tips": "Nové organizační a administrativní práce, nákupy exotických bylinek, pořízení sportovních potřeb pro děti, venčení pejska."
    },
    "cancer": {
        "main": "Doma se atmosféra promění zničehonic k lepšímu. Zřejmě je to tím, že se blíží léto a prázdniny, a vy již máte jisté plány, na které se těšíte. Radost vám udělá i to, že je konec měsíce a vy máte v práci hotovo. Vydáte se domů, natěšeni na večer.",
        "love": "Květen sice končí, ale vy máte stále štěstí v lásce. Využijte toho na maximum, pokud stále kráčíte životem sami.",
        "work": "Na konci měsíce si můžete s kolegy stanovit nové cíle na červen. Díky tomu, že jste dobrá parta, bude to celkem jednoduché.",
        "relationships": "Vy se dnes doma ani neohřejete, protože máte zřejmě jiné plány a na ty se hodně těšíte. Může to být večeře v luxusním podniku.",
        "health": "Pokud nezpomalíte, hrozí vám totální vyhoření. Naučte se šetřit silami a uvidíte, že se vaše fyzická kondice rázem zlepší.",
        "tips": "Řešení úředních záležitostí v rodinných vztazích, hledání nových finančních operací, soukromé úřední pochůzky, sportování."
    },
    "leo": {
        "main": "Do popředí se dnes dostávají opět mezilidské vztahy, které zatím nemůžete příliš ovlivnit k dobrému. Musíte si udělat jiný názor na některé lidi, jež máte kolem sebe. Bude třeba zachovat klid, ale také si udělat odstup, pro zachování duševního zdraví.",
        "love": "Jelikož se váš vztah zřejmě zasekl na mrtvém bodě a vy máte pocit, že je přežitý, budete muset udělat radikální krok.",
        "work": "V práci vás naštve, že je středem pozornosti nyní někdo jiný. Jste trochu sobečtí, nemyslíte? Zamyslete se nad tím.",
        "relationships": "Doma panuje příjemná atmosféra, kterou můžete navíc podpořit třeba domácím kinem, které si s rodinkou uděláte.",
        "health": "Dnes zapadnete do peřin tak rychle, že se ani nestačíte vzpamatovat. Děláte dobře, pokud se vyspíte do růžova.",
        "tips": "Nákupy nového plážového oblečení a doplňků pro děti, telefonát s kamarádem z dětství, rezervace ubytování ve wellness centru."
    },
    "virgo": {
        "main": "Vaše nadšení z milostné sféry se přenese také do ostatních oblastí vašeho života. Bude se vám díky tomu dařit v práci, kde budete rázem milejší na kolegy, ale také se jinak začnete chovat doma. Osůbka po vašem boku, vám vlila novou krev do žil.",
        "love": "Tento měsíc končí, ale pro vás se v lásce nic nemění. Těšte se na letní sezonu, kdy romantické zážitky budou pokračovat.",
        "work": "Stále nad vámi bdí vesmírné síly, které vám pomáhají a posunují stále vás vpřed. Pracovní záležitosti jsou v naprostém pořádku.",
        "relationships": "Vy si dnešní den zařídíte podle svého, i kdyby padaly trakaře. Máte pravděpodobně nové hobby, kterému jste propadli.",
        "health": "U vašeho praktického lékaře si požádejte o preventivní prohlídku, kterou máte stále zdarma. Je dobré mít přehled.",
        "tips": "Jednání s obchodním partnerem, navazování nových obchodních kontaktů, nákup potřebné školní literatury, konzultace lékařem."
    },
    "libra": {
        "main": "I přesto, že se rozhodnete na poslední chvíli přijmout pozvání do společnosti, uděláte dobře, protože se budete báječně bavit a odreagujete se. Bude se vám líbit v tanečním klubu, kde si můžete zařádit. Vydejte se tedy ven, ale raději moc neponocujte.",
        "love": "Dnešní večer můžete prožít na nějakém bezvadném večírku, který pořádá někdo z vašich přátel. Bavte se a nic neřešte.",
        "work": "Dostane se vám poklony od kolegů a chvály od šéfa. Pravděpodobně měsíc uzavíráte s vítězným skóre a náskokem před ostatními.",
        "relationships": "Uspořádat může malou gardenparty neboli grilovačku se svými dobrými přáteli. I oni přispějí dobrým jídlem a pitím.",
        "health": "Hvězdy vám přejí a vaše fyzická i psychická kondice je nyní parádní. Můžete se těšit dobrému zdraví a užívat si léto.",
        "tips": "Zápis do jazykových kurzů, zkoušky ve škole, psaní milostných básní pro partnera, rezervace místa ve workshopu."
    },
    "scorpio": {
        "main": "V práci jste zřejmě přecenili své síly a nabrali jste si toho docela hodně na svá bedra. A protože je dnes konec měsíce, budete docela pod tlakem. Nakonec budete rádi, když se dostanete domů, dáte si nohy na stůl a budete zaslouženě relaxovat.",
        "love": "Vy byste si měli dát velký pozor na to, co dnes máte v plánu s partnerem prodiskutovat. Možná to totiž není tak dobrý nápad.",
        "work": "Jste jako parní válec a snažíte se ostatní předehnat v práci. Ale děláte to neuváženě a práce máte víc, než zvládnete.",
        "relationships": "Váš dnešní den s rodinou bude plný pohody a smíchu. Máte k sobě blízko, a tak se podle toho také dnes bude vyvíjet váš program.",
        "health": "Pokud budete přecházet nejrůznější příznaky onemocnění nebo bolesti, můžete se vám to rychle vymstít. Nic nepodceňujte.",
        "tips": "Týmová práce na novém obchodním projektu, procházka s pejskem lesoparkem, piknik s kamarády, aromatická koupel, meditace."
    },
    "sagittarius": {
        "main": "Setkání s kamarády může dnes nabrat nečekaný spád, protože se vám nebude chtít domů a odejít z klubu můžete až nad ránem. Pokud se vám toto povede, v práci to druhý den nebude stát za moc. Uvažujte o tom, jestli vám to za to opravdu stojí.",
        "love": "Vaše role po boku nového miláčka je jasně daná. Tato osůbka je dominantní a toto bude zřejmé od počátku. Asi vám to nevadí.",
        "work": "Když dnes vyvinete koncentraci na své povinnosti, tak se vám podaří udělat dobrou tečku za dalším měsícem. Dost se vám uleví.",
        "relationships": "Váš večírek dnes dopadne nad očekávání dobře, ale také se dost protáhne. Ráno budete mít problémy se vstáváním.",
        "health": "Sportovní aktivity na čerstvém vzduchu můžete nyní praktikovat i na venkovních posilovacích strojích. Jistě nějaké najdete.",
        "tips": "Naplánování přesného harmonogramu v pracovní oblasti, návštěva starších příbuzných, psaní romantických básní."
    },
    "capricorn": {
        "main": "S nadšením uvítáte konec května, především v pracovní oblasti, kde toho bylo i na vás moc. Budete muset nabrat síly, a pokud již máte dovolenou v dohledu, vaše myšlenky budou směřovat právě k tomu. Druhou polovinu týdne nechte volně plynout.",
        "love": "Pravděpodobně dnes vyhledáte někoho, komu hodně věříte, a prozradíte mu, co vás trápí ve vztahu s vaším partnerem.",
        "work": "Jste hodně rádi, že je poslední den tohoto měsíce a před vámi se rýsuje léto a nové projekty. Také máte v dohlednu dovolenou.",
        "relationships": "I kdybyste dnes dostali pozvánku do sebelepšího podniku, zůstanete doma. Vyhovuje vám klid a ticho, ne hlučná společnost.",
        "health": "Pokud dnes budete trávit celý den venku, přibalte si s sebou opalovací krém a také nějakou pokrývku hlavy a dostatek vody.",
        "tips": "Prodej zboží na internetových aukcích, večeře s partnerem v nové asijské restauraci, wellness procedury a masáže."
    },
    "aquarius": {
        "main": "Máte velmi dobrou intuici a budete mít celkem rychle jasno, kdo je nyní proti vám, ať už v práci, nebo mezi příbuznými. Podle toho se také zachováte, a to je velmi dobře. Musíte si chránit to, co je pro vás nyní důležité, a neodkrývat své slabiny.",
        "love": "Uspořádat můžete večírek se zajímavým tématem a s kamarády se budete hodně dobře bavit. Jste v tomto opravdu mistři.",
        "work": "Jakmile se vám dnes potvrdí, kdo je v práci vaším tajným protivníkem, dáte mu to najevo. Udělejte to ale šikovně.",
        "relationships": "Vaše plány na víkend mohou být pro ostatní trochu sobecké, ale vy máte zřejmě nějaké hobby, kterému se chcete věnovat.",
        "health": "Starejte se dobře o svou hřívu, protože je korunou krásy. Dobrý střih a vhodná barva může zdobit vaše kadeře.",
        "tips": "Vyřizování emailů a důležitých pracovních věcí, úvahy o pořízení si rodiny, masáže a relax, procházka v přírodě."
    },
    "pisces": {
        "main": "Dost vám může v partnerském vztahu pomoct dnešní rozhovor s protějškem o tom, jakým směrem byste se rádi ubírali dál. Dojdete naštěstí ke stejnému závěru a večer tak může nabrat zcela jiný rozměr. Nejlépe vám bude v posteli, a pokud možno celou noc.",
        "love": "Nic vám dnes nemůže pokazit dobrou náladu, protože jste nyní ve vztahu, který vás naplňuje a baví. Vyhlídky jsou skvělé.",
        "work": "Vaši kolegové za vámi mohou přijít, protože ke konci měsíce jim něco nepůjde. Podejte jim pomocnou ruku, vrátí vám to.",
        "relationships": "Dostat se můžete k velmi zajímavému workshopu, který vám v budoucnosti přinese něco víc než jen zábavu. Zapátrejte po něm.",
        "health": "Hudba je balzámem na vaši duši. Zvolte si tedy váš oblíbený žánr a na chvíli spočiňte na pohovce se zavřenýma očima.",
        "tips": "Administrativní a kancelářské práce, nákupy jídla na víkend, odpoledne s dětmi v zoologické zahradě, hraní her na pc."
    }
}