{
    "aries": {
        "main": "Spolehnout se budete muset jen na sebe a na svůj úsudek. Dnes kolem sebe nemáte nikoho, komu byste chtěli nebo mohli důvěřovat naplno. Pokud vás ovšem něčí chování doslova obtěžuje, odstřihnete ho raději dobrovolně. Máte totiž vlastní hrdost.",
        "love": "Pokud vás vaše současná známost nebaví nebo vás vyčerpává, tak ji nechte jít. Nemá to zřejmě cenu uměle prodlužovat.",
        "work": "Na podporu kolegů se v tomto období moc nespoléhejte. Nemáte kolem sebe tolik dobrých lidí, jak jste si mysleli.",
        "relationships": "Lednový čtvrtek si udělejte opravdu pohodový. Nechte se nést rodinnou náladou a nesnažte se o žádné další výkony.",
        "health": "Během dne si dopřejte minimálně jednu porci ovoce nebo zeleniny. Je to vhodné jako svačinka mezi hlavními jídly.",
        "tips": "Posilovací nebo rehabilitační cviky, hra na nové hudební nástroje, samostudium cizích jazyků, nové recepty, třídění e-mailů.,"
    },
    "taurus": {
        "main": "Zvolte jemnější přístup k někomu, na kom vám dost záleží. Můžete ho svým prudkým přístupem dost zarazit a nepříjemně překvapit. Potřebuje od vás zřejmě pomalejší a méně urputný přístup. Vyloženě to vypadá na milostnou oblast, ve které toto nastane.",
        "love": "Jste horká hlava a to se vám dnes nemusí úplně vyplatit. Jestliže vám opravdu o někoho jde, raději volte rozvážnější přístup.",
        "work": "Planeta Mars má na vaše znamení stále vliv. Zdá se, že nic nejde podle plánu. Doufejte ale v lepší zítřky, které přijdou.",
        "relationships": "Máte opravdu hodně blízko k tomu dát dnes někomu z vašich blízkých ochutnat vaši medicínu. Raději se toho vyvarujte, Býci.",
        "health": "Ořechy a různá semínka jsou prospěšná organismu z mnoha hledisek. Podporují zdravou pleť, paměť a také umí dost zasytit.",
        "tips": "Telefonát s kamarádem, aromaterapie, relaxační masáže, manikúra, pedikúra, péče o pleť, nákup vlasové kosmetiky.,"
    },
    "gemini": {
        "main": "Peníze budou dnes to hlavní téma, které vás bude zajímat. Máte sklony stále je vydávat a dost vám v tom nahrávají slevové akce, stejně jako každý rok. Myslete na zadní kolečka a také na letní měsíce, kdy se vám každá koruna může hodit, Blíženci.",
        "love": "Pokud jste ve vztahu, dávejte pozor na to, abyste svým chováním v partnerovi nevyvolali žárlivost. Nebude k tomu mít daleko.",
        "work": "Hlídejte si více své finance. Máte tendenci rozhazovat více, než je zdrávo, a to díky slevovým akcím, které jsou v plném proudu.",
        "relationships": "Cokoliv budete chtít pořídit do domácnosti, poraďte se o tom s ostatními členy rodiny. Mají také právo se k tomu vyjádřit.",
        "health": "Jestliže máte pocit, že vaše tělo zadržuje více vody, je možné, že to přeháníte se solením. Myslete na to při vaření.",
        "tips": "Hledání nových zájmových aktivit, cvičení s dětmi podle internetu, studium cizích jazyků, hraní vědomostních her.,"
    },
    "cancer": {
        "main": "Saháte po svých úsporách častěji, než by bylo záhodno. Vaše výdaje jsou neúměrné tomu, kolik si vyděláváte v současné době. Budete si muset buď utáhnout opasek, nebo se dát do hledání přivýdělku nebo brigády. Dlouho s tím neotálejte, nebo bude pozdě.",
        "love": "Nedohadujte se s partnerem o ničem malicherném. Uvidíte, že to, co dnes vnímáte jako problém, jím zítra už nebude.",
        "work": "Boj s financemi čeká dnes skoro všechny z vás. Musíte si více hlídat výdaje, které jsou nejen vysoké, ale také velmi časté.",
        "relationships": "I když víte, že v určitých věcech máte pravdu, zachováte se rozumně a dohadovat se doma s nikým dnes nebudete.",
        "health": "Digitální detox je občas potřeba. Čas, který tím ušetříte, je k nezaplacení a můžete ho věnovat péči o své tělo.",
        "tips": "Úklid domácnosti, čištění nábytku a dekorací, třídění letního oblečení, venčení pejska v parku, nákup potravin po internetu.,"
    },
    "leo": {
        "main": "Chtělo by to trochu se uskrovnit, alespoň co se jídla týká. Jde o to, že váš organismus je po svátcích opravdu přetížený a potřebuje trochu ulevit. Můžete se porozhlédnout po internetu a najít si nějakou vhodnou dietu nebo se poraďte s odborníky.",
        "love": "Nenechte se vykolejit nepříjemným pošťuchováním někoho z vašich kamarádů. Mávněte rukou nad jeho názory, jsou mimo.",
        "work": "Pomalu, ale jistě se vám do cesty staví finanční starosti. Není to nic tragického, ale úbytek peněz pocítíte. Řešte to ihned.",
        "relationships": "Děti si zaslouží vaši pozornost. Menším uděláte radost tím, že se vrhnete do her a společných aktivit s nimi bez řečí.",
        "health": "Játra a slinivka jednoznačně ocení nekořeněnou stravu a omezení alkoholických nápojů. Naordinujte si to alespoň na týden.",
        "tips": "Příprava rodinné snídaně, poslech oblíbeného pořadu v rádiu, četba novin, stěhování nábytku, renovace domácnosti.,"
    },
    "virgo": {
        "main": "Vrhnete se do povánočního úklidu. Respektive se pustíte do odstrojení vánočního stromečku. I když se vám do toho nebude chtít ze sentimentálních důvodů, nakonec uznáte, že je před vámi nový rok. Je třeba se posunout vpřed a nečekat na nějaký signál.",
        "love": "I když si to nemyslíte, na své okolí vyzařujete pozitivní vibrace a energii. Díky tomu vás vyhledává čím dál více lidí.",
        "work": "Vaší zásadní vlastností je odolnost. Máte také dostatek analytického myšlení, které vám dnes napomůže k dobrému výsledku.",
        "relationships": "Do širší rodiny může přijít novinka, která potěší všechny. Možná jde o narození nového člena rodiny. Je čas k oslavám.",
        "health": "Výborným vylepšením denních svačinek jsou řecké jogurty s čerstvým nebo i mraženým ovocem. Pokud vydržíte, neslaďte je ničím.",
        "tips": "Nákup domácích dekorací, odstrojování vánočního stromečku, úklid domácnosti, čištění nábytku, relaxační koupel.,"
    },
    "libra": {
        "main": "Zamyslete se nad tím, jak moc vás zatěžují problémy v profesní oblasti. Co takhle se začít zajímat o nějaký kariérní posun, nebo dokonce změnu? Doba je sice nejistá, ale vy jste velmi schopní pracanti. Aktivity v tomto směru zahajte již dnes a neotálejte.",
        "love": "Změny ve vztazích, které přijdou, nejsou úplně radostné. Zkuste se na vše podívat s odstupem a chladnou hlavou.",
        "work": "Situace se zaměstnáním vás doslova stresuje. Zkuste se zamyslet, jak byste mohli něco změnit nebo upravit. Práci potřebujete.",
        "relationships": "Kdosi z blízkých má zřejmě velké problémy se současnou situací. Dopřejte mu čas, aby se vám mohl vypovídat. Ocení to.",
        "health": "Domácnost pokud možno udržujte bez prachu. V zimních dnech se méně větrá a vás tak může lehce zastihnout alergie.",
        "tips": "Úprava stravy, omezení alkoholu a cigaret, telefonát s příbuznými, rozhovor s partnerem, fotografování přírody.,"
    },
    "scorpio": {
        "main": "Opět na vás budou čekat nástrahy v milostné oblasti. Hlavně pro ty z vás, kteří jste zadaní, to bude zatěžkávací test. Uvědomte si, zda vám žhavý flirt stojí za rozbití funkčního vztahu. Odpovědět si však musíte sami.",
        "love": "Kdosi k vám chová opravdu vřelé city. Sympatie jsou oboustranné a záleží pouze na vás, jak se rozhodnete. Protějšek má jasno.",
        "work": "I po svátcích stále saháte do peněženky často a celkem i zbytečně. Myslete na zadní kolečka a zastavte bezhlavé nákupy včas.",
        "relationships": "Diskuse, které nikam nevedou, vás nebaví. Dejte to najevo té osobě, která vás jimi v poslední době doslova bombarduje.",
        "health": "Křeče do lýtek mohou být způsobeny nedostatkem hořčíku ve vašem těle. Doplníte ho skvěle i minerálními vodami s jeho obsahem.",
        "tips": "Studium nových jazyků, telefonát s kamarádem, návštěva, stěhování nábytku, renovace dekorací, venčení psa v lese.,"
    },
    "sagittarius": {
        "main": "Na pořad dne dnes přijdou především vztahové záležitosti. Mnozí z vás mají na očích růžové brýle, které si dobrovolně nasadili sami. Zbavit se jich je dost těžké, ale zkuste to. Vaše nová známost nebo vztah nejsou tak ideální, jak jste si doposud mysleli.",
        "love": "Nepřipouštíte si žádné chyby a máte dojem, že váš vztah je bezproblémový. Bohužel si žijete na růžovém obláčku.",
        "work": "Nadřízený může být dnes opravdu zaskočený tím, kolik nápadů ze sebe dokážete vychrlit. Máte před sebou docela úspěšné období.",
        "relationships": "Rodina s nadšením uvítá váš návrh na kratší zimní dovolenou. Zřejmě skončíte na chalupě nebo chatě. I to je fajn plán.",
        "health": "Ruce jsou vaší vizitkou. Dbejte na čistotu nehtů, jejich úpravu a správnou výživu pokožky v těchto zimních dnech.",
        "tips": "Konzultace s lékaři, detoxikační dieta, posilovací cviky na břicho, úprava stravování, nákup potravinových doplňků.,"
    },
    "capricorn": {
        "main": "Konečně jste si opět začali trochu věřit. I když na ostatní působíte velmi sebevědomě, uvnitř se cítíte opačně. Sebedůvěru vám dodají úspěchy i na milostném poli. Díky tomu budete vyzařovat pozitivní energii kolem sebe a dobré věci budou přicházet samy.",
        "love": "S novou známostí máte mnoho společného. Zdá se, že jste na takovou osobu čekali dlouhou dobu, ale určitě se to vyplatilo.",
        "work": "Sebevědomí vám dost stouplo a je to jen dobře, protože vám veškeré povinnosti a úkoly jdou od ruky. Vytoužená meta je na dosah.",
        "relationships": "Zaměřte se také na nějaké nové společné aktivity s vašimi nejbližšími. Možná si najdete novou sportovní aktivitu v přírodě.",
        "health": "Zdravé mlsání nemusí být tak složité, jak se na první pohled zdá. Sušená jablka vás báječně zasytí a dodají tělu vlákninu.",
        "tips": "Příprava s dětmi do školy, home office, servis auta, návštěva veterinární kliniky, nákup potravin v kamenném obchodě.,"
    },
    "aquarius": {
        "main": "Jestliže se vám stýská po přátelích a vašich hovorech, dnes to můžete napravit. Vyvarujte se však depresivním tématům, jako je koronavirus a celá situace kolem toho. Zřejmě máte všichni podobně špatné zkušenosti z loňského roku a není třeba se v tom rýpat.",
        "love": "S kamarády nebo přáteli si také potřebujete popovídat o jiných věcech, než je koronavirus a pandemie. Dnes tomu tak bude.",
        "work": "Nadřízený vám nebude tolerovat kritiku současných opatření a postupů. V této době prostě nemá náladu na žerty.",
        "relationships": "Rádi byste si doplnili knihovnu o nové kousky. Vybrat nechte také své potomky. Jste rádi, když budou sdílet stejné hodnoty.",
        "health": "Otékající kotníky jsou nepříjemnou záležitostí. Masírovat je můžete bylinnými gely nebo prokrvení podpořit vhodným cvičením.",
        "tips": "Četba odborné literatury, sledování dokumentárního pořadu, kreativní psaní, studium nového oboru, hledání brigády.,"
    },
    "pisces": {
        "main": "Rádi byste se s rodinou podívali někam na hory. Pokud vám to dovolí finanční situace, porozhlédněte se v zahraničí, kam se stále může bez omezení jezdit. Jestliže je to nad vaše možnosti, v tuzemsku se mohou nabízet k pronájmu chaty nebo chalupy.",
        "love": "Vážíte si na svém partnerovi věrnosti a hodnot, které vyznává. Občas je sice tvrdohlavý, ale vybrali jste si dobře.",
        "work": "Věřte tomu, že se vaše nadějné plány dočkají realizace. Musíte jen vytrvat a chytit se šance, pokud přijde. Nic není ztraceno.",
        "relationships": "Plánování kratší zimní dovolené je zatím utopie, pokud nemáte vlastní chatu nebo chalupu. Zkuste se poptat po známých.",
        "health": "Nezapomínejte na čistotu obuvi uvnitř a také na správné vložky do bot. Možná vás udiví, že vás přestanou bolet kolena.",
        "tips": "Digitální detox, zimní sport, rozhovor s přítelem, péče o starší příbuzné, návštěva banky, úklid sklepa nebo garáže.,"
    }
}