{
    "aries": {
        "main": "Se šéfem vám komunikace půjde jedna radost. Bohužel to samé nebude platit v oblasti mezilidských vztahů. Můžete se pěkně rozjet a použít taková slova, která už nebudete moct vzít zpět. Dřív než otevřete pusu, přemýšlejte. Jinak budete mít výčitky.",
        "love": "Jestliže dnes budete chtít odmítnout dotěrného nápadníka, dejte pozor, jak mu to řeknete. Mohli byste se setkat s hulvátem.",
        "work": "Ukážete nadřízeným, že se umíte postavit k pracovním záležitostem čelem. Vyřešíte dost náročnou situaci lépe než ostatní.",
        "relationships": "Budete mít spoustu nápadů, jak se zabavit doma, když to venku moc nejde. Dávejte pozor na zranění. To by vás hodně omezilo.",
        "health": "Berany občas trápí úporné bolesti hlavy. Může to mít na svědomí špatná hydratace organismu. Správný pitný režim pomůže.",
        "tips": "Vydatný spánek, komunikace s kolegy po telefonu, home office, venčení pejska, čištění auta, četba, relaxace.,"
    },
    "taurus": {
        "main": "Náladu nemáte zrovna výbornou a moc vám nepřidá situace v mezilidských vztazích. Nové kontakty dnes hledat nechcete. Raději byste se zašili doma, v klidu, s knížkou nebo sklenkou vína. Není to nic proti ničemu, Býci. Také potřebujete čas sami pro sebe.",
        "love": "Jestliže vám, nezadaným, vstoupí do cesty nový nápadník, budete váhat. Máte sebevědomí na nule a do ničeho se vám nechce.",
        "work": "Šéf vám naznačí, že mu vaše současné pracovní nasazení moc nevyhovuje. Raději to pokorně odkývejte, jinak hrozí průšvih.",
        "relationships": "Jistá osoba z rodiny má pocit, že vše zbytečně přeháníte. Máte na vybranou. Buď ji usměrníte, nebo nad tím mávnete rukou.",
        "health": "Křeče do nohou jsou způsobeny buď velkou únavou, nebo nedostatkem hořčíku. Na jeho pravidelné užívání nezapomínejte.",
        "tips": "Nákup potravinových doplňků a vitaminů v lékárně, sledování oblíbeného dokumentu, důvěrný rozhovor s přítelem nebo kamarádem.,"
    },
    "gemini": {
        "main": "S novým rokem vám do života přicházejí nové možnosti. Neodmítejte žádnou nabídku, která by vás posunula dál. Především jde o pracovní možnosti. Máte otevřené dveře, tak se nebojte jimi projít. Nemáte totiž co ztratit, ba naopak. Nenechte se nikým odradit.",
        "love": "Partner se může zdát stále nevrlý a podrážděný. Musíte si s ním promluvit, protože ho zřejmě trápí dost věcí.",
        "work": "Může se vám naskytnout nová a velmi zajímavá pracovní nabídka. Neměli byste dlouho otálet, Blíženci, ale hned se jí chopit.",
        "relationships": "Máte na srdci blaho vašich nejbližších. Nečiní vám problémy pro ně vymýšlet nejrůznější program a plány na volný den.",
        "health": "Vaše plíce potřebují i v zimě čerstvý vzduch. Proto se dnes vydejte na delší vycházku do přírody. Uvidíte zlepšení hned.",
        "tips": "Pobyt na čerstvém vzduchu, péče o domácí mazlíky, telefonát s prarodiči, cvičení jógy podle internetu, nové recepty.,"
    },
    "cancer": {
        "main": "Nehledejte na svém partnerovi každou chybu. Uvědomte si, že i vy máte své slabiny. Raději se začněte vážněji starat o své konto. Povážlivě se vám díky svátkům ztenčilo a je třeba ho opět doplnit. Možná začnete hledat nové možnosti přivýdělku.",
        "love": "V trvalém svazku může dnes dojít k menšímu nedorozumění. Nebojte se, je to přechodné. Zbytečně se v tom nerýpejte.",
        "work": "Bylo by dobré, abyste svou finanční situaci začali brát trochu vážněji. Sepište si příjmy a výdaje, ať máte větší přehled.",
        "relationships": "S dětmi je potřeba více pracovat a učit se s nimi. Díky všem omezením se nudí a vymýšlejí si na vás samé lotroviny.",
        "health": "Větším kloubům musíte dopřát hodně kolagenu a vápníku. Brát ho můžete ze stravy, větší účinek ale budou mít tabletky.",
        "tips": "Příprava domácího likéru, nové relaxační techniky, nákup potravin on-line, vydatný odpolední spánek, home office.,"
    },
    "leo": {
        "main": "Představujete si, jak chcete trávit léto. Bohužel je k tomu ještě hodně daleko. Soustřeďte se na důležitější věci, které jsou před vámi nyní. Nebojte se však, do léta je ještě času dost, jste na začátku roku. Udržte si stávající optimistické smýšlení.",
        "love": "Partner to s hádkami na vás bude zkoušet i dnes. Naštěstí se nenecháte vykolejit a strhnout ke zbytečnému hašteření.",
        "work": "Kolegové vám závidí optimismus a nadšení, s jakým se vrháte do pracovních úkolů. Zkuste je také motivovat nebo je zapojit.",
        "relationships": "Rodina vás bude přemlouvat ke kratší dovolené. Bohužel je to v dnešních pandemických podmínkách téměř nereálné.",
        "health": "Starejte se o své vlasy jako správný lev o hřívu. Vhodné přípravky jsou k dostání i na internetu nebo v lékárně.",
        "tips": "Příprava domácího smoothie ze zmraženého ovoce, péče o pokojové rostliny, renovace nábytku, praní ložního prádla.,"
    },
    "virgo": {
        "main": "Měli byste se věnovat určité formě péče o svou osobu a mentální rozvoj. Jde o to, že vám v poslední době kleslo sebevědomí a vy se cítíte mezi ostatními ztracení. Není to ovšem na místě. Kvalit, které můžete ostatním nabídnout, máte nespočet.",
        "love": "Je třeba zapracovat na sebevědomí, pokud jde o svádění a flirtování. V poslední době jste na to ztratili odvahu.",
        "work": "Budete se snažit o dokončení všech odložených úkolů. Je načase je vyřešit a posunout se v práci dál. Tak neotálejte.",
        "relationships": "Do širší rodiny konečně přicházejí dobré a pozitivní zprávy. I když se to netýká přímo vás, budete mít velkou radost.",
        "health": "Bederní páteř zasluhuje více pozornosti. Především tehdy, máte-li sedavé zaměstnání. Rehabilitujte pravidelně.",
        "tips": "Sportovní aktivity v přírodě, videohovor s nadřízeným a kolegy, plnění pracovních úkolů, návštěva úřadů a bank.,"
    },
    "libra": {
        "main": "Každá zkušenost vás posouvá, milé Váhy. Nelámejte nad sebou nebo ostatními hůl jen proto, že vám něco nevyšlo. Naopak se nad vzniklou situací zamyslete a snažte se z ní poučit. Ku pomoci vám mohou být různé motivační články nebo materiály z internetu.",
        "love": "I na nepříjemných zkušenostech ze vztahů je cosi pozitivního. Odcházíte poučeni a s vědomím, co opravdu od protějšku čekáte.",
        "work": "Nespokojíte se s tím, že stále nemůžete chytit správné tempo. Začnete na sobě víc pracovat a pochvala od vedení přijde hned.",
        "relationships": "Dojde na setkání rodinné rady a rozdělení povinností a starostí o domácnost. Někteří se totiž jen vezou, ale neveslují.",
        "health": "Bolesti v oblasti kříže nepodceňujte, hrozí vám blokace dolní části zad. Raději si domluvte profesionální rehabilitaci.",
        "tips": "Založení nového spořicího účtu pro děti, samostudium cizích jazyků, dýchací cvičení, meditační techniky, jóga.,"
    },
    "scorpio": {
        "main": "Hvězdy radí být trpělivými. Po celý tento týden bojujete s výkyvy nálad a dělá vám problém přístup ostatních k jistým záležitostem. Je ale lepší podívat se na to s nadhledem a odstupem. Doslova vám takový přístup otevře oči a dost se vám uleví.",
        "love": "Dá vám docela velkou práci přesvědčit protějšek, že jste se zklidnili a nebudete si na něm vylévat zlost a frustraci.",
        "work": "Je pro vás dost zásadní mít hodně trpělivosti. Sice se snažíte, jak můžete, ale jako by se vám vyhýbaly lepší příležitosti.",
        "relationships": "Volnomyšlenkářství v rodině moc netrpíte. Na takového člověka jste schopni pohlížet svrchu. Nebuďte tolik přísní.",
        "health": "Stehenní svaly, které jsou namožené, úplně jednoduše namasírujete. Použijte bylinné nebo zklidňující gely a krémy.",
        "tips": "Péče o pohybový aparát, rekvalifikační kurz on-line, třídění soukromé e-mailové korespondence, fitness v přírodě.,"
    },
    "sagittarius": {
        "main": "Jestliže se vám dnes zasteskne po někom z dětství nebo školních let, neváhejte ho nějakým způsobem kontaktovat. Je možné, že zrovna i on myslí momentálně na vás. Určitě vám společné zážitky a vzpomínky zlepší náladu. Využijte moderních technologií.",
        "love": "Konverzace s přítelem, i když telefonická, vám dokonale zvedne náladu. Pomůže vám podívat se na svět optimističtěji.",
        "work": "Podaří se vám opravdu husarský kousek a s kolegy rozlousknete náročný úkol, se kterým jste se trápili sakra dlouho.",
        "relationships": "Nové zájmy vás doslova oživí a doma budou rádi, že jste se přestali nudit a věnovat se jen politice a záležitostem kolem covidu.",
        "health": "Pokud máte bolesti zubů, návštěvu stomatologa neodkládejte. Není k tomu důvod. Lékaři ordinují i v době koronaviru.",
        "tips": "Konzultace s odbornými lékaři, objednání se na zubní hygienu, cvičení jógy s dětmi, výuka cizího jazyka po internetu.,"
    },
    "capricorn": {
        "main": "Dostali jste více odvahy na milostném poli. Díky tomu se nebudete bát komunikovat se zajímavou osobou, na kterou dnes narazíte. Buďte zatím opatrní, i když přitažlivost je vzájemná. Raději si zachovejte klid a nenechte se strhnout k riskantnímu jednání.",
        "love": "Přitáhnete k sobě tak atraktivní osobu, až se vám podlomí kolena. Teď jde jen o to, jestli jste oba dva nezadaní.",
        "work": "Máte šanci se pomalu opět začít prosazovat v kariéře. Možná že jste se vrátili k činnostem, které vás dříve naplňovaly.",
        "relationships": "Těšíte se, že se doma vrhnete do nějaké činnosti, kterou máte rádi. Neotálejte s tím příliš dlouho, ať nepracujete do noci.",
        "health": "Pečujte o svůj vzhled. Hodně by si zasloužily vlasy, ty to potřebují nejvíce. Nešetřete na kvalitních přípravcích.",
        "tips": "Nákup potravin v kamenném obchodě, příprava bylinných čajů, nové exotické recepty, očistná dieta, posilovací cviky.,"
    },
    "aquarius": {
        "main": "Na pracovním poli střídá jedna změna druhou. Už pro samá opatření nebo přikázání nevíte co dřív. Pokud to jde, dejte si od všeho na pár dní odstup. Ale také samozřejmě od médií, negativních zpráv a deprimujících rozprav s kolegy z oboru nebo okolí.",
        "love": "Výměna názorů mezi vámi a protějškem vám otevře oči. Uvědomíte si také své chyby a pohled partnera na váš vztah.",
        "work": "Od začátku roku to jde se zaměstnáním nahoru dolů. Máte dost práce se ve všem zorientovat a pochopit současný systém.",
        "relationships": "Můžete si dovolit určitého člověka z příbuzenstva vyloučit z vašeho okruhu blízkých. Zřejmě si nezaslouží vaši pozornost.",
        "health": "Pečujte o krční páteř a během dne si dopřejte pár cviků na její protažení. Jinak brzy nehnete hlavou, milí Vodnáři.",
        "tips": "Rehabilitace a posilování zádového svalstva, konzultace problémů s lékařem po telefonu, mytí oken, úklid domácnosti.,"
    },
    "pisces": {
        "main": "Vaše kreativita nezná mezí. Můžete se mezi kolegy blýsknout opravdu brilantním nápadem, který pomůže zlepšit kritickou situaci. Začnete si po chvále ostatních více věřit a práce vás začne dost bavit. Využijte této skvělé chvíle, nemusí se dlouho opakovat.",
        "love": "Nevzdávejte se nadějí na kvalitní a trvalý partnerský vztah. Někde na vás čeká ten pravý protějšek. Je to otázka času.",
        "work": "Jste nápadití a inspirujete tak i ostatní spolupracovníky. Díky tomu jste schopni vytvořit něco opravdu nadčasového.",
        "relationships": "Snažte se volný čas s rodinou využívat plnohodnotněji. Koukání do počítače nebo mobilu vám to jednoznačně nezaručuje.",
        "health": "Vitamin C a D doplňujte pravidelně do těla. Ochrání vám to imunitu v náročném zimním období a v době koronaviru.",
        "tips": "Nákup nových vitaminů v lékárně, péče o zdraví, dostatečný spánek, aromaterapie, procházka v lese, četba motivačních knih.,"
    }
}