{
    "aries": {
        "main": "Možná vás v životě již dlouho provází nějaké zlozvyky, kterých byste se rádi zbavili. Využijte dnešního postavení měsíce v novoluní a zaměřte se na to. Vše totiž půjde jednodušeji. Den je vhodný k novým začátkům a přístupům. Můžete být inspirací pro okolí.",
        "love": "Dnešní novoluní vám pomůže odstranit vše, co je přežité nebo vám komplikuje život. V mezilidských vztazích to platí rovněž.",
        "work": "Projděte si své účty za pravidelné platby. Některé z nich se dají přizpůsobit novým a možná o dost výhodnějším podmínkám.",
        "relationships": "Návštěvou dnes můžete potěšit příbuzné, které jste delší dobu neviděli. Nezapomeňte na malou pozornost pro hostitele.",
        "health": "Odpočívejte dnes více. Klidně si i zdřímněte po obědě. Hlavně se vyhněte adrenalinovým sportům, kde hrozí úrazy.",
        "tips": "Rodinná oslava, příprava pohoštění, nákup řezaných květin, příprava na nový pracovní týden, wellness procedury."
    },
    "taurus": {
        "main": "Nejste zrovna znamení, které by rádo šlo životem samo a bez partnera. Pokud se ale momentálně v takové situaci nacházíte, nevěště hlavu. Zrovna dnes vám do života může vkročit láska s velkým L. Navíc ta letní může být osudová, na kterou jste čekali.",
        "love": "Single jedinci by měli mít oči otevřené. Láska na první pohled je totiž více než pravděpodobná. Pozor, abyste ji nepropásli.",
        "work": "Prodej zboží po internetu může pro vás být možností, jak si vedle ještě přijít na příjemné peníze. Obchodní talent máte.",
        "relationships": "Neradi v sobě držíte zášť a také víte, jak nepříjemné je to pak s vámi doma. Snažte se zbavit veškerého vzteku a splínu.",
        "health": "Krevní oběh podpoříte i tím, že budete při sprchování střídat teplou a studenou vodu. Začněte pomalu a postupně.",
        "tips": "Výroba domácí limonády, sběr hub, rybaření, paddleboarding, telefonát s kamarádem, filatelie, úklid domácnosti."
    },
    "gemini": {
        "main": "Jakkoliv si dnes naplánujete prožít den, nemusíte se obávat nepříjemností. Dojdete totiž k tomu, že potřebujete klid a pohodu, a to si umíte zajistit i bez partnera. Pokud jste tedy single nebo čerstvě po rozchodu, nebojte se, brzy bude lépe.",
        "love": "Vaše nálada a odolnost je obdivuhodná. Ani dnes nepropadnete splínu a vydáte se mezi lidi. Udrží vás to v dobrém rozpoložení.",
        "work": "Nic nepokazíte tím, že si dnes v domácích financích budete chtít udělat pořádek. Můžete přijít na výhodnější produkty.",
        "relationships": "V neděli vás naštěstí čekají samé příjemné a pohodové události. Můžete si konečně vydechnout od stresu z celého týdne.",
        "health": "Je den vhodný na změny. Máte-li nějakou neřest, zkuste se jí dnes zbavit. Je šance, že se to povede již napořád.",
        "tips": "Nákup nového sportovního náčiní, kolektivní míčové hry s přáteli, návštěva wellness centra, odpočinek na terase, grilování."
    },
    "cancer": {
        "main": "V neděli rozhodně nebudete potřebovat velkou společnost lidí. Úplně si vystačíte se svým partnerem, nebo dokonce i o samotě. Potřebujete občas klid na to, abyste úplně vypnuli a odpočinuli si. S partnerem se věnujte příjemnějším věcem, než je práce.",
        "love": "Dopřejte si více času o samotě nebo jen ve společnosti vaší lásky. Větší množství lidí není pro vás dnes to pravé.",
        "work": "Máte naštěstí kolem sebe dostatek zkušených lidí, kteří vám pomohou dobrou radou při řešení náročných životních situací.",
        "relationships": "Pro dnešní den je žádoucí odpočinkový režim. Dopřejte si čas pro své záliby a ostatním dejte prostor pro totéž.",
        "health": "Pozor na přehnanou konzumaci alkoholu nebo cigaret. Vše, co vašemu tělu neprospívá, byste měli dnes spíš vynechat.",
        "tips": "Péče o pokožku těla, nákup kosmetiky, aromatické koupele, příprava dietního jídelníčku, sledování sportovního přenosu."
    },
    "leo": {
        "main": "Na pořadu dne by měli být aktivity spojené s emocemi, láskou a přirozenými věcmi. Nenechte se zatáhnout do nákupního centra a řešit pouze konzumní záležitosti. Pokud budete dnes mít navíc i pod kontrolou své finance, do budoucna jen lépe pro vás.",
        "love": "Neustávejte v projevech něžností ke své drahé polovičce. Jiskřivé napětí mezi vámi se může lehce přenést do ložnice.",
        "work": "Nenecháte se vykolejit a rodinné nebo osobní finance budete mít pod kontrolou. Nikdo vás nedonutí do rizikových operací.",
        "relationships": "Máte-li možnost, věnujte se práci na zahradě. Dokonale vám to pomůže odvést myšlenky od rutinních povinností nebo starostí.",
        "health": "Omezte příjem sladkostí na minimum. Pokud to jinak nejde, nahraďte je čerstvým ovocem, kterého je na trhu dostatek.",
        "tips": "Plážový volejbal s kamarády, houbaření, příprava rodinného oběda, kontrola soukromých e-mailů, ruční mytí auta."
    },
    "virgo": {
        "main": "Na pořadu dnes jsou vztahy, společenská setkání a milostné hrátky. Cokoliv, co je jen trochu spojeného s prací, okamžitě odsuňte. Není to totiž třeba a vy byste se nudnými domácími pracemi zbytečně ochudili o krásné zážitky s rodinou nebo partnerem.",
        "love": "Někdo v neděli odpočívá, ale to není váš případ. Okolnosti vás opět zavedou do společnosti někoho velmi atraktivního.",
        "work": "Zapomeňte na všechny účty, složenky a platby. Máte vše v pořádku, takže není nutné stále vysedávat u počítače a něco řešit.",
        "relationships": "Nemine vás zřejmě návštěva starších příbuzných. Nutno říct, že budete rádi, protože je u nich o vás vždy dobře postaráno.",
        "health": "Detoxikační dieta, která je vám šitá na míru, není vůbec špatný nápad. Můžete si tak upravit postavu ještě do podzimu.",
        "tips": "Romantická procházka s partnerem, sledování hudební soutěže, návštěva mladších příbuzných, nákup oblíbených lahůdek."
    },
    "libra": {
        "main": "Pozor na to, komu se dnes věnujete a komu se svěřujete. Osoba, které jste propadli, není takovou, za kterou se vydává. Rozhodně v jejím životě nehrajete prim a hrát ho nebudete. Pokud stojíte jen o letní flirt, tak se ovšem vašim touhám meze nekladou.",
        "love": "Rádi byste si získali pozornost osoby, která vás velmi přitahuje. Z její strany jde zřejmě jen o flirt a nejste u ní jediní.",
        "work": "Možná že vám nové skutečnosti otevřou oči a vy na poslední chvíli couvnete od riskantní finanční operace, nebo dokonce podvodu.",
        "relationships": "Jestliže už nezbytně potřebujete za kulturou, nabídek je mnoho. Zkuste letní kino nebo divadelní představení pod širým nebem.",
        "health": "Od bolestí by vám mohly ulevit spíše bylinky než klasické léky. Ty chronické byste ale měli každopádně konzultovat s lékařem.",
        "tips": "Péče o domácí mazlíčky, výlet po turistické stezce, koupání v řece, táborák, hra na hudební nástroje, zpívání."
    },
    "scorpio": {
        "main": "Poslední den v týdnu si užijte tak, aby vám bylo co nejpříjemněji. Je jasné, že domácími pracemi určitě neděli trávit nechcete. Sáhněte po dobré knize, vydejte se na koupaliště nebo se s miláčkem odvažte a vyzkoušejte něco nového za dveřmi ložnice.",
        "love": "Na vaši osobu se budou hrnout komplimenty od partnera. Dejte najevo, že vám to dělá radost, a zahoďte hranou skromnost.",
        "work": "Na výhodnější investice si ještě musíte počkat. Zatím své korunky nechte spokojeně odpočívat na účtě a myslete na něco jiného.",
        "relationships": "Neděli si naplánujte v klidnějším tempu. S dobrou knihou nebo opalováním. Nic vás dnes nedonutí k heroickým výkonům.",
        "health": "Tělu prospějí masáže, depilace nebo peelingové procedury. Zvolte něco z toho, co vaše pokožka ocení a co máte dostupné.",
        "tips": "Nové výtvarné techniky, úklid domácího pracovního stolu, čištění čalouněného nábytku, projížďka na kole po okolí."
    },
    "sagittarius": {
        "main": "Není to sice vaše parketa, ale snažte se být větší diplomaté v mezilidských vztazích. Máte tendence říkat vše na plnou pusu. Občas to ale může někoho ranit. Proto se zamyslete nad tím, jak a s kým dnes budete komunikovat. Pro oba z vás je to důležité.",
        "love": "Razantní způsob ukončení nevhodného vztahu volte pouze tehdy, kdy byste byli v ohrožení. Jinak zkuste mírnější rétoriku.",
        "work": "Začněte s novým zvykem, a to takovým, že si budete odkládat nějaké peníze stranou do obálky. Postupem času se budou hodit.",
        "relationships": "Kratší rodinný výlet do přírody udělá své. Potřebujete načerpat síly. Do lesa si vezměte košík na houby, určitě ho využijete.",
        "health": "Pleťové masky ocení především ženy. Doma si je můžete podle nejrůznějších receptů připravit přesně pro váš typ pleti.",
        "tips": "Sportovní hry s dětmi, návštěva aquaparku, hraní deskových her, příprava lehké vegetariánské večeře, příprava na nový týden."
    },
    "capricorn": {
        "main": "Vašimi dnešními aktivitami by měly být jen činnosti, které plně uspokojí vaše emoce a touhy. Věnujte se umění, vyjděte si do přírody nebo se oddejte romantickým něžnostem se svým partnerem. Toto vše ve vás vyvolá pocity naplnění smyslu života.",
        "love": "Jste v hloubi duše překvapivě romantici. Tak kromě vášnivého řádění v posteli oceníte dnes i klidnou procházku s partnerem.",
        "work": "Odložte dnes veškeré starosti s financemi a domácím účetnictvím. Potřebujete mít do nového týdne čistou hlavu.",
        "relationships": "Uspokojí vás práce s květinami, rostlinami, sbírání ovoce nebo hub. Zkrátka všechno, kde budete ve spojení s přírodou.",
        "health": "Průmyslové cukrovinky vám mohou způsobit zažívací potíže. Dejte proto dnes pozor na jejich konzumaci a také na to, kde je koupíte.",
        "tips": "Návštěva starších příbuzných, pečení ovocných koláčů, sběr lesního ovoce, telefonát s kolegou, plánování letní dovolené."
    },
    "aquarius": {
        "main": "Nechte debaty na jindy a spíše jednejte. Místo vážných rozhovorů o lásce si vyjděte na procházku. Místo úvah o tom, jak vylepšíte domácnost, se dejte do díla a vytvořte něco originálního. Možností, jak se realizovat, je mnoho. Záleží na vaší snaze.",
        "love": "Místo rozmluv se vydejte s vaší polovičkou na romantickou procházku. Jistě máte oblíbené místo, kde jste začínali randit.",
        "work": "Nápady nemáte opravdu promyšlené do sebemenšího detailu, takže je zatím nerealizujte. Byli byste pak zklamaní.",
        "relationships": "Ruční práce mohou být výsadou některých z vás. Díky nim si můžete doma vytvořit originální a nadčasové interiérové dekorace.",
        "health": "Vlasům dopřejte oplachy jablečným octem, který jim dodá lesk a také je pečlivě vyčistí. Výsledky budou viditelné hned.",
        "tips": "Odpolední piknik s rodinou, výcvik pejska, motokáry, psaní blogu, třídění rodinných fotografií, setkání se sousedy."
    },
    "pisces": {
        "main": "Neděli využijte k tomu, abyste se nejen připravili na další týden, ale také abyste si uspořádali v hlavě vše, co vám doposud činilo obtíže. Některých věcí bude třeba se dobrovolně vzdát, aby vám nestálo nic v cestě za lepším životem.",
        "love": "I čas trávený o samotě má něco do sebe. Pomůže vám nasměrovat myšlenky na tu správnou cestu, kterou se máte v lásce vydat.",
        "work": "Je načase zavést nový systém do rodinných úspor. Nemáte totiž dostatečnou rezervu, pokud se vám nahromadí mnoho výdajů.",
        "relationships": "Je třeba se připravit na další náročný pracovní týden. Tak si dopřejte lenošení, odpolední spánek a sledování televize.",
        "health": "Zatočte s přebytečnými kily. Sestavte si nový jídelníček, kde bude převažovat ovoce a zelenina. Nezapomeňte na čistou vodu.",
        "tips": "Příprava na nový pracovní týden, třídění obnošeného šatstva, nákup čerstvých surovin, rodinná večeře, poslech oblíbené hudby."
    }
}