{
    "aries": {
        "main": "Sil máte od pondělí na rozdávání. Všude, kam přijdete, to rozjedete. Doma to však rodina nebude kvitovat zrovna s nadšením. Ti by si nejraději lenošili po svém. Nezbude vám bohužel nic jiného než se vydat třeba za sportem s dobrými kamarády.",
        "love": "V mezilidských vztazích vám naštěstí nuda nehrozí. Máte nyní v zorném poli člověka, který by mohl být vaším dobrým přítelem.",
        "work": "Nadřízenému se vaše nápady zamlouvají, takže vás nechá pracovat, aniž by vám do úkolů zasahoval. To vám absolutně vyhovuje.",
        "relationships": "Můžete propadnout dojmu, že marníte čas, a tak se budete chtít vrhnout do všeho po hlavě. Doma to tak ale ostatní nemají.",
        "health": "Snídaně je základem dobrého dne. Vyzkoušejte nějakou obměnu, která by vám dodala energii. Nezapomínejte na zeleninu.",
        "tips": "Nové pracovní úkoly, péče o starší příbuzné, čištění automobilu, venčení psa, tvorba nového playlistu, meditační cvičení."
    },
    "taurus": {
        "main": "Nebojte se ukázat světu, co ve vás skutečně je. Nejenže jste skvělí partneři a kamarádi, ale také umíte zazářit na pracovním poli. Předneste své nápady nadřízenému bez obav, můžou se uchytit. Pokud si je však necháte pro sebe, světlo světa nikdy nespatří.",
        "love": "Srpen se přehoupl do druhé poloviny, ale v milostném životě u vás pokračují příjemné dny. Užijte si toho na maximum.",
        "work": "Počátkem týdne se vám podaří získat pozornost a dokonce i respekt nadřízeného. Konečně můžete svůj talent projevit naplno.",
        "relationships": "I když se vám v ostatních oblastech života daří, v rodině to není růžové. Kdosi vás i dnes rozzlobí do nepříčetnosti.",
        "health": "Pravidelné menší porce během dne vám zaručí, že nebudete hladovět. Naplánujte si denní jídelníček na celý týden.",
        "tips": "Návštěva trhu, práce se dřevem, rybaření, společenské posezení se sourozenci, hledání letní brigády, inline brusle."
    },
    "gemini": {
        "main": "Jakmile se v práci dostanete mentálně na stejnou úroveň, jakou máte v milostných a rodinných vztazích, dost se vám uleví. Je nutné, abyste ze svého života vyloučili negativní vibrace. Jen tak můžete dosáhnout spokojenosti ve svých počinech.",
        "love": "Události v milostném životě se konečně začínají měnit v ty lepší. Je na čase, už jste toho začínali mít opravdu nad hlavu.",
        "work": "Přestanete podléhat negativním emocím. To vám jednoznačně zvýší jistotu v krocích, které v práci budete činit.",
        "relationships": "Jestliže se rozhodnete pro poslední letní dny naplánovat rodinnou dovolenou, nic nepokazíte. Všichni to potřebují.",
        "health": "Dávejte si pozor na smažené pokrmy. Můžete pocítit bolesti žaludku a trávicí problémy. Dejte přednost vařeným pokrmům.",
        "tips": "Četba oblíbené literatury, home office, nákup sportovního vybavení, minigolf, thajské masáže, kontrola plateb za domácnost."
    },
    "cancer": {
        "main": "Rozhodit vás mohou změny názorů vašeho šéfa. To, co bylo domluveno před týdnem, dnes už platit nemusí. Je třeba ale zachovat klid, vše je stále v procesu a může se ještě mnohokrát pozměnit. Zatím tedy ještě vydržte a hlídejte si svou rétoriku.",
        "love": "Propadnete dojmu, že váš nový protějšek není tak upřímný, jak se na první pohled zdálo. Začnete být zdrženliví.",
        "work": "Výkyvy nálad nadřízeného vás znepokojí. To, že se nemůžete zavděčit svou prací, je stresující. Musíte dnešek přežít v klidu.",
        "relationships": "Pár dobrých známých se přihlásí o návštěvu u vás doma. Nenechte se dnes zaskočit a naplánujte setkání na víkend.",
        "health": "Přebytečnou energii dnes ze sebe vydáte zaručeně pohybem. Máte již svůj oblíbený sport? Jestli ne, nějaké vyzkoušejte.",
        "tips": "Setkání s obchodními partnery, sestavení pracovního harmonogramu, telefonát s kamarádem, výtvarné a kreativní práce."
    },
    "leo": {
        "main": "S počátkem týdne se opět vracíte na své oblíbené místo. Kam? No přece na výsluní. Přesně tam patříte. Nepřestáváte ostatní fascinovat dobrou náladou, nakažlivým optimismem a lehkostí, s jakou protančíte dnešním dnem. Máte skvělý začátek nového týdne!",
        "love": "Budete mezi lidmi opět na výsluní, jak se na vaše znamení sluší a patří. V této pozici se budete cítit sebejistě jako vždy.",
        "work": "Vaše výsledky v práci nejsou vůbec zanedbatelné, tudíž se nedivte, když vám nadřízený najednou udělí mimořádné prémie.",
        "relationships": "Nejste zvyklí na to, že by vás jistý člen rodiny tak ignoroval. Jeho chování vás může dost potrápit a hledáte příčinu.",
        "health": "Zeleninová strava vám dnes udělá lépe než jídlo z fast foodu. Pokud můžete, připravte si doma chutný salát podle svého.",
        "tips": "Úklid domácí pracovny, třídění soukromých e-mailů, psaní romantických odpisů, adrenalinové zážitky, plavání, houbaření."
    },
    "virgo": {
        "main": "Zkuste poslouchat svůj vnitřní hlas. Možná jste ho v poslední době přestali vnímat a to je škoda. Jakmile se znovu své intuici svěříte do rukou, začnou se dít opravdu velké věci. Tak se zkuste uvolnit a nechte se nést na pozitivních vlnách.",
        "love": "Poslechněte svou intuici. Ta vám dobře poradí, koho si pustit blíže k tělu a koho nechat jít dál. Vyčistíte si své okolí.",
        "work": "V zaměstnání se začnete již od pondělí projevovat méně agresivně než v uplynulých dnech. Asertivitou rozhodně nic nepokazíte.",
        "relationships": "Nemáte rádi přetvářku, i kdyby pravda měla sebevíc bolet. Dnes to dejte najevo doma tomu, kdo se pokusí vám lhát.",
        "health": "Dobrý pitný režim je základ. Omezte slazené limonády. Raději je vyměňte za čistou vodu s plátkem citronu a lístkem máty.",
        "tips": "Sestavení nového jídelníčku, telefonát s kamarádem, setkání s kolegou v kavárně, příprava obchodní prezentace."
    },
    "libra": {
        "main": "Nezadaní jedinci by se měli opravdu obloukem vyhnout známostem, které jsou v nějakém partnerském vztahu. Zbytečně si tak do života vnášíte chaos, navíc můžete ublížit lidem, které ani neznáte. Dejte si proto pozor, kam vás srdce dnes povede.",
        "love": "Nevrhejte se do vztahů, kde kromě dvou lidí figuruje ještě někdo. Je to předem ztracená záležitost, která vám ublíží.",
        "work": "Nevyhýbáte se náročnějším úkolům, ale také znáte své limity. Zkuste si práci lépe naplánovat, abyste nenadělali chyby.",
        "relationships": "Doma to stagnuje a vás napadne rozvířit atmosféru. Vyvarujte se však bláznivin, které by vedly ke zranění někoho z rodiny.",
        "health": "Grilovat můžete nejen maso, ale také čerstvou zeleninu. Dobrou marinádu si lehce připravíte doma z dostupných surovin.",
        "tips": "Výroba domácího likéru, návštěva koupaliště, četba humorného románu, sledování sportovního utkání, domácí karaoke s dětmi."
    },
    "scorpio": {
        "main": "Na vaši osobu se dnes sesype velké množství komplimentů. Bude zajímavé, jak si s tím poradíte. Občas jste sami k sobě hodně kritičtí. Nebojte se však toho, že by to lichotníci nemysleli vážně. Lidi k vám dnes přitahuje mnoho vaši předností.",
        "love": "Připravte se na příliš komplimentů, který se na vás dnes chystá. Není třeba se ostýchat, je to rozhodně zasloužené.",
        "work": "Na cestě jsou zajímavé finanční prémie nebo postup v kariéře. Za poslední dny jste totiž předvedli obdivuhodné výkony.",
        "relationships": "Vůči ostatním doma projevíte více tolerance, což může být dnes k dobru. Ovšem, pozor na přílišné rozvolnění, hlavně u dětí.",
        "health": "Popřemýšlejte, které bylinky byste zužitkovali i v zimě. Není od věci si ještě nějaké vypěstovat. Máta je zaručený úspěch.",
        "tips": "Příprava nové obchodní prezentace, oběd s rodiči, nákup drobného nábytku, návštěva galerie, hra na hudební nástroje."
    },
    "sagittarius": {
        "main": "Kde se vám bude dařit, to je jistě finanční oblast a také nová láska. Čerpejte výhod, které vám tyto dvě roviny života přinášejí, na maximum. Naopak v rodině si ještě hodně věcí tento týden musíte dát do pořádku. Je to nutné pro váš další vývoj.",
        "love": "Začínáte opět přicházet na chuť seznamování a navazování nových kontaktů. Nemusí ale jít pouze o milostné vztahy.",
        "work": "Usmívá se na vás super finanční bonus. Je však na vás, nakolik se o něj zasloužíte. Nenechte si takovou šanci utéct.",
        "relationships": "Zpočátku týdne vás opět zastihnou náročné povinnosti v rodině, ale jste na ně sami. Není se čemu divit, když se hned rozzlobíte.",
        "health": "Bolesti hlavy nebo kloubů může způsobit i změna počasí. Ulevit vám mohou chladivé obklady s přidáním mentolových esencí.",
        "tips": "Aromaterapie, thajské masáže, venčení pejska s přáteli, nákup rybářského vybavení, romantická procházka s partnerem."
    },
    "capricorn": {
        "main": "V lásce se dnes některé věci budou jevit divně. Alespoň z vašeho pohledu to tak bude vypadat. Sami jste zodpovědní a dodržujete sliby, ovšem protějšek to dnes podle vás fláká. Ještě pár dní vyčkejte, jak se situace bude dál vyvíjet, a nic neřešte.",
        "love": "Začátky vašeho nového vztahu se jevily o něco víc romantičtěji, než jak to vypadá dnes. Je to ale jen přechodná fáze, nebojte.",
        "work": "Získat můžete práci snů. Jestliže se něco takového tedy vyskytuje, nenechte si šanci utéct. Jinak budete litovat.",
        "relationships": "Kdosi z rodiny se dotkne vašeho citlivého místa a vy se mu budete klidit z cesty. Sami s omluvou rozhodně nepřijdete.",
        "health": "Masáže lymfy jsou zaručeným způsobem, jak z těla dostat všechny škodliviny. Zároveň nastartují správné fungování organismu.",
        "tips": "Fotografování v botanické zahradě, návštěva sportovního parku, oběd s partnerem, kardio cvičení v přírodě, úklid terasy."
    },
    "aquarius": {
        "main": "Bavit vás bude partner nebo přátelé. Sami nejste nudná persona a ani ve svém okolí takové osoby nestrpíte. Takže se dnes opět zúčastníte zábavného programu, ať už to bude cokoliv. Jen dávejte dobrý pozor na své zdraví a zbytečně neriskujte.",
        "love": "Opačné pohlaví má u vás dveře otevřené. Budete nakloněni všem bláznivým nápadům, které si partner pro vás připraví.",
        "work": "Vaše pracovní schopnosti nejsou tak špatné, jak jste si dosud mysleli. Naopak máte co nabídnout, tak se předveďte.",
        "relationships": "Zaznamenáte změnu ve svém přístupu k rodině. Začnete se na jejich malicherné problémy dívat úplně jinak a bez zájmu.",
        "health": "Oteklým nohám ulevíte teplou koupelí a masážemi chladivým gelem. Lépe si také vybírejte obuv, ve které chodíte celý den.",
        "tips": "Samosběr ovoce a zeleniny, výroba domácí marmelády, zpěv, hra na hudební nástroje, návštěva aquaparku, čtení pohádek dětem."
    },
    "pisces": {
        "main": "Zklamání přijde čerstvě zadaným jedincům. Nový protějšek se začíná projevovat tak, že se vám to ale vůbec nelíbí. Než abyste takové chování trpěli a čekali, raději takové známosti dejte vale hned. Uvidíte, že do budoucna je to to nejlepší řešení.",
        "love": "Nová partie, která je ve vašem životě krátce, se vám přestává zamlouvat. Není vše takové, jak se na začátku zdálo.",
        "work": "Ač se budete dnes snažit sebevíc, šéf na vaší práci stále bude hledat chyby. Začnete uvažovat o změně profese.",
        "relationships": "Ani doma se nikomu svým chováním nezavděčíte. Nezbude nic jiného než se starat jen o své. Alespoň pro dnešek.",
        "health": "Střídáním studené a teplé vody při sprchování dosáhnete větší odolnosti organismu. Zkuste si z toho udělat každodenní rituál.",
        "tips": "Online pracovní porada, třídění pracovních e-mailů, týmová spolupráce s kolegy, odpolední posezení se sousedy, táborák."
    }
}