{
    "aries": {
        "main": "Máte přehled a nikdo o tom nepochybuje. Ovšem i vy můžete naletět podvodníkům. Pokud se tedy dnes rozhodnete pro větší investice, vše si pořádně promyslete a ověřte. Je možné, že ani vaše vědomosti nebudou stačit. Požádejte o radu přítele.",
        "love": "Měli byste si s protějškem udělat více soukromých chvilek. Začněte již dnes. Je nutné dohnat resty v milostném životě.",
        "work": "Dávejte si pozor na předražené zboží. Možná si více věříte v nakupování, ale i mistr tesař se může utnout. Opatrně tedy!",
        "relationships": "Poohlédněte se po výletu, který můžete absolvovat bez náročných výšlapů. Bavit by vás i rodinu mohla menší rodinná zoo.",
        "health": "Pokud se dnes nedostanete ke sportu, nevadí. Chopte se nářadí a jděte na zahradu něco dělat. Je to také účinný pohyb.",
        "tips": "Vydatný spánek, procházka po okolí, odpoledne na koupališti, četba, poslech motivačního podcastu, práce na zahradě."
    },
    "taurus": {
        "main": "Nenechte si ujít ani jednu příležitost k tomu, abyste si s partnerem dopřáli projevy lásky. I když to nevypadá, prožíváte důležité období společného života a tyto věci k tomu patří. Nebojte se také svěřit se svými fantaziemi, ať už jsou jakkoliv divoké.",
        "love": "Krásné události v milostném životě by vás dnes neměly minout. Jde jen o to, nakolik se uvolníte a necháte se vést.",
        "work": "Dobré a výhodné investice vás dnes mohou potkat, pokud na ně budete mít náladu. Do ničeho se nutit ale nemusíte.",
        "relationships": "Změna prostředí prospěje všem doma. Nejlépe uděláte, pokud se vydáte za poznáním. Zaměstnáte hlavu něčím jiným než hádkami.",
        "health": "Pobývejte dnes co nejvíce mimo domov. Je nutná změna prostředí, abyste přišli na jiné myšlenky. Jinak si neodpočinete.",
        "tips": "Kreativní psaní, poslech oblíbené hudby, hraní společenských her, luštění křížovek, zavařování ovoce a zeleniny, úklid."
    },
    "gemini": {
        "main": "Budete mít velkou radost, jakmile se dnes podíváte blíže na své finance. Je jasné, že se vám pomalu, ale jistě daří spořit více peněz. Máte svá tajná přání, na která si šetříte, takže by vás nic od této snahy nemělo odradit ani v budoucnu. Jen tak dál!",
        "love": "Romantická procházka městem, večeře ve dvou, něžnosti. To vše byste měli dnes zakomponovat do zábavy s protějškem.",
        "work": "Postupné spoření financí začíná nést své výsledky. Na spořicím účtě se vám může hromadit příjemná suma. Zatím ji tam nechte.",
        "relationships": "Vyrazte si zakoupit nějaké dobroty na nejbližší farmářský trh. Domů přineste i nějaké pěkné řezané květiny. Zlepší atmosféru.",
        "health": "Je možné, že si z farmářského trhu donesete domů potraviny, které jste ještě nejedli. Snažte se je připravit co nejlépe.",
        "tips": "Třídění starších oděvů, příprava ovocného smoothie, sušení bylinek, houbaření, servis jízdního kola, péče o domácí mazlíky."
    },
    "cancer": {
        "main": "Konečně vám v hlavě dojde, že na vztahu musíte pracovat i jiným způsobem, než přísností a nastavováním mantinelů. Nálada se uvolní a hned bude prostor pro společné aktivity a hezké zážitky. Ani vy byste nechtěli být neustále pod palbou kritiky.",
        "love": "Nálada ve vztahu bude lepší než v uplynulých dnech. Pracujte na tom dál, uvidíte, že se takový přístup vyplácí.",
        "work": "Budete se muset poprat se situací, kdy si sáhnete s úsporami na dno. Je třeba utáhnout opasek a neutrácet jako dřív.",
        "relationships": "Vyjděte si za kulturou. Léto stále nabízí mnoho venkovních představení. Od divadla po koncerty nebo auto kino.",
        "health": "Při sbírání hub byste měli být obezřetní hlavně tehdy, nejste-li zkušení houbaři. Do košíku si dejte jen ty známé houby.",
        "tips": "Nákup oblečení na internetu, výroba zahradního altánku, sušení bylinek, vaření, péče o starší příbuzné, četba."
    },
    "leo": {
        "main": "Záříte tak, jak si správný zrozenec vašeho znamení zaslouží. Přitahujete k sobě ostatní jako magnet. Nedivte se tedy, že se kolem vás rojí nápadníci a lidé na vás mohou oči nechat. Vašeho miláčka to ale může pěkně zvednout ze židle a začne žárlit.",
        "love": "Máte velký sexappeal a přitahujete k sobě ostatní magickou silou. Pozor na to, abyste nezavdali příčinu partnerově žárlivosti.",
        "work": "Víkendový den nemusíte trávit potulováním po obchodních centrech. Na nákupy máte dost času a nic moc nepotřebujete.",
        "relationships": "Zaměřte se na to, jak byste ještě svým ratolestem zpříjemnili pomalu končící prázdniny. Nápadů máte jistě dostatek.",
        "health": "Při pobytu na sluníčku dbejte na to, abyste dostatečně pili a také si chránili hlavu. Nezapomínejte ani na sluneční brýle.",
        "tips": "Návštěva rukodělného trhu, práce se dřevem, založení e-shopu, míčové sporty, rehabilitační cvičení, meditace, jóga."
    },
    "virgo": {
        "main": "Vysoký jackpot v loterii vás může motivovat. Klidně si vsaďte oblíbená čísla nebo jen ta náhodná. Je možné, že se na vás usměje štěstí a vyhrajete hezkou sumičku. Ovšem, jestli budete dnes milionářem neví ani hvězdy. Musíte to prostě jen zkusit!",
        "love": "Věnujte se s novým partnerem společným zálibám. Prohloubí to mezi vámi důvěru a vztah se může pousnout na další úroveň.",
        "work": "Vyhrát v loterii může každý, tedy i vy. Ale musíte si vsadit. Zkuste si dnes trochu zariskovat, hvězdy značí úspěchy.",
        "relationships": "Do svého volného času můžete zařadit tak neobvyklý koníček, že se ostatní budou hlasitě divit. Nakonec je přesvědčíte.",
        "health": "Chůze je velmi dobrým způsobem, jak si přirozeně prokrvit dolní končetiny. Pomáhá především, pokud trpíte křečovými žilami.",
        "tips": "Pečení ovocných koláčků, sušení bylinek, oprava nábytku, péče o automobil, podvečerní procházka po okolí, domácí karaoke."
    },
    "libra": {
        "main": "Budete si v duchu gratulovat ke své šetrnosti. Dnes se vám rozhodně hodí peníze, které jste si odložili před časem stranou. Ať už pro to bude důvod jakýkoliv, nedá se nic dělat, finanční rezervu použít musíte. Nebude to tak zlé, nebojte se.",
        "love": "Nechte věci mezi vámi a novým partnerem volně plynout. Neplánujte nic, co by bylo nepřirozené. Tím byste dotyčného odradili.",
        "work": "Jisté finanční rezervy vás mohou dnes zachránit před nepříjemnou situací. Bohužel je budete muset ale vydělat zpátky.",
        "relationships": "Volné dny můžete trávit na chatě, pokud to jde. Práce na zahradě vás příjemně zrelaxuje. Večer vás čeká zasloužený táborák.",
        "health": "Dnes si vařenou zeleninu okořeňte hlavně čerstvými bylinkami. Na čerstvé brambory si přidejte zelenou petrželku.",
        "tips": "Plánování dovolené u moře, kontrola cestovních zavazadel, podvečerní táborák, hra na hudební nástroje, zpívání."
    },
    "scorpio": {
        "main": "Váš miláček na vás hraje tak trochu záludnou hru. I když se navenek tváří, že se stydí, ve skutečnosti je tomu právě naopak. Jen ho baví zkoušet vaši trpělivost. Vaše první romantické prožitky jsou ale na spadnutí, tak se pokuste ještě vydržet.",
        "love": "Nedostupnost váš nový protějšek pouze hraje. Ve skutečnosti se nemůže dočkat vašeho první milostného sblížení.",
        "work": "Hvězdy vám budou přát v nejrůznějších soutěžích. Pokud jste tedy hraví a rádi luštíte křížovky nebo rébusy, máte šanci.",
        "relationships": "Na bleším trhu se dá najít mnoho zajímavých starožitných předmětů. Zkuste se dnes někam vypravit, bude to inspirativní.",
        "health": "Nahromaděnou energii z posledních dní se snažte z těla dostat přirozeným pohybem. Nejlepší bude sport v přírodě a s přáteli.",
        "tips": "Ranní procházka v lese, třídění rodinných fotografií, péče o starší příbuzné, nákup potravin, péče o domácí mazlíky."
    },
    "sagittarius": {
        "main": "Změna prostředí dnes prospěje celé vaší rodině. Vyjděte si na zajímavé divadelní nebo hudební představení. Pod širým nebem se vám bude taková akce ještě více líbit. Uvidíte, že i vaše děti si z toho odnesou hezké zážitky a navíc něco poučného.",
        "love": "Neuškodí, když novému partnerovi dopřejete více něžností a láskyplných projevů. Zaslouží si poznat, že jste duší romantici.",
        "work": "Část dne vám doma zabere nutné papírování. Máte nějaké nedotažené záležitosti, které musíte udělat stůj co stůj.",
        "relationships": "Pomoci by vám mohla péče o duši, o tělo a také nějaké kulturní vyžití. Jistě si najdete způsob, jak si toto vše dopřát.",
        "health": "Kvalitní olivový olej není nutné používat jen do jídla. Pomůže také jako maska na suché vlasy nebo při suché pokožce.",
        "tips": "Výlet do botanické zahrady, odpolední spánek, poslech oblíbené hudby, práce na sociálních sítích, výroba šperků."
    },
    "capricorn": {
        "main": "Dovolte si dnes denní snění. V hlavě vám běhají nápady, které by stály za to převést do reality a také z nich něco vytěžit. Inspirovat se můžete nejrůznějšími časopisy a knihami. Tak si udělejte čas jen pro sebe a přemýšlejte o nových možnostech.",
        "love": "Nezapomínejte na pořádnou dávku romantiky v milostném vztahu. Partner i vy potřebujete popustit uzdu vášním a fantaziím.",
        "work": "Začínáte si více věřit a je možné, že jistý svůj koníček přetavíte do podnikatelské činnosti. Nebojte se být odvážnější.",
        "relationships": "Jestliže se dnes máte chuť jen tak poflakovat doma, není to nic nemožného. Vezměte si k ruce dobrou knihu a odpočívejte.",
        "health": "Pokud dnes držíte půst, dopřejte si jen jednodruhové jídlo. To zakápněte kvalitním olivovým olejem a okořeňte bylinkami.",
        "tips": "Celodenní výlet mimo domov, návštěva nové restaurace, projížďka výletní lodí, fotografování města, hraní deskových her."
    },
    "aquarius": {
        "main": "Partner i vy si zasloužíte více času, který budete mít jen pro sebe. Nemusíte celý den řádit v ložnici, ale postačí i malé něžnosti, láskyplná slůvka a objetí. Ovšem máte-li chuť na extra vášnivé momenty, ani tam se nemusíte ničemu bránit.",
        "love": "Udělejte si dnes čas na romantiku a vášně. Je třeba také pracovat na svém intimním životě. Jinak budete frustrovaní.",
        "work": "Zainvestujte do něčeho, co by napomohlo vylepšení vaší vizáže. Korunky na to mít budete a stále jsou slevové akce v obchodech.",
        "relationships": "Vesnická pouť může být opravdu návratem do dětských let. Dopřejte ale takové zážitky i svým dětem. Nebudete litovat.",
        "health": "Vyjděte si na procházku do přírody nebo se věnujte práci na zahradě. To vám pomůže odčerpat špatné myšlenky z hlavy.",
        "tips": "Úklid domácnosti, odpolední procházka po blízkém okolí, zpracování zeleniny a ovoce, plážový volejbal, nohejbal."
    },
    "pisces": {
        "main": "Nedejte se ničím a nikým dnes zviklat. A to opravdu v žádné oblasti. Jde o vaše priority a také princip. Je pravděpodobné, že s vámi někdo bude chtít manipulovat, ale nedejte se. Pokud tuto zkoušku dnes zvládnete, máte vyhráno a zvedne vám to sebevědomí.",
        "love": "Držte se pevně svých názorů v kontaktu s osobou, která se snaží s vámi manipulovat. Nedovolte, aby dosáhla svého vítězství.",
        "work": "Vyhněte se obloukem pochybným půjčkám, které slibují nízké úroky na delší dobu. Je to chyták na důvěřivé jedince.",
        "relationships": "Sobotní den by se konečně mohl vydařit. Program zvolte podle počasí a měl by být více relaxační. Co navštívit třeba wellness?",
        "health": "Dejte se dnes do nějakého kreativního tvoření. Zaměstnáte tak ruce a negativní myšlenky vám samy odejdou z mysli.",
        "tips": "Milostné hrátky s partnerem, virtuální návštěva muzea, výtvarné techniky, rozhovor s kamarádem, úklid ložnice."
    }
}