{
    "aries": {
        "main": "Jestliže jste si za uplynulé dva dny uvědomili, co dokáže změna v tónu hlasu a volbě slov, jste v podstatě vítězově. Přišli jste na to, co možná váš protějšek na vás nemá rád a čím ho dráždíte. Dnes si den můžete udělat pohodový. Záleží na vás.",
        "love": "Své výsledky ponese vaše změna chování vůči partnerovi. Zjistíte, že se dá komunikovat jemněji, a tak je vše jednodušší.",
        "work": "Nebojte se, že by vaše snaha zůstala u nadřízeného bez povšimnutí. Může vám připsat k výplatě pěknou odměnu nebo vás povýšit.",
        "relationships": "Bude fajn si s přáteli nebo příbuznými udělat příjemný víkend. Plánovat ho můžete začít již dnes, ať máte přesnou představu.",
        "health": "Přidejte si do denní dávky vitaminů kolagen a uvidíte, jaké zázraky umí. Zlepší se vám pomalu nehty, vlasy i zuby.",
        "tips": "Nákup lifestylových časopisů, četba cizojazyčných knih, pořízení jarního oblečení, pečení dezertů, wellness procedury."
    },
    "taurus": {
        "main": "Bohužel přijdete na to, že váš nový protějšek jeví zájem pouze o sex a na vážný vztah ani nemyslí. Můžete se cítit zklamaní, a dokonce až podvedení. Rozhodně se však nesmíte mstít. Ve vašem podání by to byl uragán. Raději se rozlučte co nejrychleji.",
        "love": "Možná váš nový idol nejeví tolik zájem o vážný vztah, jako jen o občasné povyražení a sex. Zasáhnout vás tak může zklamání.",
        "work": "Dobré nápady dnes budete sypat z rukávu. Nenechte se nikým od nich odradit, brzy se ostatní přesvědčí o jejich originalitě.",
        "relationships": "Proberte se rodinnou knihovou a podívejte se, jestli máte přečtené všechny tituly. Také se vám jistě nějaké nové hodí.",
        "health": "Luštěním křížovek nebo nejrůznějších kvízů si udržujete svůj mozek v pohotovosti. Nenechte ho zahálet a cvičte ho.",
        "tips": "Studium astrologie, příprava květinového aranžmá, hledání nové práce, úprava životopisu, péče o pokožku těla, meditace."
    },
    "gemini": {
        "main": "Protože jste netrpěliví a většinou ke svému cíli spěcháte, máte velké šance, že něco důležitého přehlédnete. Později by z toho mohl být docela velký problém. Váš nadřízený by vám takové pochybení jen velmi těžko odpouštěl a měli byste to dlouho před sebou.",
        "love": "K oboustranným sympatiím může dojít mezi vámi a někým novým. Nebojte se klidně naplánovat nějakou schůzku, bude vám fajn.",
        "work": "Dávejte si dnes pozor na chybné kroky. Možná příliš spěcháte k plánovanému cíli a přehlédnete dost podstatné detaily.",
        "relationships": "Postarejte se dobře o své domácí mazlíčky, zřejmě jste je v poslední době trochu zanedbávali. Potřebují nové hračky.",
        "health": "Vaše strava by měla být bohatá především na čerstvé suroviny. Snažte se nakupovat kvalitní maso, ovoce i zeleninu.",
        "tips": "Ruční mytí auta, servis elektrokola, modelářské práce, nákup v hobbymarketu, psaní povídek, oprava domácího spotřebiče."
    },
    "cancer": {
        "main": "Váš miláček vás příjemně překvapí tím, že za vámi přijde s omluvou. Zřejmě si uvědomí, jak moc se na vašem vztahu podepsaly jeho špatné nálady. Uleví se vám oběma a hned bude doma atmosféra příjemnější. Situace mezi vámi dvěma může být jen lepší.",
        "love": "Můžete se doma dočkat omluvy od protějšku, že to v poslední době nebylo z jeho strany vůči vám fér. Situace bude rázem jiná.",
        "work": "Jestliže vám šéf pohrozí snížením platu nebo odebráním nějakých benefitů, měli byste dnes jeho výhrůžky brát opravdu vážně.",
        "relationships": "Naplánujte si již nyní letošní prázdniny, pokud to jde. Zřejmě vás totiž čekají renovace chalupy nebo chaty, a to je náročné.",
        "health": "Vynechte ze svého pitného režimu sladké limonády, energetické drinky a alkohol. Tím si jen zaděláváte na nadváhu.",
        "tips": "Přesazování pokojových rostlin, mytí oken, příprava rodinného oběda, venčení pejska v lese, příprava bylinných čajů."
    },
    "leo": {
        "main": "S partnerem to dnes nebude žádná pohoda. Ani jeden z vás totiž nechce ustoupit ze své pozice a udělat kompromis. Smůla je, že z takové situace není východisko. Jestliže se dnes nebo později spolu nedohodnete, ocitnete se v dost velkém problému.",
        "love": "Není ani pro jednoho z vás dnes udělat ve vztahu jakýkoliv kompromis. Oba se totiž cítíte v právu a nemáte chuť ustupovat.",
        "work": "Uprostřed týdne byste se měli opravdu zastavit a prohlédnout si dosavadní pracovní výkony. Zjistíte, že to není žádná sláva.",
        "relationships": "S dětmi je to někdy obtížné, ale vy máte dnes štěstí. Podaří se vám je zabavit natolik, že budou nadšeně jásat.",
        "health": "Bylinné odvary nejsou vhodné jen na pití, ale také k inhalacím, čištění pleti nebo kloktání při zánětech zubů.",
        "tips": "Aromaterapie, třídění staršího oblečení, práce pro charitu, péče o domácí mazlíčky, čištění auta, nákup nové elektroniky."
    },
    "virgo": {
        "main": "Pokud se dnes váš miláček bude chovat podezřele, je třeba nedělat zbytečné závěry, pokud nemáte dostatek informací. Nejhorší, co totiž můžete udělat, je to, že budete zoufale žárlit a podezírat. Raději si nechte od partnera vše v klidu objasnit.",
        "love": "Jednání vašeho partnera se dnes jeví jako chaotické a nezvyklé. Možná za tím není nic jiného než starosti v práci.",
        "work": "Pracovní povinnosti vám jdou pomalu od ruky a tempo se vám nedaří zvyšovat. Nedělejte z toho však větší problém, než je.",
        "relationships": "Nenechte se dlouho přemlouvat k tomu, abyste se s rodinkou dali do pravidelných sportovních aktivit. Budete se bavit.",
        "health": "Na křečové žíly a oteklé nohy pomůže kaštanový gel, který si budete vmasírovávat. Také si nohy podložte polštářem.",
        "tips": "Servis domácího spotřebiče, příprava s dětmi do školy, setkání s přáteli u večeře, psaní romantických povídek, venčení psa."
    },
    "libra": {
        "main": "Nenechte se dnes strhnout k takovým slabostem, jako je povyšování se nad slabšími nebo novými kolegy. Mohlo by se vám to docela dost vymstít. Navíc si mezi ostatními kolegy, včetně šéfa, vysloužíte nepříjemnou vizitku. Raději jim podejte pomocnou ruku.",
        "love": "Kdosi, koho máte již delší dobu v hledáčku, se vám může začít dvořit. Komplimenty této osůbky vás zahřejí u srdce.",
        "work": "Nevyskakujte si v práci dnes tolik a především ne na slabší kolegy. Je to neférové a vy sklidíte obratem velkou kritiku.",
        "relationships": "Chcete-li, aby vaše děti byly dobré v nějaké aktivitě, musíte jim k tomu ale také pořídit nějaké vybavení. Jde to i levně.",
        "health": "Vysušenou pokožku po koupeli spraví nejlépe tělové mléko s ovesným výtažkem. Krásně vám kůži promaže a vyživí.",
        "tips": "Hledání nové brigády, studium cizích jazyků, procházka po blízkém okolí, plavání, nákup vstupenek na divadelní představení."
    },
    "scorpio": {
        "main": "I když dnes nic neslavíte nebo jste včera opomněli MDŽ, není žádný prohřešek si příležitost k oslavám udělat dnes. Partnera potěší malý dáreček, něco hezkého nebo pozvánka na romantickou večeři. I přesto, že je teprve středa, užijete si to jako o víkendu.",
        "love": "Sice pozdě, ale přece se dnes můžete partnerovi zavděčit něčím pěkným, malým dárečkem nebo pozvánkou do společnosti.",
        "work": "Vynaložit finance bude třeba na jisté opravy spotřebičů nebo auta. Sice nebudou malé, ale užitečné a potřebné ano.",
        "relationships": "Doma byste nejraději předělali všechno. Rekonstrukci ale musíte mít dobře promyšlenou, včetně celkového rozpočtu.",
        "health": "Dbejte na to, abyste měli doma dobře vyvětráno. Vydýchaný vzduch vám jen způsobí bolesti hlavy a nečekanou únavu.",
        "tips": "Hraní her na pc, ruční a kreativní práce, zápis do nového kurzu, cvičení pod dohledem trenéra, návštěva autoservisu."
    },
    "sagittarius": {
        "main": "Stanete se obětí chaosu a zmatku na pracovišti. I když jste v tom nevinně, bohužel budete také muset přiložit ruku k dílu, abyste chyby napravili. Vy se s tím ale vypořádáte po svém a hlavně úspěšně. Ty, kteří doposud byli single, čeká zajímavý flirt.",
        "love": "Nezadaným se dnes může podařit husarský kousek. Ulovíte někoho, kdo se vám již delší dobu líbí a prožijete spolu večer.",
        "work": "V práci nastane chaos, za který vy ale nebudete moct. Musíte si najít svůj systém, jak se s tím dnes poperete se ctí.",
        "relationships": "Nenechte se nalákat na nějaké sliby příbuzných, kteří vás chtějí zatáhnout do investování. Jsou to předem ztracené peníze.",
        "health": "Pokud dnes budete pracovat s nějakými čisticími prostředky, pozor na poleptání kůže. Vezměte si ochranné pomůcky.",
        "tips": "Nákup řezaných květin, sledování oblíbeného seriálu, návštěva městské knihovny, nákup vstupenek na sportovní utkání."
    },
    "capricorn": {
        "main": "Sice je na vás na každém kroku vidět čerstvá zamilovanost, ale zatím vás nikdo nenutil o ničem mluvit. Vám to dělá dobře, chcete si tyto vzácné chvíle se svým novým miláčkem užít. Dnes si pozvěte pár kolegů na pomoc s novým projektem nebo prezentací.",
        "love": "Nejbližší přátelé na vás poznají, že jste zamilovaní, ale zatím vás nechají bez dotěrných otázek, ať si to užijete.",
        "work": "Týmová práce vám dnes cizí rozhodně nebude. Naopak pomoc kolegů přivítáte s nadšením, jsou možná i více zkušení.",
        "relationships": "Bude třeba, abyste si dnes také odpočinuli. Máte toho stále hodně na starosti a docházejí vám síly. Zabrat musí rodina.",
        "health": "Zkuste omezit množství tuku nebo oleje, na kterém smažíte své jídlo. Raději se naučte šetrnější způsoby úpravy jídla.",
        "tips": "Hra na hudební nástroje s přáteli, příprava večeře pro rodinu, péče o starší příbuzné, kontrola domácího účetnictví."
    },
    "aquarius": {
        "main": "Nezadaní z vás nemají žádný problém s novými vztahy. Možná to ale přeháníte a máte ve společnosti pověst nestálého protějšku. Co kdybyste tento svůj statut změnili? Možná se vám pak lépe bude hledat ten správný partner do života. Není to tak těžké.",
        "love": "Dejte si pozor na přelétavost. Tento momentální rozmar by vás mohl brzy dostihnout. Raději se mezi lidmi pohybujte opatrně.",
        "work": "To, že se za vás v práci nikdo nepostaví, vám moc optimismu nepřidá. Rádi byste měli oporu v někom, ale nedostává se vám.",
        "relationships": "Pokud dnes půjdete za svými kamarády, postarejte se předem doma o děti a partnera či domácí mazlíčky. Můžete se někde zdržet.",
        "health": "Granátové jablko je celoročně dostupné ovoce. Jeho semínka jsou nabitá antioxidanty. Můžete je přidat téměř kamkoliv.",
        "tips": "Hledání nové práce, úprava životopisu, zápis do rekvalifikačního studia, třídění staršího oblečení a obuvi, úklid."
    },
    "pisces": {
        "main": "Vás mohou v kariéře posunout vpřed vaše vize. Nesmíte se ale bát je prezentovat na veřejnosti. Přílišnou skromností si moc nepomůžete. Takže pokud máte v rukávu něco originálního, hned to předveďte světu. Možná budete překvapeni velkým úspěchem.",
        "love": "Díky svému novému protějšku zřejmě poznáte nové přátele. Nutno říct, že vám mezi nimi bude od počátku moc dobře.",
        "work": "Bleskové myšlení a originální nápady vás jednoznačně dnes mohou posunout vpřed. Nebojte se být více odvážní. Stojí to za to.",
        "relationships": "Věnovat byste se měli také svému rozvoji. Pokud máte doma vše hotovo, není problém zasednout ke svým oblíbeným činnostem.",
        "health": "Častým prohlížením mobilních telefonů, tabletů nebo díváním se do počítače si kazíte zrak. Dopřejte si dnes digitální detox.",
        "tips": "Vytvoření domácí pracovny, nákup kancelářských potřeb, renovace malého nábytku, home office, práce se sociálními sítěmi."
    }
}