{
    "aries": {
        "main": "Dnešní den bude pro vás hlavně pozitivní v tom, že si dokážete obhájit své a vyřídíte jisté úřední záležitosti, i když je víkend. Také vás může potěšit, že doma se vám podaří nějaké renovace či drobnější opravy. Máte šikovné ruce, tak není divu.",
        "love": "Měli byste myslet i na to, jaké přátele kolem sebe máte. Dejte přednost těm, kteří se v této době chovají klidně.",
        "work": "Ulevit se vám dnes může především proto, že se podaří zachránit jistou složitou situaci. Spadne vám kámen ze srdce.",
        "relationships": "Včerejší úplňkové konstelace mohly být náročnější, ale dnes již bude vše v pořádku. Doma vám společně s nejbližšími bude fajn.",
        "health": "Máte tendence reagovat na některé informace přehnaně. Je možné, že se dokonce přestanete ovládat. Pozor na to.",
        "tips": "Návštěva aquaparku, projížďka na kole, kolektivní sporty s přáteli, renovace v domácnosti, nákupy interiérových dekorací."
    },
    "taurus": {
        "main": "Máte pocit, že si vás každý dobírá, je proti vám zaujatý nebo si na vás chladí žáhu. Je to ale jen váš pocit, nic takového se neděje. Jste zkrátka přecitlivělí a podle toho také reagujete. Zkuste se více ovládat a dívat se na tyto situace s nadhledem.",
        "love": "Budete přecitlivělí a můžete reagovat na každé slovo přehnaně. Ovládejte emoce a neklid, který s vámi dnes cloumá.",
        "work": "V oblasti financí si nejste momentálně ničím jistí. Proto není vhodné cokoliv odsouhlasit, nebo dokonce podepisovat.",
        "relationships": "Pokud se chystáte doma pořádat malé posezení s přáteli nebo sousedy, nezapomeňte se dobře vybavit lahůdkami a koktejly.",
        "health": "Vaše ruce si zaslouží více péče. Nakupte si kvalitní výživný krém, nechte si udělat profesionální manikúru. Vyplatí se to.",
        "tips": "Pobyt ve wellness centru, poslech vinylových desek, péče o pokojové rostliny, rodinná oslava, příprava s dětmi do školy."
    },
    "gemini": {
        "main": "Neřešte jen politiku nebo jiné starosti s miláčkem doma. Raději si vymyslete nějaký fajn program, který vás přivede na jiné myšlenky. Jste oba dost nápadití, takže by s tím neměl být problém. A to ani v případě, že máte děti. Den se vydaří.",
        "love": "Místo toho, abyste s partnerem řešili závažná témata, udělejte si den příjemný. Starostí máte nad hlavu a chce to odpočinek.",
        "work": "Zřejmě jste přehlédli nějakou důležitou věc v úředním jednání, a tak můžete být velmi překvapeni dnešním neúspěchem.",
        "relationships": "Nebude od věci, pokud si dnes uděláte hezké odpoledne s rodinou v nejbližším aquaparku. Užijete si relax a zábavu.",
        "health": "Pozor na to, abyste dnes neprochladli od nohou. Dobře se obujte, ale i oblečte, pokud vyrážíte na delší procházku do přírody.",
        "tips": "Úklid domácnosti, renovace drobného nábytku, fotografování přírody, práce na terase, setkání se staršími příbuznými."
    },
    "cancer": {
        "main": "Radost vám udělá nějaká zpráva, že se podařilo vyřešit složitá úřední jednání. Díky tomu vám spadne kámen ze srdce a vy si poté dovolíte menší oslavu nebo zábavu ve městě. Zkrátka dostanete do života nový impulz a novou energii. Přiberte na oslavy rodinu.",
        "love": "Velmi mile vás překvapí dnešní program s přáteli. Najdete si takový, který vás přivede na absolutně jiné myšlenky.",
        "work": "V osobních úředních záležitostech se situace obrátí ve váš prospěch. Není nutné ale opět zbytečně riskovat či něco zanedbat.",
        "relationships": "Procházka v botanické nebo zoologické zahradě vás příjemně rozptýlí. Nezapomeňte fotografovat, ať máte vzpomínky.",
        "health": "Musíte si dnes hlídat vše, co budete konzumovat. Jedna dietní chyba by vás mohla později dost potrápit. Vyhněte se smaženému.",
        "tips": "Návštěva u přátel, odpoledne v muzeu, nákup vstupenek do kina, sportovní aktivity s dětmi, relaxace, meditace."
    },
    "leo": {
        "main": "Jakékoliv žabomyší války mezi vámi a partnerem jsou dnes úplně nadbytečné. Měli byste se jim vyhnout a najít si úplně odlišný program. Třeba romantickou procházku po městě, výlet do nejbližší zoologické nebo botanické zahrady. Večer bude klidnější.",
        "love": "Vyhněte se řešení nějakých malicherností. Raději si udělejte příjemnou sobotu s partnerem, přáteli nebo rodinou. Je to třeba.",
        "work": "Jakmile vám přistane v poště upomínka za opožděnou platbu, dojde vám, jak moc jste upozadili své osobní záležitosti.",
        "relationships": "Radost vám udělají přátelé, se kterými se dnes můžete sejít na příjemné večeři. Proberete všechny novinky a pobavíte se.",
        "health": "Buďte opatrní, pokud se dnes vydáte na cesty autem. Jakmile pocítíte únavu, bude fajn, když si dáte pauzu a protáhnete se.",
        "tips": "Dopolední trénink ve fitness centru, vědomostní hry s dětmi, procházka přírodou, domácí kino, pokerový turnaj s přáteli."
    },
    "virgo": {
        "main": "Protějšek zaujal laxní postoj k vašemu milostnému vztahu a to vás může přivést do nepříjemné situace. Především se na něj můžete dost zlobit a jen tak vás vztek nepřejde. Dejte si pozor na pusu, můžete mít dnes v repertoáru dost ostrá slova.",
        "love": "Váš partner se staví k jistým současným problémům dost pohodlně. Začne s vámi cloumat vztek a bezmoc. Pozor na to.",
        "work": "Jakékoliv obchody investičního charakteru vás mohou dostat do problémů. Zatím je odložte na příhodnější dobu, ještě je čas.",
        "relationships": "Nebojte se doma trochu upravit interiér podle svého. Máte výborné nápady a klidně je můžete převést do reality.",
        "health": "Nenechte se dnes nikým a ničím vytočit. Máte občas tendence rozčilovat se až příliš, a to není dobré pro vaši psychiku.",
        "tips": "Rande s novým objevem, wellness procedury, túra v přírodě, psaní románu, poslech motivačních podcastů, vaření."
    },
    "libra": {
        "main": "Znepokojit vás může narůstající inflace, a tak se rozhodnete s tím něco dělat. Rozhodně byste si měli zakázat zbytečné nákupy předraženého nebo nepotřebného zboží. Také se podívejte, jak můžete momentálně uložit peníze, aby se vám dobře úročily.",
        "love": "Dejte si dnes oddych od velkých davů lidí. Do nákupních center nechoďte, raději jděte na romantickou procházku.",
        "work": "Díky vzrůstající inflaci si zpětně uvědomíte, do jakých zbytečností a nesmyslů jste ještě nedávno investovali své úspory.",
        "relationships": "Potřebujete u svých blízkých cítit oporu. Nebojte se, dnes se vám jí dostane vrchovatě. Mají vás opravdu rádi.",
        "health": "Nebojte se, že byste nějak ohrožovali vaše starší příbuzné. Dodržujte pravidla dobré hygieny a nic se nikomu nestane.",
        "tips": "Péče o starší příbuzné, psaní kulinářského blogu, nákup kuchyňského vybavení, četba odborné literatury, rekreační běh v lese."
    },
    "scorpio": {
        "main": "Doma se může schylovat k menším dohadům, protože zřejmě budete debatovat o tom, jaké úpravy v bytě uděláte. Všichni budete mít své požadavky a je potřeba je sladit. Také budete muset něčemu zřejmě ustoupit. Je to ale ve vašem zájem se dohodnout.",
        "love": "Klidný a pohodový. Takový by měl být váš sobotní program. S miláčkem si jistě najdete způsob, jak tohoto dosáhnout.",
        "work": "Není moc dobrý nápad dnes investovat do zboží, které se vám líbí, ale nemá velké využití. Je to pouze škoda peněz.",
        "relationships": "Jestliže máte v plánu nějaké rekonstrukce domova, bude fajn, když se nad nimi společně doma všichni sejdete a poradíte.",
        "health": "Dbejte více o svůj zrak. Rozhodně si oči šetřete a omezte čtení při špatném světle. Dopřejte jim i lutein a vitamin A.",
        "tips": "Práce se sociálními sítěmi, návštěva umělecké galerie, fotografování památek, káva v oblíbené kavárně, psaní fejetonů."
    },
    "sagittarius": {
        "main": "Vaše kamarády vaše nápady opět pobaví. Rádi své okolí zaujmete něčím neobvyklým, což se vám podaří i dnes. Díky tomu ale ostatní také zapomenou na starosti z vnějšího světa a odpočinou si. Možná pro ně vymyslíte sportovní soutěž v přírodě.",
        "love": "Originálními nápady udivujete i dnes. Nutno říct, že jimi můžete pobavit široké okolí a dáte tak zapomenout na starosti.",
        "work": "Dávejte si dobrý pozor, ať neskočíte na lep nejrůznějším podvodným e-mailům. Ty z vás mohou chtít vylákat jen vaše úspory.",
        "relationships": "Udělejte si dnes doma své soukromé wellness. Pokud máte možnost, vypněte telefon a dopřejte si rozmazlování a relax.",
        "health": "Vaše nohy mohou být oteklé, především v oblasti lýtek. Masírujte je a sprchujte střídavě teplou a studenou vodou.",
        "tips": "Studium numerologie, výroba webových stránek, setkání s rodinou, projížďka na elektrokoloběžce, nákup sportovního vybavení."
    },
    "capricorn": {
        "main": "Sice se vám moc chtít nebude, ale přesto se dáte do vyřizování nejrůznějších úředních povinností, které se vám doma nahromadily. Snažte se je udělat co nejdříve, ať si odpoledne či navečer můžete jen odpočinout. Díky velkému úsilí je dokončíte.",
        "love": "Pokud se rozhodnete svůj nový protějšek představit ostatním, uděláte dobře. Konečně máte možnost slyšet jejich názor.",
        "work": "Víte, že je potřeba začít řešit všechny resty, které se vám doma nahromadily. Máte na to dost sil, tak směle do toho!",
        "relationships": "Bude třeba se pravděpodobně domluvit na plánech pro léto. Doma můžete mít každý svůj názor a musíte udělat kompromis.",
        "health": "Pro dobrou psychickou kondici bude třeba si dnes udělat čas jen pro sebe. Pokuste se meditovat nebo si číst pozitivní věci.",
        "tips": "Generální úklid domácnosti, kaligrafie, květinové aranžmá, telefonát s kolegou, plánování třídního srazu, žhavé rande."
    },
    "aquarius": {
        "main": "Budete si dnes muset dát velmi dobrý pozor na to, aby se vám neztratila důležitá data. A to jak ohledně bankovního účtu nebo platebních karet. Také buďte obezřetní v obchodech, kde vám může někdo zákeřný zcizit peněženku nebo mobilní telefon.",
        "love": "Doma si můžete udělat menší posezení s přáteli. Vyhněte se ale politice a raději si dejte turnaj v pokeru nebo šipkách.",
        "work": "Pozor na to, komu sdělujete svá data ohledně bankovního účtu nebo platební karty! Je tu riziko podvodu, který byste neodhadli.",
        "relationships": "Výborně si rozumíte se svými sourozenci. Tudíž se vůbec nebudete zlobit, když vám dnes nečekaně zazvoní u dveří.",
        "health": "Vynechte dnes zprávy z televize nebo internetu. Mohou na vás mít velmi negativní dopad, především na vaši náladu.",
        "tips": "Nové podnikatelské záměry, ruční práce, nákupy v hobbymarketu, příprava rodinného oběda, odpolední wellness procedury."
    },
    "pisces": {
        "main": "S miláčkem podlehnete velice rychle a snadno vášním a erotice. Je to zřejmě dáno tím, že jste stále na začátku vztahu a máte chuť se poznávat po všech stránkách. Není to nic neobvyklého, ale také byste se tomu neměli vyhýbat. Spíš si to užijte naplno.",
        "love": "Vášnivým choutkám se těžko ubráníte. Pomůže tomu i to, že jste s vaší láskou teprve chvilku a chcete se poznávat.",
        "work": "Jestliže se rozhodnete dnes podepsat jakékoliv smlouvy, je to v pořádku. Máte předem zjištěno vše, co jste potřebovali.",
        "relationships": "Vyrazte si alespoň odpoledne mimo domov. Změna prostředí prospěje vám všem. Co takhle si zajít společně do kina?",
        "health": "Jste dnes vybavení skvělými komunikačními schopnostmi. Využijte umění vyjadřování třeba psaním básní nebo prózy.",
        "tips": "Vydatná snídaně, odpoledne na bowlingu, setkání s kamarády, návštěva wellness centra, domácí kino, poslech hudby."
    }
}