{
    "aries": {
        "main": "Dobře se vám dnes bude dařit v práci, kde jste si celkem jistí. Horší to bude v mezilidských nebo milostných vztazích. Tam bude potřeba hlídat, koho si pustíte blíž k tělu. Musíte vybírat mezi přáteli velmi dobře. Někdo není ten, za kterého se vydává.",
        "love": "Mezi lidmi se nyní pohybujete naprosto s přehledem. Dávejte si jen dobrý pozor, koho si pustíte blíže k tělu.",
        "work": "Sice vás kolegové mohou vnímat jako konkurenci, ale vás to pramálo zajímá. Raději se věnujte svým rozjetým povinnostem.",
        "relationships": "Předposlední březnový den si užijte nějakou hezkou vycházku do nejbližšího okolí. Můžete si popovídat také se sousedy.",
        "health": "Budete-li se dnes rozčilovat, můžete mít pocit pálení na hrudi. Není to infarkt, pouze budete velmi rozrušení.",
        "tips": "Čtení cizojazyčných knih, poslech nové audiotéky, cvičení bikram jógy ve skupině, rekreační běh v přírodě, fotografování."
    },
    "taurus": {
        "main": "Dnes vás mohou rozčílit pocity ostatních, se kterými vy nejste schopní se sjednotit. Máte svou pravdu, za kterou si stojíte, a nic jiného nejste ochotni ani schopni tolerovat. Není se čemu divit, máte momentálně pocit, že jste na všechno na světě sami.",
        "love": "Máte pocit, že vám nikdo nerozumí. Ale není to úplně tak pravda. Jen se mohou vaše jisté názory momentálně lišit.",
        "work": "Možná vás stále unavuje napravovat chyby ostatních. V práci se někteří kolegové moc nesnaží a vás to přestává bavit.",
        "relationships": "Zamyslete se nad tím, jaké plány jste si s rodinou připravili na duben a jestli jsou vůbec reálné. Možná to bude chtít změnu.",
        "health": "Žaludek a pálení žáhy vás dnes mohou provázet kvůli tomu, že jste si nedali pozor na to, co jíte, a hltali jste bez přemýšlení.",
        "tips": "Plánování dovolené v zahraničí, návštěva fitness centra, plavání, sbírání známek, pečení ovocných koláčů, výroba smoothie."
    },
    "gemini": {
        "main": "Nebuďte dnes do seznamování tak rychlí. Raději se více zaobírejte tím, kdo se s vámi chce seznámit a za jakým účelem. Zřejmě zjistíte, že to zatím není tak horké. Hledání partnera dnes věnujete více času, než jste vlastně původně zamýšleli.",
        "love": "Máte-li v hledáčku někoho nového, jděte na seznamování pomaleji. Jste možná příliš snaživí a protějšek se vyleká.",
        "work": "Ke konci měsíce bude třeba zřejmě uzavřít vše, co je třeba, a odevzdat nějaké dokumenty. Ujistěte se, že máte vše v pořádku.",
        "relationships": "Může vám vadit, že se část rodiny stále poflakuje u počítačů a televize. Snažte se je motivovat k pohybu nějakou odměnou.",
        "health": "Bolesti hlavy mohou být zapříčiněny zatuhlou krční páteří. Procvičte si ji během dne několikrát nebo se objednejte na masáže.",
        "tips": "Milostné hrátky s partnerem, návštěva wellness centra, nákupy v hobbymarketu, renovace starožitného nábytku, dechová cvičení."
    },
    "cancer": {
        "main": "V práci vám to půjde jedna báseň. Není tedy nic, čeho byste se měli bát. Jen si dobře vybírejte lidi, se kterými se dnes chcete bavit. Ovšem politické názory si schovejte na příhodnější dobu. Jistě přijde doba, kdy se vám toto všechno bude hodit.",
        "love": "Nenechte se strhnout náladou a dívejte se stále pozorně kolem sebe. Mezi těmi, kteří tvrdí, že jsou přátelé, mohou být zrádci.",
        "work": "Na co dnes sáhnete, to se vám podaří. Kolegové vám bohužel mohou závidět více, než je zdrávo. To by mohlo narušit vztahy.",
        "relationships": "Dejte se do změn ve vaší domácnosti. Možná to bude renovace ložnice nebo dětského pokojíčku. Dobře si vše naplánujte.",
        "health": "Posloucháte-li rádi hudbu nebo filmy přes sluchátka, můžete si nevědomky zvyšovat hlasitost. Pozor na to, škodíte si.",
        "tips": "Nákupy knížek v antikvariátu, filatelie, sledování zábavného pořadu, procházka k nejbližší řece, výroba jarních dekorací."
    },
    "leo": {
        "main": "Pokud dnes ovládnete své emoce a přílišnou horlivost, může mezi vámi a vaším protějškem konečně dojít ke smysluplné komunikaci. Zjistíte, že věci jdou řešit i bez zbytečného naléhání na druhého. I vašemu partnerovi se díky tomu značně uleví.",
        "love": "Bez nátlaku na partnera dnes můžete zjistit jeho postoje k vašemu vztahu. Nechte protějšek, ať mluví sám, bez donucení.",
        "work": "Zaměřte se na své výkony v práci. Je možné, že najdete nějaké mezery, a bude třeba na nich ještě pořádně zapracovat.",
        "relationships": "Jestli se v nejbližších dnech chystá nějaká rodinná oslava, bude třeba zajistit dopředu vhodné dárky pro oslavence.",
        "health": "Příliš časté celodenní povalování na gauči, u televize nebo s mobilním telefonem, vám vůbec neprospívá. Hýbejte se.",
        "tips": "Návštěva zubní kliniky, psaní fejetonů, servis domácího spotřebiče, oprava sportovního náčiní, úklid terasy nebo balkonu."
    },
    "virgo": {
        "main": "Chopte se dnes každé příležitosti, která vám přijde do cesty. Berte vše jako výzvu a nebojte se uplatnit některý z vašich inovativních nápadů. Díky vaší preciznosti totiž můžete ostatním ukázat, že jde věci dělat lépe a přesněji. Nadřízený vaši snahu ocení.",
        "love": "Pokud se pokusíte v těchto náročných dnech najít s vaším partnerem shodu, bude to pro vás dva do budoucna jen dobře.",
        "work": "Máte mnoho možností, jak zapracovat na své kariéře. Nebojte se být aktivnější a otevřenější dalším příležitostem.",
        "relationships": "Máte-li potíže v zaměstnání, nepřenášejte svou nervozitu na ostatní doma. Mají pro vás sice pochopení, ale jen jedny nervy.",
        "health": "Podrážděná nálada pramení z vašeho pocitu nespokojenosti s vlastním výkonem. Buďte k sobě milejší a laskavější.",
        "tips": "Kontrola úředních dokumentů, pochůzka po úřadech, oběd s přáteli v oblíbené restauraci, servis jízdního kola, odpočinek."
    },
    "libra": {
        "main": "S vaším partnerem souzníte opravdu v mnohém. Není proto problém hovořit společně dnes i o vážných tématech. Přesvědčíte se tak o tom, že jste si vybrali svou životní lásku správně. Můžete být klidní, váš partner si myslí přesně totéž o vás.",
        "love": "Určitě si se svou drahou polovičkou máte co říct. Není tomu jinak ani dnes. Probírat můžete všechna témata a bez obav.",
        "work": "Náročným povinnostem se dnes postavíte s úsměvem a dobrou náladou. To vám pomůže den v práci zvládnout na jedničku.",
        "relationships": "Podívejte se na veškeré sportovní vybavení, které se chystáte na jaře znovu použít. Některé bude potřebovat servis.",
        "health": "Pijte přes den dostatek čisté, pramenité vody. Zajistíte ledvinám to nejdůležitější a tělo bude spokojené.",
        "tips": "Nákup nového hudebního nástroje, příprava s dětmi do školy, romantická procházka s partnerem, venčení psa v lesoparku."
    },
    "scorpio": {
        "main": "Potěší vás, že v práci vám s kolegy jde práce na projektech bez problému. Můžete si dokonce během dne dopřát kávu a příjemný rozhovor. Jediným tématem, které byste neměli načínat, je politická situace ve světě. Toto by dnes pro všechny mělo být tabu.",
        "love": "I přesto, že nyní třeba kráčíte životem sami, nic zásadního se dít nemusí. Jen si více uvědomte své hodnoty a morální kompas.",
        "work": "Kolektivní práce vám nedělá problém, protože s vašimi kolegy je i zábava a dobře si rozumíte. To přináší příjemnou atmosféru.",
        "relationships": "Zřejmě by se vám domů hodily nové počítačové doplňky. Porozhlédněte se na internetu, jaké jsou na trhu dostupné.",
        "health": "Problémy s hustotou vlasů jdou snadno vyřešit potravinovými doplňky nebo vitaminy. Také vlasové vody vám pomohou.",
        "tips": "Plánování rodinné dovolené, návštěva u stomatologa, procházka v lese, hraní deskových her s přáteli, výroba dekorací."
    },
    "sagittarius": {
        "main": "Máte-li ve svém okolí někoho z přátel, kdo je stejně naladěný jako vy, pozvěte ho dnes k vycházce za kulturou. Uvidíte, že vám taková potrava pro duši oběma jen prospěje. Program nemusíte vymýšlet předem, jistě vás napadne něco originálního během chvilky.",
        "love": "S někým velmi blízkým si dnes můžete užít nákupy nebo jen procházku po galerii. Všechny vztahy nemusí být zákonitě o sexu.",
        "work": "I přestože máte na jisté povinnosti jiný náhled než váš nadřízený, nikdo vám dnes nic vyčítat nebude a dostanete volnou ruku.",
        "relationships": "Vaši domácí mazlíčci budou potřebovat nové pelíšky nebo hračky. Nákupem nových jim určitě uděláte velkou radost.",
        "health": "Poslech příjemné hudby vám dnes pomůže jednoznačně uklidnit rozbouřené emoce. Nenechte se u toho nikým vyrušovat.",
        "tips": "Příprava ovocného smoothie, fotografování květinových aranžmá, psaní fejetonů, plavání, thajské masáže, kosmetika."
    },
    "capricorn": {
        "main": "Málokdo o vás může říct, že nejste týmový hráč. Dnes o své schopnosti s kolegy pracovat jednotně přesvědčíte i ty největší pochybovače. Vaším cílem je totiž dokončit úspěšně projekt za každou cenu. To se vám také bez problému společně podaří.",
        "love": "Pokud se chystáte váš nový idol vyvést do společnosti, buďte připraveni na smršť otázek od svých přátel.",
        "work": "Na pracovišti nemáte sice konkurenci, ale nedělá vám problém táhnout s týmem za jeden provaz. Je to pro vás samozřejmost.",
        "relationships": "Svým blízkým byste dnes mohli donést nějakou dobrotu. Jistě víte, čím jim uděláte radost. Na peníze určitě nehleďte.",
        "health": "O domácí mazlíčky se musíte dobře starat. Především o jejich pelíšky. Ty mohou způsobit i alergie u vás nebo vašich dětí.",
        "tips": "Studium aromaterapie, vydatný rodinný oběd, vzdělávání po internetu, práce se sociálními sítěmi, bikram jóga."
    },
    "aquarius": {
        "main": "Zřejmě vám dnes polezou všechny povrchní známosti krkem. Zaměřte se na své oblíbené činnosti nebo si najděte nové hobby. To by vás mohlo velmi dobře rozptýlit a vyplnit vaše volné chvilky. Výhodu v tomto hledání budou mít nadšení sportovci.",
        "love": "Nových známostí můžete mít zničehonic nad hlavu. Snažte se najít jiný způsob vyplňování volného času, než je jen sex.",
        "work": "Chcete-li dnes mít v práci klid, dělejte si jen své povinnosti. Nerýpejte do kolegů kvůli jejich výkonům, vrátí se vám to.",
        "relationships": "Děti dnes vytáhněte na procházku do přírody nebo do parku. Pro zábavu jim přidejte jejich dopravní prostředky.",
        "health": "Pečujte důsledně o svůj chrup a také stav ústní dutiny. Pomoci vám mohou kvalitní přípravky a pomůcky od stomatologa.",
        "tips": "Nákup nového sportovního vybavení, detoxikační úprava jídelníčku, plánování wellness víkendu, nákup ovoce a zeleniny."
    },
    "pisces": {
        "main": "Uprostřed týdne si zrekapitulujte dosažené pracovní výsledky za uplynulé dny. Máte šanci, že vámi zvolená řešení pracovních úkolů zabodují nejen u vašich kolegů, ale také u nadřízených. Počítejte s tím, že vás brzy osloví k sepsání metodiky.",
        "love": "S některými z přátel můžete najít nové koníčky. Jde o to, že jste si zřejmě porozuměli a chcete prožitky dále prohlubovat.",
        "work": "Popřemýšlejte o tom, zda změny v pracovních postupech přinesly kýžené výsledky. Pokud ano, můžete je aplikovat nadále.",
        "relationships": "Návštěva zajímavé výstavy by se mohla líbit alespoň někomu z vašich blízkých. Pokud ne, vyrazte dnes za kulturou sami.",
        "health": "Odpočívejte dnes, jak jen to jde. Dopřejte si odpolední spánek, relaxujte u hudby nebo si jen čtěte. To vše vám uleví.",
        "tips": "Plánování pracovních projektů, firemní online porada, úklid domácí pracovny, káva v oblíbené kavárně, návštěva bazénu."
    }
}