{
    "aries": {
        "main": "Duben vám přináší do života mnoho dobrých a zajímavých chvil. Protože je dnes ale apríl, dávejte si pozor, aby vás někdo nevyvedl z rytmu povedeným žertíkem. Pro jistotu mějte i vy v rukávu připravenou nějakou tu fintu, jak pozlobit druhé.",
        "love": "V milostných vztazích to od počátku dubna půjde k lepšímu. Máte velkou šanci spravit vše, co dosud v lásce haprovalo.",
        "work": "Je začátek nového měsíce a vy byste rádi vstoupili do pracovních záležitostí tou správnou nohou. Chcete mít vše na jedničku.",
        "relationships": "Jakmile dnes zavřete dveře od domu, již se vám do společnosti chtít nebude. Rádi si totiž užijete přítomnost vašich milých.",
        "health": "Máte-li dnes pokušení kombinovat mnoho potravin, počítejte s tím, že si rozházíte zažívání, či dokonce podráždíte žlučník.",
        "tips": "Konzultace u lékaře, nákup potravinových doplňků, wellness procedury, pořízení společenského oblečení a obuvi."
    },
    "taurus": {
        "main": "V lásce se vám bohužel dařit moc nebude. Zachvátí vás panika a napětí, že nic nemůže vyjít po vašem. Dejte si od takových pocitů odstup, jinak budete zmatkovat ještě víc. Také v práci to bude všelijaké, takže se budete docela těšit domů.",
        "love": "Do milostných vztahů začátek dubna vnese jistý chaos a napětí. Zkuste vydržet s nervy, ať něco hned nepokazíte.",
        "work": "Nejistota a strach vás dnes mohou ovládnout v práci. Díky tomu, že je ale konec týdne, nebudete to tak prožívat. Děláte dobře.",
        "relationships": "Trpělivost vám není vlastní. Doma můžete po ostatních chtít věci, které nejsou schopní splnit, a pak se rozčilujete.",
        "health": "Nenechte se nikým rozčílit a vyprovokovat. Dopady vaší zloby by byly rozsáhlé a jen tak nikdo vás dnes neuklidní.",
        "tips": "Třídění soukromých e-mailů, kontrola cestovních dokladů, oběd s přáteli v restauraci, nákup nového sportovního vybavení."
    },
    "gemini": {
        "main": "Pracovní povinnosti vám půjdou dnes jedna báseň. Máte pevnou morálku a chcete si udělat před víkendem vše, co vám překáží na stole nebo v e-mailové poště. Nakonec se vám to povede, i za cenu menšího přesčasu. Vám to ale za ten klid na duši stát bude.",
        "love": "V lásce jste si nevybrali vhodný čas k randění s novými osůbkami. Brzy vás omrzí a budete se velmi okatě nudit.",
        "work": "Ctí vás to, že si svědomitě dnes půjdete po všech restech, které se vám nahromadily na pracovním stole. Půjde to dobře.",
        "relationships": "Dobré rady se vám mohou dnes dostat od zkušených a starších příbuzných. Vyřešit díky tomu můžete problémy v práci.",
        "health": "Dobrou svačinkou pro vás dnes může být salát z mrkve a jablíček. Čerstvě nastrouhané a smíchané dochuťte citronovou šťávou.",
        "tips": "Renovace domácnosti, četba humorných fejetonů, výtvarné aktivity s dětmi, poslech retro vinylových desek, večeře s rodinou."
    },
    "cancer": {
        "main": "Čekají vás samé krásné chvilky v milostné oblasti. Nebraňte se ničemu a zahoďte předsudky. Ty vám jen škodí. Naopak otevřete oči a své srdce dokořán, abyste nějakou takovou skvělou příležitost nepropásli. To byste si mohli později dost vyčítat.",
        "love": "Máte před sebou opravdu krásné období v lásce. Užívejte si začátek nového měsíce na maximum, budou to fajn chvíle.",
        "work": "Nový měsíc si pro vás v práci hned od začátku nepřipravil jednoduché úkoly. Můžete se zapotit nad jejich řešením už dnes.",
        "relationships": "V této náročné době se vám nelíbí, když se vaši příbuzní hádají kvůli malichernostem. Budete se snažit je usměrnit.",
        "health": "Granátové jablko koupíte ve velmi dobré kvalitě. Jeho semínka jsou obrovským zdrojem vitaminu C a antioxidantů.",
        "tips": "Oběd v oblíbené restauraci, vycházka s dětmi do přírody, výcvik pejska, hraní karetních her, wellness procedury."
    },
    "leo": {
        "main": "Váš protějšek vás dnes opět nepotěší. Budete bádat, co špatného jste provedli, že se k vám nechová podle vašich představ. Ovšem měli byste se přestat obviňovat a raději se zaměřit na nějaké své aktivity. Zbytečně se ve všem dnes jen rýpete.",
        "love": "S chováním partnera budete mít opět problém. Nejste stále spokojení a nevíte vlastně, jak vůbec pokračovat dál.",
        "work": "Žádné překážky vás nyní v práci nemohou zastavit. Naopak, každou berete jako velkou výzvu k překonání sebe sama.",
        "relationships": "Jakoby vás doma nikdo neposlouchal. Přitom jsou vaše rady cenné a chcete pro své milované jen to nejlepší.",
        "health": "Zeleninové saláty stojí za to dochutit kvalitním olivovým olejem, citronovou šťávou a také nejrůznějšími semínky.",
        "tips": "Venčení pejsků s přáteli, večeře v oblíbené pizzerii, vědomostní a soutěžní hry s dětmi, malování akvarelem, zpívání."
    },
    "virgo": {
        "main": "V milostném vztahu si dnes připadáte jako stálý inventář, na který všichni spoléhají. Bude to pro vás velké zklamání. Vyléčit vás z toho mohou dobří přátelé, kteří vám dají dobrou radu nebo si s vámi jsou na toto téma schopni rozumně popovídat.",
        "love": "Nabydete dojmu, že jste pro vašeho miláčka vlastně samozřejmostí a moc se vůči vám nesnaží. To vás dost rozladí.",
        "work": "Cítíte nejistotu kvůli chování vašeho šéfa. Máte pocit, že by vám mohl sáhnout v rámci úspor na plat nebo na sezonní prémie.",
        "relationships": "Tendence něco doma upravit nebo přestěhovat se naplno projeví dnes odpoledne. Nejste spokojení prakticky s ničím.",
        "health": "Není nutné se mučit dietami, pokud vás honí chuť na sladké. Upečte si domácí bábovku nebo závin. Ochuťte je podle svého.",
        "tips": "Detoxikační úprava jídelníčku, nákup nového domácího spotřebiče, poslech retro vinylových desek, výroba jarních dekorací."
    },
    "libra": {
        "main": "V práci se vám nedaří udržet koncentraci a můžete nadělat zbytečné chyby. Proto se dnes zaměřte jen na ty činnosti, které automaticky ovládáte a nemusíte nad nimi moc přemýšlet. To vám pomůže přežít den bez větší úhony. Večer budete v příjemné společnosti.",
        "love": "Rádi si navečer vyrazíte do společnosti dobrých kamarádů. Posezení u sklenky něčeho ostřejšího vůbec není od věci.",
        "work": "První den v měsíci budete nesví a nesoustředění. Na všechny novinky také budete hůře a pomaleji reagovat. To je nezvyklé.",
        "relationships": "Máte dost plánů na jarní dny, které byste rádi realizovali buď v rodině, nebo ve vaší domácnosti. Jděte do toho!",
        "health": "Musíte si také hlídat svůj zrak, hlavně tehdy, koukáte-li často do mobilu nebo počítače. Nechte si u odborníka prověřit oči.",
        "tips": "Mytí a čištění automobilu, sledování sportovního utkání, práce se sociálními sítěmi, četba retro komiksů, procházka městem."
    },
    "scorpio": {
        "main": "S láskou budou pro vás jen potíže. Odložte ale velké emoce a přestaňte trápit sebe i partnera. Raději na chvilinku používejte mozek a city nechte stranou. Tím tak můžete přežít náročnější chvíle, které vám komplikují život. Uvidíte, že vám to prospěje.",
        "love": "Bohužel vám láska v prvních dnech nového měsíce bude dělat těžkou hlavu. Musíte zapojit více mozek a nechat emoce stranou.",
        "work": "Mnozí kolegové vstoupí do nového měsíce s tím, že opět nebudou dodržovat své sliby. Vás to tedy může docela zvednout ze židle.",
        "relationships": "Doma kdosi mění své názory velice rychle a vy se v tom přestáváte orientovat. To může vyvolat velké napětí a hádky.",
        "health": "Digitální detox dnes pomůže těm z vás, kteří již mají hlavu zahlcenou negativními zprávami ze světa. Chce to kratší pauzu.",
        "tips": "Sázení jarních bylinek, digitální detox, cvičení pod dohledem trenéra, rekreační běh v přírodě, návštěva aquaparku."
    },
    "sagittarius": {
        "main": "Najdete dnes řešení na každý problém a zapeklitý pracovní úkol. U ostatních sice máte již výbornou pověst, ale dnes se vaše pozice v práci ještě upevní. Také můžete očekávat další zajímavé projekty, příležitosti a kariérní posun. Vám by se hodily prémie.",
        "love": "Co se týká vztahů, buďte opatrní. Jestli se snažíte o nějaký nový, hlídejte si vše, co svému protějšku o sobě sdělíte.",
        "work": "Máte v rukávu řešení na každý dnešní pracovní problém. I proto si vás vaši kolegové a nadřízení cení. Nenecháte se rozhodit.",
        "relationships": "Chcete, abyste se svými blízkými prožívali také nějaké nové zážitky. Budete hledat zajímavý program na víkend.",
        "health": "Cvičením jógy si můžete krásně zpevnit tělo a také uklidnit mysl. Existují různé druhy jógy, vyberte si podle svého.",
        "tips": "Dokončení úředních záležitostí, kontrola pracovních e-mailů, nákup krmiva pro domácí mazlíčky, úklid domácí pracovny, vaření."
    },
    "capricorn": {
        "main": "Vzpomínky na dávnou lásku ve vás mohou vyvolat zvláštní emoce. Jestliže bývalého partnera potkáte nebo se o něm něco dozvíte, jistě vás to nenechá chladnými. Záleží však na tom, jaké vzpomínky vlastně máte. Můžete se i na celou situaci naštvat.",
        "love": "Můžete potkat náhodou svou dávnou lásku. Vyvolat to může různorodé pocity. Zvlášť pokud to mezi vámi nedopadlo dobře.",
        "work": "Bude celkem náročné vyjít dnes vašemu šéfovi vstříc. Zvlášť proto, že si na vás dělá větší nároky, na které vám chybí síly.",
        "relationships": "Potěšit vás může pozvánka na rodinné setkání. Půjde zřejmě o příbuzné, které jste kvůli okolnostem dost dlouho neviděli.",
        "health": "Pozor při práci s domácím nářadím. Můžete si při spěchu poranit ruce. Raději pracujte pomaleji a buďte víc opatrní.",
        "tips": "Ruční čištění automobilu, oběd s přáteli, plánování víkendových aktivit, dobrovolnické práce, filatelie, kolektivní sporty."
    },
    "aquarius": {
        "main": "Větší davy lidí nebudou dnes večer pro vás. Raději se uklidíte doma, někam do vašeho oblíbeného koutku, a budete se věnovat svým oblíbeným činnostem. Nikdo vám to ale rozhodně vyčítat nemůže, potřebujete klid na přemýšlení a odpočinek.",
        "love": "Pravděpodobně se vám nebude chtít do větší společnosti přátel. Zůstat můžete proto doma a věnovat se svým aktivitám.",
        "work": "Zastihne vás celkem velká únava, která vám znemožní dělat věci v práci naplno. Bude třeba udělat jen rutinní činnosti.",
        "relationships": "Rádi byste se zrelaxovali něčím jiným, než je povalování se u televize. Tak si dnes doma naplánujte zajímavý víkend.",
        "health": "Používání chemických čisticích prostředků je dobré občas prostřídat s těmi bio. Některé si dokonce můžete vyrobit sami doma.",
        "tips": "Studium cizího jazyka, vaření asijských jídel, pokerový turnaj s kamarády, nákup čerstvých potravin, romantická procházka."
    },
    "pisces": {
        "main": "V lásce vás čekají bohaté romantické zážitky. Užívejte si dnes vše na maximum a nic neodmítejte. Jen tak se takové momenty opakovat nebudou. Také v zaměstnání byste měli dnes mít oči a uši otevřené. To, že vám uteče super šance, je ale téměř vyloučeno.",
        "love": "Přichází velmi krásné a plodné období v lásce. Můžete se těšit na romantiku, vášně a žhavé flirty. Stačí si vybrat.",
        "work": "Máte dost velkou šanci být v pravý čas na pravém místě. Díky tomu si vás najde zajímavá pracovní nabídka, která se neodmítá.",
        "relationships": "Vaše dobrá a družná nálada vás dnes neudrží doma. A pokud už to jinak nepůjde, uspořádáte si malý večírek přímo u vás.",
        "health": "Nepijte dnes příliš alkoholu, mohlo by se to podepsat na vašem zažívání. Játra a slinivka by se mohly ozvat docela silně.",
        "tips": "Tvorba pracovní prezentace, nové zájmové aktivity, nákup výtvarných potřeb pro děti, samostudium historie, poslech audiotéky."
    }
}