{
    "aries": {
        "main": "Odložte dnes veškerá důležitá rozhodnutí. Jste pod tlakem ve více oblastech života a mohli byste se unáhlit. Pokud to jde, raději se věnujte kreativním a výtvarným činnostem. Budou vás bavit a navíc si báječně uvolníte mysl a vyčistíte hlavu.",
        "love": "Přepadne vás touha na milostné hrátky s partnerem. Budete se stále snažit o jeho zájem, dokud spolu neskončíte v ložnici.",
        "work": "Začíná se vám opět dařit ve finanční oblasti. Naštěstí vás také obloukem obcházejí nevýhodné obchody a podezřelé nabídky.",
        "relationships": "V rodinném kruhu to dnes trochu skřípe. Někteří příbuzní se budou snažit vyhnout zodpovědnosti a svým povinnostem.",
        "health": "Dejte si pozor na sluneční paprsky, snažte se dodržovat pitný režim a chraňte si oči brýlemi s vhodným UV filtrem.",
        "tips": "Kreativní a výtvarné činnosti, erotické hrátky s partnerem, rozhovor s příbuznými, nákup slunečních brýlí, sportování."
    },
    "taurus": {
        "main": "Zaměstnáním proplujete dnes bez větších potíží, ale bude vás to stát hodně sil. Partner nebude příliš pozitivně naladěn, tak se mu dnes raději klidíte z očí. Přemýšlejte hlavně o sobě a zkuste si najít nové koníčky nebo si rezervujte víkendové wellness.",
        "love": "Partner dnes nemá moc dobrou náladu, nechte ho raději na pokoji, dokud ho to nepřejde. Věnujte se svými zálibám.",
        "work": "Dnes od sebe nečekejte žádné zázraky. Budete se sice snažit, abyste dnem propluli bez větší újmy, ale stojí vás to mnoho sil.",
        "relationships": "Poraďte se s rodinou, jakou změnou byste mohli svoje obydlí ozvláštnit nebo obnovit. Co třeba nová výmalba pokojů?",
        "health": "Pozor při chůzi na mokrém chodníku nebo dlažbě. Uklouznutí nebo ošklivý pád by vám mohl zkomplikovat následující dny.",
        "tips": "Zkoušení nových exotických receptů, aromatická koupel, kreativní a zájmové činnosti, návštěva galerie, sledování seriálu."
    },
    "gemini": {
        "main": "Jste velmi přepracovaní, energie nemáte také na rozdávání a s něčím si nevíte rady. Pokud vás tedy něco trápí a vy nevíte, co s tím, oslovte nejdříve někoho důvěryhodného. Přepadnou vás pocity sebelítosti, ale hlavně si zasloužíte pořádný odpočinek.",
        "love": "Potřebujete se za každou cenu s někým poradit o vašich pocitech nebo problémech. Vyberte přítele, kterému velmi důvěřujete.",
        "work": "Snažte se dnes neudělat v zaměstnání chybu, mrzelo by vás to. Jde o to, že vám docházejí síly, a tak by to bylo velmi snadné.",
        "relationships": "Pokud vám to čas dovolí, vyjděte si s rodinou někam na kratší procházku do přírody. Potřebujete načerpat energii.",
        "health": "Jestliže chcete udělat něco s kily navíc, kontrolujte si potraviny, které konzumujete. Dejte přednost čerstvým surovinám.",
        "tips": "Volnočasové aktivity s dětmi, návštěva zoologické zahrady, nákup sportovního oblečení a potřeb, rozhovor s přítelem."
    },
    "cancer": {
        "main": "Neodmítejte pomoc příteli, který vás požádá o pomoc. Zřejmě vám na tom člověku hodně záleží, protože si na něj uděláte čas ihned, i přes nabitý program. V práci dojde k menšímu konfliktu, který se ale hned vysvětlí. Dobré vztahy s kolegy neutrpí.",
        "love": "Blízký přítel požádá o pomoc. Neodmítejte ho a naopak si na něj udělejte čas. Víte, že i on by podal pomocnou ruku vám.",
        "work": "Mezi vámi a kolegy může dojít k nepochopení situace a mírnému sporu. Není třeba z toho dělat problém, jde jen o nedorozumění.",
        "relationships": "Zjistěte si, jestli se někde ve vašem okolí nekoná nějaká zajímavá kulturní akce. Mohli byste se báječně pobavit.",
        "health": "Prevencí proti křečovým žilám na nohách je střídání teplé a studené vody při sprchování. Také chladivé gely jsou vhodné.",
        "tips": "Výlet do blízkého okolí, kulturní akce, fotografování, četba, úklid terasy, studium cizích jazyků, jízda na kole."
    },
    "leo": {
        "main": "Díky vašim nápadům a kreativitě nemáte problém ujmout se v zaměstnání zajímavého úkolu. S přáteli nebo rodinou si odpoledne zasoutěžíte v nějaké kolektivní sportovní hře. Nejenže si užijete zábavu, ale uděláte navíc něco pro svou kondici.",
        "love": "V milostných vztazích to vypadá harmonicky. Hádky jsou pryč a vy se těšíte pozornosti svého miláčka. Užijte si krásný večer.",
        "work": "V práci toho máte nad hlavu a nevíte, kam dřív skočit. Snažíte se, abyste nezklamali šéfa, ale vaše energie není bezedná.",
        "relationships": "Vyjděte do nejbližšího lesa na houby. Nejenže se projdete, ale snad přinesete domů také nějaký úlovek. Nezapomeňte košík.",
        "health": "Problémy se zadržováním vody v těle mají na svědomí nevhodné potraviny. Problém vyřeší speciální bylinné přípravky z lékárny.",
        "tips": "Sledování cestopisů a dokumentů, exotické recepty, návštěva kavárny, nákup domácích spotřebičů, setkání s kamarády."
    },
    "virgo": {
        "main": "Pracovně se vám bude dařit celkem dobře. Máte dobré nápady jak se prosadit, zatím je ale odkládáte. Bedlivě sledujete konkurenci a čekáte na ideální situaci. Víte, že nemáte kam spěchat. Zatím se zdokonalujete a promýšlíte nejvhodnější strategii.",
        "love": "V citové oblasti se blýská na lepší časy. Prožíváte nyní vše velmi intenzivně a naplno. Važte si hezkých chvil, nejsou běžné.",
        "work": "Složitější pracovní úkol, který na vás čeká, je pro vás výzva. Ale vy se jí nebojíte. Pečlivě se na to připravte.",
        "relationships": "Zahrajte si dnes třeba volejbal nebo badminton. Pokud doma nemáte vybavení, koupíte ho v každém sportovním obchodu.",
        "health": "Se zdravím teď nemáte žádné problémy. Občas vás může sice bolet hlava, ale víte, že je to nedostatečným příjmem tekutin.",
        "tips": "Čištění nábytku, práce se dřevem a přírodními materiály, nákup sportovního vybavení, nákup veganské kosmetiky."
    },
    "libra": {
        "main": "Protějšek se na rozdíl od vás bude cítit lépe v domácím prostředí. Vy jste dnes jako na jehlách, nebude vás bavit setrvávat tam, kde to znáte nazpaměť. Počítejte spíše s tím, že vyrazíte sami. Dopřejete si vlastní program a pustíte starosti z hlavy.",
        "love": "S drahou polovičkou si dnes chcete užít odpoledne nebo večer jen ve dvou. Odmítnete veškerá pozvání do společnosti.",
        "work": "Důležité a závazné smlouvy, které jste si důkladně neprostudovali, v žádném případě nepodepisujte. Mohli byste si naběhnout.",
        "relationships": "Chcete-li změnit zaměstnání, nejdříve se poraďte s blízkými. Mají právo se k vašemu nápadu také vyjádřit. Navíc vás podpoří.",
        "health": "Meditace nebo jóga vám pomohou utřídit si roztěkané myšlenky v hlavě. Je to však dlouhodobá záležitost, která vyžaduje cvik.",
        "tips": "Úvaha o novém zaměstnání, rozhovor s blízkými, meditace, jóga, opatrnost při podepisování smluv a dokumentů, nákup časopisů."
    },
    "scorpio": {
        "main": "Hudba by vám mohla do života vnést více radosti. Hraní na elektronické klávesy by pro vás mohlo být dobrou volbou, jak se hudbě přiblížit, jak ji třeba jenom pro sebe produkovat a hlavně jak zajímavě trávit stůj volný čas něčím, co má smysl.",
        "love": "Dnešek vám opět připraví vášnivé milostné dobrodružství s novou známostí. Zdá se, že jste si souzeni, jen zatím nespěchejte.",
        "work": "Jako šéfové a vedoucí své zaměstnance umíte motivovat. Sice na ně máte velké nároky, ale jste k nim spravedliví.",
        "relationships": "Musíte splnit určité povinnosti v rodině. Zřejmě jde o nějakou fyzicky náročnou práci, tak se vybavte dostatkem sil.",
        "health": "Máte skvělou formu. Aby tomu tak bylo i nadále, naordinujte si větší množství čerstvých vitaminů a zdravých potravin.",
        "tips": "Úklid domácnosti, kreativní činnosti, modelářství, venčení psa, projížďka na kole, žhavý večerní flirt, nákup vitaminů."
    },
    "sagittarius": {
        "main": "Barevně se dnes dovedete vyladit naprosto dokonale, jako kdybyste právě seskočili z nějakého mola, kde jste dostali na starosti podzimní kolekci oděvů. Užívejte si svůj úspěch, i kdyby byl jenom lokálního charakteru. A menší pískání ignorujte a bude to.",
        "love": "Dejte šanci osobě, kterou vám dnes hvězdy pošlou do cesty, a poznejte jí blíže. Může to být váš nový životní partner.",
        "work": "Najdete způsob, jak si pečlivě a správně zorganizovat pracovní povinnosti. Nadřízení si všimnou pozitivních změn.",
        "relationships": "Probudí se ve vás vaše staré já a s rodinou si užijete velmi zábavný den. Ať už doma, nebo venku na výletě, bude vám fajn.",
        "health": "Starejte se pečlivě o svůj chrup a objednejte se na preventivní prohlídku. Případné problémy byste si mohli pěkně odskákat.",
        "tips": "Návštěva zubaře, grilování nebo piknik s rodinou, výlet do města, posezení s přáteli, rande s novou osobou, luštění křížovek."
    },
    "capricorn": {
        "main": "Pozor na přepracování a nervozitu. Mnozí jedinci budou ve vztahu poněkud nesví. A to je co říct, obvykle jste to vy, kdo chlácholí svůj protějšek. Dnes ale toužíte po povzbuzování, čím více, tím lépe. Nebojte se, partner si s vámi rád prohodí role.",
        "love": "Partner chápe, že procházíte složitým dnem. Nechce vám ještě přidělávat starosti doma a snaží se vás rozveselit.",
        "work": "Čekají vás větší nákupy potravin. Objednejte si dovážku až domů, pokud nemáte čas nebo nejste zvědaví na davy v obchodech.",
        "relationships": "Doma vás dnes naštěstí čeká tolik potřebný klid. Ponořte se do svých zálib nebo si pusťte televizi a vypněte mysl.",
        "health": "Alkohol, cigarety a jiné neřesti, které vám škodí, si dnes raději odpusťte. Za ušetřené peníze si raději kupte něco zdravého.",
        "tips": "Rutinní pracovní činnosti, on-line nákup potravin do domu, omezení alkoholu a cigaret, vydatný spánek, kreativní činnosti."
    },
    "aquarius": {
        "main": "Pracujete-li v soukromém sektoru, postavení hvězd napovídá, že se vám bude dařit v navazování nových obchodních kontaktů. Nebojte se představit svoje nové vize a nápady. Budou mít téměř okamžitý úspěch. Investujte také do lepšího vybavení kanceláře.",
        "love": "Možná vám vyhovuje momentální single život a nehledáte nic vážného. Záleží na vás, jak se k tomu dnes postavíte.",
        "work": "Bez práce nejsou koláče. Vy to moc dobře víte, a také se toho držíte. Buďte trpěliví, budete brzy štědře odměněni.",
        "relationships": "Doma všechno jde podle plánu. Za odměnu můžete potomky vzít na koupaliště nebo na blízkou pouťovou zábavu. Užijete si to.",
        "health": "Suchou nebo podrážděnou pokožku ošetřete kvalitními výživnými krémy z lékárny. Pokud to přetrvává, jděte k lékaři.",
        "tips": "Návštěva koupaliště, pouťová zábavy, volnočasové aktivity s dětmi, péče o suchou kůži, nákup kancelářského vybavení."
    },
    "pisces": {
        "main": "Nemusíte si dnes dělat starosti s tím, jak zvládnete nějakou pracovní nebo rodinnou záležitost. Řešení se nakonec nabídne samo a vůbec nebude špatné. Rozhoďte trochu sítě a uvidíte, jaká zlatá rybka vám v nich nakonec ještě uvízne.",
        "love": "Vrací se vám chuť flirtovat, seznamovat se a bavit se s přáteli. Vyrazte s nimi za zábavou, čeká vás příjemný večer.",
        "work": "Každý den se nemusí dařit, a tak tomu bude i dnes, milé Rybky. Čekají na vás nudné, rutinní kancelářské povinnosti.",
        "relationships": "Kdosi z přátel nemá dobrou náladu a nepřináší pozitivní zprávy. Zatím si udržte optimistické myšlení. Vše je možná trochu jinak.",
        "health": "Dnes se cítíte se opravdu dobře, lépe se vám dýchá a máte dobrou náladu. Udržte si toto dobré rozpoložení.",
        "tips": "Rutinní kancelářské práce, vyřizování firemních e-mailů, večer s přáteli ve městě, flirtování s novou známostí."
    }
}