{
    "aries": {
        "main": "V pátek v zaměstnání dotáhnete jen ty nejnutnější úkoly a nic nového před víkendem začínat nebudete. Doma na vás bude čekat celá rodina, proto opusťte kancelář včas a pospíchejte za nimi. Pomoc si od vás vyžádá někdo ze starších příbuzných.",
        "love": "V milostných vztazích se konečně pohnete kupředu a čeká vás opravdu krásné překvapení. Ať už zadané, nebo single jedince.",
        "work": "Dávejte pozor na lidi kolem sebe, zvláště na ty, kteří se vám snaží vnutit něco nevýhodného. Raději se jim vyhýbejte.",
        "relationships": "Pozornost věnujte potřebám starších příbuzných. Možná vás nechtějí obtěžovat, ale vaši pomoc určitě potřebují.",
        "health": "Přemýšlíte o změně vzhledu? Než učiníte větší rozhodnutí, proberte vše s odborníky nebo dobrým přítelem či kamarádkou.",
        "tips": "Úvaha o změně vzhledu, inspirace na internetu, konzultace s odborníky, pomoc starším příbuzným, jednání na úřadech."
    },
    "taurus": {
        "main": "Dejte přednost záležitostem v milostné oblasti. Čeká vás velmi příjemný večer s partnerem. Po dlouhé době budete mít oba chuť věnovat se pouze jeden druhému. Pracovní povinnosti si splníte, ale v práci se přesčas nezdržujte. Doma na vás čeká romantika.",
        "love": "Partnera určitě potěší, když si dnes odpustíte práci přesčas, a konečně se také budete věnovat jen jemu. Máte co dohánět.",
        "work": "Spíše než penízky vydávat, zkuste je ukládat stranou. Zbytečné investice odložte, nebo ještě lépe, úplně je odřekněte.",
        "relationships": "Dávejte si pozor na své emoce. Můžete tím někoho z rodiny celkem podráždit a vztahy by se narušily. S klidem dosáhnete více.",
        "health": "Den začněte vydatnou, zdravou snídaní. Pomůže vám to nastartovat se pro náročný pracovní proces, který vás dnes čeká.",
        "tips": "Vyvážený jídelníček, nákup čerstvých surovin, romantický večer s partnerem, sledování oblíbeného filmu, sport."
    },
    "gemini": {
        "main": "Do popředí se dostávají především mezilidské vztahy. Jste otevření upřímným rozhovorům a různým druhům zábavy. Partner z vás bude nadšený. Dnes se s vámi pobaví a připomene si, proč se do vás zakoukal. Zbavíte se nepříjemného zájmu někoho z příbuzných.",
        "love": "Je načase partnerovi opět ukázat vaše silné stránky a lidskou tvář. Bezkonkurenčním humorem ho doslova dostanete.",
        "work": "Máte doma předmět, který potřebujete reklamovat? Neotálejte s tím a dnes se do toho pusťte. Vyřídíte to bez problémů.",
        "relationships": "Začíná se blýskat na lepší časy. Jistý příbuzný se do vás přestane navážet, zřejmě si našel jiný objekt zájmu.",
        "health": "Bolesti kloubů mohou být způsobeny i změnou počasí. Spíše než léky na bolest pomůže dlouhodobé užívání kolagenu.",
        "tips": "Vyřizování úředních záležitostí, reklamace vadného zboží, nákup kolagenových přípravků, rehabilitační cvičení."
    },
    "cancer": {
        "main": "Štěstí máte na dobré přátele. Dnes se obrátíte s prosbou o radu na někoho důvěryhodného a ten vás rozhodně neodmítne. Budete se mu moci svěřit i s milostnými problémy. Je načase, abyste si také začali hlídat to, co konzumujete. Začněte s tím dnes.",
        "love": "Máte tendenci se vrhat bezhlavě do nových vztahů a nepřemýšlet, zda jsou pro vás vhodné či ne. To vám ale přináší zklamání.",
        "work": "Občas na své kolegy můžete působit dojmem, že musí být vše podle vás. Stejně tak dnes. Zamyslete se nad vaší rétorikou.",
        "relationships": "Dnes vám pomocnou ruku podá někdo z blízkých přátel. Stojíte před problematickou situací, se kterou si sami neporadíte.",
        "health": "Nervové vypětí může pozlobit vaše zažívání. Vyhněte se raději alkoholu a ostrým nebo smaženým jídlům. Pijte hodně vody.",
        "tips": "Rozhovor s důvěrným přítelem, vyhledávání nových kontaktů na internetu, práce se sociálními sítěmi, dietní jídelníček."
    },
    "leo": {
        "main": "Celkem příznivý pro vás bude i páteční den. S nadřízeným vás čeká nadějný rozhovor ohledně vašeho dalšího firemního působení. Na případnou odpověď si nechte dostatek času, zbrklá rozhodnutí nejsou na místě. V rodině dnes budete za důvěrníka a přítele.",
        "love": "Vyhledáváte pořád nové typy přátel nebo známostí, rádi byste poznali co nejvíce povah. Pozor, ať to nepřeháníte.",
        "work": "Nadřízený by si vás rád udržel, proto dnes čekejte velmi příznivý rozhovor ohledně vašeho dalšího působení ve firmě.",
        "relationships": "Kdosi z rodiny vás požádá dnes o radu. Potěší vás jeho důvěra k vám, avšak rada to nebude jednoduchá, dejte si záležet.",
        "health": "Hlava vám pracuje na plné obrátky. Zkoumáte vše kolem sebe. Ale nezapomínáte na sebe? Zaměřte se také na své nitro.",
        "tips": "Příznivý rozhovor s nadřízeným, sebevzdělávání se, motivační podcasty, meditační techniky, dechová cvičení, procházka k vodě."
    },
    "virgo": {
        "main": "Trpělivost, systematičnost a důraz na detail jsou vaše silné stránky. Dnes se vám budou hodit při řešení starší záležitosti, kterou už byste rádi měli za sebou. Konečně se dá vše opět do pohybu a vyřešení problému se blíží ke zdárnému konci.",
        "love": "Snažte se do vztahů vnést více romantiky a láskyplných projevů než dosud. Racionalitu a rozum nechte dnes stranou.",
        "work": "Záležitost, kterou se snažíte delší dobu vyřešit, se dnes konečně pohne. Díky vaší trpělivosti a systematickému postupu.",
        "relationships": "Pátek proběhne v rodinném kruhu v naprostém klidu a pohodě. Vliv na to má i to, že se vám opravdu daří a nejste nevrlí.",
        "health": "Nová forma fyzického pohybu by se vám mohla zamlouvat. Poohlédněte se v nejbližším fitness centru, jaká je nabídka.",
        "tips": "Den s rodinou, řešení úředních záležitostí, vyřizování osobní korespondence, návštěva fitness centra, nákup biopotravin."
    },
    "libra": {
        "main": "Hvězdy radí opatrné jednání s financemi. Nabídka, která k vám dnes dorazí, je výhodná jen na oko, a jejím přijetím byste riskovali opravdu moc. Nemáte totiž k ruce všechny potřebné informace a navíc jsou vaše očekávání naprosto nereálná a mylná.",
        "love": "Dejte partnerovi otevřeně najevo své city. Zaslouží si to. Čeká vás velmi romantický večer a krásné milostné zážitky.",
        "work": "Na místě je dnes obezřetnost. Nevyplácí se ani malý risk. Očekávání máte totiž příliš vysoká a nereálná, informace nesprávné.",
        "relationships": "Přátelé nebo kamarádi se již nemůžou dívat, jak neustále sedíte doma. Dnes se vás pokusí vytáhnout ven, neodmítejte je.",
        "health": "Tak jak hvězdy radí neriskovat s penězi, to samé platí pro sportovní aktivity. Nepřeceňujte dnes své síly, hrozí úraz.",
        "tips": "Omezení rizikových investic, zábava s přáteli, obezřetnost při sportu, romantický den s partnerem, milostné zážitky."
    },
    "scorpio": {
        "main": "Trochu se dnes nudíte a tak začnete přemýšlet o úpravách vašeho domova. Unáhlená rozhodnutí zatím nedělejte a nechte si čas na rozmyšlenou. Nejenže nemáte úplně jasné představy o tom, co vlastně chcete změnit, ale také vám chybí potřebné finance.",
        "love": "Štíři, kteří nedávno ukončili vztah, by se neměli okamžitě pouštět do něčeho nového. Zažili byste zatím zklamání.",
        "work": "Dnes si dobře rozmyslete všechny výdaje. Hvězdy radí nastavit si úsporný režim a zbytečně neutrácet. Peníze vás zatím míjí.",
        "relationships": "Výraznější úpravy domova nechte na příhodnější chvíli. Dnes nemáte tak jasné představy a později byste toho litovali.",
        "health": "Před i po sportovních aktivitách nezapomínejte na protahování a strečink. Jinak si můžete velmi snadno ublížit.",
        "tips": "Úvaha o změnách v domácnosti, inspirace na internetu, návštěva obchodního domu s nábytkem, sport, strečink, jóga."
    },
    "sagittarius": {
        "main": "Využijte své výborné obchodní intuice a porozhlédněte se po zajímavých obchodních či finančních nabídkách. Dejte si ale načas s rozhodnutími. Zbrklost by se vám opravdu nemusela vyplatit. Zajímavé setkání čeká single jedince při sportovních aktivitách.",
        "love": "Sportovně založení jedinci mohou svůj idol potkat ve fitness centru nebo při sportovních kláních. Společné záliby se hodí.",
        "work": "Sice máte výbornou obchodní intuici, ale dávejte si přesto pozor, abyste nedělali ukvapená rozhodnutí. Je to zbytečný risk.",
        "relationships": "Nezapomínejte na své ostatní příbuzné a dejte jim o sobě také vědět. Jsou zvědaví, jak se vám a vaší rodině daří.",
        "health": "Vaše intuice pracuje na plné obrátky. Hlavu a bystrou mysl udržíte v kondici také luštěním křížovek a řešením rébusů.",
        "tips": "Telefonát s příbuznými, obchodní aktivity, obezřetnost při uzavírání smluv, jednání s úřady, luštění křížovek a hádanek."
    },
    "capricorn": {
        "main": "Pozitivní energie vám do života vlétne jako uragán. Projeví se to téměř ihned na vašich rodinných a partnerských vztazích. Přejde vás bojová nálada a spíše se zamyslíte, čím byste blízkým udělali radost. Stačit bude příjemný večer u televize nebo videa.",
        "love": "Ve vztazích a manželstvích se situace značně zlepší. Opadnou chutě vést zbytečné spory a naopak se vrátí romantika.",
        "work": "Odolejte pochybným finančním výpůjčkám a úvěrům. Nadělali byste si problémy do budoucna. Finanční situace se brzy opět zlepší.",
        "relationships": "Dnes pocítíte příval pozitivní energie a hned se to projeví na rodinné atmosféře. Nebudete mít ke všemu zbytečné výhrady.",
        "health": "Správnou a důslednou péči věnujte svým zubům. Nezapomínejte na důkladnou ústní hygienu a preventivní prohlídky.",
        "tips": "Péče o zuby a ústní dutinu, nákup hygienických potřeb, plánování prodlouženého víkendu, četba odborné literatury a časopisů."
    },
    "aquarius": {
        "main": "Zajímat se dnes budete o různé finanční produkty. Při jejich sjednávání máte dnes velkou šanci na úspěch. Obzvlášť pokud půjde o hypoteční úvěr. Vše pořádně proberte se zbytkem rodiny. V osobním životě potkáte osobu, která vyznává stejné hodnoty jako vy.",
        "love": "Setkáte se s osobou, která má podobně otevřené smýšlení a vyznává stejné hodnoty jako vy. Může z toho být něco hodnotného.",
        "work": "Uvažujte-li o půjčce nebo úvěru, dnes máte výjimečnou možnost opravdu uspět napoprvé a z důvěryhodného zdroje.",
        "relationships": "Pokud uvažujete o finančním úvěru nebo hypotéce, nezapomeňte to pořádně probrat se svou rodinou. Mají právo o tom vědět.",
        "health": "Objednejte se na preventivní lékařskou prohlídku ke svému lékaři. Dejte si tělo do pořádku včas, ať máte klid.",
        "tips": "Objednání se k lékaři, nákup vitaminových preparátů, úvaha o hypotečním úvěru, rozhovor s rodinou, vycházka do lesa."
    },
    "pisces": {
        "main": "Budete donuceni si srovnat životní priority. V zaměstnání budete postaveni před ultimátum, které se vám sice nelíbí, ale práci potřebujete. Příznivější to bude na poli lásky. Chystáte se představit svoji čerstvou známost rodině. Nebojte se neúspěchu.",
        "love": "Nová známost vás může dost překvapit. Hlavně tím, že v ní máte nejen lásku, ale také nejlepšího přítele na celý život.",
        "work": "Dostanete v práci ultimátum, které budete muset brát opravdu vážně. Raději si hned srovnejte životní priority, milé Rybky.",
        "relationships": "Jena čase představit svého nového partnera rodičům nebo přátelům. Už jsou hodně zvědaví, komu věnujete veškerý svůj čas.",
        "health": "Vydatná, převážně ovocná snídaně vám do dne dodá potřebnou dávku vitaminů. Díky tomu se vám lépe vykročí do práce.",
        "tips": "Příprava vydatné snídaně, nové exotické recepty, kurzy vaření, nákup zdravých potravin, setkání s rodiči a příbuznými."
    }
}