{
    "aries": {
        "main": "Pozor na to, jak se dnes prezentujete v práci. Věnujte se tomu, abyste si své povinnosti splnili na výbornou. Jen tak uniknete pozornosti nadřízeného. Ten už i tak na vás hledí bedlivě a čeká, jak se budete chovat. Pracujte na svém vzdělávání a rozvoji.",
        "love": "Nezadané Berany čekají zajímavá seznámení. Nebojte se a jděte do toho po hlavě. Jedině tak neztratíte kontakt s lidmi.",
        "work": "Šéf vás sleduje ostřížím zrakem a nenechá bez povšimnutí jedinou vaši nejapnou poznámku. Měli byste se starat dnes jen o sebe.",
        "relationships": "Rádi na sobě pracujete, a tak se není čemu divit, když si dnes půjdete po svém. Vaše koníčky jsou pro vás únikem z reality.",
        "health": "Než se dnes vrhnete do svého oblíbeného sportu, nezapomeňte se pořádně protáhnout. Vyhnete se tak poraněním šlach i svalů.",
        "tips": "Návštěva lékaře, příprava vegetariánského oběda, venčení pejska s kamarádem, projížďka na kole k řece, meditační cvičení."
    },
    "taurus": {
        "main": "Dlouho jste toužili po romantické lásce a nakonec ji máte. Ovšem jste opravdu pohlceni ideály o vašem partnerovi, takže s velkorysostí přehlížíte jeho chyby. Otázkou je, zda se to do budoucna vyplatí. Vy se ale jen tak nevzdáváte a ve vztah plně věříte.",
        "love": "Váš partner má sice své chyby, ale vy je stále přehlížíte. Zkrátka jde o velkou lásku a vy máte své růžové brýle.",
        "work": "Můžete se těšit na příjemnou zprávu od vedení firmy. Na cestě je možná prémie nebo povýšení. Rozhodně vám to udělá radost.",
        "relationships": "S dětmi si můžete dnes zahrát míčové hry v přírodě a možná si i zasoutěžit. Jako odměnu připravte zmrzlinové poháry.",
        "health": "Podrážděná pokožka může být důsledkem přílišného používání nevhodných pracích prostředků a aviváží. Stačí je vyměnit.",
        "tips": "Poslech audiotéky, cvičení jógy, práce z domova, hra na hudební nástroj, sebevzdělávání v oboru, telefonát s rodiči."
    },
    "gemini": {
        "main": "Také dnes vás hvězdy nešetří a vy budete muset řešit další problém ve vztazích. Tentokrát půjde o práci. Chování některých kolegů vám leží v žaludku a máte s tím morální problém. Otázkou je, zda to chcete řešit ihned, nebo si necháte vše projít hlavou.",
        "love": "Vyhledáváte společnost lidí, kteří mají podobnou povahu jako vy sami. Díky tomu nemáte kolem sebe toxické osoby.",
        "work": "Určitě vám události posledních dní naznačily, že ne všechno je v zaměstnání fajn. Ale vás to jen posune v dobrém dál.",
        "relationships": "Rodina vám je vděčná, že se o ni tak dobře staráte. Nejenže máte na vše řešení, ale podáte jim pomocnou ruku, když je zle.",
        "health": "Buďte obezřetní a dávejte si stále pozor na virové onemocnění nebo nachlazení. Nepodceňujte v tomto období oblečení.",
        "tips": "Nákup čerstvých potravin, dopolední cvičení jógy, příprava bylinných čajů, péče o starší příbuzné, sledování seriálu."
    },
    "cancer": {
        "main": "Jestliže máte možnost, uspořádejte si odpoledne doma menší sportovní klání. Potěšíte tím hlavně děti, kterým sport a pohyb značně chybí. Odměnit se nakonec můžete všichni zmrzlinovým pohárem. Přijdete na to, že takové soutěže můžete pořádat častěji.",
        "love": "Budete příjemně překvapení reakcí partnera na vaše dnešní odvážné nápady. Možná byste ho mohli potěšit častěji.",
        "work": "Práci nejenže děláte na výbornou, ale také v neuvěřitelně rychlém tempu. Ostatní kolegové s vámi jen stěží drží krok.",
        "relationships": "Sportovní klání v rodině vám dnes zvedne náladu. Pobavíte se a příjemně se unavíte. Můžete si vyrobit i sladká ocenění.",
        "health": "Děti vybavte na sportovní aktivity správnými bezpečnostními a ochrannými prvky. Předejdete tak zbytečným úrazům.",
        "tips": "Zahradnické práce, servis automobilu, sledování oblíbeného pořadu, příprava rodinné večeře, telefonát s kamarádem."
    },
    "leo": {
        "main": "Ke konci pracovního týdne vám síly ubývají hodně rychle. Bohužel se to nejvíc projeví v zaměstnání, kde byste ještě nějakou tu energii navíc potřebovali. Nadřízený nemá pochopení pro zvolnění tempa, takže se na vás ohlížet nebude.",
        "love": "Váš nový objev se začne chovat na váš vkus odtažitě a máte pocit, že kvůli vztahu nechce tolik obětovat. To není nic pro vás.",
        "work": "Nadřízený nemá moc velké pochopení pro vaše omluvy. Naopak, bdí nad vámi ostřížím zrakem a čeká na každý váš přešlap.",
        "relationships": "Nesnažte se zatím nic měnit na svém vzhledu. Rozhodnutí byste mohli udělat zásadní a téměř nevratné. Pak by vás to mrzelo.",
        "health": "Namísto červeného masa a uzenin zařaďte do jídla dnes více zeleniny. Z masa vybírejte rybu, kuřecí nebo krůtí.",
        "tips": "Pochůzky po úřadech, příprava obchodní prezentace, domácí účetnictví, procházka s pejskem, úprava oblečení, relaxace."
    },
    "virgo": {
        "main": "V zaměstnání se vám bude dařit, a tak si domů přinesete dobrou náladu. Určitě to ocení zbytek domácnosti. Je však načase si také společně popovídat. Možná vám díky pracovním povinnostem unikly starosti ostatních. Děti toho mohou mít na srdci hodně.",
        "love": "Protějšek se snaží, aby vám dokázal, jak moc mu na vás záleží. Jeví o vás upřímný zájem a snesl by vám modré z nebe.",
        "work": "Jakmile se dnes ukáže, že si dokonale zvládáte své povinnosti, nadřízený rázem otočí a už nebudete v jeho hledáčku.",
        "relationships": "Sedněte si spolu doma k rodinné večeři, odložte mobilní telefony a užijte si čas pospolu. Plánovat můžete nastávající víkend.",
        "health": "Zelené bylinky byste měli mít stále k dispozici. Kořenit s nimi můžete téměř každé jídlo. Určitě máte své oblíbené.",
        "tips": "Malování, kreativní ruční práce, venčení psa, jízda na inline bruslích, hledání nového zaměstnání, úklid domácí pracovny."
    },
    "libra": {
        "main": "Dnes trochu zapochybujete o tom, jak jste ve svém oboru dobří. Ovšem nemáte k tomu jediný důvod, protože prostě dobří jste. Uvědomte si své silné stránky a na těch dál pracujte. To, co vám tolik nejde, mohou zvládnout vaši spolupracovníci z týmu.",
        "love": "Partner může být natolik upřímný, že vám to až vadí. Dejte mu to jasně, ale klidně najevo. Zřejmě si to ani neuvědomuje.",
        "work": "Možná vás dnes přepadnou pochyby, zda děláte vše dobře a jestli vaše snaha bude oceněna. Podívejte se na celou situaci znovu.",
        "relationships": "Můžete si dovolit koupit domů něco kvalitního, co udělá radost všem. Zauvažujete o nové televizi nebo domácím spotřebiči.",
        "health": "Rozčilováním ničeho nedosáhnete. Řešte však všechno s chladnou hlavou. Jinak zbytečně vydáte potřebnou energii.",
        "tips": "Servis automobilu nebo motocyklu, plánování víkendu, videohovor s nadřízeným, tvorba pracovní prezence, návštěva pošty."
    },
    "scorpio": {
        "main": "V dlouhodobém vztahu se mohou projevit problémy s financemi. Konkrétně ze společného konta můžou peníze mizet rychleji, než je záhodno. Na vině je nezodpovědné chování vašeho partnera. Nudí se, a tak si život zpříjemňuje nákupy. Pro vás zbytečnými.",
        "love": "Partner má tendence utrácet jako bez hlavy. To se vám vůbec líbit nebude, takže vás dnes doma čeká vážný rozhovor.",
        "work": "Snažte se svou práci lépe zorganizovat. Možná vám to pomůže nastavit novou pracovní techniku, jak vše zvládnout bez problémů.",
        "relationships": "S dětmi si dejte trochu do těla a zahrajte si nějaké kolektivní míčové hry. Určitě se báječně pobavíte a protáhnete tělo.",
        "health": "Mozek je třeba stále udržovat v pohotovosti. Zkuste si vyluštit nějaké křížovky, rébusy nebo hádanky. Záleží na vás.",
        "tips": "Hledání práce z domova, příprava s dětmi do školy, oprava domácího spotřebiče, prodej zboží na internetu, poslech hudby."
    },
    "sagittarius": {
        "main": "Jestliže se vás stále drží nervozita a chmurná nálada, změňte alespoň na chvíli prostředí. Delší procházka vám rozptýlí negativní myšlenky a vy se domů vrátíte v lepším rozpoložením. Opatrní ovšem buďte po celý den při volbě slov. Rétorika dělá hodně.",
        "love": "Zadané jedince čekají spory ve vztazích. Budete koukat, jak se partner dokáže bleskurychle urazit, aniž by měl pádný důvod.",
        "work": "Pokud si nedáte pozor na pusu, může vás dnes neopatrná poznámka vůči nadřízenému přijít draho. Více přemýšlejte.",
        "relationships": "Pobyt na čerstvém vzduchu prospěje vám i rodině. Nezapomeňte doma také svého čtyřnohého mazlíka. Tomu také túra udělá dobře",
        "health": "Jestliže chcete zkusit domácí bělení zubů, zakupte si kvalitní pomůcky a přípravky. Výsledek může být velmi dobrý.",
        "tips": "Účast ve vědomostní soutěži, kardio cvičení v přírodě, úprava účesu, sázení kořenové zeleniny, deskové hry s dětmi."
    },
    "capricorn": {
        "main": "Buďte obezřetní a podrobnosti ze svého soukromí nevyprávějte každému na potkání. Mohlo by se to totiž proti vám lehce obrátit. Zvláště na pracovišti se drby šíří rychle a často bývá pravda překroucena. Čím více si soukromí pohlídáte, tím lépe.",
        "love": "Dlouhodobý partner vás nepříjemně překvapí svým chováním. Jako byste ho ani neznali. Bude třeba mít chladnou hlavu.",
        "work": "Pozor na změny vztahů v kolektivu. Musíte být opatrní a nesvěřovat se každému a se vším. Ostatně, jste na pracovišti.",
        "relationships": "Jestliže si dnes chcete zasoutěžit doma s dětmi, vyberte si jednu ze svých oblíbených deskových her. Bude to stát za to.",
        "health": "Barvení vlasů v domácím prostředí není vůbec nic složitého. Postačí vám k tomu kvalitní přípravky a šikovné ruce.",
        "tips": "Založení rodinného spoření, servis sportovního vybavení, nákup potravin a hygieny, renovace čalouněného nábytku."
    },
    "aquarius": {
        "main": "Asi patříte mezi jedince, kterým práce z domova vyhovuje. Je však nutné, abyste k tomu měli odpovídající podmínky. Nejenže potřebujete klidné místo, ale také dobré vybavení. Na internetu najdete mnoho inspirací, jak si domácí pracovnu zařídit.",
        "love": "Nepovedený vztah v začátcích raději ukončíte, než abyste se trápili dál. Víte, že není všem dnům konec, a budete hledat dál.",
        "work": "Pokud vám vyhovuje práce z domova a můžete tak pracovat, máte štěstí. Dejte si do pořádku svou domácí pracovnu a stůl.",
        "relationships": "Přejde vás chuť napravovat pokažené vztahy v širší rodině. Sami máte dost starostí a tyto rozhodně nevznikly vaší vinou.",
        "health": "Unavené nohy vzpruží masáž chladivými nebo bylinnými gely. Pozornost věnujte hlavně lýtkům, kotníkům a chodidlům.",
        "tips": "Kreativní psaní, tvorba obchodní prezentace, vzdělávání se v oboru, práce se sociálními sítěmi, vaření večeře."
    },
    "pisces": {
        "main": "Jste renesanční člověk mnoha talentů. Jedním z nich může být kulinářské umění. Vaši blízcí vědí, že když se objevíte v kuchyni, můžou se těšit na oblíbené lahůdky. Dnes si na tom dáte obzvlášť záležet. Zamyslete se, zda svůj koníček ještě nezdokonalit.",
        "love": "Kolem vás se pohybuje velmi zajímavá osoba, která k vám chová sympatie. Pokud nejste zadaní, neváhejte se seznámit blíže.",
        "work": "Vyvarujte se půjčování peněz ostatním. I když to bude dobrý známý, s návratem půjčených financí jen tak nepočítejte.",
        "relationships": "Jestliže se dnes doma postavíte do kuchyně, je jasné, že se rodina může těšit na některou ze svých oblíbených lahůdek.",
        "health": "Pokud rádi a často běháte, je dobré, abyste si pořídili kvalitní běžeckou obuv. Zjistěte, který typ zrovna vy potřebujete.",
        "tips": "Rozhovor s nadřízeným, dobrovolnické práce, samostudium cizího jazyka, projížďka na kole po okolí, dechová cvičení."
    }
}