{
    "aries": {
        "main": "Než dnes skončíte s pracovními povinnostmi, ujistěte se, že jste vše udělali, jak nejlépe jste uměli. Jinak byste si mohli domů odnést výčitky a celý víkend by vám to leželo v hlavě. Doma se snažte působit vůči partnerovi co nejvíce upřímně a otevřeně.",
        "love": "Vás protějšek si dnes může myslet, že vám ve vztahu jde jen o sex. Bude vás stát hodně sil vysvětlit své současné chování.",
        "work": "Poslední pracovní den si zbytečně nekomplikujte život a stále buďte v ústraní. Svou práci si udělejte do poslední puntíku.",
        "relationships": "Před víkendem byste si doma měli společně rozhodnout, kam se o volných dnech vydáte, zda-li vůbec. Nápady mít budete.",
        "health": "Není nic špatného na odpoledním šlofíku. Pokud jste tedy značně unavení, klidně si odpoledne dopřejte kratší spánek.",
        "tips": "Nákup knih na internetu, videohovor s kolegy, práce na terase, úklid domácí pracovny, příprava na úřední jednání."
    },
    "taurus": {
        "main": "Někdy je lepší nechat vše volně plynout. Jako třeba dnes. Pokud budete v mezilidských vztazích příliš urputní, nemusí se vám to vyplatit. Také velká důvěřivost ve vše, co vám ostatní říkají, není rozumná. Zkrátka, berte vše s chladnou hlavou.",
        "love": "Dejte věcem dnes v milostných vztazích zatím volný průběh. Nedá se totiž dělat nic jiného a vy byste se tak zbytečně nervovali.",
        "work": "Zjistíte, že někteří z kolegů vám současné úspěchy nepřejí. Neberte si jejich závist příliš k tělu, zbytečně byste se trápili.",
        "relationships": "Prospěje vám klidný večer doma u televize, v obklopení rodiny. Oblíbený seriál vám pohodu může jenom vylepšit.",
        "health": "Místo tablet proti bolení hlavy, raději upravte svůj pitný režim během dne. Přednost by měly dostat kvalitní minerálky.",
        "tips": "Regenerační olejové masáže, meditační a dechová cvičení, příprava zeleninových smoothie, rozhovor s partnerem."
    },
    "gemini": {
        "main": "Páteční den byste nejraději prožili v klidu, ale ani tentokrát to nebude tak jednoduché. Bude se nejlépe dařit těm z vás, kteří jsou v dlouhodobém vztahu. Tam jste nejvíc spokojení. Večer strávíte v příjemné atmosféře s dobrým jídlem a filmem.",
        "love": "Na poli milostných vztahů se dnes značně pročistí vzduch. Možná proběhne ostrá výměna názorů, možná vážný rozhovor.",
        "work": "V úředních záležitostech se vám daří. Máte pro vše logické odůvodnění a správné podklady v ruce. Nebojte se jednání.",
        "relationships": "Překvapíte své blízké promyšleným plánem na blížící se víkend. Mysleli jste na všechna jejich přání a bude to stát za to.",
        "health": "Očím prospěje, pokud jim dnes dáte oddych od mobilních telefonů, počítačů i televize. Místo toho můžete poslouchat audiotéku.",
        "tips": "Plánování víkendu, nákup potravin, sledování oblíbené soutěže, romantická procházka s partnerem, rodinná večeře."
    },
    "cancer": {
        "main": "V závěru pracovního týdne na vás čekají docela příjemná překvapení. Nezadaní mohou potkat zajímavou osobu, která by se ve vašem životě mohla usadit nadlouho. Také menší sázka do loterie může přinést pár korunek navíc. Pracovní starosti necháte stranou.",
        "love": "Jestliže jste ve fázi hledání nového vztahu, tak vězte, že někde kolem vás se pohybuje ta správná osůbka. Mějte otevřené oči.",
        "work": "Je šance, že v nějaké dnešní loterii můžete vyhrát celkem příjemnou sumu peněz. Zkuste vsadit oblíbená čísla nebo koupit los.",
        "relationships": "Den vás zastihne v příjemné náladě. Z práce si domů nepřinesete žádné starosti a rodina to samozřejmě uvítá s nadšením.",
        "health": "Jarní sezona s sebou nese možnost nákupu čerstvé zeleniny a bylinek. Z toho můžete připravit výborné domácí pomazánky.",
        "tips": "Třídění časopisů a knih, nákup potravinových doplňků, fotografování památek, odpolední procházka, telefonát s rodiči."
    },
    "leo": {
        "main": "Potřebujete se dnes zaměřit na váš nový vztah. Máte pocit, že se partner moc neangažuje a komunikace mezi vámi dostává vážné trhliny. Je třeba si o tom promluvit, ale zatím jen tak okoukněte situaci. Třeba váš protějšek trápí něco, s čím se nechce svěřit.",
        "love": "V milostných vztazích je třeba se dnes lépe zorientovat. Možná s protějškem momentálně nemůžete najít společnou řeč.",
        "work": "Váš nadřízený k vám dnes bude mít spoustu výtek, ale kupodivu se nerozčílíte. Naopak uznáte, že má ve většině z nich pravdu.",
        "relationships": "Velké pochopení nebudete mít u svých příbuzných. Pořád jim musíte něco vysvětlovat a obhajovat se. To není nic pro vás.",
        "health": "Dětem omezte konzumaci slazených nápojů, sladkostí a smažených chipsů. Raději jim připravte zeleninové a ovocné svačinky.",
        "tips": "Příprava na obchodní jednání, sebevzdělávání se v oboru, kardio cvičení v prostředí domova, masáže dolních končetin."
    },
    "virgo": {
        "main": "Ve všech oblastech života dnes můžete být nadmíru spokojení. Ať už se pustíte do čehokoliv, také tam se projeví pozitivní změny. V domácím prostředí se budete cítit nejvíc v pohodě, takže se klidně oddáte nápadům ostatních na páteční zábavné aktivity.",
        "love": "Váš současný partner je velmi stabilní a vyrovnaná osobnost. Můžete se na něj plně spolehnout. Máte štěstí, milé Panny.",
        "work": "To, že si všechno dnes zvládnete v práci splnit, vám přijde k dobru. Na víkend si s sebou neponesete žádné resty.",
        "relationships": "S dětmi se vrhněte na deskové hry, které budou bavit vás i je. Na výběr máte doma určitě mnoho variant. Tak hurá do toho!",
        "health": "Hrst ořechů denně pomůže vaší pleti, kvalitě vlasů a dodá další potřebné látky. Vše ale v bio kvalitě, bez soli a pražení.",
        "tips": "Poslech motivačního podcastu, příprava na úřední jednání, domácí výuka s dětmi, vaření rodinného oběda, odpolední spánek."
    },
    "libra": {
        "main": "Trápit vás bude špatné rozpoložení partnera. Budete si vytvářet zbytečné domněnky o tom, co ho trápí. Nepodezírejte ho hned z nevěry a postranních úmyslů. Může ho totiž trápit něco, o čem zatím nechce mluvit. Dejte mu více času, později přijde sám.",
        "love": "Nebojte se, že se s vaším protějškem něco děje. Je to jen přechodná fáze a uvidíte, že se brzy za své chyby omluví.",
        "work": "Nabudete dojmu, že nadřízený zneužívá vaší dobroty a ochoty. Máte totiž na stole více úkolů než ostatní kolegové.",
        "relationships": "Rozhovor s rodiči dnes bude pro vás více náročný, ale zvládnete jej s přehledem. Mají o vás strach, tak se vyptávají.",
        "health": "Cvičení v prostředí domova nemusí být tak nudné, jak si představujete. Jistě najdete cviky i místo vhodné pro vás.",
        "tips": "Milostné hrátky s protějškem, psaní blogu, péče o děti, úklid domácí dílny, procházka s kamarádem po okolí, fotografování."
    },
    "scorpio": {
        "main": "Je třeba, abyste si udělali pořádek v pracovních činnostech. Máte v tom v poslední době velký zmatek. Na vině není vaše nezodpovědnost, ale pouhá únava a vyčerpání. Jestliže si dnes doděláte jen ty nejnutnější povinnosti, nikdo se na vás zlobit nebude.",
        "love": "Velké šance na seznámení hvězdy dnes dají všem nezadaným Štírům. Všem, kteří toužíte po krásném a trvalém vztahu.",
        "work": "Ve svých povinnostech dnes uděláte jisté organizační změny. Díky tomu se vám uleví a domů půjdete s daleko lepší náladou.",
        "relationships": "Rozmyslete si dobře, do čeho budete investovat peníze. Sedněte si s rodinou a demokraticky se rozhodněte nebo hlasujte.",
        "health": "Pokud chcete zhubnout kila nabraná přes zimu, je třeba upravit jídelníček a také se více hýbat. Poradit vám může odborník.",
        "tips": "Příprava oběda, psaní prezentace, registrace na online seznamce, komunikace s nadřízenými, cvičení jógy, rehabilitace zad."
    },
    "sagittarius": {
        "main": "Páteční den zasvěťte kontrole domácího účetnictví, rutinním činnostem a neřešte partnerské problémy. Raději navečer vytáhněte děti i drahou polovičku na procházku po okolí. Potěší vás také příjemný rozhovor se sousedy, které jste dlouho neviděli.",
        "love": "Popasujete se s nepříjemným chováním svého partnera. Nebudete-li reagovat na jeho nejapné poznámky, vyvedete ho tím z míry.",
        "work": "Překvapit vás mohou nezaplacené účty. Upomínka, která se objeví ve schránce, vás ale nerozladí. Své si splníte.",
        "relationships": "Naplánujte si s blízkými na víkend opět nějaké výlety nebo túry. Změna prostředí rozhodně prospěje celé vaší rodince.",
        "health": "Na saláty, do pomazánek i na chleba se báječně hodí bylinka řeřicha. Vypěstovat si ji můžete sami doma během týdne.",
        "tips": "Kreativní práce, příprava s dětmi do školy, sledování dokumentárního pořadu, poslech oblíbené hudby, sportovní aktivity."
    },
    "capricorn": {
        "main": "Kolegiální vztahy se dnes mohou trochu pokazit, kdosi má zřejmě snahu vám přidělovat úkoly. Není váš nadřízený a vy máte dojem, že na vás přehazuje povinnosti, do kterých se jemu samotnému nechce. Udělejte si v tom pořádek dřív, než bude pozdě.",
        "love": "Pro řešení problémů v milostných vztazích dnes není vhodný den. Rozebírání problémů do detailů by se zvrtlo v hádku.",
        "work": "Kdosi z kolegů se snaží vás úkolovat, aniž by na to měl plné právo. Musíte mu ukázat, kde je jeho místo a mantinely.",
        "relationships": "Dopřejte si pohodovou rodinnou večeři. Čas v kuchyni trávit nemusíte. Nechte si dovézt jídlo z oblíbené restaurace.",
        "health": "Při jízdě autem udržujte maximální pozornost. Pokud vás přepadne únava na delší cestě, zastavte a pár minut se protahujte.",
        "tips": "Míčové hry, odpolední procházka lesem, nákup sportovního oblečení na internetu, péče o domácí mazlíčky, návštěva rodičů."
    },
    "aquarius": {
        "main": "Dlouho jste neměli možnost vídat své dobré kamarády a přátele. Dnes ale uděláte výjimku a s některým z nich si domluvíte procházku nebo společné venčení psů. Máte si hodně co povídat a setkání vám uteče jako voda.",
        "love": "Ať už jste zadaní či nikoliv, dnes si program uděláte podle sebe. Nejlépe s některým z vašich přátel, kteří vám chybí.",
        "work": "Dejte si záležet na tom, abyste si dnes udělali svou práci včas a správně. Jinak si domů ponesete resty na víkend.",
        "relationships": "Na vyvolávání zbytečných rozbrojů v rodině nejste. Ovšem pokud vás někdo neoprávněně obviní, budete se bránit.",
        "health": "Včasný spánek vám pomůže nabrat potřebnou energii na další den a také tělo bude velmi dobře během té doby regenerovat.",
        "tips": "Servis automobilu, kontrola soukromých pojistných smluv, nákup krmiva pro domácí mazlíky, příprava zmrzlinového poháru."
    },
    "pisces": {
        "main": "Nechte váš protějšek, aby připravil dnešní společný večer podle sebe. Také si potřebujete odpočinout a miláček má jistě neotřelé nápady, jak vás potěšit. Moc dobře ví, co se vám líbí. Možná půjde o romantiku, možná o vášnivé erotické hrátky.",
        "love": "Partner pro dnešek převezme iniciativu a připraví vám nečekané překvapení. Ať už to bude cokoliv, bude se vám to jistě líbit.",
        "work": "Může se vám dostat zajímavého a hodnotného dárku od někoho z rodiny. Mají vás rádi a chtějí vám udělat radost.",
        "relationships": "Páteční večer se u vás doma bude odvíjet v poklidném duchu. Každý z vás si půjde po svém programu nebo zájmech.",
        "health": "Správná dechová cvičení vám pomohou zvýšit kapacitu plic, správně pracovat s dechem a také zklidnit mysl. Cvičte je denně.",
        "tips": "Hra na hudební nástroje, domácí kino s dětmi, malování, tapetování, plánování víkendu, nákup čerstvých potravin."
    }
}