{
    "aries": {
        "main": "Raději než prohlížení internetových slev a nakupování dejte přednost pořádnému odpočinku. Ať už si zvolíte jakoukoliv aktivitu, uvidíte, že vám udělá dobře. Nechte úklid úklidem a vydejte se do přírody načerpat energii. Budete ji brzy potřebovat.",
        "love": "Dejte si pozor na rétoriku, se kterou dnes nastoupíte na svůj protějšek. Měli byste svá slova více vážit a mít respekt.",
        "work": "Potkat vás mohou finanční ztráty díky neuváženým investicím. Penízky vám z účtu budou mizet kosmickou rychlostí.",
        "relationships": "Dopřejte si vydatný odpočinek. Maximálně si s rodinkou můžete vyjet na kole na výlet. Večer se uchýlíte k rodinnému krbu.",
        "health": "Pokud máte sedavé zaměstnání, je třeba abyste během dne provedli častěji pár protahovacích cviků nebo se alespoň prošli.",
        "tips": "Vydatný spánek, venčení pejska v lese, zahradnické práce, opékání špekáčků, rozhovor se sousedy, renovace nábytku."
    },
    "taurus": {
        "main": "Na sobotní den se vážnější rozhovory nehodí. Raději si dopřejte čas o samotě. Můžete ho využít k přemýšlení o tom, kam se váš život ubírá a kde byste se nejraději viděli příští rok. Věnovat se můžete také oblíbeným aktivitám, které vás naplní radostí.",
        "love": "Pokud se dnes necítíte na vážné rozhovory, nehrňte se do nich. Partner vaše slušné vysvětlení jistě pochopí a dá vám čas.",
        "work": "Ve finanční oblasti přichází příznivý obrat. Ovšem nenechte se unést momentální situací a ještě chvíli vyčkejte.",
        "relationships": "Výlet na kolech je dobrý nápad, jak si protáhnout o víkendu tělo. Dbejte na správné oblečení, obutí a také bezpečnostní prvky.",
        "health": "Dopřejte si dnes hodně čerstvého ovoce a zeleniny. Nejlépe v podobě svačinek, džusů a salátů. Přednost dejte domácí produkci.",
        "tips": "Nákup zahradnických potřeb a náčiní, sportovní aktivity v přírodě, oprava zahradního nábytku, příprava rodinné večeře."
    },
    "gemini": {
        "main": "Změna prostředí vám udělá jen dobře. Pokud můžete vyjet na chalupu, zavzpomínejte na dětská léta a udělejte si s rodinkou táborák. Vůně opečených buřtů, hra na kytaru nebo příjemné povídání pomohou atmosféru ještě vylepšit. Nadšení budete všichni.",
        "love": "Máte chuť se dnes hlavně věnovat přátelům. I když jsou setkání omezená, vám to nevadí. Využijete moderní technologie.",
        "work": "Nemusíte se obávat investic do pěkného oblečení pro sebe nebo své děti. Rozhodně úspory máte a ještě vám nějaké zbydou.",
        "relationships": "Pokud trávíte sobotní den třeba na chalupě, určitě si v podvečer udělejte táborák a opečte buřty. Už je na to dobré počasí.",
        "health": "Pleť si již v těchto dnech chraňte proti sluníčku. Zvlášť pokud tvář rádi vystavujete slunečním paprskům, je to žádané.",
        "tips": "Výlet na kole s přáteli, míčové hry s dětmi, podvečerní táborák, hra na hudební nástroje, zpěv, romantická procházka."
    },
    "cancer": {
        "main": "Budete muset vyvinout jisté úsilí a postarat se o své starší příbuzné. Mohou mít zdravotní potíže, které jim znemožňují zařídit si vše potřebné. Uvědomíte si, že jednou můžete být na jejich místě, a rázem si odpustíte nejapné poznámky vůči nim.",
        "love": "Pokud jste sami, můžete čekat milé seznámení. Nebojte se dát své telefonní číslo člověku, který o vás dnes projeví zájem.",
        "work": "Kdosi vám vrátí peníze, které vám dlouhou dobu dlužil. Vy jste zřejmě vůbec již nepočítali s jejich návratem.",
        "relationships": "Na programu dne bude zřejmě péče o starší příbuzné. Udělejte si na ně dostatek času, moc rádi vás také konečně uslyší.",
        "health": "Přebytečný stres vám pomůže vybít oblíbený druh sportovní aktivity. Přiberte s sebou i dobrého kamaráda, půjde to lépe.",
        "tips": "Příprava rodinné snídaně, pěší túra v přírodě, renovace drobného nábytku, sázení rostlin a bylinek k sušení, poslech hudby."
    },
    "leo": {
        "main": "Rádi byste investovali větší částku do nějaké krásné dekorace vašeho příbytku. Pokud si něco chcete dnes dopřát, bude potřeba si nákup předem dobře prověřit. Mohli byste se díky ukvapenosti stát obětí podvodu. Poradit se můžete s odborníkem.",
        "love": "Potřebujete vedle sebe protějšek, o který se můžete v době krize opřít a s kým je vám hezky. Hledání ale může trvat déle.",
        "work": "Pozor na podvody a špatná rozhodnutí. Hrozí především při investicích velkých finančních částek. Raději se ještě poraďte.",
        "relationships": "Domov si můžete dnes zkrášlit nějakým pěkným obrazem, který si sami zasadíte do rámu. Asistovat vám bude rodina.",
        "health": "Naučte své děti pár posilovacích cviků na zádové svalstvo. Hodí se jim to obzvlášť nyní, kdy stále sedí u počítače.",
        "tips": "Odpočinek s knížkou, rodinný výlet na koloběžkách, sázení léčivých bylin, péče o stromy a keře, masáže dolních končetin."
    },
    "virgo": {
        "main": "Máte-li dobře promyšlené plánované investice a nákupy, dnes se do nich můžete pustit. Na pomoc vám přijde i partner a společně to zvládnete s přehledem. Nezapomeňte ale také na jiné věci, než je obchod. Napomůže tomu romantika hned zkraje dne.",
        "love": "Romantická gesta a malá překvapení, která vás potěší. To jsou dnešní aktivity vašeho protějšku. Vztah vypadá velmi nadějně.",
        "work": "Vaše investiční plány se pomalu mohou začít realizovat. Připravte se pečlivě na zamýšlené nákupy a využijte výhodné nabídky.",
        "relationships": "Pokud máte možnost trávit víkend na chatě, vydejte se tam. Pobyt na čerstvém vzduchu a práce na zahrádce vám dodají energii.",
        "health": "Posilování v přírodě si dnes užijete, především pokud s vámi vyrazí někdo z přátel nebo rodiny. Alespoň bude s kým soupeřit.",
        "tips": "Péče o pokožku obličeje, regenerační masáže, odpočinek se sklenkou vína, procházka s pejskem a přáteli, telefonát s rodiči."
    },
    "libra": {
        "main": "Dobrou náladu vám může spravit příznivé jarní počasí. Dostanete totiž nápad, jak trávit s rodinkou dnešní den v přírodě. Popadněte deku, koš s lahůdkami a najděte si krásné místo, kam se usadíte. Společné chvilky si zpříjemněte karetními hrami a povídáním.",
        "love": "Máte-li možnost, s miláčkem dnes zůstaňte v posteli déle a užijte si milostné hrátky hned po ránu. Budete mít hezčí den.",
        "work": "Dávejte si pozor na půjčování peněz ostatním. Je totiž dost velká pravděpodobnost, že se jejich vrácení nedočkáte.",
        "relationships": "Jestliže to počasí dovolí, můžete si s rodinou uspořádat piknik v přírodě. Nejlépe na nějakém klidném místě na louce.",
        "health": "Luštění křížovek nebo studium cizího jazyka vám pomohou udržet mozek stále v kondici. Dnes byste si na to měli najít čas.",
        "tips": "Návštěva otevřených památek, fotografování přírody, výlet na kole, lehký oběd, odpolední odpočinek u televize."
    },
    "scorpio": {
        "main": "Jestliže vás trápí stále finanční situace, nezbývá nic jiného, než se poohlédnout po další možnosti výdělku. Může jít o brigádu nebo práci z domova. Když se dnes pustíte do hledání, máte velkou šanci natrefit na něco, co by bylo přesně pro vás.",
        "love": "Protějšek nemá náladu se dnes pouštět do vášnivých debat na politické téma. Zřejmě by raději s vámi skončil v posteli.",
        "work": "Naskytne se možnost vedlejšího přivýdělku. Pokud vám alespoň trochu vyhovuje, neváhejte ani okamžik. Peníze se budou hodit.",
        "relationships": "Na plánování letní dovolené je ještě brzo. Ale můžete si rozvrhnout, jak bude vypadat vaše zahrada nebo terasa.",
        "health": "Zařaďte do jídelníčku více výrobků ze sóji. Je to dietní potravina, ale plná bílkovin. Upravit lze na mnoho způsobů.",
        "tips": "Sledování sportovního přenosu, četba oblíbené knihy, romantická procházka s partnerem v lese, rozhovor se sousedy."
    },
    "sagittarius": {
        "main": "Jediné, co vám dnes bude dělat starosti, je vaše finanční situace. Dříve než si ukvapeně vezmete nevýhodnou půjčku, zkuste oslovit někoho z důvěrných přátel. Není vyloučeno, že vám pomůže i někdo ze širší rodiny. Ke konci dne budete mít jasno.",
        "love": "Snažte se stále smýšlet optimisticky. To vám dnes alespoň trochu pomůže udržet dobrou náladu a partner vám ji nepokazí.",
        "work": "Pokud nemáte dostatek finančních prostředků na jisté nutné věci, snažte se najít řešení. Může to být půjčka od příbuzných.",
        "relationships": "Jízda na inline bruslích na pěkné stezce by se vám i vašim přátelům mohla líbit. Děti vybavte ochrannými prostředky.",
        "health": "O pleť je třeba pečovat. Zvláště pokud stále používáte respirátor nebo roušku, můžete mít obličej podrážděný.",
        "tips": "Procházka s dětmi v přírodě, příprava zdravé svačinky, míčové hry na zahradě, krátká návštěva rodičů, včasný spánek."
    },
    "capricorn": {
        "main": "Sobotní volný den věnujte úpravám vašeho obydlí. Změny nemusí být finančně náročné, aby stály za to. Poraďte se s ostatními členy domácnosti, určitě budou mít spoustu dobrých nápadů. Dětem dejte volnost v realizaci jejich fantazií. Budou vděčné.",
        "love": "Jestliže máte nějaké problémy v dlouhodobém partnerství, nebojte se požádat o radu důvěrného přítele. Určitě vás vyslechne.",
        "work": "Važte si více svých těžce vydělaných peněz a neutrácejte je za každou cetku. Brzy se ukáže, jak se vám úspory hodí.",
        "relationships": "Věnujte se nejrůznějším úpravám a renovacím domácnosti. Uvidíte, že vám to zlepší náladu a bude se vám doma více líbit.",
        "health": "Sklenka piva vám určitě neublíží. Zvlášť po masitém jídle. Vyberte si kvalitní nápoj, ale pijte jej v menším množství.",
        "tips": "Ruční práce, sběratelská činnost, drobné úpravy domácnosti, příprava ovocné svačiny, milostné hrátky s partnerem."
    },
    "aquarius": {
        "main": "I když doma není nálada úplně na výbornou, vy si s tím poradíte. Nejlepší variantou je změna prostředí, pokud k tomu máte příležitost. Také něco dobrého na zub zlepší atmosféru. Můžete si udělat pořádné grilování na zahradě nebo terase.",
        "love": "I když nejste momentálně ve vztahu spokojení, tak zatím nechcete dělat zásadní rozhodnutí. Ještě si dopřejte klid.",
        "work": "Pozor na chybná rozhodnutí ve finanční oblasti. Mohou přijít důležité výdaje, které zatočí s vaším bankovním účtem.",
        "relationships": "Víkend na chalupě vám rozhodně prospěje. Co takhle připravit si něco dobrého na gril nebo udělat táborák? Děti budou nadšené.",
        "health": "Bolesti krční páteře jsou především ze sedavého způsobu života a špatného držení zad. Zkuste to mít pod kontrolou.",
        "tips": "Vydatný spánek, krátká návštěva sourozenců, venčení pejska v lesoparku, rozhovor s přáteli, psaní osobního deníku."
    },
    "pisces": {
        "main": "Jestliže jste se chystali na nákupy nového oblečení či doplňků, máte dnes výbornou příležitost. Výhodné slevy jsou stále a zboží je přebytek. Nebojte se dokonce trochu pozměnit svůj šatník a dopřát si něco nadčasového a kvalitního. Může to být jen dražší.",
        "love": "Do společnosti nemůžete, tak si romantickou večeři při svíčkách připravte doma. Víno a oblíbená hudba by neměly chybět.",
        "work": "Máte dnes štěstí na výhodné nákupy, při kterých můžete dost ušetřit. Především jde o letní oblečení a obuv nebo doplňky.",
        "relationships": "Výlet na kolech nebo projížďka na inline bruslích je výborná aktivita na sobotní odpoledne. Vyčistíte si hlavu i plíce.",
        "health": "Vaše psychika je občas jako na houpačce. Pomoci by vám mohly oblíbené výtvarné techniky nebo nové kreativní aktivity.",
        "tips": "Příprava lahůdek na grilování, míčové hry na zahradě, úklid domácnosti, servis jízdního kola, telefonát s rodiči."
    }
}