{
    "aries": {
        "main": "Práce v domácnosti můžete s klidem přenechat někomu jinému nebo je odložit na druhý den. Raději si naprogramujte vzdělávání se ve svém oboru nebo studium nového cizího jazyka. Den je nakloněn duševním pracím. Inspirovat vás může vaše drahá polovička.",
        "love": "Váš partner vás v mnohém inspiruje a posouvá dál. Dnes se v jeho přítomnosti budete cítit sebevědomě a milováni.",
        "work": "Jste od narození soutěživí, a dnes vás to bude bavit ještě víc. Získat můžete opravdu mnoho. Zkuste loterii nebo výherní los.",
        "relationships": "Dopřejte si dnes odpočinek od všech domácích prací a relaxujte. Nová kniha vám bude dobrým společníkem a něco se naučíte.",
        "health": "Hlavu si udržíte bdělou luštěním křížovek nebo rébusů. Také můžete zkusit vědomostní soutěže z časopisů nebo televize.",
        "tips": "Hra na hudební nástroje s dětmi, deskové a vědomostní hry, účast v soutěži, sázka do loterie, čištění oblečení a obuvi."
    },
    "taurus": {
        "main": "Kolem vás se dnes budou pohybovat velmi zajímaví lidé, kteří by vám mohli do života přinést nové zážitky a zkušenosti. Vy však jako byste měli na očích klapky a přehlížíte je. Máte mysl zahlcenou špatnou náladou a chmurami. Zapracujte na zlepšení.",
        "love": "Nezadaní se svojí náladovostí dnes mohou připravit o velmi zajímavá setkání a nové kontakty. Přehlížíte vše kolem sebe.",
        "work": "Hvězdy vám neumožňují vidět věci takové, jaké opravdu jsou. Úsudek ohledně větších investic rozhodně nemáte jasný.",
        "relationships": "Vaši nejbližší by uvítali, kdybyste dnes zvolili vůči nim jinou rétoriku a způsob chování. Cítí z vaší osoby frustraci.",
        "health": "Bruslení je výborné kardio cvičení a také si báječně pročistíte plíce. Pro děti přibalte s sebou ochrannou přilbu na hlavu.",
        "tips": "Kreativní psaní, nové recepty, tvorba fotokoláží, úklid knihovny, procházka lesem, cvičení jógy, relaxace u televize."
    },
    "gemini": {
        "main": "Energie máte stále na rozdávání, proto si dnes můžete naplánovat opravdu náročné úkoly. Snažte se je dokončit, i kdyby vás to stálo pár desítek minut navíc. Jde o to, že dnes na to máte ideální podmínky a bryskní mysl. Vytvoříte si tím náskok do budoucna.",
        "love": "Nemáte důvod na partnerovi hledat sebemenší chybičku. Dělá vám radost svými nevšedními myšlenkami a originálními nápady.",
        "work": "Dnes je vhodné dokončit všechny náročné úkoly. Najdete způsob, jak je vyřešit, aniž by vás to stálo velké úsilí.",
        "relationships": "Proberte s rodinou plány na nadcházející víkend. Zima vám sice nenabízí moc možností, ale i tak si poradíte bez problémů.",
        "health": "Cvičením jógy dosáhnete dnes zklidnění mysli. Jestliže začínáte, inspirujte se lekcemi na internetu a jděte na to zlehka.",
        "tips": "Psaní fejetonů, rekvalifikační studium, registrace do seznamky, práce se sociálními sítěmi, dovážka oběda do domu."
    },
    "cancer": {
        "main": "Vložte energii do něčeho užitečného a zkuste využít svou manuální zručnost nebo originální nápady. Budete možná velmi překvapení výsledkem vaší snahy. Vzniknout může něco úžasného a vy sklidíte pochvalu a ocenění od ostatních. Jak v zaměstnání, tak doma.",
        "love": "Máte štěstí na přátele, se kterými udržujete stabilní vztahy, bez velkých rozepří a sporů. Vládne mezi vámi harmonie.",
        "work": "Nelze opomenout vaši šikovnost a zručnost. Cokoliv si usmyslíte vyrobit nebo udělat, dosáhne velkého ocenění od ostatních.",
        "relationships": "Jste zdatní kuchaři a tak se nedivte, že si vaši milí vyžádají svou oblíbenou pochoutku. Nezbude nic jiného než jim vyhovět.",
        "health": "Bezmasé jídlo vám pomůže při lehčí detoxikaci organismu. Vynechte také bílou mouku a cukry. Dejte přednost zelenině.",
        "tips": "Ruční mytí auta, nákup potravinových doplňků a vitaminů, návštěva veterinární ordinace, sledování dokumentárního pořadu."
    },
    "leo": {
        "main": "Dobrou volbou na zkrocení negativní nálady je sport. Pokud vám není pravidelný pohyb cizí, jistě si najdete čas, jak přebytečnou energii uvolnit. V opačném případě se zkuste zamyslet, jaká sportovní aktivita by vám nejvíce vyhovovala, a začněte.",
        "love": "Prudší výbuchy vám dnes zkomplikují mezilidské vztahy. Kvůli vaší náladě se může dokonce pokazit dlouholeté přátelství.",
        "work": "Trápí vás, že si nemůžete stále dovolit koupit to, co se vám líbí. Zkuste se ovládat, protože jinak se budete topit v dluzích.",
        "relationships": "S dětmi je třeba se věnovat domácí výuce, ale nezapomínejte ani na pravidelný pohyb. Zařaďte si tělocvik na pořad dne.",
        "health": "Aby vaše nehty, zuby, klouby a vlasy byly zdravé, musí vaše strava obsahovat hodně vápníku, vitaminu D a magnézia.",
        "tips": "Komunikace s obchodními partnery, příprava prezentace, home office, odpolední spánek, úklid pracovny nebo dílny."
    },
    "virgo": {
        "main": "Komunikace a rozhovory budou dnes téma číslo jedna. Hodně bude záležet na tom, komu a co dnes chcete sdělit. Važte svá slova především v partnerských vztazích. Naopak v zaměstnání si více upřímnosti a konstruktivní kritiky dovolit můžete.",
        "love": "Panny, které jsou momentálně ve vztahu, by měly být více opatrné na to, jak se vyjadřují směrem k partnerovi.",
        "work": "Se šéfem dokážete dnes vycházet po dobrém. Toho si važte, jste jedni z mála, které dnes respektuje. Zdržte se kritiky.",
        "relationships": "Neradi zůstáváte mezi čtyřmi zdmi, ale v dnešní době moc jiných možností nemáte. Najděte si dnes adekvátní program.",
        "health": "Při škrábání v krku dejte přednost pastilkám z lišejníku. Udělají vám velice dobrou službu a ještě vám budou chutnat.",
        "tips": "Nákup potravin v kamenném obchodě, mytí oken, renovace nábytku, úklid sklepa nebo garáže, péče o pokojové rostliny."
    },
    "libra": {
        "main": "Radost vám udělá hospodaření s financemi. Začíná se vám konečně dařit investovat tak, abyste zbytečně netratili. Můžete si dovolit plánovat letní dovolenou, alespoň předběžně. Rozhodně na ní můžete začít spořit více peněz, než jste byli dosud zvyklí.",
        "love": "Pro vás nezadané mají hvězdy dobrou zprávu. Někdo se do vás zamiluje na první pohled a projeví vám tolik citů, jako nikdo jiný.",
        "work": "Zacházíte s penězi tak dobře, že by se od vás mohli ostatní učit. Máte cit pro investice, ale také zbytečně neriskujete.",
        "relationships": "Je více než jasné, že vaše děti budou potřebovat více péče a pozornosti. Začínají se doma nudit a přerůstají vám přes hlavu.",
        "health": "Protáhněte si během dne několikrát tělo, především pokud máte sedavé zaměstnání. Odnáší to hlavně vaše krční páteř.",
        "tips": "Kardio cvičení v přírodě, nákup sportovního vybavení pro domácí cvičení, dobrovolnické práce pro charitu, domácí lázně."
    },
    "scorpio": {
        "main": "Snažte se více odpočívat, prožíváte napjaté dny, a to se může projevit na vašem chování vůči ostatním ve vašem okolí. Především blízcí v rodině by mohli pocítit váš hněv, a zcela bezdůvodně. Nejlepší relaxací je pro vás fyzická aktivita, hlavně sex.",
        "love": "Nová známost potřebuje více volnosti. Možná více, než jste zatím schopni druhému dát vy. Překonejte své hranice, Štíři.",
        "work": "Horší soustředění je dáno vaší přepracovaností. Musíte více odpočívat, jinak budete vršit jednu chybu za druhou.",
        "relationships": "Pokud vás tíží obavy a stresy, je potřeba abyste svým blízkým dali najevo, co se děje. Mají sklony vše stahovat na sebe.",
        "health": "Rehabilitační cviky na zádové svalstvo můžete v prostředí domova provozovat i s vašimi dětmi. Prospějí jim i jako prevence.",
        "tips": "Venčení psa v lese, zimní sporty s přáteli, pobyt mimo město, četba románu, psaní soukromých e-mailů, telefonát s kamarádem."
    },
    "sagittarius": {
        "main": "Opět zabodujete svým optimistickým pohledem na svět a veselou povahou. Díky tomu dnes můžete navázat nová přátelství, která vám mohou v životě zůstat velmi dlouho. K dobré náladě přispívá i to, že se nemusíte bát finanční nejistoty. Máte slušné rezervy.",
        "love": "Potěšení najdete v novém přátelském vztahu. I v této náročné době můžete najít velmi dobrého přítele do dalších let.",
        "work": "Nemusíte si dělat starosti s finančními prostředky. Máte naštěstí na kontě slušnou rezervu. Není to však důvod k utrácení.",
        "relationships": "V rodině jste jediní, kteří si stále udržují pozitivní náladu a optimismus. Díky tomu vás vyhledávají ostatní příbuzní.",
        "health": "Dopřejte svým očím odpočinek od čtení a koukání do mobilů. Podpořte je potravinovými doplňky s obsahem luteinu.",
        "tips": "Objednání se k lékaři, domácí lázně, aromaterapie, pečení koláčů s dětmi, hraní deskových her, odpolední spánek, běh v lese."
    },
    "capricorn": {
        "main": "Když na to přijde, i vy jste velmi kreativní osoba. Musíte si však vybrat takové hobby nebo zájmy, jejichž výsledky budou viditelné téměř ihned. Jinak nebudete spokojení a budete hledat dál. Inspirovat se můžete na internetu a sociálních sítích.",
        "love": "Hledáte k sobě protějšek, který bude mít v sobě více romantiky a méně pragmatičnosti. Je to ale možná jen rozmar, milí Kozorozi.",
        "work": "Velmi dobře víte, co si z hlediska financí můžete dovolit, a kde máte své limity. Nejprve si splňte neodkladné povinnosti.",
        "relationships": "Nové, nevšední koníčky jsou před vámi. Nebojte se pustit do neprobádaných oblastí a přiberte k tomu své blízké.",
        "health": "Výbornou alternativou k sladkým svačinkám je čerstvé smoothie. Můžete jej připravit i z čerstvého i zmraženého ovoce.",
        "tips": "Psaní blogu, založení datové schránky, vyřizování firemních e-mailů, nákupy na internetu, práce se sociálními sítěmi."
    },
    "aquarius": {
        "main": "Jestliže se rozdělí cesty s vaším současným partnerem nebo kamarádem, vězte, že k tomu byly zřejmě vážné důvody. Nechte zatím všemu volný průběh a netlačte se do nepromyšlených kroků. Mohly by vás mrzet. Pokud stejnou cestu životem nemáte, osud nezvrátíte.",
        "love": "Názory člověka, který po vás chce větší závazky, než jste schopni obětovat, neberte vážně. Společnou cestu životem nemáte.",
        "work": "Přemíra pracovní úkolů vás donutí si nějaké vzít s sebou domů. Jestliže je toho na vás hodně, promluvte si o tom se šéfem.",
        "relationships": "Při provozování sportovních aktivit bude nutná zvýšená opatrnost. Nejen o vaše zdraví, ale také děti si mohou ublížit.",
        "health": "Zimní sporty vás baví, ale buďte v tyto dny více opatrní. Jakýkoliv úraz by vás vyřadil z provozu na delší dobu.",
        "tips": "Úprava účesu, barvení vlasů, detox, příprava zeleninových šťáv, poslech audiotéky, výcvik psa, bruslení, běžkování."
    },
    "pisces": {
        "main": "Využívejte více svou intuici a fantazii. Získáte díky tomu více možností nebo pohledů na určité životní události. Také dnes by vám toto mohlo ulehčit důležité rozhodování. Navíc se můžete posunout kupředu v profesní sféře. Proto neodmítejte žádné nápady.",
        "love": "Pracujte se svou intuicí. Málokdy vás zklame, jen jí musíte dobře naslouchat. Provede vás bez problémů mezilidskými vztahy.",
        "work": "Touha po úspěchu vás neustále žene kupředu a motivuje vás. Žádná výzva pro vás není překážkou, jen zvažte, kolik toho unesete.",
        "relationships": "S potomky se musíte kromě klasických školních povinností věnovat také nějakým zájmovým činnostem. Zkuste jim nějaké najít.",
        "health": "V domácnosti se snažte používat co nejméně průmyslových chemikálii pro úklid. Raději volte ty ekologické na přírodní bázi.",
        "tips": "Příprava rodinné snídaně, nákup potravinových doplňků, plánování jarní dovolené, hraní deskových her s dětmi, vydatný spánek."
    }
}