{
    "aries": {
        "main": "Pokud se dnes budete muset rozhodovat v čemkoliv, věřte svému úsudku a zkušenostem. Potom vše půjde snadněji. Kde můžete jedině slevit, je milostná oblast. Tam se můžete od partnera nechat rozmazlovat a přemlouvat, jak dlouho se vám bude chtít.",
        "love": "Partner si vás dnes ochočí lichotkami a milostnými návrhy. Nenechte se dlouho přemlouvat, protože den je k tomu jako stvořený.",
        "work": "Rozhodnost je vaší velkou devizou. Je třeba tuto vlastnost dnes použít při výběru zboží nebo služeb. Nebojte se zariskovat.",
        "relationships": "Nedělní den si můžete s nejbližšími zpříjemnit sportovními aktivitami. Prospějete svému zdraví více než čímkoliv jiným.",
        "health": "Omezte neřesti, které vás zatěžují. Cigarety, alkohol a tučná jídla by měly zmizet z vašeho života co nejdříve.",
        "tips": "Příprava vydatné snídaně, čtení časopisů, psaní blogu, nákup nové elektroniky, příprava na další pracovní týden."
    },
    "taurus": {
        "main": "Užijte si ještě zimní dny a vyrazte za zimními sporty. Hodit se vám budou zejména běžky, sáňky nebo brusle. Dbejte na dostatečné ochranné pomůcky a také na správné oblečení a obutí. Pozvěte k těmto aktivitám některé za vašich přátel, užijte si je společně.",
        "love": "Před vámi, kteří máte nový vztah, jsou na cestě zajímavé zážitky. Hlavně takové, kde naplníte lásku k partnerovi.",
        "work": "Dobře víte, že může nastat doba, kdy vám korunky budou chybět. Takže si nějaké dnes rozumně dáte stranou do budoucna.",
        "relationships": "Zimní sportovní aktivity jsou vhodné pro vaši celou rodinku. Vymyslete tu nejlepší, která je vhodná pro vás všechny.",
        "health": "Máte zřejmě nějaké vnitřní trápení a potřebujete si s někým popovídat. Zkuste nejprve oslovit někoho ze svých přátel.",
        "tips": "Sledování oblíbeného seriálu, četba odpočinkové literatury, kontrola plateb za domácnost, procházka v blízkém okolí."
    },
    "gemini": {
        "main": "Plánování jarní dovolené není vůbec špatný nápad. Poohlédněte se po lázeňských pobytech, které stále fungují. Léčebné procedury by vám po náročných dnech mohly udělat jen dobře. Zjistěte si také, za jakých podmínek a kam můžete jet, Blíženci.",
        "love": "Potěší vás zpráva od dávného přítele ze školy. Společně zavzpomínáte na staré časy a zasmějete se nad historkami.",
        "work": "Jestliže chcete kupovat dárky ostatním, nezapomínejte na to, jaký mají vkus a po čem doopravdy touží. Můžete se totiž zmýlit.",
        "relationships": "Myšlení vám funguje na plné obrátky. Díky tomu jste schopní pro svou rodinu vymyslet kvalitní program na jarní dovolenou.",
        "health": "Nepodceňujte příznaky nachlazení či virové nákazy. Raději vše co nejdříve konzultujte s lékaři. Rozhodně dodržujte doporučení.",
        "tips": "Posilování zádového svalstva, meditační a dechové techniky, lehký oběd, procházka k blízké řece, třídění starého oblečení."
    },
    "cancer": {
        "main": "Dnešek budete opět věnovat dětem. Mají dost školních povinností a je třeba na ně dohlédnout. Také by je možná bavila nějaká nová zájmová činnost. S realizací to ale bude zřejmě o něco těžší. Rozhodně nechcete, aby se vám doma ukousaly nudou.",
        "love": "Nebudete mít náladu na sáhodlouhé rozhovory a plánování. Raději si půjdete po svých aktivitách, což partner nelibě ponese.",
        "work": "Nebojte se dnes zariskovat a klidně si vsaďte do loterie. Nemusíte investovat velké sumy, ale za zkoušku to stojí, Raci.",
        "relationships": "Pro děti jste dnes velkým parťákem a oporou. Takové chvíle jsou pro vás oboustranně příjemné a pozitivní. Užijte si je.",
        "health": "Při zimních sportech nezapomeňte používat správné ochranné pomůcky. I svým dětem je musíte opatřit. Jinak riskujete úraz.",
        "tips": "Dobrovolnické práce, třídění starého oblečení pro charitu, cvičení s dětmi v prostředí domova, příprava vydatné večeře."
    },
    "leo": {
        "main": "S partnerem musíte trávit více času. Jedině tak zabráníte tiché domácnosti a odcizení. Odložte mobilní telefony a tablety. Najděte si společnou aktivitu, která vám bude oběma vyhovovat a dělat radost. Pak si budete mít o čem povídat a co sdílet.",
        "love": "Čím více času budete věnovat společným volnočasovým aktivitám, tím více si budete mít s partnerem o čem povídat.",
        "work": "Povede se vám zřejmě nakoupit ve slevách tak dobře, že ze sebe budete mít velkou radost. Dopřejte si něco dobrého.",
        "relationships": "V rodině panuje přátelská atmosféra, kterou si užíváte naplno. Nejraději byste uspořádali velkou rodinnou sešlost. Vydržte.",
        "health": "Pečujte o své zuby pravidelně a těmi nejlepšími prostředky. Porozhlédněte se na internetu a pořiďte si je domů.",
        "tips": "Kreativní psaní, výtvarné činnosti, meditační cvičení, práce se sociálními sítěmi, lehký oběd, nové exotické recepty."
    },
    "virgo": {
        "main": "Jestliže máte chuť na romantické zážitky a vášnivé chvilky, musíte být více aktivní. Partner si zvykl, že jste trochu pohodlní, a tak se také do ničeho nežene. Překvapte ho příjemnou atmosférou, oblíbenými lahůdkami a dobrým vínem. Pak už to půjde samo.",
        "love": "Zatoužíte po romantických zážitcích. Zkuste být dnes více aktivní a nečekejte jen na to, co vymyslí váš partner.",
        "work": "Odmítnete kupovat zbytečnosti a víte, na co opravdu šetříte. Jsou to hodnotnější věci, než jaké byste si koupili dnes.",
        "relationships": "Nad malichernostmi v domácnosti dnes mávnete velkoryse rukou. Nebaví vás hádky a konflikty, proto budete nad věcí.",
        "health": "Dnes je vhodný den na digitální detox. Odložte mobilní telefony a raději si vyjděte na procházku se psem do parku.",
        "tips": "Příprava domácího smoothie, čištění lednice, mytí oken, procházka po blízkém okolí, telefonát s rodiči, práce na terase."
    },
    "libra": {
        "main": "Budete se muset věnovat někomu ze širší rodiny, a tudíž vám nezbude čas na tu vlastní. Nevadí, milé Váhy. Jste ochotní té osůbce pomoci, protože je její problém naléhavý. Večer si pak s protějškem můžete udělat příjemné chvilky jen sami pro sebe.",
        "love": "I když si dnes půjdete s partnerem každý po svém, večer se rádi sejdete doma. Panuje mezi vámi naprostá důvěra.",
        "work": "Dobře si prohlédněte všechny pojistky a dokumenty, které se týkají domácnosti. Je možné, že jste opomenuli nějakou splátku.",
        "relationships": "Jistý člen rodiny ve vás věří a vidí ve vás velkou oporu. Pokud vás požádá o pomoc, věnujte mu dost času a prostoru.",
        "health": "Zamyslete se nad svým jídelníčkem a zkuste ho něčím obměnit. Zařaďte více lokálních a dostupných surovin. Uděláte jen dobře.",
        "tips": "Sledování dokumentárních pořadů, venčení psa s kamarádem, pečení slaných koláčů, příprava na nový pracovní týden."
    },
    "scorpio": {
        "main": "Nedostatek financí zkuste řešit jinak než nevýhodnou půjčkou od pochybných subjektů. Může vám pomoci kdosi z rodiny, dobrý přítel anebo si musíte najít výhodnou brigádu. Na výběr máte, tak to neřešte zbrkle a neuváženě. To by se mohlo vymstít.",
        "love": "Oceníte snahu protějšku, že se snaží vyhnout slovním přestřelkám, stejně jako vy. Rádi byste více romantiky místo hádek.",
        "work": "Peníze si můžete v případě potřeby půjčit od někoho, kdo vás nepodvede a nebude chtít využít vaší nepříznivé situace.",
        "relationships": "Potěší vás důvěra vašich blízkých ve vaše schopnosti. Ocení nejen váš intelekt, ale také praktické dovednosti.",
        "health": "Při čištění domácnosti nebo praní prádla se snažte více používat ekologické a veganské přípravky. Omezte chemikálie.",
        "tips": "Zimní sporty v přírodě, ruční mytí auta, nákup potravin v kamenném obchodě, příprava s dětmi do školy, praní prádla."
    },
    "sagittarius": {
        "main": "Změny v domácnosti vás lákají delší dobu. Možná však postačí jen přesunout nábytek a jemně ho zrenovovat. Zvlášť když jsou omezené finance a také možnosti návštěv obchodních domů. S trochou fantazie se vám povede mistrovský kousek, Střelci.",
        "love": "Dejte o sobě vědět vašim kamarádům a přátelům. Rádi uslyší, jak se vám v této napjaté době daří a zda jste zdraví.",
        "work": "Kdosi vás může oslovit s naoko výhodnou nabídkou. Naštěstí máte dost zkušeností a podvodníka odhalíte včas.",
        "relationships": "Můžete se v klidu pustit do velkého přestavování domácnosti. Ale spíše půjde jen o stěhování nábytku z místa na místo.",
        "health": "Snažte se udržet optimistickou náladu nejen u sebe, ale také u svých blízkých. Najděte si činnost, která vás těší.",
        "tips": "Romantické chvíle s partnerem, telefonát se spolužákem, četba cizojazyčných časopisů, poslech nové audioknihy."
    },
    "capricorn": {
        "main": "Dotáhnete dnes do konce všechny úřední resty, které se vám na stole nakupily za poslední týden. Doslova vám spadne kámen ze srdce, protože tuhle činnost v oblibě nemáte, že? Díky tomu do nového pracovního týdne získáte více chuti a optimismu.",
        "love": "Začínáte díky partnerovi měnit pohled na vztahy. Po dlouhé době zjistíte, že jste opět schopní se velmi zamilovat.",
        "work": "Podaří se vám doma vyřídit konečně své soukromé e-maily a korespondenci. Vše se vám nahromadilo během uplynulého týdne.",
        "relationships": "Vaše estetické vnímání se dnes ukáže jako neoprávněně podceňované. Jste kreativní a dnes dostanete konečně prostor.",
        "health": "Bolesti kloubů mohou být způsobeny změnami počasí. Zkuste využít přírodních prostředků, jak si od bolesti ulevit.",
        "tips": "Krátká návštěva starších příbuzných, vaření oběda, rehabilitační cvičení, domácí kino, rozhovor se sourozenci."
    },
    "aquarius": {
        "main": "Příjemná odpolední procházka zimní krajinou udělá dobře celé rodině. Pokud se však vydáte jen sami s partnerem, bude to spíše romantické rande. Oba se pak budete těšit na společný večer za dveřmi ložnice. Takových chvil si dopřejte více,j Vodnáři.",
        "love": "Na neděli si naplánujte s protějškem příjemnou procházku zimní krajinou. Pookřejete na duši i na mysli, oba dva.",
        "work": "Jestliže se vám povede vyhrát nad svými touhami po nákupech zbytečností, brzy budete mít hezkou sumu na účtě jako rezervu.",
        "relationships": "Nechce se vám do utrácení. Proto odmítnete veškeré nápady a svody blízkých k velkým nákupům. Bude to ale náročné.",
        "health": "Slinivka a játra rozhodně ocení, když jim dnes nebudete přitěžovat alkoholem a tučným jídlem. I nedělní oběd může být zdravý.",
        "tips": "Výtvarné a kreativní činnosti, úprava domácnosti, nákup zahradnických potřeb, sázení bylinek, šití, opravy obuvi."
    },
    "pisces": {
        "main": "Poslouchejte rozum a nenechte se strhnout k riskantním nákupům. Peníze vám nechybí, ale utratili byste je dnes spíše za rozmařilost druhých. Děti vás mají ochočené a snadno vás přemluví. Tak opatrně. Dobře vám bude odpoledne v objetí partnera.",
        "love": "Odpočinek v náruči milované osoby je pro nedělní odpoledne jako stvořený. Dopřejte si pro sebe dostatek času a klidu.",
        "work": "Sice netrpíte nedostatkem financí, ale abyste je dnes rozhazovali za neověřené akce, není nutné. Můžete naletět na podvod.",
        "relationships": "Řiďte se svým vlastním rozumem a nenechte se strhnout k neuváženým rozhodnutím. Budete pod tlakem, ale zvládnete to.",
        "health": "Vyrovnaná psychika je pro vás velmi důležitá. Umíte si ale vnitřní klid navodit sami. Například vhodnou meditací.",
        "tips": "Vydatný spánek, relaxační cvičení, meditace, procházka po lese, dovážka oběda do domácnosti, společenské a deskové hry."
    }
}