{
    "aries": {
        "main": "V neděli budete rozvíjet svůj rodinný život. Vážná partnerství zatouží ještě více upevnit svou lásku. Možná už nebudete váhat s početím potomka. Novější dvojice mohou zpečetit svůj vztah společným bydlením, nebo dokonce romantickou nabídkou k sňatku.",
        "love": "Dnešní den je jako stvořený pro rozvíjení milostných vztahů. Dlouholetá partnerství mohou začít s plánováním svatby.",
        "work": "Založení vlastní rodiny nebo domácnosti dnes nebude nijak výjimečné. Zabýváte se tím, kudy by se měla budoucnost ubírat.",
        "relationships": "Nemusíte se obklopit početnou společností, abyste si užili skvělý den. Úplně vám postačí soukromý program s protějškem.",
        "health": "Pochutnejte si na mandlích. Obsahují řadu vitaminů a minerálů, posilují cévy i nervy a snižují hladinu cholesterolu.",
        "tips": "Psaní milostných dopisů, vyznání lásky, žádost o ruku, romantické rande, večer s milovaným protějškem, zahradní grilování."
    },
    "taurus": {
        "main": "Po finanční stránce si užíváte příznivého období. Sklízíte plody své práce a hned začínáte uvažovat, jak by se získané finance daly využít. Lehkomyslně je roztočit vás neláká, zamyslíte se raději nad šikovnou investicí. Teď byste neměli prodělat.",
        "love": "Býci se na večerním programu se svojí drahou polovičkou asi neshodnou. Jeden z vás chce rozhovor a ten druhý spánek.",
        "work": "Nešvar, jakým je kouření, se odrazí nejen na zdraví, ale i na napjatém rodinném rozpočtu. Uvědomíte si, že takhle to dál nejde.",
        "relationships": "Venku můžete být svědky ostré výměny názorů cizí dvojice. Raději se urychleně odklidíte, abyste taky nějakou neschytali.",
        "health": "Alergie se mohou poprvé objevit v každém věku a zvlášť na jaře je k nim dost příležitostí. Obtíže vyhodnotí odborník.",
        "tips": "Plánování investic, kontaktování přátel, vylepšování domácnosti, výlet s rodinou, venkovní sporty, tvoření s dětmi."
    },
    "gemini": {
        "main": "Budete velice výřeční, takže vám seznamování půjde samo. Vaše komunikace bude plynout zcela hladce a budete automaticky volit ta nejvhodnější slova. I v dlouhodobých partnerstvích lze očekávat zásadní změny k lepšímu. Daří se upřímným rozhovorům.",
        "love": "Zrozence ve znamení Blíženců přepadnou myšlenky na mimomanželský vztah. Pokud vám láska uvadá, udělejte s tím něco.",
        "work": "Váš šatník puká ve švech. Roztřiďte nepotřebné oblečení a to hezčí, třeba i s cedulkami, vyfoťte a prodejte na webu.",
        "relationships": "V neděli máte zvýšení empatické cítění. Své příbuzné nebo i kamarády vyslechnete a řeknete jim svůj pohled na věc.",
        "health": "I v neděli myslete na své zdraví! To, že je volný den a vy relaxujete, ještě neznamená, že se můžete cpát pátým přes deváté.",
        "tips": "Příjemný telefonát a poklábosení s přáteli, návštěvy rodičů, chatová komunikace, dokončování pracovních restů."
    },
    "cancer": {
        "main": "V lásce se budete zlobit na protějšek kvůli domnělé povrchnosti. Budete velmi otevření a dokážete naplno říct, co vám vadí. Upřímnost je prvním krokem ke změně, vy jste ale dnes vůči druhým extrémně nároční. Tvrdou kritiku raději odložte na neurčito.",
        "love": "V hádce s partnerem budete mít chuť pořádně ho vytočit. Zachovejte si soudnost a počítejte do deseti, než emoce opadnou.",
        "work": "Podaří se vám pořídit jedinečné věci, aniž byste museli zruinovat svůj účet. Objevíte místo, kde při nákupech ušetříte.",
        "relationships": "Plnění domácích povinností může provázet vaše podrážděnost. Pokud nechcete na okolí vrčet, spravte si něčím náladu.",
        "health": "Netradiční způsob partnerské masáže vám vnese do života ztracenou harmonii. Nastartuje vás k dalšímu vylepšování duševní pohody.",
        "tips": "Odepsání na seznamovací inzerát, online nákup oblečení a obuvi, zdravotní cvičení, tantrické masáže s partnerem."
    },
    "leo": {
        "main": "V neděli budete mít chuť na nevšední zážitky s rodinkou. Hned ráno se proberete aktuální nabídkou, kterou jste rodině navrhli, a vyberete si podle momentální nálady. V případě krásného počasí asi zvítězí procházka podél řeky.",
        "love": "Dnes vám stačí jen málo k tomu, abyste získali srdce svého idolu. Po vážném vztahu už přece nějaký ten čas toužíte.",
        "work": "Telefonát od kolegy vás vytočí. Sobotní den jste chtěli věnovat rodině a nestojíte o to se dohadovat s primitivem.",
        "relationships": "Jarní počasí ve vás probudí cestovatelské touhy. Těšili jste se na letní dovolenou, ale teď vás uspokojí i výlet za humna.",
        "health": "Starejte se o své končetiny. Chraňte je před úrazy a posilujte jejich svalstvo, aby bylo v kondici na letní plavání.",
        "tips": "Relax na jarním sluníčku, zahradní práce všeho druhu, nákup semen a substrátu na výsadbu bylinek, pletení z papíru."
    },
    "virgo": {
        "main": "Měli byste se naučit vnímat stanoviska druhých. Nejlepší to bude přímo v praxi. Můžete se pokusit urovnat různé spory, s dobrou vůlí dokážete divy. Podaří se vám hovořit naprosto věcně, budete otevření domluvě a předvedete i ochotu ke kompromisům.",
        "love": "Rozhodnete se udělat důkladnou čistku svého telefonu. Vymažete kontakty, které vám připomínají nepříjemnou minulost.",
        "work": "I škole dávno odrostlí zrozenci ve znamení Panny zalistují nabídkou různých online vzdělávacích kurzů. Přihlásí se třeba jen pro radost.",
        "relationships": "Někdo z blízkých se zachová zcela proti svým zvyklostem, čímž vás trochu zmate. Možná zkouší, jak na to budete reagovat.",
        "health": "Vyhněte se nevhodné stravě, jinak vás může vytrestat žaludek či žlučník. Rozbouřit by je mohla tučná a smažená jídla.",
        "tips": "Návštěva starších příbuzných a pomoc s nákupem, milostné schůzky, seznamování se na internetu, procházka kolem řeky, jóga."
    },
    "libra": {
        "main": "Tyto dny jsou ideální pro oživení vašeho milostného života. S partnerem se budete věnovat jen sami sobě a užívat si společných okamžiků. Máte výjimečnou příležitost vyzkoušet vše, co se zatím odehrávalo jen ve vaší hlavě. Nebudou platit žádná tabu.",
        "love": "Zneklidní vás jistý velmi přitažlivý člověk ve vaší blízkosti. Nebudete vědět, zda si užít románek, nebo zůstat věrní.",
        "work": "Nevěřte všemu, co vám nakuká váš známý. Pokud chce půjčit peníze, ověřte si, že je nemá na nějaké nekalé věci.",
        "relationships": "Budete nadmíru přemýšliví a tvůrčí. Vaše záliba v debatách je dnes očividná, přitom jste schopní domluvit se s každým.",
        "health": "Milostné radovánky si v neděli okořeníte o trochu experimentování. Toužíte poznávat a zažívat nové věci i v posteli.",
        "tips": "Zážitky s partnerem, večeře z oblíbené restaurace za pomoci donáškové služby, zhlédnutí nového filmu, posezení na zahradě."
    },
    "scorpio": {
        "main": "V závěru týdne se konečně dopracujete k tomu, že se zaměříte jen sami na sebe. Potřebujete načerpat energii, kterou jste věnovali pracovním i rodinným povinnostem. Nepotřebujete žádné nákladné zážitky, odpočinete si v přírodě či se zajímavou knížkou.",
        "love": "Ve vztahu je dnes rozhodující praktické hledisko. Pilná výpomoc při domácích pracích vás potěší víc než milostný zájem.",
        "work": "Optimismus vám v neděli může v mnohém pomoci. Nebude vám vadit nedostatek financí a volno si rozhodně užijete naplno.",
        "relationships": "Vaše skromnost a chápavost se dnes projeví naplno. Rodina na vás nedá dopustit a jste pro ni vrbou a přístavem lásky.",
        "health": "V neděli se cítíte svěží a nic vás nebolí. Jakmile máte dobrou náladu, jste schopni zapomenout i na zdravotní potíže.",
        "tips": "Péče o zahrádku, hra na hudební nástroj, procházka přírodou, lenošení v zahradním lehátku, pohodová četba, tai-či."
    },
    "sagittarius": {
        "main": "Nedělní den si chcete opravdu užít. Budete se věnovat svým nejbližším, především potomkům. Uvědomujete si, že je vhodný čas pro zážitky s rodinou, která se možná občas cítí zanedbávaná. Dnes si ale nebude moci stěžovat, bude vám spolu pohádkově.",
        "love": "Budete přemýšlet, jestli váš protějšek odolává svodům okolí stejně úspěšně jako vy. Konečný závěr vás docela povzbudí.",
        "work": "Nějaké nové pracovní povinnosti se vám nebudou zamlouvat a budete na to myslet i v neděli. Nebojte se šéfovi říct svůj názor.",
        "relationships": "Neděle je vhodným dnem pro oslavy dětských narozenin. Vaše obavy z nudy se ukážou jako bezpředmětné. Výborně se pobavíte.",
        "health": "Příliš různorodá či těžká strava by mohla poškádlit vaše zažívání. Dejte si pozor také na stánky rychlého občerstvení.",
        "tips": "Snídaně na čerstvém vzduchu, romantická procházka s partnerem, grilování s rodinou, rybaření, chat."
    },
    "capricorn": {
        "main": "Neděle bude svátečním dnem i v lásce. Objeví se řada nových příležitostí k seznámení. Můžete se dostat do rozpaků pod přívalem lichotek, kterými vás budou zahrnovat obdivovatelé z řad opačného pohlaví. Stydlivější jedinci nebudou vědět, kam s očima.",
        "love": "Váš nejnovější ctitel vás zajímá, ale zřejmě zatím zvolíte nezaujatý postoj. Rádi byste si ověřili sílu jeho zájmu.",
        "work": "Část volného času věnujete pracovní přípravě na příští týden. Větší část dne by ale měla patřit plnohodnotnému oddechu.",
        "relationships": "Své děti nadevše milujete, ale už byste měli rádi chvilku jenom pro sebe. Jak jsou teď doma, nemáte prostor pro své hobby.",
        "health": "Zapomeňte na mlsání a konzumaci tučných jídel v pozdních hodinách. Žlučník by začal proti tomuto jednání protestovat.",
        "tips": "Dlouhý nedělní spánek, odpočinek, relaxace na zahradě, sledování filmů, zkoušení kaligrafického písma, sledování dokumentů."
    },
    "aquarius": {
        "main": "V neděli začnou mnozí nezadaní psát historii svého vztahu. Máte příležitost seznámit se na internetové seznamce se zajímavým protějškem, který bude sdílet i vaše koníčky a zájmy. Nemůžete uvěřit, že máte takové štěstí. Snad se brzo i potkáte.",
        "love": "Budovat partnerský vztah vyžaduje čas, trpělivost, toleranci i dobrou vůli. Vy jste pevně odhodlaní dát si tu práci.",
        "work": "Penízky by se vám hodily, a tak na webu najděte dobře placenou brigádu. Opravdu chcete obětovat víkendové dny na práci?",
        "relationships": "Ve společnosti vám dnes neschází zdravé sebevědomí. Nevykolejí vás žádný neúspěch při seznamování, neztrácíte naději.",
        "health": "Jste v dobré fyzické i duševní pohodě, což vám dovolí věnovat se programu, který jste si naplánovali. Nic vás neomezí.",
        "tips": "Koketování ze sousedem, pěstování zálib, oblíbený sport, výlet a návštěva starších příbuzných, deskové hry, pohádky."
    },
    "pisces": {
        "main": "V oblasti lásky budete nejistí. Vrtá vám hlavou, zda někde neděláte chybu. Chcete být pro svůj protějšek zcela bezchybní, aby se vámi mohl pyšnit. Snaha o dokonalost dá ale zabrat, je to nekonečná a navíc marná snaha. Přestaňte usilovat o nemožné.",
        "love": "Ve slabé chvilce vás přemůže nostalgie a se slzou v oku zavzpomínáte na expartnera. Připomeňte si i jeho horší stránky!",
        "work": "Podumáte o vážných životních otázkách a neubráníte se při tom skepsi, či dokonce pesimismu. Přiveďte se na jiné myšlenky!",
        "relationships": "Ve slabých chvilkách vás napadá, jestli se o děti staráte opravdu dost. Zkuste se zeptat přímo jich, jak jsou spokojené.",
        "health": "Pokud si budete se vším lámat hlavu, brzy vás z přetížení rozbolí. Dnes si naordinujte relaxaci a o nic se nestarejte.",
        "tips": "Pohodová snídaně do postele, prohlížení fotografií a alb, zábavné odpoledne s ratolestmi, telefonát s optimistickými přáteli."
    }
}