{
    "aries": {
        "main": "Začátek pracovního týdne přinese do vašeho rozpočtu přilepšení. Vypadá to, že se můžete těšit na finanční příspěvky, které vám přijdou od dávných dlužníků. Půjde o částky, se kterými jste již nepočítali. O to milejší překvapení to teď pro vás bude.",
        "love": "Dáte do pořádku vlekoucí se rozpory. Došlo vám, že přistoupit na partnerské kompromisy není projevem slabosti, ale síly.",
        "work": "Vyvíjí se kariéra podle vašich představ? Přiznáte si, co vlastně chcete, a nenecháte si přitom podsouvat cizí ambice.",
        "relationships": "Svým blízkým dnes rádi pomůžete s řešením jakéhokoliv problému. Budete ochotní kvůli tomu změnit i plánovaný program.",
        "health": "Nadváha zatěžuje váš organismus více, než si myslíte. O víkendu vaše klouby dostaly zabrat. Je čas na změnu!",
        "tips": "Online nákup nových svršků, telefonát partnerovým rodičům, založení vlastní živnosti, povýšení, založení spořicího účtu."
    },
    "taurus": {
        "main": "Na pracovišti máte šanci odstartovat slibnou kariéru. Kromě toho, že vám hvězdy při pracovních aktivitách nezvykle přejí, máte ještě dostatek cílevědomosti, dravosti a energie. Díky tomu zvládnete i úkoly, nad kterými vám jindy zůstává rozum stát.",
        "love": "Pokud vám nového partnera celá rodina rozmlouvá, namítněte, že oni s ním žít nebudou. Řiďte se pouze vlastní hlavou.",
        "work": "Vydělávání bez pracovní smlouvy by se nemuselo vyplatit. Ani zaměstnání u známého není automatickou zárukou výplaty.",
        "relationships": "Získáte cenné informace ohledně vaší rodinky. Aniž by si to váš informátor uvědomil, nahrál vám tím pořádně do karet.",
        "health": "Nepřemýšlejte o věcech, které ještě nenastaly. Děláte si tím zbytečné vrásky na tváři a zanechává to i stopy na duši.",
        "tips": "Aktivity s rodinou, kontrola domácích úkolů dětí, oddechová četba, zábavný pořad v televizi, povídání historek."
    },
    "gemini": {
        "main": "Pondělí není šťastné, co se lásky týče. Máte spoustu potíží doma i v zaměstnání, což vztahu neprospěje. Vypadá to, že se s protějškem nedohodnete na jisté záležitosti a dostanete se do ostřejší výměny názorů. Tehdy vyplují na povrch i staré křivdy.",
        "love": "Pohodové vztahy s partnerovou rodinou dnes budou k nezaplacení. Zjistíte, že nebýt spolu na kordy je naprostou výhrou.",
        "work": "Najdete způsob, jak ušetřit další finance v rozpočtu. Omezení kouření a škrtání nepotřebných položek jsou jen začátek.",
        "relationships": "I když jde o rodinu, poslechněte svůj instinkt a dávejte si pozor, koho si pouštíte k tělu. Vyhnete se tak problémům!",
        "health": "Květnovému nachlazení se vyhnete, pokud o sebe budete pečovat. Otužujte se, hýbejte na čerstvém vzduchu a jezte vitaminy.",
        "tips": "Jednání na úřadech, soudní stání, samostudium, práce v kolektivu, vylepšení vztahů s rodinou, pomoc starším příbuzným."
    },
    "cancer": {
        "main": "Současné konstelace posilují vaši senzibilitu. Budete se s velkým zaujetím zabývat životy svých příbuzných a přátel. Dnes jim skvěle poradíte s osobními i profesními problémy. Nepřipadá vám složité proniknout k jádru věci a nastínit vhodné řešení.",
        "love": "Bujná fantazie vám v pondělí nechybí. Naopak uvolníte své touhy a snažíte se je realizovat. Partnera tím dokonale odzbrojíte.",
        "work": "Jste nabiti ohromnou dávkou energie, tak nemáte při plnění složitých úkolů problémy. Konkurence vašemu tempu nestíhá.",
        "relationships": "Uvědomíte si, jaký poklad ve své milované rodině máte. Představuje pro vás přístav, do kterého se můžete kdykoliv vrátit.",
        "health": "Konečně si začnete vychutnávat krásný den všemi smysly. Jarní deprese, které vás provázely, budou úplně pryč.",
        "tips": "Vylepšování vztahů s kolegy, společný oběd s rodinou, nákup cukrovinek pro děti, osvojování asertivních technik, komedie v TV."
    },
    "leo": {
        "main": "Měli byste se věnovat práci, která vyžaduje velkou míru samostatnosti. Práce v kolektivu se dnes příliš nedoporučuje, jen by vás rozptylovala nebo by rozmělnila vaši finanční odměnu. Sami dobře víte, jak na to, a své know-how si pečlivě střežíte.",
        "love": "Toužíte s partnerem oslavit své úspěchy, ale patrně na to nebude mít energii. Společné lenošení vám nakonec také přijde vhod.",
        "work": "V zaměstnání platíte za odborníky, kteří nemají téměř žádnou adekvátní konkurenci. Profitujete ještě z dřívější tvrdé práce.",
        "relationships": "Když se v práci daří, co více si přát. Doma jste pak plni energie a životního partnera byste samou láskou umačkali.",
        "health": "Během pondělka se zaměřte na zdraví svých ledvin a močových cest. Ohrožuje vás nachlazení i zanedbávání pitného režimu.",
        "tips": "Individuální činnosti, samostudium, kosmetické samoošetření pleti, relaxace, doučování dětí, cyklistika, pilates."
    },
    "virgo": {
        "main": "Finančně si v první polovině května přilepšíte. Dnešek vám totiž ukáže možnost, jak obohatit rodinný rozpočet. Nadprůměrné výdělky vám nevydrží věčně, a tak je namístě vyzískat z dnešních šancí co nejvíc. Nebojte se skočit i po složitých úkolech.",
        "love": "Pokud partnera odměníte drobností, stoupnete u něj na ceně. Stačí zamilovaná zpráva, čerstvé květiny nebo sladký zákusek.",
        "work": "Chcete si zajistit finanční rezervu, a tak se v práci pořádně otáčíte. Raději ale nic nerozdělávejte, dokončujte resty.",
        "relationships": "K naprosté spokojenosti vám nic neschází. Odpoledne zasypete rodinku novinkami a proklábosíte o nich celý večer.",
        "health": "Pylová alergie vás může nepříjemně omezit při práci i v lásce. Raději se nevydávejte do polí a myslete na prevenci!",
        "tips": "Rozjíždění vlastního podnikání, obchodní jednání, změna účesu, telefonát s přáteli, kreslení s dětmi, pohádka na dobrou noc."
    },
    "libra": {
        "main": "V pondělí nebudete neteční vůči připomínkám svého okolí. Zejména v zaměstnání uvítáte možnost poradit se o svých pracovních krocích. Vyslechnete si názory kolegů a ty užitečné nenecháte zapadnout. Ani případnou kritiku si dnes nebudete brát osobně.",
        "love": "Čím víc se snažíte pochopit miláčka, tím zmatenější jste. Jeho myšlení je nevyzpytatelné a nikdo neví, co chce.",
        "work": "Nad prací moc nepřemýšlíte a momentálně vás zajímají spíše duchovní obzory. Boj o lepší pozici přenecháte kolegům.",
        "relationships": "V rodině se dnes klidně pohádáte, ale budete přitom věcní a féroví. Výsledkem tak bude větší oboustranné pochopení.",
        "health": "Vyplatí se myslet na dokonalou hygienu. V pondělí byste si mohli zadělat na afty, ale hrozí i větší zdravotní potíže.",
        "tips": "Zvládání pracovních povinností, online vzdělávací kurzy, usmiřování s příbuznými, sbližování s protějškem, pohybové aktivity."
    },
    "scorpio": {
        "main": "Protějšek bude citlivě vnímat vaše opakující se přesčasy a koníčky, kvůli nimž na něj nemáte více času. Připadá si odstrčený a brzy vám dá svou nechuť najevo. Zkuste mu více naslouchat a nerozčilujte se. V mnohém má totiž pravdu.",
        "love": "Nikdo a nic si nedovolí ohrozit vaši vzájemnou lásku. Všem škarohlídům a závistivcům zarazíte tipec. Jste si souzeni.",
        "work": "Nechcete-li zůstávat přesčas, snažte se dopoledne stihnout většinu naplánované práce. Nečekané úkoly vás nezaskočí.",
        "relationships": "Nikdo není dokonalý a platí to i pro vás, i když dnes asi máte jiný pocit. Připomínky blízkých nezahrávejte do autu.",
        "health": "Nepřepínejte své duševní možnosti. Psychicky náročné aktivity jsou pro vás dnes podstatně nebezpečnější než manuální dřina.",
        "tips": "Řešení pracovních restů, důležitá porada s kolegy, pohybové aktivity s rodinou, pěstování koníčků, četba červené knihovny."
    },
    "sagittarius": {
        "main": "Sebevědomí vám na začátku pracovního týdne vůbec neschází. Prodloužený víkend vás dobil novou energií, a tak vám veškeré aktivity půjdou snadno od ruky. Pokud se přece jen něco nezdaří, neúspěch vás nezastaví. Pozitivní pohled na svět byste dnes mohli vyučovat.",
        "love": "Pozor, abyste neseděli na dvou židlích, pak neuspokojíte ani jednu stranu. Partner by vás chtěl mít jen pro sebe!",
        "work": "Ještě před krizí jste dostali nabídku pracovat v zahraničí. Bohužel, situace se změnila a vy zůstáváte na původním místě.",
        "relationships": "Zkušenost vám dovolí vyjít téměř s každým. Dnes byste museli narazit na hodně velkého exota, abyste si s ním neporadili.",
        "health": "Hvězdy varují před problémy s pohybovým aparátem. Snažte se správně držet tělo, kříž vám za to poděkuje.",
        "tips": "Spor s namyšleným kolegou, výpověď z práce, procházka cestou domů ze zaměstnání, nákup potravin do zásoby, pečení."
    },
    "capricorn": {
        "main": "V oblasti práce pokračuje období, kdy se mohou některé záležitosti zpomalit. Bude třeba krotit svou netrpělivost a v situacích, kdy se věci nevyvíjejí podle očekávání, držet nervy pevně na uzdě. Hlavní díl energie věnujte důsledné kontrole své práce.",
        "love": "Rozhádané vztahy jsou minulostí. Uvědomíte si, že jsou důležitější věci na světě než ty, kvůli nimž se dohadujete.",
        "work": "V pondělí můžete výrazně snížit své výdaje. Máte jasno v tom, čeho chcete v budoucnu dosáhnout, ale musíte se uskromnit.",
        "relationships": "Ratolesti vám dnes rozsvítí den, i kdyby obloha byla smutně šedivá. Proto jim rádi odpustíte i jejich drobné prohřešky.",
        "health": "Zvolníte nasazené tempo a trochu si oddechnete. Díky nějakému známému si najdete chvíli času i na uvolnění mysli.",
        "tips": "Zvládání nových povinností, telefonát s příbuznými, procházka přírodou, rybaření, jogging, vymýšlení zábavy pro děti."
    },
    "aquarius": {
        "main": "V oblasti práce vám přeje Mars ve vašem znamení. Zajistí vám ideální klima pro činnosti, které vyžadují spolupráci více lidí. V kolektivu budete působit jako tmelící prvek. Dík vládnoucí pohodě si ani nevšimnete, že vlastně pracujete.",
        "love": "V lásce máte nejvyšší čas obměnit stereotypy. Není potřeba hledat nového partnera, postačí změnit způsob myšlení.",
        "work": "Už vás nebaví stěžovat si za jeho zády, takže řeknete šéfovi do očí, co se vám nelíbí a proč. Překvapí vás jeho reakce.",
        "relationships": "Pochvalujete si své pracovní výkony, ale vaši blízcí vás v tom možná ještě předčí. Posílí tak vaši spokojenost a pohodu.",
        "health": "Dávat pozor byste si dnes měli na drobná zranění horních končetin. Veškeré zdravotní komplikace pramení z nepozornosti.",
        "tips": "Práce navíc za nemocného kolegu, pomoc při vytřiďování šanonů, telefonát s účetním, úklid domácnosti, praní."
    },
    "pisces": {
        "main": "V pondělí můžete mít problém přinutit se k nějaké aktivitě. Jakmile vás nějaká činnost neláká, pak se jen těžko přemlouváte, abyste jí věnovali potřebnou pozornost. Nebude proto od věci plout pro dnešek s davem a spolehnout se na týmovou spolupráci.",
        "love": "Nerozmýšlejte se partnerovi říct, jak moc pro vás znamená. V jeho očích vás upřímné vyznání citů pozvedne ještě výš.",
        "work": "Bouřlivá diskuse o pracovních postupech bude konstruktivní jen v případě, že do ní nebudete zatahovat osobní témata.",
        "relationships": "Snažíte se dospívajícím dětem rozmluvit nějaký nesmysl, který si vzaly do hlavy. Vaše úsilí asi nebude příliš plodné.",
        "health": "Vztahy na jednu noc mohou zanechat nepříjemnou památku. Pokud se rozhodnete podlehnout, mějte po ruce patřičnou ochranu.",
        "tips": "Práce nevyžadující soustředění, žádost o pomoc kolegů, grilování s rodinou, kutilství, procházka s domácím mazlíčkem."
    }
}