{
    "aries": {
        "main": "Pokud v zaměstnání využíváte kreativitu, získáte výhodu i ve financích. Zákazníci si svou spokojenost nenechají pro sebe. Díky jejich pochvalným slovům vás sami vyhledají noví zájemci. Začnete sklízet, co jste zaseli, a úroda to bude nad očekávání.",
        "love": "Vaše náruč bude večer milovanému protějšku doširoka otevřená. Nalezne v ní útěchu, něhu i vášeň, jak jen si bude přát.",
        "work": "V zaměstnání můžete vnímat jasné náznaky, že je s vámi počítáno i nadále. Dokonce to vypadá, že si ještě polepšíte.",
        "relationships": "Ve výchově ratolestí se nyní dokážete s partnerem shodnout. Není ale vyloučené, že jen za cenu vašich menších ústupků.",
        "health": "Vaše zdravotní stránka bude o poznání stabilnější. Bude možné vyléčit si mnohé dlouhodobé obtíže, či je alespoň zmírnit.",
        "tips": "Kreativní činnosti, rozjezd podnikání, oběd a odpolední siesta s rodinou, zkrášlování domova, malování a tvoření s dětmi."
    },
    "taurus": {
        "main": "Budete mít dostatek energie prosazovat se na veřejnosti. Před lidmi nebudete mít chuť hrát si na něco, co nejste. Odhodíte všechny masky a budete vystupovat jen sami za sebe. Někomu to bude imponovat, jiného naopak provokovat. Budete mít ale respekt.",
        "love": "Naskytne se vám příležitost k rozvíjení vašich společenských kontaktů. Když nebudete zahálet, nasbíráte cenné vizitky.",
        "work": "Se svým přístupem k práci budete v zaměstnání v nevýhodě. Nenechte si nic líbit a hlasitě se ozvěte. Budete slavit úspěch.",
        "relationships": "Otázky spojené s rodinným majetkem vám mohou dělat těžkou hlavu. Na jejich řešení nemusíte být sami, nechte si poradit.",
        "health": "Pravidelný pohyb bude stačit k tomu, aby se zvýšila hybnost vašich kloubů. Jako bonus navíc se přestanete tolik zadýchávat.",
        "tips": "Vystupování na veřejnosti, online přednášky, zábava s rodinou, plnění přání dětí, navazování pracovních i osobních kontaktů."
    },
    "gemini": {
        "main": "S protějškem najdete společná témata k hovoru, který se ponese v klidném a otevřeném duchu. Patrně zabrousíte i do událostí dávno minulých. Můžete si vysvětlit mnohá nedorozumění a přijít na kloub dnešním problémům. Vaše partnerské nebe se rozjasní.",
        "love": "Ovzduší vztahové důvěry spěje ke vzájemnému svěřování se. Večer si nejspíše dáte jakousi partnerskou černou hodinku.",
        "work": "Vaše ratolest se pochlubí pracovním úspěchem, který jí otevře dveře k mnohem lepšímu uplatnění. Konečně začne dělat kariéru.",
        "relationships": "Bude vás zajímat soukromí dospívajícího potomka. Možná pomůže, když se na rovinu rozpovídáte o vlastních zkušenostech.",
        "health": "Klidně dnes jezte, na co máte chuť, ale jen v malých dávkách. Prospěje to nejenom vaší hmotnosti, ale také vašemu zažívání.",
        "tips": "Otevřený rozhovor s protějškem, návštěvy příbuzných a aktivity spojené s rodinným životem, výchova dětí, domácí práce."
    },
    "cancer": {
        "main": "Dnešek bude velmi příznivý v oblasti lásky. Nebude to žádné obyčejné úterý, dokážete si ho totiž s partnerem nalakovat narůžovo. Sladkou tečkou celého dne budou společné intimní chvíle. Nezadaní mohou zažít rande snů a najít svou druhou polovičku.",
        "love": "Pokud budete lehkomyslně flirtovat, můžete zažít horké chvilky. Protistrana si vás nebude chtít nechat jen tak utéct.",
        "work": "Dnes netoužíte po vzruchu, uvítáte i pracovní nudu. Poklidný stereotyp vám přinese pocit jistoty, který potřebujete.",
        "relationships": "Neradi blízké zatěžujete svými starostmi, oni vám ale rádi pomohou. Společnými silami určitě na něco přijdete.",
        "health": "Potřebujete nyní naprostý klid a psychickou pohodu. Nedopřávají-li jí vám ji doma, vyjeďte si rozhodně někam mimo domov.",
        "tips": "Důvěrný rozhovor ze šéfem, domácí práce, procházka přírodou, klidná cvičení, rodinná večeře s povídáním, filmy pro dospělé."
    },
    "leo": {
        "main": "V lásce hvězdy vytvářejí na váš vkus příliš intelektuální klima. Vy rádi plujete na vlně velkých emocí a poddáváte se citům, teď ale budete spíše zahloubaní a nepodaří se vám vypnout. Mohutné vášně dnes asi nevzplanou, dařit se bude spíše přátelství.",
        "love": "Jste zklidnění, až pohodlní, a tak spíš než milostné zážitky či flirt budete vyhledávat přátelství. Posedíte, popovídáte.",
        "work": "Dnes budete od práce stále vzhlížet k oknu a očima fixovat zářící sluníčko. Ven vás to za ním potáhne přímo magicky.",
        "relationships": "Dnes u vás nebude ani stopa po nějakém cynismu. Blízkým otevřete své srdce i duši a rádi se stanete mírným koťátkem.",
        "health": "Kvůli přetěžování vás mohou zastihnout silnější bolesti kloubů. Nenechte věci dojít do extrémů, musíte si své zdraví hlídat.",
        "tips": "Všestranná péče o domácnost, objednání jídla z donáškové služby, procházka v přírodě, posezení a poklábosení s rodinou."
    },
    "virgo": {
        "main": "Venuše vytváří atmosféru romantiky. Pocítíte, že protějšku můžete plně důvěřovat, a nejlépe vám bude v jeho náruči. I vaše milostná kondice je skvělá, takže budete v ideálním rozpoložení pro nadpozemské milostné zážitky. Duše i tělo si přijdou na své.",
        "love": "Dnes vás milostná dobrodružství na jednu noc nelákají. Raději se věnujete tomu, co máte doma. Románky necháte jiným.",
        "work": "Vyjednávání o vlastní osobě není vaše silná stránka, dnes ale neustoupíte ani o píď. Vašimi trumfy jsou skvělé výsledky.",
        "relationships": "Projeví se u vás neobvyklá něha, kterou někdy postrádáte. Budete lépe vyjadřovat city, takže v rodině zavládne harmonie.",
        "health": "Jste spokojení, plní síly a dobré nálady. Recept na štěstí a pevné zdraví zní podle vás naprosto jednoduše - láska.",
        "tips": "Důvěrné chvíle s protějškem, společná voňavá koupel, vzájemné uvolňující masáže, sledování filmů, něžné intimní chvilky."
    },
    "libra": {
        "main": "Úterý vám umožní vylepšit situaci v partnerském vztahu. Nepříjemné dusno, které ovládlo vaši domácnost, vadí nejen vám, ale také protějšku. Bez připomínek proto přistoupí na společný rozhovor, byť si ve skrytu duše myslí, že nebude moc příjemný.",
        "love": "Najít osudového člověka, se kterým si budete rozumět za každé situace, není lehké. Vám ale svitla naděje, že jste se trefili.",
        "work": "Vaše dnešní aktivita bude obdivuhodná. Máte ale tendenci hrnout se do všeho po hlavě, nechte si chvíli na rozmyšlenou.",
        "relationships": "Některým lidem prostě nevyhovíte, protože si libují ve věčné nespokojenosti. Zachovejte klid a myslete na své nervy.",
        "health": "Hubnutí do plavek nepřehánějte. Začněte včas a postupujte pozvolna, nesnažte se pak všechno strhat za jediný týden.",
        "tips": "Online divadelní představení, výlety ve dvou, romantické schůzky, romantická večeře při svíčkách, společná masáž."
    },
    "scorpio": {
        "main": "Připadá vám, že vás protějšek nebere vážně. Nejspíše máte pravdu, ale nebude vám to moc platné. Sami tušíte, že už ho stejně nepředěláte. I dnes vás rozhodí nějakým svým vrtochem. Místo sporů ale vyklidíte pole a tím mu seberete vítr z plachet.",
        "love": "Telefonát s partnerem vás navnadí na společný večer. Navíc díky němu zapomenete na problémy dnešního pracovního dne.",
        "work": "Komunikace dnes může poněkud váznout. Kolegové si snadno vyloží jako konfliktní i slova, která byla míněna v dobrém.",
        "relationships": "Vidina večera stráveného s rodinkou vás nastartuje k nebývalým výkonům. Práce vám půjde od ruky a dokončíte ji dřív.",
        "health": "Vyhněte se zvedání nadměrně těžkých předmětů, jinak vás může zčistajasna přepadnout houser. Procvičujte bederní páteř.",
        "tips": "Pohybové aktivity spojené s rodinným životem, výchova a vytváření her a programu pro děti, jednoduché práce v domácnosti, sledování seriálů."
    },
    "sagittarius": {
        "main": "Partnerská nerovnováha se stane vaším klíčovým tématem. Může vám vadit, že protějšek před vámi dává přednost spoustě koníčků. Teď máte dobré šance najít vhodný kompromis. Objevíte řadu možností, jak sladit společný program ke spokojenosti vás obou.",
        "love": "Myšlenky na přesčas raději okamžitě zavrhněte. Protějšek má totiž o úterním podvečeru jinou představu, tak mu ji nekazte.",
        "work": "Při podepisování jakýchkoliv dokumentů buďte bdělí. Zvláštní pozornost věnujte dodatkům, psaným miniaturním písmem.",
        "relationships": "Na jistý problém máte s rodinou jiný názor a nenajdete kompromisní řešení. V rodinném vztahu zavládne na čas napětí.",
        "health": "Cílené otužování vás připraví na letní koupací sezonu. Vaše tělo přivykne studené vodě a vyhne se vám každé nachlazení.",
        "tips": "Vyřízení pracovních e-mailů a telefonátů, pohodový večer s rodinou, pomoc příbuzným, plánování programu s partnerem."
    },
    "capricorn": {
        "main": "Bude se vám dařit v případě, že zapomenete na pracovní potíže. Měli byste je nekompromisně hodit za hlavu a nepustit je za dveře domova. Tam věnujte plnou pozornost naslouchání členům rodiny. I oni mají své problémy a potřebují vaši radu a pochopení.",
        "love": "Mnozí nešťastníci, kteří si nevědí rady, si vám dnes vylijí srdce. Opatrně, nebo to za chvíli budete potřebovat sami.",
        "work": "Váš nadřízený dobře ví, že jste spolehliví a pečliví. Pokud předvedete ještě větší samostatnost, bude nadmíru spokojen.",
        "relationships": "Povzneste se nad evidentní nedostatky někoho z rodiny. Víte, že nikdo není dokonalý. Soustřeďte se na jeho kladné stránky.",
        "health": "Řízení auta věnujte pozornost, kterou si zaslouží. Nerozptylujte se, vyhýbejte se zbytečně uspěchané a riskantní jízdě.",
        "tips": "Pracovní aktivity vyžadující pečlivost, večer s nejbližší rodinou, rutinní úklid domácnosti, meditace ke zmírnění napětí, včasné ulehnutí."
    },
    "aquarius": {
        "main": "Luna prochází přímo vaším znamením, což vás může vést ke zbytečné sebelítosti. Dnes potřebujete, aby vás partner povzbuzoval a chválil. Bude to pro něj snadné, protože se jemu i dětem budete naprosto vzorně věnovat. Domácí večer vám spraví náladu.",
        "love": "Neprohloupíte, když si dnes obléknete něco zvlášť slušivého. Rýsuje se setkání s někým, kdo vás upoutá na první pohled.",
        "work": "Vaše plány ovlivní trefné připomínky kolegů. Díky nim se vám vrátí smysl pro realitu a zbavíte se některých iluzí.",
        "relationships": "Souhrou náhod potkáte osobu, které se už delší dobu úspěšně vyhýbáte. Hned se ale vzpamatujete a vyjdete z toho se ctí.",
        "health": "Všechen zdravý pohyb vám dnes zajistí postelové radovánky. Usínat budete zmožení, ale se šťastným úsměvem na rtech.",
        "tips": "Vášnivá noc s protějškem, večeře při svíčkách, zaslání zamilovaného dárku s vyznáním, sledování romantického filmu, péče o pleť."
    },
    "pisces": {
        "main": "Dokážete propojit poznatky o chování lidí a o technických vymoženostech poslední doby. Jen vy umíte najít něco společného i v odlišných disciplínách. Nebudete myslet rutinně a díky tomu vás budou napadat originální řešení. Nadřízení ocení vaši iniciativu.",
        "love": "Ozvěte se všem zanedbávaným přátelům. Někteří už ani nevědí, zda jste ještě naživu. Byla by škoda, kdyby vás odepsali.",
        "work": "Okolnosti či nadřízení vás přesvědčí, že je třeba sledovat novinky ve vašem oboru. Dáte se do toho s opravdovou chutí.",
        "relationships": "Někdo blízký bude silně nervózní a jeho vrčení na vás zapůsobí jako studená sprcha. Mávněte nad tím rukou a netrapte se.",
        "health": "V práci i doma se opravdu činíte. Z výsledků máte radost, vaše tělo už méně. Potřebuje protiváhu v podobě odpočinku.",
        "tips": "Originální řešení pracovních problémů, povídání a hry s dětmi, kontrola školních úkolů a učení se, exotická večeře v japonském stylu."
    }
}