{
    "aries": {
        "main": "Úbytek energie, který dnes cítíte, Berani, je jen dočasný. Využijte sobotu k odpočinku, abyste mohli nabrat sílu na další pracovní týden. Nechte věcem volný průběh a dovolte vašim nejbližším, aby za vás naplánovali dnešní program. Nudit se nebudete.",
        "love": "Partner s vámi má úmysly, o jakých se vám dlouho ani nezdálo. Nechte ho ukázat, nakolik si vás cení a co pro něj znamenáte.",
        "work": "Sami víte, kolik dnes můžete utratit. Dobré víno a jídlo vám rozpočet nezatíží, ale do jiných investic se pouštět nebudete.",
        "relationships": "Svobodní o víkendu ocení přítomnost drahé polovičky. Intimní atmosféra, svíčky a masáž udělají své pro přetížené Berany.",
        "health": "Dopřejte si dlouhý a vydatný spánek. Doplní vám tolik potřebnou energii, podobně jako otužování a prokrvení pokožky masáží.",
        "tips": "Otužování, spánek, masáž, výjimečná večeře, milostné aktivity s partnerem, odpočinek, relaxace, třídění fotografií."
    },
    "taurus": {
        "main": "Vaše láska vás dnes vyzkouší. Máte obavy, zda je vše v pořádku. Nenechte emoce, aby vás přemohly, zatím to není tak vážné. Dejte si čas na odpovědi, važte slova a raději si odpusťte uštěpačné poznámky. Protějšek si sám uvědomí, že to poněkud přehnal.",
        "love": "Mezi vámi a partnerem by se napětí dalo krájet. Oba máte povinností nad hlavu. Je na čase se věnovat jeden druhému.",
        "work": "Nemáte dnes svůj den. Partner vám dělá starosti a vy se nemůžete soustředit na nic jiného. Dnes si to můžete dovolit.",
        "relationships": "Rádi byste nastolili pořádek doma i v práci, tak abyste byli spokojení nejen vy. Bohužel to nezávisí jen na vás.",
        "health": "Je načase obohatit stravu něčím novým. Pokud máte rádi drůbež, zkuste křepelku. Naučíte se zároveň novým receptům.",
        "tips": "Pohodová hudba, rozhovor s partnerem, nové recepty v kuchyni, procházka, večer u dobrého filmu, výjimečná večeře."
    },
    "gemini": {
        "main": "Povede se vám dnes uklidnit rozbouřenou atmosféru v rodině. Jste vyloženě komunikativní osoba a máte ty nejlepší předpoklady zmírnit emoce, které cloumají ostatními rodinnými příslušníky. Překvapí vás, jak lehce si s touto situací poradíte.",
        "love": "Rádi byste sobotní večer prožili romanticky, ale musíte si o to u drahé polovičky říct. A to se vám moc líbit nebude.",
        "work": "Nenechte se strhnout nabídkami různých rychlých půjček. Finanční krizi překonáte a nemáte zapotřebí se zadlužit.",
        "relationships": "Dnes byste si rádi dali do pořádku účty a faktury, které se vám kupí v šuplíku. Když najdete chvilku, dejte se do toho.",
        "health": "Rádi vaříte, ale také si rádi necháte uvařit. Děti vám nachystají víkendovou večeři, která bude překvapivě výborná.",
        "tips": "Uspořádání faktur a účtů, urovnání rodinných sporů, večeře s dětmi, odmítnutí nevýhodných půjček, partnerské vztahy."
    },
    "cancer": {
        "main": "V sobotu vás čeká velký úklid. Celý týden jste byli pracovně vytíženi a nakupilo se vám spoustu domácích prací. Jestli vás zlobí děti, dejte jim do ruky vysavač a prachovku, ať se starají o své království sami. Večer si budete léčit namožené svaly.",
        "love": "Partner vás nenechá na holičkách a splní vám všechna přání. Večer můžete strávit v příjemném objetí u televize.",
        "work": "Jestliže musíte v sobotu do práce, nebude se vám ráno dobře vstávat. Jste unavení a rozlámaní. Po práci budete spěchat domů.",
        "relationships": "Ratolesti mají roupy, a tak jediné, co na ně dnes platí, je zapojit je do úklidu nebo je vyzkoušet třeba z matematiky.",
        "health": "Na namožené svaly pomůže chladivý gel nebo aromatická koupel. Na migrénu raději studený obklad a správný pitný režim.",
        "tips": "Aromatická koupel, masáže, školní povinnosti s dětmi, nenáročná literatura, domácí úklid, nákupy, pracovní povinnosti."
    },
    "leo": {
        "main": "Zajímá vás vše, co proběhne médii, ale nejste z toho příliš moudří. Informací je hodně a vaše mysl si potřebuje po náročné době také odpočinout. Pokud dnes můžete, odpočívejte a dejte přednost třeba nenáročným filmům. Jedině tak ulevíte přetížené hlavě.",
        "love": "S miláčkem si konečně najdete chvilku sami pro sebe. Večer a noc se povede a oba budete mít opět pocit, že jste si souzeni.",
        "work": "Sobotní dopoledne bude klidné, jen se přesvědčte, že máte zaplacené všechny účty a složenky, abyste něco nezanedbali.",
        "relationships": "S dětmi a partnerem dnes máte chuť podniknout něco zajímavého. Ve vašem okolí objevíte místo, kde se vyžijete všichni.",
        "health": "Zdravý pohyb je určitě na místě a udělá vám dobře. Dávejte si pozor na drobné úrazy, které vám mohou přinést nepříjemnosti.",
        "tips": "Rodinné aktivity, romantický večer s partnerem, výjimečná večeře, sportování s dětmi, sledování rodinných filmů, cvičení."
    },
    "virgo": {
        "main": "Sobota vám přinese úlevu od pracovních povinností. Užívejte si pohody v partnerském vztahu, dlouho vám nebylo spolu tak dobře. Protějšek vás zřejmě vezme i na delší procházku a vy si budete připadat jako v začátcích vašeho vztahu. Dnešek si užijete.",
        "love": "Poslední květnové dny se k vám do ložnice vrací romantika a touha. Jste vděční, jelikož to v minulých dnech nebylo ono.",
        "work": "Pakliže na vás dnes čekají nějaké povinnosti, pak pouze péče o domácnost. Nemusíte nikam spěchat, je před vámi ještě neděle.",
        "relationships": "Příjemné potěšení vám nachystají ostatní členové rodiny, kteří přispěchají na pomoc v domácnosti nebo na zahradě.",
        "health": "Rádi byste na partnera udělali dojem svým vzhledem, novým účesem nebo oblečením. Vhodnou inspiraci najdete na internetu.",
        "tips": "Nákupy na internetu, úklid domácnosti nebo zahrady, společné práce s rodinou, romantické zážitky s partnerem, volný program."
    },
    "libra": {
        "main": "Ráno si přispíte tak dlouho, jak vám to rodina dovolí. Díky tomu budete výborně naladěni a ochotni absolvovat odpoledne i náročnější program s dětmi. Výlet na kolech vám provětrá hlavu a pročistí plíce. Pokud máte možnost, vyrazte s přáteli na večeři.",
        "love": "S partnerem vyrazíte do města na večeři s přáteli, které jste neměli možnost dlouho vidět. Budete se moc dobře bavit.",
        "work": "Máte nějaké finance k dispozici navíc a přemýšlíte, zda je investovat, nebo nechat na účtě. Investice do vzdělání se vyplatí.",
        "relationships": "Děti vám dělají radost a jsou s vámi trpělivé. Těší se celý týden na výlet na kolech a vy nemáte nejmenší důvod to nesplnit.",
        "health": "Čas, který dnes strávíte na čerstvém vzduchu, bude k nezaplacení. Osvěžíte se, odreagujete a večer padnete do peřin.",
        "tips": "Výlet na kolech s rodinou a dětmi, večeře s partnerem a přáteli, dlouhý spánek, snídaně do postele, bylinná koupel."
    },
    "scorpio": {
        "main": "Státní zaměstnanci a pracovníci v bezpečnostních službách mají alespoň pro dnešek v práci klid. Nic zvláštního se neděje a vám nevadí přijmout nenáročné úkoly, převážně kancelářského charakteru. Na nic jiného byste se dnes stejně nemohli soustředit.",
        "love": "Sexuální nestálost a divoké fantazie vám znemožňují najít vhodný a stálý protějšek. Jste přelétaví a ještě pár týdnů budete.",
        "work": "Podřízeným dnes dáte pokoj a zavřete se ve své kanceláři. Hlavou vám běhá mnoho myšlenek a nemůžete najít klid na práci.",
        "relationships": "Samota vám ne vždy úplně vyhovuje, a tak hledáte toho správného partnera na založení rodiny. Oslovte někoho na seznamce.",
        "health": "K uvolnění napětí potřebujete sport a také sexuální vybití. Zadaní Štíři to mají oproti ostatním dnes o mnoho jednodušší.",
        "tips": "Literatura faktu, sci-fi, poslech oblíbené hudby, internetová seznamka, kancelářské a administrativní práce, sport."
    },
    "sagittarius": {
        "main": "Rodiče vás pozvali na oběd a mají k tomu své důvody. Dělá jim starost vaše lehkovážnost, která vás provází celý květen. I když budete mít chuť jim vzdorovat, nechte je říct jejich názor a popřemýšlejte o něm. Nahromaděný stres vybijte fyzickým cvičením.",
        "love": "Máte dost partnerovy žárlivosti i nedůvěry rodiny. Místo hádek jim raději jděte z cesty, minimálně dnes odpoledne.",
        "work": "Stres byste mohli odehnat prací na zahradě nebo menšími opravami auta či servisem kola. Jiné práce si dnes zakažte.",
        "relationships": "Rodiče se snaží vám neustále mluvit do života a vám se to dnes zajídá. Odkývejte jim jejich názory a nehádejte se.",
        "health": "Jsou-li vašimi neřestmi alkohol a cigarety, udělejte dnes první krok k tomu, abyste jednu z nich zkusili odbourat.",
        "tips": "Oprava kola, údržba automobilu, zahradničení, fyzické cvičení, návštěva příbuzných, hledání způsobu léčení neřestí."
    },
    "capricorn": {
        "main": "Sobotu jste slíbili věnovat rodičům. Vydejte se za nimi s dobrou náladou a malou pozorností, kterou jim uděláte radost. Po delší době si užijete příjemnou návštěvu a dozvíte se mnoho překvapivých novinek z rodiny. Večer přeje romantickým zážitkům.",
        "love": "Těšíte se na dnešní večer jako malé děti. Máte nový objev a přitažlivost mezi vámi den ode dne roste. Večer bude plný vášně.",
        "work": "Odpoledne budete věnovat restům, které potřebujete dodělat do práce. Není jich naštěstí tolik a budete mít rychle hotovo.",
        "relationships": "Rodiče vás postrádali a bylo na čase se za nimi vydat. Práce není všechno, Kozorozi, občas vypněte a buďte pozorní potomci.",
        "health": "Odoláte svodům delikates a sladkostí, protože víte, že byste nabraná kila pracně shazovali dolů. Dejte si raději ovoce.",
        "tips": "Návštěva rodičů, pracovní povinnosti, romantická procházka, intimní večer s partnerem, káva ve městě nebo schůzka s přáteli."
    },
    "aquarius": {
        "main": "Jste velmi houževnaté znamení a bez sportu si neumíte představit sobotní odpoledne. Ještě vydržte, než vyrazíte do oblíbeného fitka, a zacvičte si doma. Neodmítejte pozvánku přátel na sklenku dobrého vína a proberte pikantní klepy ze společnosti.",
        "love": "Nového partnera nenajdete doma a štěstí musíte jít naproti. Není to sice vážný vztah, ale malý flirt vám zvedne sebevědomí.",
        "work": "V hobbymarketech jsou sice fronty, ale vás to od nákupu zahradnických potřeb a vybavení neodradí. Radost vám udělají květiny.",
        "relationships": "V rodině máte hlavní slovo a jste dominantní. Ostatní členové to kvitují s obdivem a nadšením. Jste to vy, kdo za vším stojí.",
        "health": "Fyzický pohyb je pro vás samozřejmostí, ale dnes cvičte doma. Přesně víte, co vám dnes bude vyhovovat, a budete spokojení.",
        "tips": "Nákup zahradnických potřeb, vybavení a sazenic. Úklid terasy, mytí auta, objednání donášky potravin, venčení pejska."
    },
    "pisces": {
        "main": "Každou sobotu se věnujete velkému úklidu domácnosti. Začněte dnes dřív, ať nepobíháte s utěrkou po kuchyni ještě ve večerních hodinách. Zamyslete se také nad přípravou zítřejšího oběda, jste výborní kuchaři a budete chtít udělat rodině radost.",
        "love": "Pro svého partnera se dnes večer hezky upravte, oblečte, použijte oblíbený parfémem. Uvědomí si, že má doma žhavý protějšek.",
        "work": "Jediné, za co dnes hodláte utrácet, je dobré jídlo a potraviny na nedělní oběd. Ostatní penízky šetřete na jiné výdaje.",
        "relationships": "Jestliže se ve vašem okolí konají farmářské trhy, vezměte rodinu s sebou, kupte kvalitní potraviny a krásnou kytici.",
        "health": "Přes veškerou sobotní námahu se cítíte skvěle a svěží, zřejmě vám prospěla manuální práce v domácnosti a minimum starostí.",
        "tips": "Velký domácí úklid, práce na zahradě nebo na terase, nákup potravin na nedělní oběd, posezení s rodinou u televize."
    }
}