{
    "aries": {
        "main": "Neděle je pro Berany start do nového týdne. Nebuďte unáhlení a raději se věnujte rodině. Ne všichni mají stejné tempo jaký vy. Odpoledne se koukněte na rodinný film nebo zvolte jiné nenáročné aktivity. Pokud cítíte šanci, kupte si los nebo vsaďte loterii.",
        "love": "Momentálně si užíváte péče drahé polovičky a toho, jak vás rozmazluje. Zřejmě máte vedle sebe tu pravou osobu.",
        "work": "Jestli milí Berani sázíte pravidelně, zkuste dnes opět štěstí. Menší výhra je na cestě a může vás potěšit. Dejte na intuici.",
        "relationships": "Potomci se nudí a jsou protivní. Máte dost trpělivosti a tak je naučíte pár triků v kuchyni. Příště budou bábovku péct oni.",
        "health": "Nenechte se strhnout k náročným aktivitám. Potřebujete nabrat sílu do nového týdne. Dávejte pozor na chlazené nápoje.",
        "tips": "Společenské hry, odpočinek, příjemná procházka, zdravá strava, lenošení, loterie, romantické chvíle s partnerem."
    },
    "taurus": {
        "main": "Konec týdne je pro vás úlevou a vy si dnes opravdu vydechnete. I v rodinném prostředí nastane klid a pohoda. Vše klape podle vašich představ a nemůžete si stěžovat. Snažte si tohle tempo ponechat i do dalších dní. Uleví se vám i vašim nejbližším.",
        "love": "Svobodní Býci mohou konečně potkat zajímavou osobu, na kterou tak dlouho čekali. Vše závisí jen na tom, jak si ji podmaní.",
        "work": "Těšíte se z klidu, který vám přinesl uplynulý týden. Nové věci jsou před vámi a vy si dnes užíváte zasloužené pohody.",
        "relationships": "Není pochyb o tom že jste dnes dobře naladěni. Kdokoliv vám dnes bude volat, pocítí vaše dobré rozpoložení po hlase.",
        "health": "V neděli se s přáteli vydáte na túru do přírody, překonáte předsudky a dáte si nové cíle. Společný koníček vám dlouho vydrží.",
        "tips": "Pěší procházky, túry v přírodě, společné záliby, setkávání se s přáteli, meditace, rozhovor s rodinou, nové cíle do příštího týdne."
    },
    "gemini": {
        "main": "Nedělní odpoledne využijte k péči o svůj vzhled. Potřebujete být odpočatí a připraveni na nový pracovní týden, a tak se vám chvíle o samotě hodí. Vyplatí se jít také včas spát. Dejte dnes vale alkoholu, raději zvolte bylinný čaj a zajímavou knihu.",
        "love": "Svobodní Blíženci můžou dnes zažít zklamání z nové známosti. To je na delší dobu odradí od dalšího seznamování.",
        "work": "Negativní myšlenky na práci se v neděli pomalu, ale jistě vytratí, a vy se opět do zaměstnání těšíte. Hlavně na kolegy.",
        "relationships": "Lenošivá neděle je to, co celá vaše rodina potřebuje. Dovolte si strávit den u televize nebo společenských her.",
        "health": "Najdete si dnes čas i na péči o pleť a vlasy. Nenecháte se nikým rušit a zkrášlující rituál si poctivě vychutnáte.",
        "tips": "Kosmetika, kadeřník, relaxace, sledování televize, společenské hry, hledání nových přátel, vynechání alkoholických nápojů."
    },
    "cancer": {
        "main": "Neděli prolenošíte doma, obklopeni dobrým jídlem, knihami nebo hraním na počítači. Vůbec vám nevadí, že se neozve žádný kamarád. Občas také potřebujete být sami se sebou a strávit celý den v pyžamu. Když večer včas ulehnete, budete zítra jako rybička.",
        "love": "Pokud jste přednedávnem ukončili vztah, dejte si čas sami pro sebe a zjistěte, co vlastně od dalšího partnera čekáte.",
        "work": "Svobodní Raci dnes mají šanci zaregistrovat se na internetové seznamce a poohlédnout se po potenciálním protějšku.",
        "relationships": "Máte lenivou náladu, a tak jediné, čemu se dnes budete věnovat, jsou knihy, časopisy a příprava pozdního oběda.",
        "health": "Pro zdraví toho dnes moc neuděláte, tak se alespoň vyhněte alkoholu. Zvyšuje krevní tlak a nešli byste včas spát.",
        "tips": "Čtení knih, dobré jídlo, hraní počítačových her, registrace na internetové seznamce, vydatný spánek, relaxace."
    },
    "leo": {
        "main": "Dnešek je jako stvořený pro aktivní odpočinek. Vychutnejte si s rodinou dobrý oběd, vyrazte na kratší procházku a načerpejte síly do nového měsíce. Odpočiňte si od médií a sociálních sítí, spíše naslouchejte potomkům. Budete překvapení, jak se cítí.",
        "love": "Je na čase vztah s drahou polovičkou něčím ozvláštnit. Příjemná hudba, dobré víno a jen vy dva, to je ideální kombinace.",
        "work": "Neděle je dnem odpočinku, a tak toho využijte i vy. Nezatěžujte si hlavu povinnostmi, které na vás čekají až zítra.",
        "relationships": "Do širší rodiny počítáte i prarodiče, se kterými máte dobré vztahy. Určitě je potěší minimálně telefonát nebo návštěva.",
        "health": "Jediné, co vám momentálně chybí, je pravidelný pohyb. To je to nejmenší, co můžete pro správnou funkci svého srdce udělat.",
        "tips": "Telefonát s rodinou, krátká návštěva prarodičů, četba, rodinný film, rozhovor s potomky, večer s partnerem, dobré víno."
    },
    "virgo": {
        "main": "Úspěšně jste dotančili do nedělního dne a na konec týdne. Přes všechny těžkosti jste si zachovali úsměv na tváři a smysl pro humor. Pomohla vám k tomu i vaše rodina, která vás dnes vzala ven. Nová známost na vás bude vyzvídat, aby vás lépe poznala.",
        "love": "V minulých vztazích jste doplatili na svoji svéráznou povahu. K nové známosti přistupujte opatrně, abyste ji nevyděsili.",
        "work": "Poslední květnová neděle je, milé Panny, předurčená k odpočinku a zábavě s rodinou nebo přáteli. Nákupní centra vynechte.",
        "relationships": "Počasí vás dnes zřejmě vytáhne ven z domu. Nechcete-li trávit čas na zahradě nebo na procházce, vyjeďte si na kole.",
        "health": "Hlídejte si, co dnes do těla dáváte. Vaše znamení je citlivé na zažívání a trávení, lehce si můžete podráždit žlučník.",
        "tips": "Jízda na kole, procházka, četba, práce na zahradě, dokončení pracovních úkolů, rodinný oběd, opatrnost ve vztazích."
    },
    "libra": {
        "main": "Je vám trochu líto, že končí pro vás tak úspěšný květen. Zároveň se těšíte, co si pro vás připraví nový týden a nový měsíc. Oddáváte se dennímu snění a prolenošíte tak neděli. Jedinou aktivitou, kterou si dnes dovolíte, bude příprava nedělního oběda.",
        "love": "Miláček má hříšné myšlenky a vám to vůbec nevadí. Naopak jste rádi, že převezme v posteli aktivitu a prozradí tajná přání.",
        "work": "Jestli i v neděli musíte do práce, zbavíte se zbylých restů a do nového týdne budete vstupovat s čistým stolem.",
        "relationships": "Manuálně zručné Váhy se dnes pustí do renovace nábytku nebo menší úprav na domě. Rodina bude obdivně přihlížet.",
        "health": "Netrpíte-li alergií na ořechy, dnes si je dejte na svačinu. Nejlepší jsou nesolené a nepražené plody mandlí nebo pistácií.",
        "tips": "Příprava nedělního oběda, renovace nábytku, úpravy na domě, dokončení pracovních úkolů, romantický večer s partnerem."
    },
    "scorpio": {
        "main": "Dlouho jste se v rodině nemohli shodnout a vztahy byly napjaté. Neděle vnáší zpět do domova klidnější atmosféru a slibuje lepší začátek pro nový týden. Je čas také napravit milostný vztah, který odnášel vaše nálady nejvíce. Večer přeje vášním.",
        "love": "Nejste-li v trvalém vztahu, pravděpodobně dnes najdete také nezadanou osobu opačného pohlaví, se kterou vám bude příjemně.",
        "work": "Hodně jste udělali pro zlepšení finančního rozpočtu, a proto si dnes můžete dopřát oblíbené lahůdky nebo nápoje. Jen dnes.",
        "relationships": "Přátelský rozhovor se sousedy vám zvedne náladu. Dlouho jste je neviděli a oni jsou také zvědaví, jak se vám daří.",
        "health": "Ztuhlé svaly a klouby povzbudí příjemná masáž. Ženám ve Štíru je doporučená zvýšená péče o pleť a pokožku celého těla.",
        "tips": "Rozhovor se sousedy, nákup lahůdek, nezávazný sex, masáž, péče o vzhled, studium, společné rodinné aktivity, romantika."
    },
    "sagittarius": {
        "main": "Máte radost, že tento měsíc končí. Natrápili jste se v zaměstnání i doma a rádi byste vykročili do nového týdne šťastněji. Nenechte se dnes nikým otrávit a ke svému okolí buďte shovívaví. Na internetu si najděte nové a zdravé recepty.",
        "love": "Máte dost toho, jak se na sebe s partnerem celý týden mračíte. Odložte neshody a zavzpomínejte na začátky vašeho vztahu.",
        "work": "Chcete-li si připravit na zítra do práce zdravý oběd nebo svačinku, musíte na nákup potravin. Udělejte si předem seznam.",
        "relationships": "Pošramocený vztah s protějškem se snažíte vyžehlit tím, že se nebudete chytat každé narážky, kterou na vás partner má.",
        "health": "Nastavení nového a zdravého jídelníčku prospěje vašemu tělu, obzvláště je dobré postarat se o játra a slinivku.",
        "tips": "Nákup potravin, příprava zdravého oběda na zítřejší den, prohlížení fotografií a videí, posezení na terase, napínavý film."
    },
    "capricorn": {
        "main": "V životech mnoha lidí jste zanechali stopu a máte velké zásluhy. Během dne vám vysekne poklonu jeden z vašich blízkých přátel. Udělá vám tím velkou radost, protože si uvědomíte, že jste pro své okolí zřejmě důležití a cenění pro svůj názor.",
        "love": "Příjemné odpoledne čeká i ty nezadané z vás. Dlouhodobí přátelé jsou jako rodina a stejně tak se mezi nimi cítíte.",
        "work": "Při kontrole účtů zjistíte, že jste na tom opravdu dobře. Dokonce vám přebývá menší obnos jako kapesné pro děti navíc.",
        "relationships": "Potomci dnes řádí se svými kamarády někde venku a vy máte klid na zajímavou knihu, která vám doma leží už několik dní.",
        "health": "Veselá mysl, půl zdraví. Když se dnes budete řídit tímto příslovím a vše budete brát s humorem, starosti samy zmizí.",
        "tips": "Setkání s přáteli, čtení knih nebo časopisů, příprava na nový pracovní týden, úprava zevnějšku, oblečení, manikúra."
    },
    "aquarius": {
        "main": "Modlíte se, aby červen pokračoval v obdobném duchu jako uplynulý měsíc. Stanovte si nové cíle a sepište si úkoly, které byste chtěli v červnu splnit. Budete mít lepší přehled o tom, kam vlastně směřujete. Nic náročnějšího dnes nepodnikejte.",
        "love": "Podnikáte s partnerem stejné aktivity a prohlubujete tak váš vztah. Při menších krizích je to pro vás záchrana.",
        "work": "Dokázali jste udržet konto v kladných číslech, můžete být právem pyšní. Odolali jste všem pochybným nástrahám a léčkám.",
        "relationships": "Společenské a vědomostní hry jsou vhodnou náhradou za domácí úkoly pro vaše děti. I tak si procvičí mozek a budou se bavit.",
        "health": "Zvláště v odpoledních hodinách můžete mít více oslabený organismus. Přidejte do stravy bylinky a vitaminy. Pijte čaje.",
        "tips": "Hry s dětmi, vědomostní soutěže, společná zábava s partnerem, návštěva kina, stanovení si nových pracovních cílů."
    },
    "pisces": {
        "main": "Volný den sice prožijete v klidu, ale už vám v hlavě běhají myšlenky i na další pracovní týden. Připravte si včas věci do zaměstnání a vyberte oblečení. Nedělní oběd s nejbližšími se vydaří, a aby se vám lépe trávilo, vyrazíte všichni na procházku.",
        "love": "Nezadaní jedinci ve znamení Ryb nemají o nápadníky nouzi ani v neděli. Telefon a sociální sítě jsou plné pozvánek na schůzku.",
        "work": "Kreativní jedinci pracují i o víkendu. Záleží na tom, kdy je přepadne múza. Patříte-li mezi ně, nápady si pečlivě zapište.",
        "relationships": "Pomocnou ruku jste ochotni podat svým blízkým vždy. Možná vás dnes osloví příbuzný s prosbou o malou finanční pomoc.",
        "health": "Osvojte si základní meditační techniky, které vám budou vyhovovat. Nahradíte jimi léky na bolest nebo deprese.",
        "tips": "Příprava oběda, procházka s rodinou nebo dětmi, výlet do města, kino, navazování nových kontaktů, příprava oblečení do práce."
    }
}