{
    "aries": {
        "main": "Začátek tohoto týdne bude šťastný pro vaše finance. Uvažujete-li o nějakých investicích do budoucna, dnes byste se měli rozhoupat k realizaci svých plánů. Také podnikatelské záměry se zdají být v těchto dnech velmi slibné. Neváhejte jedinou minutu!",
        "love": "Nezvyklý způsob seznámení bude předzvěstí jeho skvělého vývoje. Se současným protějškem se rozhodně nebudete nudit.",
        "work": "Nedávná investice se ukáže jako poměrně výhodná. Nebuďte unáhlení a počkejte, až co se k vám skutečně reálně dostane.",
        "relationships": "Doma dnes bude veselo. Pro své rozdováděné ratolesti máte nachystané překvapení, které bude výchovné a zároveň potěší.",
        "health": "Vaše energie je po víkendu na maximu, tak vás po zdravotní stránce nic nezaskočí. Do práce i sportu se vrháte po hlavě.",
        "tips": "Oběd se šéfem, dřívější odchod ze zaměstnání, preventivní prohlídka u lékaře, deskové hry, sledování pohádek s dětmi."
    },
    "taurus": {
        "main": "Na nedostatek pracovních příležitostí si zrozenci Býka nebudou moci během pondělí stěžovat. Vypadá to, že jste se konečně ve svém profesním zaměření našli. Nezaměstnaní jedinci by se dnes měli věnovat pracovním pohovorům a rozesílání životopisu.",
        "love": "Partnera berete takového, jaký je. Uvědomíte si, že nikdo není dokonalý, a tak i váš miláček má nějaké drobné mouchy.",
        "work": "V zaměstnání nevládne právě nejlepší nálada, ale vy si umíte nevlídnou atmosféru zpříjemnit. Kolegové se k vám přidají.",
        "relationships": "Večer se budete věnovat svým nejbližším a hodíte za hlavu všechny původní plány. Zejména k dětem budete vnímavější.",
        "health": "Vyhněte se románkům na jednu noc. Hlavně v případě, že si nechcete odnést pohlavní onemocnění jako nepříjemnou památku.",
        "tips": "Rozhovor s nadřízeným, pomoc příbuzným, změna zaměstnání, úklid kanceláře, posezení v cukrárně s dětmi, péče o zvířata."
    },
    "gemini": {
        "main": "V práci i v domácnosti budete puntičkářští, což se pravděpodobně nebude líbit ostatním. Do křížku byste se mohli dostat zejména s dospívajícími ratolestmi. Ty se totiž nebudou moci smířit s tím, že jim uklízíte v jejich přehledně chaotickém pokoji.",
        "love": "Bylo by velmi dobré, kdybyste partnera tolik nekritizovali. Momentálně si není úplně jistý, jestli o něj vůbec stojíte.",
        "work": "Dnes se dozvíte novinu, která by vám mohla přilepšit. Zřejmě jste uspěli při sázení nebo jste zdědili nečekaný majetek.",
        "relationships": "Své blízké potrápíte nekončícím puntičkářstvím při domácích pracích. Nemohou se vám zavděčit, ať dělají, co dělají.",
        "health": "Měli byste se vyhnout konzumaci alkoholu v dopoledních hodinách. Na zbytek dne by vás to naprosto vyřadilo z provozu.",
        "tips": "Odjezd na zimní dovolenou, výběr koníčků pro děti, nákup oblečení, úklid domácnosti, indoor golf, dětská diskotéka."
    },
    "cancer": {
        "main": "Zamilované Ráčky čeká sice vlivem přesunu Venuše do Štíra šťastné pondělí, ovšem situace připomíná spíše platonické city. Neočekávejte žádný bouřlivý program, ale spíše poklidný večer po boku partnera. Nezadaní jedinci musí počkat s vyjádřením citů.",
        "love": "Neuvědomujete si, jak s milovaným člověkem zacházíte. Partner se ve výkyvech vaší nálady poslední dobou vůbec nevyzná.",
        "work": "V práci se zdržíte mnohem déle, než očekáváte. Finance navíc ale za odvedenou práci stojí. Před Vánocemi to jinak nejde.",
        "relationships": "Dnes byste si měli najít čas na své blízké a vynahradit jim vše, co se vám v uplynulých dnech nezdařilo. Čekají na to.",
        "health": "Fyzicky jste úplně fit. Horší už je to s vaší psychikou. Ta je narušena docela neblahými vzpomínkami na uplynulé roky.",
        "tips": "Pracovní oběd, karetní hry, jazykový kurz, chatování po internetu, ruční práce, péče o pokojové rostliny, power jóga."
    },
    "leo": {
        "main": "Začátek pracovního týdne bude šťastný pro studenty a pro Lvy, kteří se neustále vzdělávají. Teoretické informace vám půjdou snadno do hlavy a lehce je také proměníte v praxi. Spokojení budou i jedinci, které v zaměstnání čeká nějaká zásadní výzva.",
        "love": "Pondělí ukončí vaši dosud tichou domácnost. Překročíte totiž práh hrdosti a přiznáte, že mnohá odpovědnost leží na vás.",
        "work": "Spolupracovníci vás mají kvůli kariérnímu růstu na mušce. Je to způsobeno vaší sólovou hrou a sebevědomým vystupováním.",
        "relationships": "Není vyloučeno, že svou domácnost rozšíříte o nějaké to zvířátko. Smutným očím ratolestí už nedokážete déle odolávat.",
        "health": "Čím méně se dnes budete psychicky přepínat, tím lépe. Neblaze na vás působí stres i nevlídné počasí a cítíte se unavení.",
        "tips": "Saunování, kolektivní práce, služební cesta, rande, posezení v kavárně, rozhovor s partnerem, teplá rodinná večeře."
    },
    "virgo": {
        "main": "Merkur v alongaci Slunce je příznivý pro pracovní záležitosti. Všechno vám jde na ruku - kolegové v práci, obchodní partneři i nadřízení. Nebudete mít nouzi o zajímavé příležitosti, při nichž ukážete, jaký potenciál se ve vás skrývá. Povýšení máte na dosah.",
        "love": "Vůči opačnému pohlaví si dnes připadáte neuvěřitelně sexy a žádoucí. To vaše šance na úspěch při seznamování stupňuje.",
        "work": "Při dnešním nakupování dárků pod vánoční stromeček získáte výrazné slevy. Vsadíte totiž na své dobré kamarády a známé.",
        "relationships": "Blízkých se dnes dotkne váš pozdní příchod domů. Zapomeňte proto na přesčasy v zaměstnání a trávení večera u kamarádů.",
        "health": "Stresové situace v práci vám dají zabrat. Projeví se to na vnitřním rozladění i zažívacích potížích. Dopřejte si spánek.",
        "tips": "Dopolední návštěva fitness, preventivní prohlídka u zubaře, procházka se psem, chatování, nákup elektroniky, investice."
    },
    "libra": {
        "main": "Planety vám dnes vytvářejí ideální podmínky pro kariérní růst. V zaměstnání zapůsobíte na správných místech a chopíte se projektů, které slibují povýšení nebo alespoň finanční přilepšení. Zdá se, že máte nos na to, jak se dostat k tučnému výdělku.",
        "love": "Uvědomíte si, že vztah není o soutěžení v oblasti financí ani kariérních úspěchů. Budete spolu bojovat naprosto jinak.",
        "work": "Vaše netradiční nápady konečně padnou na úrodnou půdu. Když v aktivitách vytrváte, brzy za sebou uvidíte první výsledky.",
        "relationships": "Se svým okolím vycházíte perfektně. Sváteční atmosféra vás celkově zklidnila a naplnila vás skoro všeobjímající láskou.",
        "health": "Hektické tempo v práci vás psychicky unaví. Večer můžete být nevrlí a podráždění. Najděte aktivitu, kterou se uklidníte.",
        "tips": "Flirtování v zaměstnání, rezervace vstupenek na koncert, randění, netradiční sportovní aktivity, administrativní práce."
    },
    "scorpio": {
        "main": "Co se lásky týká, čeká vás jeden z nejúspěšnějších dnů tohoto roku. Partneři k sobě budou v komunikaci otevřenější a nebudou se hádat kvůli maličkostem. Také rodinné zázemí a harmonický vztah pro vás najednou představují nepostradatelnou jistotu.",
        "love": "Protějšek vám dá najevo, co všechno se mu na současné podobě vašeho soužití nelíbí. Byl by rád, kdyby se to změnilo.",
        "work": "Dokážete skloubit péči o děti i budování kariéry. Nemůžete si na nic stěžovat, byť vám odpoledne budou docházet síly.",
        "relationships": "Uvažujete o založení rodiny, ale nejste si jisti, zda jste na to dostatečně připraveni. Ratolest na cestě vás připraví.",
        "health": "Duševní hygienu byste během dne neměli podceňovat. Jestliže si na sebe nenajdete dost času, můžete podlehnout stresu.",
        "tips": "Firemní večírek, zajištění hlídání pro děti, nákup kosmeticky a oblečení, žehlení, vyřizování e-mailů, kalanetika, milování."
    },
    "sagittarius": {
        "main": "Práci byste hned v začátku týdne měli hodit za hlavu a věnovat se raději příjemnějším činnostem. Dnešek je ideální dobou pro rozvíjení vašich koníčků i hledání nových volnočasových aktivit. Při nich se seznámíte se zajímavými lidmi a odreagujete se.",
        "love": "Nikdo vás nebude tlačit do věcí, které vám nejsou po chuti. S partnerem si dopřejte, co je libo. Ví, kam až může zajít.",
        "work": "Potřebujete-li finančně vypomoci, obraťte se na své kamarády. Nemají sice miliony, ale založit vás přece jen zvládnou.",
        "relationships": "S blízkými si dopřejte naprostý odpočinek v teple domova. Uděláte něco dobrého na zub a zahrajete si spolu deskové hry.",
        "health": "Dnes byste neměli podceňovat ústní hygienu. Bolest zubů navíc ihned řešte se svým lékařem, než se ještě více zhorší.",
        "tips": "Přesčas, vaření, hledání přivýdělku, závěrečné zkoušky, nákup hraček, vyřizování dokumentů, cestování MHD, aerobic."
    },
    "capricorn": {
        "main": "Velmi plodná pracovní setkání dnes podporuje Merkur v alongaci Slunce. Čekají-li vás obchodní schůzky, měli byste se na ně pečlivě připravit. Diplomatické jednání a opatrnost v komunikaci byste neměli podcenit. Jsou zárukou vašich pozdějších úspěchů.",
        "love": "S partnerem se dohodněte, jakou cestou se společně chcete ubírat. Budoucnost strávená ve dvou se vám nyní sama otevírá.",
        "work": "Vaše největší síla tkví v umění komunikace. Připojíte-li k tomu bohaté pracovní zkušenosti, nemůžete o sobě pochybovat.",
        "relationships": "Pondělí vypadá slibně zejména pro pracovní vztahy. Na ty soukromé už vám pak bohužel nezbývá tolik času ani energie.",
        "health": "Začnete s pohybovou aktivitou, která na vás bude působit i psychicky. Jóga či pravidelné běhání vám ukážou novou cestu.",
        "tips": "Žádost o pomoc kolegů, odjezd na hory, podání výpovědi, návštěva divadla, procházka přírodou, nákup vánočních dárků."
    },
    "aquarius": {
        "main": "Na druhé budete dnes působit sebejistě a ambiciózně. Ulehčí vám to komunikaci s autoritami i důležitá obchodní jednání. Vodnáři pracující v umělecké sféře budou svobodomyslnější než jindy. Bohatá fantazie ani originální nápady vám dnes nescházejí.",
        "love": "Protějšek nebude nejlépe naladěn, ale vy jste přesvědčeni o tom, že mu úsměv na tvář vrátíte. Zkuste mu víc naslouchat.",
        "work": "K práci se dnes budete stavět opatrně a raději ji přehodíte na druhé. Snažíte se ulít z pracoviště, jak to jen půjde.",
        "relationships": "Nejlépe se budete cítit ve volnomyšlenkářské společnosti, která vás nezavazuje žádnými pravidly. Kamarádi vám rozumějí.",
        "health": "Spokojené partnerství vám vrátí na tvář upřímný úsměv. Pozitivní myšlení bude mít dobrý vliv také na upevnění zdraví.",
        "tips": "Půjčení knih a časopisů, oběd u rodičů, nákup doplňků do domácnosti, manikúra, večerní posezení s rodinou, kino, zpěv."
    },
    "pisces": {
        "main": "V jednání s druhými lidmi byste se měli pokusit o větší racionalitu. Dnes vás velmi ovládají emoce, takže byste se mohli uchýlit k nějakému nerozumnému rozhodnutí. Čím méně se budete rozčilovat, tím lépe. Ani přílišné poblouznění nebude výjimečné.",
        "love": "Co se navazování nového přátelství týče, buďte dnes velmi opatrní. Nikdy nevíte, jakého člověka jste právě potkali.",
        "work": "Přesčasové hodiny vám umožní pořídit vánoční dárky, které by jinak zůstaly jen na úrovni přání. Dobře si to rozmyslete.",
        "relationships": "Pondělí ve vás probudí skryté dítě a dá průchod vašim emocím naplno. Odpoledne si užijete, jako by vám bylo znovu -náct.",
        "health": "Pravidelná sportovní aktivita vylepší fyzickou i psychickou kondici. Sami na sobě dnes ucítíte první příznivé výsledky.",
        "tips": "Rutinní plnění povinností, práce se dřevem, posezení v kavárně, aerobní cvičení, nákup přes internet, pilates, bosu."
    }
}