{
    "aries": {
        "main": "Ve vaší duši zavládne vlivem adventu klid, a i když máte chuť někomu vynadat, hned pomyslíte na následky. Místo toho se zachováte noblesně, z vypjaté situace vykličkujete a zvrátíte ji ve svůj prospěch. Získáte důvěru dotyčného a navážete plodný vztah.",
        "love": "Pokusíte se urovnat vše, co stojí v cestě bezproblémovému vztahu. Letošní Vánoce můžete pojmout jako svátky smíření.",
        "work": "Vaše pracovní úsilí bude přinášet rychlé plody. K úspěchům je třeba i kapka štěstí, a tu vy teď máte. Hvězdy vám fandí.",
        "relationships": "Na běžné domácí práce dnes úplně rezignujete. Všední šeď vůbec nevnímáte, v hlavě máte jen lásku a romantické zážitky.",
        "health": "Měli byste počítat s občasnými bolestmi kloubů a šlach. Myslete na to zvláště při sportování, nesnažte se trhat rekordy.",
        "tips": "Klidová meditace, kreativní práce, romantický večer s partnerem, odpočinek u televize, zdobení cukroví, běžné nákupy."
    },
    "taurus": {
        "main": "Ve vztahu začnete cítit větší vřelost. Před milostnými rekordy dnes dáte přednost důvěrnému partnerskému popovídání. S úlevou se svěříte se svými starostmi, a rychle se tak dostanete do ztracené pohody. Od intimity pak už bude jen krůček k něžnostem.",
        "love": "Dlouhodobé páry snadno najdou společnou řeč. Co by jindy pravděpodobně skončilo hádkou, vyústí v ochotný kompromis.",
        "work": "Pracovně nebude úterý nijak výjimečným dnem. Na žádné přepadovky nadřízených s přísunem akutních úkolů to dnes nevypadá.",
        "relationships": "Sezvete rodinu a ujasníte si praktický provoz domácnosti. Nebojte se rozdělit kompetence, větší tým toho více zvládne.",
        "health": "Vaše záda volají o pomoc. Tělo nebylo stvořeno ke strnulému sezení. Pár minut na protažení v práci jistě vyšetříte.",
        "tips": "Otevřený rozhovor s partnerem, návštěva rodinné poradny, čtení knih a časopisů, společenské hry a malování s dětmi."
    },
    "gemini": {
        "main": "V oblasti lásky můžete být trochu nejistí. Někteří jedinci zjistí, že mají s partnerem víc rozdílných názorů, než se původně zdálo. Nezoufejte a zkuste se smířit s realitou, která není zdaleka tak krutá. Říkejte si, že protiklady se prostě přitahují.",
        "love": "V soukromí dnes bude chybět jiskra, která dává podnět k milostným chvílím. Nezoufejte, o to víc si to užijete příště.",
        "work": "V práci dnes budete udržovat jenom takové tempo, abyste okatým zahálením nepřitáhli nežádoucí pozornost nadřízeného.",
        "relationships": "Ozve se příbuzný, se kterým nemáte nejlepší vztahy. Blíží se ale svátky dobré vůle, a tak s ním budete jednat přívětivě.",
        "health": "Koukejte se dnes bedlivě pod nohy. Vaše pohybová koordinace totiž mírně pokulhává, a to i bez jediné skleničky alkoholu.",
        "tips": "Meeting se šéfem, vánoční nákupy, návštěva přátel nebo sauny, dobrý oběd, odpočinek v sauně a ve vířivce."
    },
    "cancer": {
        "main": "Měli byste se zamyslet nad tím, zda jste opravdu nezávislí na partnerových názorech. Možná vás ovlivňují natolik, že raději vycouváte i z něčeho, o čem jste byli přesvědčeni. Věřte si, naslouchejte své intuici a hlas ostatních berte jen jako poradní.",
        "love": "Budete přecitlivělí. Máte sklon vidět všechno černobíle, včetně vztahů. Můžete tak být k okolí snadno nespravedliví.",
        "work": "Řešení vleklých finančních záležitostí by se mohlo zvrtnout. Zachovejte klid a nenechte se strhnout ke zbrklým krokům.",
        "relationships": "Problémy vám bude dělat tvářit se mile na lidi, které nemusíte. Přetvařování vám zkrátka nejde, ať se snažíte sebevíc.",
        "health": "Stresu dnes odoláváte celkem zdatně. Přesto uděláte nejlépe, když si vyhradíte pár nerušených chvilek jenom pro sebe.",
        "tips": "Dokončování pracovních úkolů, vánoční porada s kolegy, odpolední lenošení s partnerem, rande, akce pro nezadané."
    },
    "leo": {
        "main": "V lásce vám bude všechno klapat, horší už to ale bude v zaměstnání, kde nebudete moci najít společnou řeč vlastně s nikým z kolegů. Nebojte se hledat jiné způsoby komunikace, které vám umožní nastolit zase znovu u vás v zaměstnání více harmonie.",
        "love": "Ve vztazích budete dost lehkomyslní, nepřipouštíte si možné následky. Nezadaným se rýsuje naděje na milostný románek.",
        "work": "Pokud do zaměstnání nedorazíte včas, zpoždění už budete jen těžko dohánět. Skluz bude třeba řešit přesčasovými hodinami.",
        "relationships": "Měli byste být méně důvěřiví až naivní. Dnes si nedáváte pozor na to, jaké typy lidí se snaží vlichotit do vaší přízně.",
        "health": "Jestliže se dnes bez zábran vrhnete do milostných dobrodružství, odnesete si památku v podobě choulostivých obtíží.",
        "tips": "Resty v zaměstnání, práce s moderní technologií, nákupy přes internet, kolektivní zábava, večerní rozmazlování partnera."
    },
    "virgo": {
        "main": "Dostanete se ke studiu duchovních nauk. Dojdete při tom k poznání, které patrně ovlivní váš hodnotový žebříček. Bude vás to táhnout i k mystickým budovám a místům. Nabízí se návštěva kostela, k rozjímání poslouží i procházka tichou zimní přírodou.",
        "love": "Vrtá vám hlavou, jestli k vám partner chová stejně vřelé city jako vy k němu. Nejlepší bude, když se ho zeptáte přímo.",
        "work": "Budete se potýkat s nedostatkem času. Pořád vám připadalo, že ho máte nadbytek, a najednou vás začnou tlačit termíny.",
        "relationships": "Potřebujete cítit, že vás berou takové, jací jste. Zkoušíte jednat bez jakékoliv přetvářky a pozorujete, co to udělá.",
        "health": "Klíčem ke zdraví duše i těla je relaxační cvičení a dostatečný spánek. Dnes je příhodné s tím začít a hlavně vytrvat.",
        "tips": "Telefonáty s blízkými, vánoční nákupy pro radost, cvičení jógy nebo meditace, návštěva kostela, čtení duchovních knížek."
    },
    "libra": {
        "main": "Váhy dostojí své pověsti a budou ještě nerozhodnější než obvykle. Může vás to vést k větší závislosti na mínění okolí. Uran v Býku radí, abyste se rozhodovali pouze na základě vlastních požadavků. S důsledky svých rozhodnutí budete žít vy, ne ostatní.",
        "love": "Ve vztahu to na žádnou velkou idylku nevypadá. Partner nebude příliš vstřícný a vy mu také v této době nic nedarujete.",
        "work": "Nesoulad v partnerském vztahu vás tíží, ale díky pohodě na pracovišti si rychle spravíte chuť. Budete jako vyměnění.",
        "relationships": "Rutina v zaměstnání vám poleze na nervy. Představa, že něco podobného vás čeká i doma, vás nutí přehodnotit dělbu práce.",
        "health": "Věnujte větší pozornost kůži, mohla by trpět drobnými lišeji a pupínky. Dobrou prevencí bude popíjení čistících čajů.",
        "tips": "Práce v kolektivu, vyřizování administrativních záležitostí, důležitý rozhovor s partnerem, návštěva vánočních trhů."
    },
    "scorpio": {
        "main": "Vaše erotická žádostivost bude opět v normě. Ovzduší v lásce získá jinou kvalitu. Už nebudete mít pocit, že jste s partnerem hlavně milenci. Můžete teď věnovat plnou pozornost i jeho slovům. Když dokážete, že umíte naslouchat, vztah to jenom posílí.",
        "love": "Netajíte se radostí z pracovních úspěchů. Partner vám je upřímně přeje, ale může si připadat méněcenný. Pochvalte ho!",
        "work": "V zaměstnání jste dnes za hvězdu i mezi svými kolegy. Ocení vaši schopnost spolupráce a nezištnou snahu vždy pomoci.",
        "relationships": "Ruku ke smíru vám nabídne příbuzný, od kterého byste to nikdy nečekali. S radostí přijmete a obnovíte vzájemné vztahy.",
        "health": "V rámci prevence vážnějších chorob si všímejte i trávicích zvláštností. Ale všeho s mírou, ať nepropadnete hypochondrii!",
        "tips": "Setkávání se s kamarády, flirtování, oslavy a večírky, libovolný program s partnerem, návštěvy, večeře v restauraci."
    },
    "sagittarius": {
        "main": "Druhý pracovní den si na vás vybere nemalou daň. Nedodělky z minulého týdne a kopec úkolů z vás vysají většinu energie. Až přijdete znavení domů, naštěstí se o vás postará laskavý partner. Oplácí vám tím láskyplnou péči, kterou mu neustále věnujete.",
        "love": "Do vašeho partnerského vztahu začne rýpat někdo ze starších příbuzných. Urychleně mu vysvětlíte, že je úplně mimo.",
        "work": "Dnes se povinnosti nakupí a přerostou vám přes hlavu. Nebojte se požádat o výpomoc kolegy, však vám mají co vracet.",
        "relationships": "Udělejte si dnes večer černou hodinku. Stmelíte tím rodinu a i ti nejostýchavější členové se začnou pomalu svěřovat.",
        "health": "Vaše krční páteř dnes zaprotestuje. Zatuhnutí je důsledkem trvalého přetěžování. Zauvažujte o odborné rehabilitaci.",
        "tips": "Spoření a kontrola rodinných financí, péče o domácí mazlíčky, návštěva veterináře, povídání s rodinou, odpočinek vleže."
    },
    "capricorn": {
        "main": "Budete nuceni více se zajímat o otázky spravedlnosti. Štěstěna přeje právním záležitostem uvnitř rodiny, ani ty vztahové ale nepřijdou zkrátka. Veškeré spory v rodině by se měly vyhladit k všestranné spokojenosti. Před Vánoci to bude zvlášť vítané.",
        "love": "Hodnotit lidi podle prvního dojmu bývá krátkozraké. Z člověka, který působil nepřístupně, se vyklube příjemný společník.",
        "work": "Na pracovišti se s vámi dnes pokusí sblížit člověk, který se dosud choval spíše zdrženlivě. Jeho zájem vám zalichotí.",
        "relationships": "Zkuste v tento den vsadit na otevřenou komunikaci a promluvte si s nejbližšími o věcech, které vás trápí. Uleví se vám!",
        "health": "Hvězdy napomáhají udržet si vnitřní rovnováhu organismu. Nezatěžujte tělo zbytečně chemií a doplňujte přírodní vitaminy.",
        "tips": "Drobné domácí opravy, dokončení posledních pracovních úkolů, příprava plánu na příští rok, aktivní i pasivní odpočinek."
    },
    "aquarius": {
        "main": "Naskytne se vám dostatek příležitostí pro partnerskou nevěru. Bude záležet na vaší výchově a dalších aspektech, zda románek podstoupíte. I jeho reálná možnost pošimrá vaše ego. O to víc doceníte nesporné kvality partnera a zatoužíte dát mu to najevo.",
        "love": "Nenechte se zlákat nevěrou a buďte svému milovanému partnerovi věrní. Budete hořce litovat, pokud podlehnete a ztratíte ho!",
        "work": "Nemračte se na své podřízené ani nadřízené. I když vám není do smíchu, mírný úsměv by se vám podařit mohl a pomůže všem.",
        "relationships": "Dnes vám nedělá problém oslovit sympatické jedince, které neznáte. Jindy byste se k prvnímu kroku odhodlávali dlouho.",
        "health": "Výjimečně poslechnete své tělo a nebudete je přepínat. Při sportu přihlédnete ke svému současnému zdravotnímu stavu.",
        "tips": "Doladění podkladů pro šéfa i kolegy, povídání a usmiřování se s rodinou, návštěva aquaparku či kluziště, kino, relax."
    },
    "pisces": {
        "main": "Budete se snažit pojmenovat, v čem je rozdíl mezi vámi a vašimi přáteli. Může vám vrtat hlavou, jak si můžete tak dobře rozumět, když se jedná o různé osobnosti. Přijdete na to, že v obecném náhledu na život se shodujete. Jste zkrátka na stejné vlně.",
        "love": "Do citových výlevů se nenuťte, nebylo by to k ničemu. Využijte den k důvěrným rozhovorům, na které jindy nezbývá čas.",
        "work": "Vyplatí se zkontrolovat, zda jste uhradili všechny účty. Zapomenutá složenka by se vám mohla velmi nemile připomenout.",
        "relationships": "Rodina vás dnes mile překvapí svou iniciativou v domácích pracích. Snažte se toho využít k dlouhodobější strategii.",
        "health": "Buďte opatrní při zacházení s elektrickým proudem. Manipulaci s vánočními žárovičkami možná raději svěřte partnerovi.",
        "tips": "Přemýšlení a hovory o životě, návštěva kostela, meditace, jóga, dlouhá procházka přírodou, setkávání s moudrými lidmi."
    }
}