{
    "aries": {
        "main": "V pracovním kolektivu se dnes cítíte přebyteční, ale neděláte si z toho těžkou hlavu. Ubylo vám povinností a můžete se věnovat osobním záležitostem. Brouzdání po internetu vám přinese zajímavou novinku, kterou se rozhodnete co nejdříve vyzkoušet.",
        "love": "Rozdáváte komplimenty na všechny strany. Můžete zažehnout jiskru zájmu i u osoby, u níž byste si to raději odpustili.",
        "work": "Hřeje vás pomyšlení, že na Vánoce odejdete s čistým stolem. Nebudete si je muset kazit myšlenkami na kupu nedodělků.",
        "relationships": "Přestože pro některé z vašich blízkých je domov poslední útočiště, budete na ně čekat s otevřenou náručí děj se co děj.",
        "health": "Tělo bude pozitivně reagovat na jakoukoliv péči. Jako první se to odrazí na vaší psychice. Budete překvapivě zklidnění.",
        "tips": "Oběd s nadřízeným a kolegy, práce přes čas kvůli nedodělkům, náročné sportovní aktivity, hry s dětmi, balení dárků."
    },
    "taurus": {
        "main": "Ve čtvrtek už se budete naplno těšit na svátky. Pro mnohé Býky bude dnešní den posledním pracovním dnem, v pátek jste si vzali volno a povinnosti v zaměstnání necháte úspěšně za sebou. Potěší vás setkání s přáteli, příjemné návštěvy i rodinné procházky.",
        "love": "Jste-li single, můžete dnes narazit na člověka, který vás velmi zaujme. A to nejspíše doslova - na přeplněném chodníku.",
        "work": "Upřímně řečeno se už těšíte, že si od svých spolupracovníků na pár dnů odpočinete. Občas vás přepadají ponorkové stavy.",
        "relationships": "Manuální práce vás zbaví přebytečného napětí. Jako bonus budete mít umytá okna nebo vyleštěné podlahy v celém bytě.",
        "health": "Dnes vám udělá nejlépe, když se řádně zregenerujete po celém dny i roku. Dejte pracovnímu vypětí vale ve velkém stylu.",
        "tips": "Plánování vhodných investic, konzultace s finančním odborníkem, návštěva psychologické či partnerské poradny, meditace."
    },
    "gemini": {
        "main": "Při pohledu do peněženky nebo na účet dnes s potěšením zjistíte, že jste na tom stále dobře. Ani předvánoční nápor nesrazil vaše finance na nulu. Vy už budete určitě vědět, jak si ještě s penízky poradit. Možná zvážíte i nějaký ten dárek do obálky.",
        "love": "Ani řešení vztahových problémů vás teď nebudete stát příliš úsilí. Dokážete vyjádřit, o co vám jde, a jít k jádru věci.",
        "work": "Jste duchem nepřítomní. Nezadělejte si na nepříjemnosti tím, že zmeškáte důležitý termín. Dostaňte se zpátky na zem.",
        "relationships": "Neschází vám empatie ani chuť pomáhat. Neděláte to pro dobrý pocit, ale proto, že jste přesvědčeni, že je to nezbytné.",
        "health": "Oprostíte-li se od negativních emocí, žádné potíže vás dnes trápit nebudou. Momentálně je nejvíce zatížena vaše hlava.",
        "tips": "Účetnictví, hledání nových možností výdělku, porada s blízkými, samostudium, četba odborné literatury, domácí samoléčba."
    },
    "cancer": {
        "main": "Pracovní povinnosti budou neúprosné. Víte, že je za vás nikdo neudělá. Vaše zodpovědnost je vyhlášená a někdy se obrací i proti vám. Opusťte už svou workoholickou linku, mnohé úkoly na vás v klidu počkají do nového roku. Hned se budete cítit líp.",
        "love": "Svému protějšku budete připadat podezřele zasnění. V hlavě vám dnes běží vzpomínky na krásné chvíle s vašimi expartnery.",
        "work": "V teleshoppingu dnes zaznamenáte věc, kterou opravdu nepotřebujete. Raději napočítejte do deseti, než zvednete sluchátko.",
        "relationships": "Dnes jste se probudili s horkou hlavou, vaše okolí by se mělo mít na pozoru. Držte se úsloví: dvakrát měř, jednou řež.",
        "health": "Dávejte si před svátky pozor na to, co jíte. O svátcích bude vaše tělo zatížené, tak se alespoň teď trochu hlídejte.",
        "tips": "Důležitá pracovní jednání, řešení partnerských problémů, spolupráce se zahraničím, překladatelská a tlumočnická činnost."
    },
    "leo": {
        "main": "Předvánoční sentiment se vás zatím netýká, budete naladěni úplně jinak. I po velmi vyčerpávajícím pracovním dnu vás přepadne chuť na vášnivý sex. Může se stát, že partnera maličko utaháte. Bude to ale stát za to a spánkový deficit o víkendu doženete.",
        "love": "Některý z přátel se vám svěří se svými pracovními či osobními plány. Potěší vás, že stojí o vaše rady a zkušenosti.",
        "work": "Zaznamenáte výhodnou nabídku, jak ušetřit při nákupech. Díky opatrnosti však zjistíte, že ani tato sleva není zadarmo.",
        "relationships": "Možná zjistíte, že široké příbuzenstvo plánuje v novém roce početnou sešlost. K tak obřím akcím ale máte trochu averzi.",
        "health": "Ani s blížícím se závěrem pracovního týdne necítíte únavu. Zdá se, že jste našli tajný recept na doplňování energie.",
        "tips": "Milostná vyznání a rozesílání žhavých SMS, něžnosti s partnerem, nákup v sexshopu, výběr dráždivého spodního prádla."
    },
    "virgo": {
        "main": "Budete mít pocit, že vás každý využívá, a tak se na druhé budete mračit. Pravda to ale úplně není, to vy si jen na sebe pletete bič svou nekonečnou ochotou. Každému jste připraveni pomoci a pak zjišťujete, že vám práce stojí. Chce to jinou taktiku.",
        "love": "I když budete mít na jazyku spousty výčitek, neměli byste nic podcenit, protože to tedy není rozhodně žádná cesta kupředu.",
        "work": "I když na to jinak moc nejste, dnes se rozhodnete vydat jistou částku a zkusit štěstí v loterii. Říkáte si: Co kdyby?",
        "relationships": "Dnes je vaším údělem naslouchat starostem druhých. Díky tomu si uvědomíte, jak jsou ty vaše vlastně často malicherné.",
        "health": "Nezatěžujte své trávení nárazovým množstvím potravy. Jezte častěji, ale malé porce. Hladovění je vyloženě nevhodné!",
        "tips": "Sebevzdělávání, závěrečné zkoušky nejrůznějších kurzů, rozhovor s protějškem, návštěva vinárny, squash nebo bowling."
    },
    "libra": {
        "main": "V práci vás to nebude moc bavit. Naplno si tak uvědomíte štěstí, které vám dává vaše rodina. Bez ní by vaše kariérní úspěchy ztratily smysl. Netoužíte po ničem jiném, než se dostat brzy domů a konat přípravy, aby v neděli vše klaplo na výbornou.",
        "love": "Pohled na ustarané vrásky na partnerově čele ve vás vzbudí ochranitelské pudy. Vyslechněte ho, ale zdržte se pouček.",
        "work": "Vaše odhodlání dosahovat pracovních cílů bude velké, Luna by vám ale mohla udělat čáru přes rozpočet. Buďte ostražití.",
        "relationships": "Těšíte se domů jako už dlouho ne. Cestou z práce proběhnete obchody a každému z rodiny obstaráte něco dobrého na zub.",
        "health": "Můžou vás zaskočit nepříjemné bolesti v oblasti bederní páteře. Dobře vám udělá suché teplo a odborná uvolňující masáž.",
        "tips": "Dřívější odchod ze zaměstnání, nákupy cestou domů, pracovní aktivity v domácnosti, večerní zhlédnutí rodinného filmu."
    },
    "scorpio": {
        "main": "Neměli byste se stydět za menší potřeby milostného vyžití. Má to i své světlé stránky, vůči jakémukoliv dobývání ctitelů či ctitelek dnes zůstáváte imunní. Lichotky a obletování se míjí účinkem. Díky tomu budete mít plnou kapacitu věnovat se rodině.",
        "love": "Budete se cítit vyrovnaní jako už dávno ne. V práci ani doma se dnes nikomu nepodaří připravit vás o dobrou náladu.",
        "work": "V práci to pošlape skoro samo. Budete si blahořečit, že jste si před náročným závěrem roku včas napracovali do zásoby.",
        "relationships": "Vaše dominantní chování je v těchto dnech na ústupu. Jste otevření vůči názorům druhých a neváháte se jimi inspirovat.",
        "health": "Začnete-li dnes s pravidelným pohybem, dostanete se rychle do formy. Tukové úbytky na těle budou rychleji znatelné.",
        "tips": "Moderní formy cvičení, nákup permanentek na příští rok, vylepšování vzhledu i fyzické kondice, večerní chvíle s rodinou."
    },
    "sagittarius": {
        "main": "V rodině se moc neohřejete, nebudete to pracovně stíhat. O to víc budete potěšeni přátelskou atmosférou na pracovišti. Zosnujete nákup dárku pro šéfa, který se hned začne tvářit přístupněji. Ohledně pracovního tempa pak bude mnohem shovívavější.",
        "love": "Dokážete smířit znepřátelené strany. Je to marné, pod palbou vašich argumentů nikdo neobstojí. Nakonec si podají ruce.",
        "work": "S překvapením zjistíte, že vaše finanční toky nějak vysychají. Zkuste zauvažovat, jak si v příštím roce přivyděláte.",
        "relationships": "Doma si vytvoříte atmosféru vhodnou k uspořádání myšlenek. Rodina bude mít pochopení a chodit kolem vás po špičkách.",
        "health": "Odoláváte sezonním nachlazením, chronické záněty nosu a mandlí mohou odeznít. Ale nespoléhejte na to a nezapomeňte šálu!",
        "tips": "Dokončování prací v zaměstnání, oběd s nadřízeným a spolupracovníky, posezení s přáteli, domácí lenošení, meditace."
    },
    "capricorn": {
        "main": "Atmosféra v rodině vám bude dělat jenom radost. Prim bude hrát vzájemná obohacující komunikace. Můžete se těšit na velmi naplňující a originální rozhovory, společné nápady a neobyčejné porozumění. Pokud jste stále něco řešili, teď se snadno shodnete.",
        "love": "Rýpání vašeho partnera vám dnes lehce pocuchá nervy. Snažíte se situaci přejít mlčením, ale vaše trpělivost má své meze.",
        "work": "Hvězdy přejí novým začátkům. Pracovní pohovory, nástup na nové místo, zahájení podnikání - to všechno zavání úspěchem!",
        "relationships": "Doma si po dlouhém čase promluvíte z očí do očí a konečně se před svátky pročistí vzduch. Už se nemůžete dočkat odpočinku.",
        "health": "Vaše tělo je dnes náchylné k tomu, aby se upjalo na nějakou berličku. Může to být blízký člověk, ale třeba také alkohol.",
        "tips": "Obchodní schůzky a jednání, rozhovor u rodinného stolu, společenské hry, telefonát rodině, velký nákup, holdování zálibám."
    },
    "aquarius": {
        "main": "Bude vám trochu podezřelé, že vás váš idol miluje tak intenzivně. Vy zůstáváte stále trochu chladní. Vrtá vám hlavou, v čem jste pro něj tak přitažliví. Věřte více svým osobním kvalitám a jednoduše si to užívejte. Minimálně pro něj jste k pomilování.",
        "love": "Kamarádství dnes může snadno přerůst v lásku. Kapka alkoholu vašemu odhodlání ještě přidá. Zábrany pak zmizí úplně.",
        "work": "Vánoční atmosféra už vás dostihla. Není vyloučeno, že v práci to dnes bude jiskřit a dojde i na líbání pod jmelím.",
        "relationships": "Přej a bude ti přáno, to je dnešní motto všech vašich činů. Sobecké cíle jsou vám cizí, rodině ve všem ochotně vyhovíte.",
        "health": "Těšíte se výjimečně dobré kondici. Nad nemocemi zřejmě nebudete muset vůbec uvažovat. Imunitu přesto cíleně posilujte.",
        "tips": "Adrenalinové sporty a zábava, návštěva koncertu či diskotéky, romantická večeře při svíčkách, výběr dárku pro partnera."
    },
    "pisces": {
        "main": "Měli byste si počínat opatrně při vyjadřování náklonnosti potenciálním milencům či milenkám. Dnes překonáte vrozenou zdrženlivost a vůbec se nedržíte zpátky. Působíte víc odvážně a sexy, než jsou u vás druzí zvyklí. Ale čeho je moc, toho je příliš.",
        "love": "Je pravděpodobné, že zažijete klíčové životní setkání. Potkáte člověka, který bude mít i nadále ve vašem životě místo.",
        "work": "V práci upřímně pochválí vzorek vašeho cukroví. Není divu, vyhráli jste si. Nemusel by se za ně stydět ani mistr cukrář.",
        "relationships": "Vrátíte se do svátečně uklizeného bytu. Vaše námaha se vyplatila, cítíte se báječně. Uklidili jste si zároveň i v duši.",
        "health": "Ve vodě jste jako doma, naučte se ale snášet i tu studenou. Postupné nenásilné otužování vás zocelí na těle i na duchu.",
        "tips": "Týmová spolupráce, společenské události, kolektivní zábava, seznamování se, péče o zdraví, relaxační a zdravotní masáže."
    }
}