{
    "aries": {
        "main": "Do října vstoupíte celkem vítězně, co se týká navazování nových vztahů a lásky. Také v rodinném prostředí bude panovat klid. To se ovšem nebude týkat práce, kde to nebudete mít v prvních dnech jednoduché. Vy jste ale bojovníci a umíte s tím zacházet.",
        "love": "V tomto počátečním říjnovém týdnu by mohli mít velké štěstí především ti z vás, kteří čekají na svou příležitost v lásce.",
        "work": "V práci se vám moc dařit nebude, což je pro vás frustrující. Budete muset na pár dní teď zatnout zuby a vydržet nápor.",
        "relationships": "Budete-li mít choutky něco změnit ve vašem obydlí, nejprve si najděte nějakou inspiraci. Utříbíte si lépe názory.",
        "health": "Podzimní počasí napovídá tomu, že byste měli více dbát na správnou obuv. Je jasné, že to bude náročné.",
        "tips": "Opravy v domácnosti, výzdoba interiéru, kontrola výdajů za domácnost, poslech vinylových desek, psaní romantických básní."
    },
    "taurus": {
        "main": "Můžete si připadat jak na horské dráze. Budou momenty, které vás budou vyčerpávat a zlobit, ale také přijdou chvíle, které vám vše vynahradí. Nenechte se zviklat tím, že se vše hýbe ze strany na stranu. Naopak čerpejte z toho, co vám půjde.",
        "love": "Opačné pohlaví vás může dnes dostávat doslova do kolen. Nebude to ovšem tak, jak si myslíte. Zřejmě dochází k nedorozumění.",
        "work": "Poněkud nejistě vkročíte do nového pracovního týdne. Snažte se ale udržet si přehled, během pár dní by se vše mohlo ustálit.",
        "relationships": "Vaše intuice vás neklame. Pokud máte pochyby o někom z rodiny, jsou na místě. Možná potřebuje vaši pomoc nebo radu.",
        "health": "Potrpíte si na dobré jídlo, a tak není divu, že máte sklony přibývat na váze a oblečení vám začíná být těsné. Pozor na to.",
        "tips": "Úklid domácí pracovny, rozhovor s nadřízeným o novém projektu, četba odborných magazínu a knih, oběd ve městě."
    },
    "gemini": {
        "main": "Bude fajn, když se nyní zorientujete v tom, co vás baví a naplňuje. Čas věnujte lidem, kteří jsou vám oporou, nikoliv těm, co vám brání v rozletu. Vyřaďte ze svého života osoby, které využívají vaší dobroty a mírumilovné povahy. Je to dobré pro vás.",
        "love": "Svůj čas nyní věnujete zřejmě někomu, o kom pochybujete. To může vést později k velkému zklamání. Stůjte nohama na zemi.",
        "work": "Aktivita, se kterou se dnes pustíte do pracovních povinností, bude záviděníhodná. Máte tolik energie, která se musí projevit.",
        "relationships": "Energie, kterou se chystáte vložit do sportovních aktivit, je dobrá. Doma je jen třeba se shodnout na tom, co to bude.",
        "health": "Váš kloubní aparát je nyní opravdu v ohrožení. Praktikujte rehabilitační cvičení a nepřetěžujte zbytečně tělo v posilovně.",
        "tips": "Servis jízdního kola, kruhový trénink ve skupině, výtvarné práce s potomky, třídění fotografií z letní dovolené u moře."
    },
    "cancer": {
        "main": "Vaším hlavním tématem budou mezilidské vztahy. A to nejen v rodině, lásce, ale i na pracovišti. Zkrátka na tom musíte v tyto dny zapracovat a nebude to jednoduché. Jako velmi empatické znamení na to ale máte a není od věci se nyní více snažit.",
        "love": "Vztahy nejsou zrovna to, co vám zpočátku nového týdne půjde a z čeho byste rádi měli radost. Na pořadu dne je trpělivost.",
        "work": "Moc se vám nebudou zamlouvat příkazy nadřízených a podle toho také bude vypadat vaše konverzace s nimi. Dejte si na to pozor.",
        "relationships": "Rodinné vztahy nebudou v tomto období to, na co byste mohli být pyšní. Bohužel pro vás to bude složitější cesta.",
        "health": "Neustále bojujete se špatným zažíváním. Může to být způsobeno i dlouhodobě nevyváženým jídelníčkem. Což je chyba.",
        "tips": "Sestavení nového dietního jídelníčku, bikram jóga, meditace, návštěva odborného lékaře, účast na sportovním utkání."
    },
    "leo": {
        "main": "Věnujte své úsilí především práci, kde se vám bude dařit. Ostatní věci nyní musí jít stranou. V lásce si totiž děláte velké naděje, ke kterým je ještě dlouhá cesta. Zkuste se tedy oprostit od věcí, které vás momentálně vyčerpávají a nenaplňují.",
        "love": "Máte možná velké předsudky a děláte předčasné závěry v novém vztahu. To není ale nic, z čeho budete mít radost.",
        "work": "Práce pro vás bude velkou prioritou v tomto období, tak se snažte naplnit veškeré cíle, které jste si předsevzali.",
        "relationships": "Velká očekávání, která vkládáte do jistého člena rodiny, se dnes nemusí vůbec realizovat a budete z toho rozladění.",
        "health": "Vy se rozhodně nemusíte bát, že byste podlehli virovým onemocněním nebo byste se někde zranili. Máte výbornou fyzičku.",
        "tips": "Práce z domova, úprava životopisu, hledání zajímavé brigády v okolí bydliště, příprava oběda pro děti, procházka."
    },
    "virgo": {
        "main": "Nebojte se do nového týdne vkročit s úsměvem. Nečeká vás nic špatného, naopak. Měli byste si tyto dny užít naplno. Jestliže to bude v práci nebo v osobním životě, připravte se na dobré věci. Budete vše zvládat s přehledem a bez větších obtíží.",
        "love": "Velké události čekají na ty z vás, kteří se snažíte o nový vztah. Tam by se vám mohlo dobře dařit. Nepodceňujte seznamky.",
        "work": "Vám trocha chaosu vůbec neublíží, naopak se zorientujete velmi dobře a ostatní se jen mohou divit, jak celou situaci zvládáte.",
        "relationships": "V tomto týdnu se vám dostane podpory od vašich blízkých, kterou jste dlouho očekávali, což vás hodně potěší.",
        "health": "Pozor si v tomto měsíci dejte na záněty všechno druhu. Ať už budou bakteriální, nebo ze zranění, mohou vás ohrozit.",
        "tips": "Oprava zahradního nábytku po létě, pořízení nových učebnic pro děti, plánování zimní dovolené na horách, wellness."
    },
    "libra": {
        "main": "V milostné oblasti můžete v tomto prvním říjnovém týdnu dost bodovat. Připravte se na příval nových kontaktů a hezkých zážitků, které vás přivedou na jiné myšlenky. Především tehdy, kdy práce bude vyžadovat více vaší pozornosti, sil a energie.",
        "love": "Láska vám nyní nebude dělat potíže. Naopak budete spokojení s průběhem a možná se začne rýsovat něco nového a krásného.",
        "work": "Váš nadřízený trvá stále na svém a chce po vás skoro nemožné. Bude třeba se s tím poprat, ale nikoliv se hádat se šéfem.",
        "relationships": "Vyhledávat budete v těchto dnech odpočinek a klid. Zkuste nějaké relaxační metody a připojit se může i rodina.",
        "health": "Problémy vám mohou nyní dělat kolena, která odnášejí větší váhovou zátěž. Ulevíte si rehabilitací a pomocnými léky.",
        "tips": "Reklamace poškozeného zboží, kontrola soukromých e-mailů, luštění křížovek a sudoku, poslech oblíbené jazzové hudby."
    },
    "scorpio": {
        "main": "Nápady, které se budete snažit převést do reality v pracovní oblasti, budou skvělé. Je ale třeba je dobře odprezentovat těm lidem, kteří budou rozhodovat o jejich využití. Dejte do toho všechno a vsaďte na to kartu. Mělo by se vám to podařit.",
        "love": "Nezadaným jedincům moc v lásce štěstí nepřeje, i když to nemusí mít dlouhého trvání. Je to spíš otázka pár dní.",
        "work": "Současné období přeje dobrým pracovním nápadům a posunům v kariéře. Berte vše, co nyní život dává, plnýma rukama.",
        "relationships": "Plánování společných dní s rodinou se vám nebude dařit tak, jak jste si původně představovali. Přijdou na řadu změny.",
        "health": "Překypujete energií a není tedy divu, že se pouštíte směle do všeho po hlavě. Dávejte si jen pozor při sportování.",
        "tips": "Nákup nové elektroniky do domácnosti, generální úklid, tvorba nových webových stránek, fotografování jídla, meditace."
    },
    "sagittarius": {
        "main": "Láska vám nyní bude přinášet jen ty nejlepší okamžiky a prožitky. Nenechte se ničím a nikým odradit a na vše si udělejte nejprve svůj vlastní názor. Věřte tomu, že i někteří vaši kamarádi nebo známí vám nemusí přát to, co si vlastně přejete vy.",
        "love": "V lásce prožíváte zpočátku října jedno z nejkrásnějších období. Uvědomte si, jaké máte štěstí na svého partnera.",
        "work": "Budete se cítit unavení a bez energie, takže nový měsíc začnete v nekomfortním tempu. Nic takového vás netěší.",
        "relationships": "Vaše domácí povinnosti se vám mohou od začátku týdne opět kupit, a to kvůli tomu, že po práci býváte vyčerpaní.",
        "health": "Dávejte si pozor při chůzi, protože dnes můžete velice snadno škobrtnout a poranit si nepříjemně nohu. Takže opatrně.",
        "tips": "Stahováni e-knih do čtečky, studium nového cizího jazyka v kurzu, prodej zboží přes internetové aukce, odpočinek."
    },
    "capricorn": {
        "main": "V záležitostech lásky se dnes mohou objevit problémy, protože se mezi vámi a partnerem rozhostí nepříjemná atmosféra a dusno. Je to ovšem kvůli malicherným záležitostem, a to byste si měli uvědomit. Potom vám dojde, že je to všechno hloupost.",
        "love": "Vy a vaše nová láska můžete mít mezi sebou trošku dusno kvůli nevyříkaným, ale naprosto zbytečným malichernostem.",
        "work": "Sice se snažíte dělat vše v klidu, ale i tak tlačíte na pilu, a tak není divu, že ve výsledku s ničím nejste spokojení.",
        "relationships": "Kdosi doma si na vás plánuje zchladit žáhu, a tak to bude zkoušet celý den. Na provokace však raději nereagujte.",
        "health": "Z dlouhodobého hlediska máte výbornou fyzickou kondici, ale akutní onemocnění vás mohou nyní postihnout znenadání.",
        "tips": "Procházka po městě a fotografování, malování v plenéru, plánování víkendových aktivit s přáteli, setkání s rodinou."
    },
    "aquarius": {
        "main": "Domů z práce sice přijdete s dobrou náladou, ale zjistíte, že vaši blízcí mají také své starosti a na ty vaše jim nyní prostě nezbývá kapacita. Snažte se tedy být více empatičtí a neprosazujte se na úkor ostatních. Vyvoláte tím jen rozbroje.",
        "love": "Začátek měsíce je pro vás v lásce téměř dokonalý. Se svým novým idolem se cítíte fantasticky a nechcete žádné změny.",
        "work": "Těšit vás může zjištění, že některé z vašich plánů se dnes budou realizovat. Dejte si záležet na dobré prezentaci.",
        "relationships": "Dnes na vás vaši blízcí nebudou mít zřejmě příliš času, což vás může mrzet. Není to ale jejich záměr, jen není prostor.",
        "health": "Můžete nyní zaznamenat, že máte problémy s funkcí žláz. Dobře uděláte, půjdete-li k lékaři nebo specialistovi.",
        "tips": "Rezervace zimní dovolené u moře, příprava na obchodní jednání, odpoledne s dětmi v botanické zahradě, večeře v restauraci."
    },
    "pisces": {
        "main": "Nový a první říjnový týden začínáte poněkud rozpačitě, jelikož se vám život bude komplikovat ve všech rovinách. Budete si muset stále připomínat, že vše je jen dočasné a situace se brzy spraví. Nepropadejte zbytečné skepsi, která vás pohltí.",
        "love": "Ve vztazích, které jsou již nějakou dobu funkční, se nyní může objevit ochlazení a jistá rezervovanost vás obou. Pozor na to.",
        "work": "To, že si nevěříte, neumíte moc dobře skrývat. Kritizujete se za vše, co dnes nezvládnete dobře a sami sobě podrážíte nohy.",
        "relationships": "Hlavou se vám honí samé nepříjemné myšlenky a nejste schopni vyrovnaných emocí. Doma si toho všimnou dost rychle.",
        "health": "Dávejte si dobrý pozor na svou mlsnou pusu, protože máte sklony k tomu, abyste si podráždili zažívání, hlavně žlučník",
        "tips": "Ranní běh v přírodě, hledání nového zaměstnání, nákup drobného koupelnového nábytku, psaní milostných sms partnerovi."
    }
}