{
    "aries": {
        "main": "Víkend má na vás blahodárný vliv. Cítíte se plní nových sil, takže budete velmi akční a podnikaví. Nedělní domácí lenošení vám nic neříká. Vyrazíte si do společnosti, kde se budou mnozí Berani nejen bavit, ale i pracovat. Navážete cenné kontakty.",
        "love": "Partner může žárlit na vaši práci, které v týdnu věnujete víc pozornosti než jemu. Dokažte mu, že prim u vás hraje on.",
        "work": "Vyhodíte si z kopýtka a nebudete přitom hledět na vynaložené peníze. Jednou za čas si hodláte dopřát trochu toho luxusu.",
        "relationships": "Doma se dnes moc neohřejete, táhne vás to mezi lidi. Zeptejte se partnera, kam by se rád podíval on, a zvolte kompromis.",
        "health": "Netradiční pozice na manželském loži mohou dnes snadno skončit úrazem. Nezkoušejte, zda je vaše tělo stále tak pružné.",
        "tips": "Podnikatelské aktivity, návštěva společenské akce s klienty, společný bowling, kulečník či minigolf, večer ve vinárně."
    },
    "taurus": {
        "main": "Hvězdy radí, abyste se věnovali vztahovým záležitostem. Budete více citoví a i vaše smyslové vnímání bude posílené. Díky tomu si naplno vychutnáte lásku v její romantické i smyslné podobě. Společnost vás neláká, neděli si nejlépe užijete ve dvojici.",
        "love": "Milovanému protějšku budete ochotně plnit, co mu na očích uvidíte. Dočkáte se příjemné odezvy, i on si vás bude hýčkat.",
        "work": "Děti i mladší sourozenci vás mohou pobouřit svým neuváženým hospodařením. Jejich bezmyšlenkovité utrácení vás šokuje.",
        "relationships": "Toužíte si s rodinou povídat, protože jindy na to příliš nebývá čas ani nálada. Chcete slyšet vše, co ji těší i rmoutí.",
        "health": "Nedostatek spánku a neutěšená psychika dnes ohrožují váš zdravotní stav. Vyhněte se extrémním situacím i tvrdé práci.",
        "tips": "Romantické rande, večeře při svíčkách, hýčkání protějšku, voňavá koupel, milostné zážitky, výlet na atraktivní místa."
    },
    "gemini": {
        "main": "Nedělní den vás nabije touhou po nových zážitcích. Dáte se bez okolků do řeči s lidmi, kteří vás něčím zaujali. Možná dostanete chuť pustit se do něčeho zcela nového, a klidně to může být trochu bláznivé. Dnes se nebráníte žádné zajímavé zkušenosti.",
        "love": "Rýsují se nová přátelství. Dnes si nemůžete být jistí, kde narazíte na sympatické jedince, kteří vám padnou do noty.",
        "work": "Do vylepšování zevnějšku neváháte vložit nemalé finance. Jste přesvědčeni, že trendy vzhled je pro vaši práci důležitý.",
        "relationships": "Nedělní rodinný program směřujete do přírody a na čerstvý vzduch. Děti nebudou zpočátku nadšené, ale vrátí se spokojené.",
        "health": "Dnes můžete začít s realizací dřívějšího předsevzetí ohledně vaší kondice a vzhledu. Hvězdy jsou vašim plánům nakloněny.",
        "tips": "Rozhovory se zajímavými lidmi, seznamování, rande naslepo, domácí mejdan, kolektivní sportovní a zábavné aktivity."
    },
    "cancer": {
        "main": "Vaše peněženka je teď na tom poměrně dobře. Budete si moci dovolit leccos koupit sobě i rodině. Nejspíše se s blízkými vydáte splnit si některá dlouhodobá přání. Možná ale potěšení ještě odložíte a přidáte větší sumu k úsporám na zimní dovolenou.",
        "love": "Partnera budete mít jako svého hlavního rádce i kritika. Jedině on k vám dnes může být upřímný a nebrat si servítky.",
        "work": "Učíte-li se cizí jazyk, chce to hlavně vytrvalost. Lepší je věnovat mu denně pár minut než jednou za čas pár hodin.",
        "relationships": "Rozhovor s rodiči nebo sourozenci bude v tento den stěžejní a vyřeší se tak dlouho odkládané téma, které dělalo zlou krev.",
        "health": "Pokud si trochu odpočinete, všechny hrozivě vypadající problémy vám najednou budou připadat mnohem menší. Co vy na to?",
        "tips": "Dlouhý oběd s příbuznými, společná procházka či výlet, nákup vstupenek do divadla nebo na muzikál, běžný úklid příbytku."
    },
    "leo": {
        "main": "Víkendové volno vám jde k duhu. Do nedělního dne se probudíte smířlivě naladění a krotcí jako koťátko. Veškeré konflikty a disharmonie ve vztazích vám budou proti srsti. Svůj protějšek dnes budete málem na rukou nosit. Budete také mimořádně přítulní.",
        "love": "Dny se pořád krátí, světla ubývá, ale vaše dobrá nálada zůstává. Pro ustarané přátele a blízké budete úplné sluníčko.",
        "work": "Financí si dnes obzvlášť vážíte a přemýšlíte, jak rodinu spolehlivě zabezpečit do budoucna. Nechcete zbytečně riskovat.",
        "relationships": "Večerní telefonát s příbuzným vás vytrhne z blaženého odpočinku. Pak si ale užijete dlouhý a velice příjemný rozhovor.",
        "health": "Vašemu zdraví nic nechybí. Cítíte se fit a nic vás v práci ani soukromí nelimituje. Tělo funguje bez větších problémů.",
        "tips": "Kurz osobního rozvoje, pěstování zálib a koníčků, oblíbený sport, výlet do přírody, návštěva příbuzných, taneční večer."
    },
    "virgo": {
        "main": "Bude dobré snažit se o vyjasnění problematických vztahů, ale Venuše v Panně po vás žádá naprostou spravedlnost. Pokud máte na neutěšeném stavu svůj podíl viny, druhá strana jistě ocení, že všechno neházíte jenom na ni. Upřímná omluva otupí mnohá ostří.",
        "love": "S partnerem či s přáteli si můžete mnohé vysvětlit. Nechcete, aby vás někdo vodil za nos, necháte si nalít čistého vína.",
        "work": "Nezaměstnaní jedinci mohou narazit na zajímavou pracovní pozici díky novinám nebo internetu. Svitne vám nová naděje.",
        "relationships": "Otázky spojené s rodinným majetkem vám můžou dělat těžkou hlavu. Na jejich řešení nemusíte být sami, nechte si poradit.",
        "health": "Nesnažte se přeceňovat své fyzické možnosti. Sváteční vyjížďka na kole nemusí znamenat desítky pokořených kilometrů.",
        "tips": "Rande, zábava s přáteli ve větší společnosti, výhodné nákupy, přiměřená pohybová aktivita, následná relaxační masáž."
    },
    "libra": {
        "main": "Dlouhodobí partneři pocítí nový příliv zamilovanosti. Uvědomíte si, proč jste se do protějšku kdysi zbláznili. Nedělní den strávíte bok po boku, ruku v ruce a nejspíše probdíte i většinu noci. Srdce nezadaných budou snadným cílem Amorových střel.",
        "love": "Milostná schůzka s novým objevem by měla dopadnout nad očekávání dobře. Budete po celou dobu zcela zaujati jeden druhým.",
        "work": "Internetové nákupy vám umožní pořídit si něco, nač byste jindy pouze stěží ušetřili. Z novinky máte ohromnou radost.",
        "relationships": "Předvedete, že se dokážete pevně postavit za svůj názor. Svými argumenty zbrzdíte výbojné nálady některých blízkých.",
        "health": "Drobná změna vizáže zlepší vaši psychickou pohodu. Potřebujete se občas odměnit za veškerou dřinu, kterou podstupujete.",
        "tips": "Výlety, pěší turistika, toulky přírodou, rodinná oslava, návštěva dětského představení, hlídání potomků příbuzných."
    },
    "scorpio": {
        "main": "Neděle pro vás bude radostným dnem, který využijete pro volnočasové aktivity. Dokážete vyhnat práci z hlavy a dělat jenom to, co vás těší. Je možné, že se vrátíte ke koníčku, který jste celou věčnost zanedbávali, nebo si dokonce najdete zcela nový.",
        "love": "Odpoledne strávíte s přáteli či oblíbenými spolupracovníky. Společná party nebo oslava se vydaří ke spokojenosti všech.",
        "work": "Nezapomeňte zkontrolovat platnost tramvajenky a dálniční známky. Pokutu za černou jízdu byste dnes určitě neuvítali.",
        "relationships": "Pozor na nedělné rodinné rozepře, které mohou stát jiskřičkou pro dlouho se táhnoucí spory. Řešte vše s chladnou hlavou.",
        "health": "Uděláte si čas na naplánování preventivních prohlídek. Sami si uvědomujete, že v tomto ohledu nemáte čisté svědomí.",
        "tips": "Ranní postelové hrátky, snídaně do postele, pobyt na chatě, rodinné sportování, návštěva koncertu nebo divadla, poslech hudby."
    },
    "sagittarius": {
        "main": "Pokud patříte mezi netrpělivé Střelce, mohli byste si připravit těžké chvíle. Budete mít sklon jednat s horkou hlavou a moc nepřemýšlet. Mohli byste se proto nerozvážně vrhnout do nevhodného vztahu. Nezaškodí dát si předem chvilku na rozmyšlenou.",
        "love": "Rande naslepo či schůzka na inzerát by neměla probíhat v ústraní, i když se to zdá romantické. Myslete na bezpečnost.",
        "work": "Slevové nabídky vám snadno pomotají hlavu. U pokladny pak budete žasnout nad přeplněným vozíkem i výslednou částkou.",
        "relationships": "Své děti káráte, ale pak se dopustíte podobné chyby jako ony. Nedivte se tedy, že vaše poučky příště nebudou brát vážně.",
        "health": "Máte sklon k přehánění i v pohybové aktivitě. Pokud nepadnete vysílením už v posilovně, zítra určitě ucítíte každý sval.",
        "tips": "Oběd s rodiči v exotické restauraci, příjemná návštěva vzdálených příbuzných, práce v domácnosti a na zahradě, péče o zvířata."
    },
    "capricorn": {
        "main": "Venuše se Sluncem vytvářejí veselou atmosféru. Vám nejdříve nebude moc do řeči, ale pak zvolna roztajete. Jazyk se vám rozváže při komunikaci s dětmi, které jsou spontánní a na nic si nehrají. Bude to pro vás osvěžení po týdnu pracovního taktizování.",
        "love": "Jste tak trochu na rozpacích, zda protějšku vyčíst některé jeho nepoctivé kroky. Možná ho ale podezíráte zcela zbytečně.",
        "work": "Věnujte se raději koníčkům než pracím, které lze odložit. Neztrácejte zbytečně čas ani těžce budovanou vnitřní pohodu.",
        "relationships": "Věnujete se dětem. Vaši pozornost a radu potřebují nejen ty malé, ale i odrostlejší. Nesmí vás zmást, že tvrdí opak.",
        "health": "Svěřte péči o pleť či vlasy profesionálům. Pobavíte se, odpočinete a s novým vzhledem se snad začnete i těšit do práce.",
        "tips": "Sexy žhavé zprávy pro partnera, nákup oblečení na internetu, výběr zimní dovolené na horách, učení se s dětmi, relaxace u vína."
    },
    "aquarius": {
        "main": "Vaše jindy skvělé řečové dovednosti dnes budou poněkud slabší. I kdybyste si ale s protějškem neměli o čem povídat, bude vám spolu dobře. Společné mlčení budete prožívat jako příjemné. I na rande zůstanete v klidu, když se hovor na chvilku zadrhne.",
        "love": "Štěstí přeje připraveným. Chcete-li někoho pozvat na rande, pak vyberte příjemné místo, kde se budete oba cítit dobře.",
        "work": "Uděláte si radost a dopřejete si zbytečnost, která vás zaručeně potěší. Vyberete i nějaké pozornosti pro své nejbližší.",
        "relationships": "Nejvíce času dnes věnujete vašim domácím mazlíčkům. Němá tvář si vás získá svou přítulností a nebude vás nutit k hovoru.",
        "health": "Zaměřte se na klidná cvičení, kdy se musíte soustředit na každý pohyb, jako je jóga. Mysl si při nich krásně odpočine.",
        "tips": "Dlouhý spánek, oběd u rodičů, zajímavý výlet do přírody nebo hor, zábava s kamarády, lenošení, návštěva kina nebo divadla."
    },
    "pisces": {
        "main": "I v neděli na vás budou dotírat představy, kolik toho musíte zvládnout. Ze všech stran na vás budou útočit nedodělané úkoly a nevyřešené problémy. Nebudou ale zase tolik naléhavé, aby chvíli nepočkaly. Teď odpočívejte, i relaxaci je třeba brát vážně.",
        "love": "V oblasti lásky se možná necítíte příliš spokojení. Ve společnosti přátel se ale umíte uvolnit a zase se zvesela zasmát.",
        "work": "Děti budou při nákupech nadmíru náročné. Chtěly by vše, na co si ukážou. Ještě že už máte vyzkoušeno, jak se na ně musí.",
        "relationships": "Nemůžete se rozhodnout, jak si nejlépe užít volné chvíle. Klidně ale stihnete zábavu ve společnosti i lenošení o samotě.",
        "health": "Pozor dejte při manipulaci s těžkými věcmi. Pro chvíli nepozornosti by vám hrozilo zranění dolních i horních končetin.",
        "tips": "Rozhovory s přáteli, nákupy pro radost, pobyt na chalupě, příprava oblíbené pochoutky, jóga, návštěva, milostné schůzky."
    }
}