{
    "aries": {
        "main": "Další říjnové pondělí je pro vás ve znamení nervozity. Máte velké problémy se sebeovládáním. Příčinou je především nespokojenost v pracovním životě. Nenechte se tím tak svazovat hned zpočátku týdne a buďte více trpěliví. Nakonec nebude vše tak horké.",
        "love": "Chtěli byste do svého života už konečně najít někoho milého. Vaší snaze pomáhá hlavně to, že jste hodně pozitivní.",
        "work": "Vaše nespokojenost v práci se projeví hned zpočátku týdne. Začínáte přemýšlet o změně zaměstnání. Zatím je to předčasné.",
        "relationships": "Co se týká sebeovládání, nejste na tom zrovna dobře. Emoce s vámi doslova cloumají a pro ostré slovo nejdete daleko.",
        "health": "Prospělo by vám otužování. Pokud jste mu ještě nepropadli, začněte pomaleji. Výsledky zaznamenáte skoro okamžitě.",
        "tips": "Návštěva u lékaře, nákup sportovního oblečení, registrace do nového kurzu, odpolední sporty v přírodě, domácí kino."
    },
    "taurus": {
        "main": "Vstup do nového týdne pro vás nebude nic příjemného. Přesto se snažte všechno dnes zvládnout se ctí. Nenechte se zbytečně vyprovokovat a držte se své pověstné trpělivosti. Pokud se budete starat jen o své záležitosti, uděláte tentokrát nejlépe.",
        "love": "Nic moc dnes nepůjde podle vašich představ, což může být frustrující. Nebuďte ke svému okolí ale příliš přísní.",
        "work": "S názory svého šéfa se nemůžete vůbec ztotožnit. Jakýkoliv protest ale vzbuzuje jeho přemrštěné reakce. Pozor na to!",
        "relationships": "Kritika zaznívá dnes z blízkého okolí na kroky, které podnikáte. Záleží na vás, nakolik si je připustíte k tělu.",
        "health": "Sprchujte si nohy střídavě studenou a teplou vodou. Jejich prokrvení udělá dobře celému tělu a krevnímu oběhu.",
        "tips": "Návštěva městské knihovny, sportovní aktivity, plavání, venčení pejska s přáteli v parku, psaní kreativního blogu."
    },
    "gemini": {
        "main": "Do nového týdne vstoupíte plní energie a nadšení. Podaří se vám vše zužitkovat především v pracovním oblasti. Bohužel, co se milostného vztahu týká, tam nejste spokojení vůbec. S partnerem vás čeká rozhovor na vážné téma. Už to neodkládejte.",
        "love": "Můžete pocítit opět nezájem protějšku o vaši osobu. Místo toho, abyste to v sobě dusili, řekněte mu to. Musíte najít řešení.",
        "work": "Jako jedni z mála se počátkem týdne cítíte naprosto v pohodě, plni síly. Neschází vám kapacita na nové, velké výzvy.",
        "relationships": "Stále se honíte za splněním všech plánů, které jste si připravili, ale nebyl na ně čas. Musíte zřejmě seznam zredukovat.",
        "health": "Vlasy si po umytí opláchněte studenou vodou, budou potom lesklejší a budou se méně mastit. Přidejte jablečný ocet.",
        "tips": "Nové pracovní projekty, samostudium cizího jazyka, návštěva kosmetického studia, úprava účesu, úklid garáže, modelářství."
    },
    "cancer": {
        "main": "Nabrali jste si hodně práce a máte s tím starosti. Bohužel vám to ubírá tolik potřebnou energii. Snažte se sestavit harmonogram prací do konce týdne tak, abyste šli krok za krokem k úspěšnému dotažení všech projektů do konce. Uvidíte, že řešení najdete.",
        "love": "Tam, kde v milostném vztahu dosud vládla pohoda, se může situace obrátit. Pocítíte nepříjemné pnutí a větší dusno.",
        "work": "Mnohé velké projekty vám momentálně berou veškerou energii. Pokud máte možnost, věnujte se těm menším. I tam máte úspěch.",
        "relationships": "Nepřipojujte se dnes k nějaké zbytečné rozmíšce. Jste zaujatí, ale nemáte žádné rozumné důvody, proč po někom jít.",
        "health": "Oblékejte se tak, abyste mohli postupně během dne odkládat jednotlivé vrstvy. Ochrání vás to před rychlým prostydnutím.",
        "tips": "Práce se sociálními sítěmi, sběr podzimního ovoce, výroba interiérových dekorací, filatelie, lekce zpěvu, společenské tance."
    },
    "leo": {
        "main": "Vlétnete do nového týdne jako uragán. Kam vstoupíte, tam zanecháte stopy. Ale momentálně v dobrém! Pro ostatní jste inspirací. Snažte se z takových příležitostí vytěžit maximum. V partnerském vztahu se také blýská na lepší časy, tak co víc si dnes přát?",
        "love": "Vaše nová známost začíná pomalu ve vztahu nabírat jistotu a otevírat se. Vyplatila se vaše trpělivost a laskavější přístup.",
        "work": "Mnoho pracovních příležitostí berete dnes jako možnost k osobnímu růstu. Snažte se z toho vytěžit maximum, později to oceníte.",
        "relationships": "Na každý den v tomto týdnu jste si něco naplánovali. Jste si jistí, že toho není moc? Odpočinek potřebujete vy i rodina.",
        "health": "Zapomeňte na chladné nápoje v tomto počasí. Dejte přednost dobrému bylinnému nebo ovocnému čaji. Nemusíte ani sladit.",
        "tips": "Registrace na internetové seznamce, psaní románu, setkání s přáteli v oblíbené restauraci, nákup nového oblečení pro děti."
    },
    "virgo": {
        "main": "I když vás dne bude v práci něco hodně pálit, zatím si to nechte pro sebe. Rozhodně s tím nechoďte za šéfem. Ten nebude mít pro takové věci ani pochopení, ani trpělivost. Zbytečně byste na sebe jen upozornili. Poradit vám mohou jen kolegové.",
        "love": "Na své nové známosti začínáte pozorovat věci, které se vám nelíbí. Pravděpodobně začíná ukazovat svou druhou tvář.",
        "work": "Cokoliv vás momentálně tíží, není dobré řešit s vaším nadřízeným. Nemá pochopení a naopak by se vám mohl začít trochu mstít.",
        "relationships": "Kdosi z příbuzných vás dost kritizuje za vašimi zády. Napadne vás, že je za tím závist a zapšklá povaha dotyčného.",
        "health": "Chraňte si krční páteř před prostydnutím. Nejlépe kvalitní vlněnou šálou. Uvidíte, že si na ni velice rychle zvyknete.",
        "tips": "Úklid domácí pracovny, úprava účesu, návštěva wellness centra, minigolf, luštění křížovek, sbírání stříbrných mincí."
    },
    "libra": {
        "main": "Obrat nastává v milostné oblasti. Tam, kde jste ještě donedávna tápali, se věci začnou měnit v dobré. To vám dodá patřičnou sebedůvěru, která vám rozhodně sluší. Také v zaměstnání nemáte dnes konkurenta, a to především díky vašemu bystrému úsudku.",
        "love": "V uplynulých dnech jste se obávali, že nejste pro nového partnera dost dobří. Dneškem se situace začne měnit k lepšímu.",
        "work": "Na vás si jen tak někdo nepřijde. Máte bryskní myšlení a nepodléháte emocím. Proto jste vždy o krok před ostatními.",
        "relationships": "V širší rodině to není zrovna klidné. Objevují se pomluvy, kterých se ale nehodláte účastnit. Dejte to jasně najevo.",
        "health": "Dbejte na správnou obuv do tohoto počasí. Jde o to, aby vaše tělo neprochladlo od nohou. Musíte mít chodidla v teple.",
        "tips": "Studium kaligrafie, příprava vegetariánského oběda, aquagymnastika, projížďka na elektrokole, nákup veganské kosmetiky."
    },
    "scorpio": {
        "main": "Opatrně byste měli našlapovat v milostné oblasti. Zřejmě jste ze svého nového partnera tolik unešení, že už plánujete společné zítřky. Není vůbec dobrý nápad něco takového protějšku nyní sdělovat. Zbytečně byste mohli svého miláčka vylekat.",
        "love": "S novou známostí se chystáte mluvit o společné budoucnosti. Je to ale příliš brzo, nespěchejte, jinak protějšek uteče.",
        "work": "Nenechte si na svá bedra padnout nepovedené úkoly ostatních kolegů. Braňte se, jde o vaši pověst před nadřízenými.",
        "relationships": "Může vás těšit, že doma je klid a pohoda. Krásně se zrelaxujete po náročném pracovním dni. Sáhněte po oblíbené knížce.",
        "health": "Nezapomínejte tělu dodávat stále potřebné vitaminy. Hlavně teď na podzim to platí dvojnásobně. Hrozí především virózy.",
        "tips": "Výroba domácích čisticích prostředků, servis automobilu, kontrola plateb za domácnost, úklid terasy, péče o rostliny."
    },
    "sagittarius": {
        "main": "Jste plní života, a tak se není čemu divit, že se vše kolem vás dává do pohybu směrem k pozitivním událostem. Jako blesk z čistého nebe se k vám dnes dostane člověk, který vás naprosto ohromí. Myšlenky se celý den budou ubírat jen jedním směrem.",
        "love": "Před vámi se dnes objeví osůbka, která vás může hodně okouzlit. Nebudete se moct od myšlenek na společné chvíle odtrhnout.",
        "work": "Do všech pracovních projektů se pouštíte s velkým nadšením. Šéfa baví, že neděláte rozdíl mezi jednotlivými úkoly.",
        "relationships": "Potřebujete-li poradit ohledně změny vizáže, nebojte se požádat někoho z vašich příbuzných. Má s tím zkušenosti.",
        "health": "Připravte si bylinkový čaj a popíjejte jej během dne po malých doušcích. Záleží na vás, jaké chuti dáte přednost. Neslaďte.",
        "tips": "Pěstování bonsají, fotografování v botanické zahradě, procházka k nejbližší řece, bowling, turnaj v šipkách s přáteli."
    },
    "capricorn": {
        "main": "Bohužel pro vás týden startuje dost nepříjemně. Týká se to hlavně mezilidských vztahů, kdy bude třeba se zorientovat a nepropadat skepsi. Také je namístě, abyste si s určitými lidmi udělali jasno. Některé z nich byste měli ze svého okolí vykázat.",
        "love": "Kdosi vás může urazit natolik, že se rozhodnete přerušit s ním kontakt napořád. Není na místě žádné vysvětlování.",
        "work": "Mezi kolegy se objeví někdo, kdo ostatním bude úmyslně škodit. Bude fajn ho odhalit a jeho neprofesionální chování potrestat.",
        "relationships": "Náročné období vás bude provázet i v domácím prostředí. Také dnes se objeví starosti, které nejdou odložit na jindy.",
        "health": "Výborným zdrojem vitaminů jsou saláty z běžných potravin, jako je mrkev, jablka a citron. Vychlazené chutnají nejlépe.",
        "tips": "Hledání nové brigády, úprava životopisu, příprava s dětmi do školy, nové exotické recepty, nákup v hobbymarketu."
    },
    "aquarius": {
        "main": "Nadřízený moc dobře ví, jak pracovitého člověka ve vás má. Proto se nedivte, když vám projeví vděčnost a odmění vás. Zatím si to nechte pro sebe a kolegům se svěřte, až vše bude hotové. Ovšem dobrým přátelům to vyzvonit můžete naprosto bez obav.",
        "love": "Bude vás lákat krátký výlet do společnosti vašich přátel nebo známých. Musíte však zjistit, kdo dnes pořádá večírek.",
        "work": "Šéf je vám vděčný a svou přízeň může projevit různými způsoby. Očekávejte tedy finanční bonus nebo poukaz na zajímavou akci.",
        "relationships": "Jestliže máte zvídavé ratolesti, není nic lepšího, než si s nimi dnes zahrát vědomostní hry. Zabijete dvě mouchy jednou ranou.",
        "health": "Kupte si švihadlo a vraťte se do dětských let. Jestliže vám to půjde dobře, kondička se vám za pár dní vrátí zpět.",
        "tips": "Výroba podzimních dekorací, příprava domácího smoothie, běh v přírodě, plánování podzimní dovolené, thajské masáže."
    },
    "pisces": {
        "main": "Narazíte na nepříjemné situace v mezilidských vztazích. Především v pracovní oblasti to bude dost náročné. Kdosi nenechá na nikom nit suchou, a to ani na vás. V partnerském vztahu se budete muset vyrovnat s nepříjemnostmi, které má na svědomí váš partner.",
        "love": "Jako kdyby váš nový partner ze vztahu pomalu, ale jistě couval. Zprvu tomu nebudete chtít vůbec uvěřit, ale pak vše pochopíte.",
        "work": "Buďte obezřetní již od prvního dne v týdnu. Kdosi totiž v práci šíří pomluvy, ze kterých tentokrát nevynechá ani vás.",
        "relationships": "Doma byste se pro ostatní rozkrájeli a chcete pro své milé jen to nejlepší. Občas je ale musíte nechat jít vlastní cestou.",
        "health": "Dobře si vyvětrejte ložnici, než půjdete dnes spát. Také čisté a voňavé ložní prádlo udělá své. Dbejte na spánkovou hygienu.",
        "tips": "Pracovní porada, hledání nových obchodních kontaktů, pochůzky po úřadech, kontrola plateb za domácnost, četba románů."
    }
}