{
    "aries": {
        "main": "Pozor na to, jaké emoce šíříte kolem sebe. Je docela možné, že si některé nepříjemné pocity ventilujete doma a vaši nejbližší to odnášejí. Pokud naopak máte ze života radost, přitáhnete k sobě osoby se stejným přístupem. Záleží na vás, jaký den budete mít.",
        "love": "Přitahujete k sobě lidi, kteří jsou stejně naladění jako vy. Máte s nimi hodně společných zájmů a bláznivých nápadů.",
        "work": "Nemáte skoro žádnou energii a dohadujete se s nadřízeným. Zkuste vydržet a nedělejte žádná unáhlená rozhodnutí.",
        "relationships": "Je potřeba, abyste více pracovali se svými náladami. Vaše okolí a rodina si rozhodně nezaslouží, abyste se po nich vozili.",
        "health": "Pobolívat vás mohou lýtkové kosti. Dopřejte jim masáže kostivalovým krémem nebo alpou. Pomůže vám téměř ihned.",
        "tips": "Nové pracovní projekty, pochůzky po úřadech, studium cizího jazyka, nákup knížek pro děti, příprava rodinné večeře."
    },
    "taurus": {
        "main": "Někteří z vás jsou stále nezadaní a to vám dělá starosti. Je však možné, že na potenciální nápadníky máte opravdu přehnané nároky. Zkuste se nad tím zamyslet nebo se poraďte s důvěryhodným přítelem. Potřebujete zpětnou vazbu, aby se vše mohlo napravit.",
        "love": "Pokud nemáte partnera, zkuste se zamyslet nad tím, zda jsou vaše nároky přiměřené. Máte na partnery velké nároky.",
        "work": "Jakmile dnes projevíte nesouhlas se svými povinnostmi, pěkně to od nadřízených můžete schytat. Nechte si to zatím pro sebe.",
        "relationships": "Chybí vám trpělivost, a tak se může lehce stát, že se doma strhne hádka kvůli malichernosti. Raději se držte zpátky.",
        "health": "Podívejte se pečlivě na svůj jídelníček. Možná v něm najdete takové potraviny, které byste vůbec neměli konzumovat.",
        "tips": "Výroba podzimních dekorací, úklid terasy, kardio cvičení v přírodě, setkání s přáteli u kávy, četba humorného románu."
    },
    "gemini": {
        "main": "Dobře se vám povede v pracovní oblasti, kde zapůsobíte na ostatní svými sofistikovanými nápady. Ty mohou do vašich pracovních procesů přinést inovativní řešení. Ocení to nejen nadřízení, ale překvapivě také kolegové. Brzy se budete těšit z odměn.",
        "love": "Jestliže se partner chce dnes věnovat svým zájmům, neseďte doma s rukama v klíně s ublíženým výrazem. Najděte si také něco.",
        "work": "Dobré nápady sypete z rukávu. Mohou zlepšit pracovní procesy nejen pro vás, ale i pro vaše kolegy. Ti to rozhodně ocení.",
        "relationships": "Doma si bude třeba rozdělit povinnosti tak, aby všichni členové rodiny byli vytížení. Jedině tak to půjde jak po másle.",
        "health": "Připravte si domácí smoothie. Ovoce může být čerstvé i mražené. Živočišné mléko nahraďte nějakým rostlinným, třeba mandlovým.",
        "tips": "Pracovní porada, nákup nové elektroniky, venčení pejska v lese, houbaření, poslech oblíbené hudby, setkání s kamarády u vína."
    },
    "cancer": {
        "main": "Nedopřávejte tolik prostoru negativním emocím a domněnkám, které si vytváříte v hlavě. Díky tomu se pak zbytečně z běžných situací stává drama. To by se vám mohlo přihodit nejen v milostné oblasti, ale také v zaměstnání. Následky by byly nepříjemné.",
        "love": "Nenechte se dnes tak moc ovládat svými emocemi. Situace ve vztazích se díky tomu mohou zcela zbytečně vyhrotit.",
        "work": "Moc si nepomůžete tím, že budete svému nadřízenému oponovat. Naopak dobře uděláte, když mu vysvětlíte současnou situaci.",
        "relationships": "Vyřídilku máte slušnou, tak ji použijte tam, kde vám přinese něco dobrého. Nikoliv tam, kde můžete ostatní ranit.",
        "health": "Pozor na používání velkého množství čisticích prostředků v domácnosti. Hrozí, že se nadýcháte škodlivých výparů.",
        "tips": "Registrace v novém kurzu, studium cizího jazyka, fitness cvičení s trenérem, úprava jídelníčku, nákup čerstvých potravin."
    },
    "leo": {
        "main": "Druhý pracovní den prožijete v naprostém klidu. Umíte si skvěle zorganizovat povinnosti, takže s ničím nejste ve skluzu a vše děláte v maximálním klidu. Navíc máte kolem sebe lidi, kterým na vás záleží, a proto nenechají vše jen na vás. Važte si toho.",
        "love": "S partnerem jste dost dobře sehraní. Dnes předvede jednu ze svých úžasných vlastností, a to je bavit vás. Dělá mu to radost.",
        "work": "Na pracovišti vládne pohodová atmosféra a s kolegy je vám fajn. Uvnitř zatoužíte po tom, aby to takhle vydrželo co nejdéle.",
        "relationships": "Máte šanci stihnout nejen domácí povinnosti, ale věnovat se i zábavným aktivitám. Dnes si vás budou nárokovat děti.",
        "health": "Místo toho, abyste jezdili výtahem, všude, kde to jde, choďte po schodech. Uděláte hodně pro svou fyzickou kondičku.",
        "tips": "Hra na hudební nástroje s přáteli, domácí karaoke, cvičení jógy podle internetu, sestavení hudebního playlistu."
    },
    "virgo": {
        "main": "Svému partnerovi musíte dát více volnosti. Přehnanou pečlivostí a žárlivostí byste mohli vzácný cit mezi vámi udusit. Sami víte, že vše má své opodstatnění a čas. Proto netlačte na pilu a jednejte víc uvolněně. Nátlakem na druhé ničeho nedocílíte.",
        "love": "Děláte dobře, pokud ve vztazích netlačíte na pilu. Někde uvnitř správně tušíte, že má vše svůj čas a také důvod.",
        "work": "Ani dnes si nechoďte na nic svému nadřízenému stěžovat. Koneckonců, s kolegy jste schopní potíže vyřešit společně.",
        "relationships": "Bude třeba, abyste si v širší rodině zjednali pořádek. Navíc se snažte eliminovat kontakty s příbuznými, kteří vám nesedí.",
        "health": "Pečujte pravidelně o svůj chrup. Objednejte se dnes ke svému stomatologovi nebo na dentální hygienu na kontrolu.",
        "tips": "Ranní jogging, meditační a dechová cvičení, příprava rodinného oběda, odpolední setkání s přáteli, romantické rande."
    },
    "libra": {
        "main": "Máte rádi klid a pohodu. Protože vám zrovna toto chybí na pracovišti, pokusíte se s tím něco udělat. I když to nemusí fungovat okamžitě, dejte tomu ještě čas. Ostatní si musí uvědomit, že je vaše snaha upřímná a nápomocná. Výsledky se dostaví brzy.",
        "love": "Protějšek vám projeví svou náklonnost natolik silně, že nebudete mít pochyb o společné budoucnosti. Užívejte si to.",
        "work": "V práci se vám nelíbí, pokud nejsou vztahy mezi kolegy v pořádku. Rozbroje a pomluvy se snažíte uklidnit co nejdříve.",
        "relationships": "Problém můžete mít s osobou z rodiny, které nehodláte plnit všechny její rozmary. Jako odplatu zvolí něco nepředvídatelného.",
        "health": "Léčivé bylinky z léta vám dnes mohou posloužit jako základ do bylinného odvaru. Dopřejte si mátu, meduňku nebo šalvěj.",
        "tips": "Péče o starší příbuzné, schůzka v bance, nákup potravin s dovážkou do domu, romantické sms s partnerem, poslech hudby."
    },
    "scorpio": {
        "main": "Potřebovali byste více klidu a pohody. Bohužel se dnes na všech frontách potkáte s nástrahami života. Bude třeba se vyrovnat s nepřejícnými kolegy a protivnými příbuznými. Po dobrém to nepůjde ani v partnerském vztahu. Hvězdy zkouší vaši trpělivost.",
        "love": "Váš protějšek potřebuje k životu toleranci a svobodu. Pokud mu to nedáte, rozchod pro něj bude jako jediné řešení.",
        "work": "Jednání kolegů se vám nelíbí ani dnes. Raději se stáhněte a dělejte si svou práci. Bude fajn, pokud budete mít klid.",
        "relationships": "Nemáte žádný zájem se neustále obhajovat před ostatními z příbuzných. Necháte je při jejich názorech a půjdete si po svém.",
        "health": "Průmyslové sladkosti jednoduše nahraďte čerstvým ovocem nebo ořechy. Uděláte tak svému tělu prospěšnou službu.",
        "tips": "Cvičení jógy v parku, nákup knížek, kosmetické ošetření, úprava jídelníčku, četba odborné literatury, výroba smoothie."
    },
    "sagittarius": {
        "main": "Nesmíte usnout na vavřínech, především v pracovní oblasti. Zajímejte se dnes o každou možnost, jak si rozšířit své znalosti a zdokonalit dovednosti. Chopte se všeho, co se vám naskytne. Uvidíte, že nově nabyté vědomosti pak využijete dřív, než si myslíte.",
        "love": "Sliby, které vám dal někdo z kamarádů, se nenaplnily. Bude vás to hodně mrzet, ale zatím se k ničemu nevyjádříte.",
        "work": "Myslete na budoucnost a zjistěte si, jaký kurz nebo workshop byste si mohli udělat. Rozvinete tak své dosavadní dovednosti.",
        "relationships": "Nebojte se doma udělat nějaké změny v dekoracích nebo renovacích. Máte již něco delší dobu v plánu, jen se do toho pustit.",
        "health": "Při houbaření dávejte dobrý pozor na to, co sbíráte. Houby by měly mít také kvalitu. Sbírejte jen zdravé plody.",
        "tips": "Nákup řezaných květin, úklid domácnosti, telefonát se spolužákem, psaní cizojazyčné eseje, studium astrologie, fitness."
    },
    "capricorn": {
        "main": "Opět budete v mezilidských vztazích jak na bitevním poli. Ať už půjde o příbuzné, přátele nebo nadřízené, budete zklamaní. Nenechte se tím ale otrávit natolik, abyste neměli chuť do života. Věci se za pár dní dají do pořádku, nemusíte se obávat.",
        "love": "Manipulace vámi není jistě to, co ostatním dovolíte. Ale kdosi to může zkoušet i dnes. U vás ale narazí a potáže se se zlou.",
        "work": "Dnes zjistíte, že někdo z nadřízených není na vaší straně. Bude to pro vás velké zklamání, ale musíte se z toho otřepat.",
        "relationships": "Někteří z rodiny nejsou schopni uznat, že máte pravdu, a stále s vámi soupeří. Dnes vás to totálně vyčerpá a otráví.",
        "health": "Projížďka na elektrokole v přírodě vám udělá dobře. Navíc se nemusíte bát delších vzdáleností. Potřebujete jen dobrou obuv.",
        "tips": "Psaní kuchařského blogu, nákup nové elektroniky, servis domácího spotřebiče, venčení psa v lesoparku, houbaření, meditace."
    },
    "aquarius": {
        "main": "Jste pro ostatní signálem, že se vše dá zvládat v dobré náladě. Dnes jim to opět dokážete. S úsměvem proplujete dnešním dnem, poznáte nové kontakty, zapojíte se s kolegy do týmového projektu a doma se budete snažit zpříjemnit prostředí pro své blízké.",
        "love": "Družná a veselá povaha někoho z okruhu vašich známých vás bude přitahovat. Ani této osůbce nejste pravděpodobně lhostejní.",
        "work": "Máte perfektní vztahy s kolegy, a dnes se to opět ukáže. Týmová práce je pro vás radostí a výsledky stojí za to.",
        "relationships": "Rádi byste si domov zkrášlili zajímavým kusem nábytku. Podívejte se po bazarech nebo ve starožitnictví, možná něco objevíte.",
        "health": "Jestliže dnes vezmete na procházku své malé ratolesti, je nutné jim přibalit i nějaké ochranné prostředky. Především na kolo.",
        "tips": "Vyhledávání nových obchodních kontaktů, návštěva wellness centra, práce s keramikou, cvičení jógy podle internetu, zpívání."
    },
    "pisces": {
        "main": "Občas i vy prosazujete své nápady a touhy na úkor ostatních. Zrovna dnes se vám to povede především v milostné a rodinné oblasti. Měli byste se naučit větší toleranci vůči názorům ostatních. Především vaše větší děti mohou mít s vaší autoritou problém.",
        "love": "Musíte dát vašemu vztahu šanci a především čas. Zkuste přemoct svou netrpělivou povahu a vyčkat. Přijde překvapení.",
        "work": "Bude třeba vyvinout velké úsilí, abyste splnili všechny své povinnosti. Nadřízený nebere ohledy a prahne po dokončení úkolů.",
        "relationships": "Nedivte se, když ostatní nesouhlasí s vaším nápadem. Musíte se naučit respektovat názory hlavně vašich dorůstajících dětí.",
        "health": "Během dne si párkrát protáhněte krční páteř. Přestane vás rázem bolet hlava. Popřemýšlejte i o speciální masáži.",
        "tips": "Nákup potravinových doplňků, procházka podzimní přírodou, aromaterapie, registrace na internetové seznamce, kreativní práce."
    }
}