{
    "aries": {
        "main": "Od rána s vámi budou cloumat nepříjemné emoce. Pro vás to bude opravdu velká zkouška sebeovládání. Jste občas velmi zbrklí a prchliví, ale tohle bude i na vás hodně. Nejsou vám dnes doporučena žádná radikální řešení náročných situací. Zachovejte klid.",
        "love": "Úplňkové konstelace jsou vždy náročnější. Nenechte se strhnout přehnanými emocemi a věci řešte s chladnou hlavou.",
        "work": "Dnešním dnem vygraduje nervozita na pracovišti. Pocítíte nutkání vše vyřešit jednou provždy. Odchodem ale nic nevyřešíte.",
        "relationships": "Rodina na vás pozná, že jste kousek před nevhodným krokem v práci. Pomohl by vám upřímný rozhovor s blízkými příbuznými.",
        "health": "Myslete pozitivně. Negativní myšlenky vás mohou jen ubíjet a na to není v současném světě místo. Hledejte hezké cíle.",
        "tips": "Péče o účes, konzultace zdravotního stavu s lékařem, vytvoření nového fotoalba, změna vizáže, návštěva kosmetického salonu."
    },
    "taurus": {
        "main": "Je s podivem, že úplňkové konstelace vás tentokrát tolik neovlivní. Budete se cítit lépe než uplynulé dva dny a energie vám také nebude chybět. Naopak jí můžete mít přebytek. Nejlépe ji využijete v ložnici se svým drahouškem při vášnivém řádění.",
        "love": "Na vás úplněk nebude mít tak náročné požadavky jako na ostatní znamení. Přebytečnou energii vložte do erotických hrátek.",
        "work": "Možná se vám úplně nezamlouvá nový pracovní tým. Chce to jiný úhel pohledu, nebo změnu. Musíte si vybrat, jak s tím naložit.",
        "relationships": "Pokud jste zvládli předchozí dva dny, dnes budete v klidu. Doma vám bude nejlépe. Potřebujete se cítit v bezpečí.",
        "health": "Není vhodný čas na to, abyste se stále utápěli v negativním myšlení. Chce to změnu v přístupu k životu. Přemýšlejte o tom.",
        "tips": "Venčení pejsků s přáteli, káva z oblíbené kavárny, úklid na terase, kreativní psaní, poslech oblíbené audioknihy, malování."
    },
    "gemini": {
        "main": "Neberte vše tak vážně, hlavně v milostných vztazích. Umíte být také přelétaví, takže špatnou náladu můžete hned vyměnit za lepší. Dejte záležitostem jiný rozměr tím, že se na ně podíváte z nového úhlu. Zjistíte, že někdy řešíte naprosto malicherné věci.",
        "love": "Energie dnešního dne mohou být opravdu náročné. Může za to úplněk. Zkuste se přenést přes malicherné záležitosti s klidem.",
        "work": "Nedejte na to, že se cítíte nervózní. Je to dáno náročným dnem pod vlivem úplňku. Svou práci si uděláte stejně dobře.",
        "relationships": "Jestliže se rozhodnete pro nové hobby, máte plnou podporu rodiny. Jde zřejmě o něco, co může být časem i výnosné.",
        "health": "Zaměstnejte svou hlavu něčím zajímavým. Třeba hledáním záhad a nejrůznějších divů. Může z toho být i vaše hobby.",
        "tips": "Návštěva plaveckého bazénu, kardio cvičení, předvánoční nákupy, projížďka na elektrokole, péče o starší členy rodiny."
    },
    "cancer": {
        "main": "Ve středu se spojí vaše nízké sebevědomí s rozjitřenými emocemi. Za ty nese vinu měsíc v úplňku. Ovšem na vaši sebedůvěru vliv nemá. To musíte změnit vy sami. Pomoct by vám mohly nejrůznější motivační knihy nebo podcasty. Zkuste si něco takového vybrat.",
        "love": "I dnes si dejte pozor na vaše nálady. Výkyvy mohou být způsobeny úplňkem, ale i vaší nejistotou. Musíte si více věřit.",
        "work": "Po konfliktech v práci netoužíte, takže si dnes dáte záležet na tom, jak se svými kolegy komunikujete. Budete úspěšní.",
        "relationships": "Energii potřebujete jako sůl. Proto se dnes nechte od ostatních doma trochu obskakovat. Nikdo vám to vyčítat rozhodně nebude.",
        "health": "Nezanedbávejte svůj příjem potravin během dne. Zřejmě potřebujete doplňovat energii z potravin více než ostatní.",
        "tips": "Hledání nového přivýdělku, hra na hudební nástroje se spolužáky, posilovací cvičení v prostředí domova, nové tetování."
    },
    "leo": {
        "main": "Pro vás má dnešní den hodně romantický podtext. Od rána nebudete moct z hlavy vyhnat hříšné myšlenky na erotické hrátky s partnerem. Protože je na tom váš protějšek stejně, nic vám nebrání prožít odpoledne či podvečer v ložnici. Energie bude dost.",
        "love": "Vám úplňkové konstelace přinášejí úplně jiné energie než ostatním. Vy si dnešní den užijete naplněný erotikou.",
        "work": "Týmová práce dnes bude to pravé. Můžete si rozdělit povinnosti podle schopností a na výsledek nebudete dlouho čekat.",
        "relationships": "Doma bude nálada skvělá. Podpořte ji dobrým jídlem a povídáním si. Televizi či internet nechte pro dnešek stranou.",
        "health": "Neklaďte na sebe takové nároky. Udělejte si v hlavě pořádek a uvidíte, že se vám bude hned lépe přemýšlet a dýchat.",
        "tips": "Četba literatury faktu, příprava s dětmi do školy, večeře v centru města, nákup knížek a komiksů, malování, kaligrafie."
    },
    "virgo": {
        "main": "Sice jste na svého nadřízeného občas nabroušení a máte prořízlou pusu, ale ruku na srdce, co by si bez vás počal? Jste spolehlivý a kvalitní zaměstnanec, po kterém touží každý šéf. Nemusíte se bát, že by vás vaše rebelantství stálo místo. Zatím ne.",
        "love": "Jestliže dnes na svém protějšku najdete nějaké chyby, věřte, že ani vy nejste dokonalí. Chtělo by to více sebereflexe.",
        "work": "Nemáte důvod se obávat vyhazovu. Nadřízený ví, že jste super zaměstnanec, i když je toho na vás v poslední době moc.",
        "relationships": "Nemůžete mít opravdu všechno, ale ke štěstí by vám mohlo stačit vědomí, že vás vaši nejbližší mají opravdu rádi.",
        "health": "Měli byste se zamyslet nad tím, co do svého těla dáváte. Možná vám tak úplně nesvědčí přepálené hamburgery a hranolky.",
        "tips": "Úprava jídelníčku, fitness cvičení, péče o domácí mazlíčky, hraní pc her, nákup nového domácího spotřebiče, večeře ve městě."
    },
    "libra": {
        "main": "Vy si umíte svou práci i ostatní záležitosti velmi dobře rozplánovat. Obvykle nebýváte ve stresu z toho, že jste ve skluzu s termínem. Ovšem existují lidé, kteří to tak nemají, a ty dnes můžete objevit mezi vlastními příbuznými. Zneužívají vaší píle.",
        "love": "Sebevědomí vaše partnera vám imponuje. Je jasné, že vedle sebe máte zralého a vyrovnaného člověka. Sympatie jsou vzájemné.",
        "work": "I když ostatní mohou být ve stresu, vás by se to dotknout nemělo. Máte své povinnosti dobře rozplánované, prodlevy nehrozí.",
        "relationships": "Nenechte ostatní příbuzné, aby se vezli na vlně vaší energie. Sami toho moc neudělají a spoléhají se opět na vás.",
        "health": "Jakmile budete mít volnou chvilku, zkuste si nějaké nové výtvarné techniky. Může to být kaligrafie nebo práce s keramikou.",
        "tips": "Nákup řezaných květin, romantické sms s partnerem, hraní her na pc, venčení psa, jóga podle internetu, návštěva sauny."
    },
    "scorpio": {
        "main": "Pod vlivem dnešního úplňku mohou někteří z vás pěkně řádit. Zvlášť pokud nemáte stálého partnera, může být den divočejší. Jisté je to, že podvečerní žhavé rande se může snadno přehoupnout do noci plné vášní a erotických hrátek. U vás nic neobvyklého.",
        "love": "Úplňkové energie ve vás mohou vyvolat bouři emocí. Pokud dnes vyrazíte na rande, vězte, že večer sami doma určitě neskončíte.",
        "work": "Nenechte se strhnout nakažlivou nervozitou, kterou dnes přináší měsíc v úplňku. Máte dost zkušeností, abyste to zvládli.",
        "relationships": "Při svých hobby můžete narazit na oblasti, které nemáte prozkoumané. Pusťte se do jejich studia klidně již dnes.",
        "health": "Uvolnit přebytečnou energii vám pomohou sporty. Jde o to, abyste měli to správné a funkční vybavení. Jinak si přivodíte úraz.",
        "tips": "Ranní jogging, návštěva lékaře, poslech oblíbené audioknihy, příprava bylinného likéru, nákupy oblečení pro děti."
    },
    "sagittarius": {
        "main": "Co vám dnes udělá radost, bude práce. Rozhodně vás ale nepotěší váš stávající milostný vztah. Tam se bude potřeba opravdu zamyslet, jak do budoucna. Pomohl by upřímný rozhovor s vaším partnerem. Přiměje vás to k navazování nových kontaktů.",
        "love": "Přepadnout vás dnes může chuť poznávat nové lidi. Současný partner má u vás vroubek a vy se necítíte ničím vázaní.",
        "work": "Dodejte si odvahy a začněte bojovat o lepší pracovní pozici. Dnes je ten nejlepší moment, kdy se podívat na trhu práce.",
        "relationships": "Doplňte do domácí knihovny nějaké nové tištěné kousky. Jistě si je rádi přečtete vy i vaše rodina. Nezapomeňte na děti.",
        "health": "Věnujte se také jiným lidem. Občas máte sobecké sklony a ostatní vnímáte jen povrchově. Zkuste se vcítit do role ostatních.",
        "tips": "Psaní poezie, komponování hudby, tai-či, malování na keramiku, poslech oblíbené hudby, zpívání s přáteli, kino."
    },
    "capricorn": {
        "main": "Udiví vás vaše děti. Zjistíte, že vám před očima vyrostly a jsou z nich skoro dospělé osůbky s vlastním názorem. Bude třeba jim věnovat více pozornosti, protože je ještě stále můžete formovat. Navíc, ony potřebují vaši pozornost, důvěru a pomoc.",
        "love": "Dnes je vhodný den k tomu, abyste si udělali pořádek v mezilidských vztazích. Zatím to nechte ale pouze ve své hlavě.",
        "work": "Vliv úplňku na vaši náladu je nesporný. Nenechte se však strhnout k tomu, abyste dělali radikální rozhodnutí o své kariéře.",
        "relationships": "Dejte prostor k vyjádření také svým potomkům. Je nutné je brát skoro jako dospělé jedince s vlastním názorem.",
        "health": "Bolesti hlavy mohou být způsobeny nesprávným pitným režimem. Dbejte na to po celý den. Uvidíte, jestli je to pravda.",
        "tips": "Nákup nového oblečení, četba humorné literatury, návštěva kadeřnictví, nový hudební playlist, konzultace u lékaře."
    },
    "aquarius": {
        "main": "Podle všeho je vám velmi blízká jedna osůbka, se kterou jste v kontaktu víc, než je zdrávo. Zřejmě vám srdce zasáhly Amorovy šípy. To samé ale platí i naopak. Snaže se nyní s partnerem ustát společné začátky, uvidíte že to bude stát za to.",
        "love": "Velmi rychle se sbližujete se svým známým. Je skoro jasné, že mezi vámi přeskočila pověstná jiskra. Jděte na to ale pomalu.",
        "work": "V zaměstnání jste velmi dobrá partička. Díky tomu se vaše povinnosti dají zvládat v pohodě. A ještě si u toho popovídáte.",
        "relationships": "Jste neposední a nevydržíte bez nějaké akce. Dnes to mohou být sportovní aktivity s rodinou. Bowling nebo šipky budou fajn.",
        "health": "Protáhněte si dnes tělo nějakými rehabilitačními cviky. Díky nim můžete získat ohebnost a také vytrvalost. Najděte ty pravé.",
        "tips": "Návštěva plaveckého stadionu, telefonát s kamarádem, plánování nové kuchyně, výběr turistické dovolené, čtení dětem."
    },
    "pisces": {
        "main": "Ukážete konečně světu, že nejste ustrašení. Svých práv se zastanete sami, a to takovým způsobem, že ostatní budou jen koukat. Ale bylo načase! Okolí si začínalo myslet, že jste velmi poddajné osůbky, bez vlastního názoru. Dnes je vyvedete z omylu.",
        "love": "Negativní pocity ve vás může vyvolat úplňková konstelace. Pokud si toto uvědomíte, bude se vám vše zvládat lépe.",
        "work": "Můžete své okolí překvapit tím, jak se dnes zhostíte jistých úředních záležitostí. Máte dobré vyjednávací schopnosti.",
        "relationships": "Dusno doma zmírní dobrá večeře. Jestliže nechcete trávit odpoledne v kuchyni, nechte si dovézt něco z restaurace.",
        "health": "Dnes vás mohou vykolejit nejrůznější zprávy, které se nezakládají na pravdě. Je jen na vás, nakolik jim uvěříte.",
        "tips": "Nákup oblíbených lahůdek, nové studium náboženství, ruční mytí automobilu, servis jízdního kola, pétanque, šachy."
    }
}