{
    "aries": {
        "main": "Rodinné finance vám stále někam unikají a bude třeba najít kam. Možná máte nějaká zbytečná předplatná, která by stálo za to zrušit. Podívejte se i na výdaje vašich ratolestí, ať máte jistotu, že je vše v pořádku. Odpolední sporty provozujte s rozvahou.",
        "love": "Den byste měli pojmout v partnerskému duchu, co to půjde. Prospěje vám být s vaším protějškem. Nic jiného není třeba.",
        "work": "Stále byste si měli hlídat rodinné finance. Jdou někam, kde o tom nemáte ani zdání. Tak se na to podívejte od základu.",
        "relationships": "Z postele nemusíte vyskakovat hned za kuropění. Klidně si poležte, dopřejte si s rodinkou pozdní snídani a užívejte pohodu.",
        "health": "Sportovní aktivity dnes vybírejte zásadně podle počasí. Jde o to tělo protáhnout, nikoliv si zadělat na nemoc.",
        "tips": "Vyřezávání dýní, výzdoba domácnosti, příprava rodinného oběda, práce na zahradě, nákupy zimního oblečení a obuvi pro děti."
    },
    "taurus": {
        "main": "Nedělní odpoledne bude zasvěceno halloweenským oslavám s vašimi dětmi. Uděláte jim jistě radost, pokud se s nimi pustíte do vyřezávání dýně nebo strašidelné výzdoby domu či zahrady. Nezapomeňte vše dobře zdokumentovat fotografiemi, ať je na co vzpomínat.",
        "love": "Bude fajn, když se dnes překonáte a místo řešení nesmyslů si raději s partnerem dopřejete romantické chvilky.",
        "work": "Hlídejte si dnes finance. Máte sklony nerozvážně utrácet za vše, na co máte chuť. Při nákupech přemýšlejte zodpovědněji.",
        "relationships": "Máte-li děti nebo vnoučata, jistě se s nimi dobře zabavíte při vyřezávání halloweenské dýně. Dejte si záležet.",
        "health": "Při bolestech a zánětech v krku se vám hodí čerstvý odvar ze šalvěje. Má silné protizánětlivé a dezinfekční účinky.",
        "tips": "Příprava halloweenské party, setkání s kamarády, telefonát se staršími příbuznými, pečení jablečného koláče, sušení ovoce."
    },
    "gemini": {
        "main": "Poslední neděli tohoto měsíce máte možnost prožít opravdu příjemně. Záleží na vás, pro jaké aktivity se rozhodnete, ale neměli byste mít problém se žádnou z nich. Den by se měl ale nést v poklidnějším duchu a s přípravami na nový pracovní týden.",
        "love": "Poslední říjnovou neděli si užijte v objetí se svým partnerem. Oba potřebujete citové projevy, něžnosti a mazlení.",
        "work": "Výhra visí ve vzduchu! Zkuste dnes své štěstí v loterii, hvězdy stojí na vaší straně. Malý hazard za to opravdu stojí.",
        "relationships": "Vyzdobte si domácnost podzimními a především halloweenskými dekoracemi. Strašidelná atmosféra může bavit celou rodinku.",
        "health": "Dávejte si pozor na přílišnou konzumaci alkoholu a cigaret. Zítra ráno byste to mohli odskákat silnou kocovinou.",
        "tips": "Návštěva plaveckého bazénu, cvičení podle internetu, thajské masáže, rozhovor s partnerem, odpolední odpočinek."
    },
    "cancer": {
        "main": "Dětem uděláte velkou radost, když jim z obchodu přinesete halloweenské sladkosti a pomůžete jim vyřezat strašidelnou dýni. Nejenže se dobře všichni pobavíte, ale děti vám budou za takový zážitek vděčné. Stačí tedy šikovné ruce a dobrý nápad.",
        "love": "Jestliže to půjde, zkuste dnes být o samotě a srovnejte si myšlenky. Možná přijdete na způsob, co dělat se špatnou náladou.",
        "work": "Měli byste si i dnes zakázat jakékoliv pomyšlení na zítřejší pracovní den. Jen si zbytečně zatěžujete hlavu předem.",
        "relationships": "Nezapomeňte na to, že je dnes Halloween. Nakupte svým dětem tematické sladkosti a výzdobu. Jistě vaši snahu ocení.",
        "health": "Abyste mohli dnes dobře fungovat, potřebujete mít vyrovnanou psychiku. Zkuste dechová cvičení nebo meditace pro zklidnění.",
        "tips": "Pečení ovocného koláče, nákup čerstvých potravin, výroba domácí marmelády, zazimování zahrady, poslech klidné hudby."
    },
    "leo": {
        "main": "S protějškem byste si měli nastavit jasné mantinely, jak a kdo bude nakládat se společnými penězi. Zatím máte každý odlišné názory, ale k uspokojivé dohodě dojít můžete. Záleží na tom, jak upřímný a otevřený váš rozhovor bude. A také zda najdete kompromis.",
        "love": "Nastavte si s partnerem jasná pravidla, jak bude vypadat vaše společné hospodaření s financemi. Chce to hranice.",
        "work": "Dobře uděláte, když se poradíte s někým zkušeným, jak dobře uložit vydělané peníze. Chce to promyšlený postup.",
        "relationships": "Strašidelné masky, kostýmy a hlavně vyřezávané dýně patří k dnešnímu dni. Už jste si někdy halloweenské oslavy opravdu užili?",
        "health": "Znečištěná pleť bývá důsledkem špatného odbourávání toxinů z těla. Zkuste slabší detox, vynechte smažená a kořeněná jídla.",
        "tips": "Ruční čištění automobilu, příprava s dětmi do školy, halloweenské oslavy, poslech motivačního podcastu, procházka v parku."
    },
    "virgo": {
        "main": "Nudit se dnes tedy rozhodně nebudete. Ať už si uděláte neděli v romantickém duchu, jen se svým partnerem, nebo pokud se rozhodnete doma uspořádat halloweenskou party. Máte spoustu dobrých nápadů, tak toho využijte a pobavte se. Jako hostitelé jste skvělí.",
        "love": "Ani poslední říjnová neděle nebude nudná. Naopak si můžete se svým partnerem užít ty nejtajnější vášnivé fantazie.",
        "work": "Můžete s klidem hodit veškeré úřední záležitosti za hlavu. Máte zatím vše spolehlivě vyřešeno a nemusíte mít obavy.",
        "relationships": "Poslední říjnová neděle patří Halloweenu. Vyzdobte si dům nebo zahradu a užijte si trochu zábavy jako v dětství.",
        "health": "Poslech vaší oblíbené hudby je výbornou formou meditace. Pomůže vám perfektně vyladit psychiku na potřebnou úroveň.",
        "tips": "Nové zájmové činnosti, projížďka na elektrokole, fotografování přírody, poslech audioknihy, meditační cvičení."
    },
    "libra": {
        "main": "Na svého miláčka budete dnes muset jít chytře. Pokud se na něčem nemůžete dohodnout, zřejmě bude třeba vyvinout nadlidské úsilí dosáhnout kompromisu. Pomoci by vám mohl dobrý oběd, který pro svůj protějšek vyčarujete v kuchyni. Nevzdávejte se.",
        "love": "Abyste zabránili chladnému přístupu partnera k vám, musíte na něj chytře. Co takhle něco dobrého ke společnému obědu?",
        "work": "Ještě zřejmě musíte něco doplatit, ale konec je na obzoru. Dnes si udělejte přehled, jak to bude do budoucna vypadat.",
        "relationships": "Můžete si dnes doma uspořádat pravou halloweenskou party. Pozvěte sousedy nebo kamarády a nezapomeňte na výzdobu a kostýmy.",
        "health": "Mírnou nadváhu nemusíte řešit drastickou dietou. Stačí když přidáte přes den dostatek pohybu. To by mělo stačit.",
        "tips": "Příprava halloweenské oslavy s přáteli, sušení podzimního ovoce, příprava na nový pracovní týden, úprava účesu."
    },
    "scorpio": {
        "main": "Na pořadu dne by rozhodně neměly být vážné rozhovory, ale spíš romantika a odlehčená atmosféra. Naštěstí vám toto není cizí a svádění máte v krvi. Díky tomu se vám povede neděli převést do opravdu pohodového dne.",
        "love": "Odložte vážnější rozhovory na jiný den. Dnes si zopakujte s miláčkem rozmazlování za dveřmi ložnice a nic jiného neřešte.",
        "work": "Hodně se vám vyplatila vaše schopnost šetřit korunky. Dnes vás potěší pohled na váš účet. Vánoční nákupy budou asi v pohodě.",
        "relationships": "I když možná nemáte rádi přímo divoké halloweenské oslavy, co takhle si pro zábavu vyřezat pěknou dýni? Stačí šikovné ruce.",
        "health": "Nechte dnes odpočívat svůj zrak. Oči si také potřebují oddechnout od nadměrného užívání elektroniky nebo sledování televize.",
        "tips": "Manikúra, pedikúra, četba humorné literatury, sledování oblíbeného seriálu, procházka podzimní přírodou, pečení kaštanů."
    },
    "sagittarius": {
        "main": "Možná jste si s miláčkem vymysleli halloweenskou párty pro pár vašich dobrých přátel. Nezapomeňte tedy domov dobře vyzdobit, věnovat se tematickému pohoštění a obléknout se do nápaditých kostýmů. Vaše akce má potenciál být dokonalá a stylová.",
        "love": "Jestliže vás čeká halloweenská oslava, pořádně se na ni připravte. Budete zřejmě skvělý pár v dokonalých kostýmech.",
        "work": "Domácí povinnosti vám můžou jednoduše přerůstat přes hlavu. Je dobré si dokázat práci spravedlivě rozdělit.",
        "relationships": "Dětem byste dnes rozhodně neměli odpírat trochu té strašidelné zábavy. Vyřezaná dýně, výzdoba a sladkosti by neměly chybět.",
        "health": "Volnou neděli využijte k procedurám, na které běžně nemáte čas. Manikúra, pedikúra, depilace, úprava účesu nebo vousů.",
        "tips": "Vydatný spánek, cvičení ve fitness centru, rozhovor se staršími příbuznými, venčení pejska s přáteli, návštěva kavárny."
    },
    "capricorn": {
        "main": "Pravděpodobně si budete muset co nejdříve najít novou brigádu. Podívejte se již dnes na internet nebo se poptejte známých. Čím dříve se do nové práce zapojíte, tím lépe pro vaši peněženku. Peníze se vám jednoznačně hodí i v dalších měsících.",
        "love": "Dnes vás přepadne introvertní nálada, a tak si doma uděláte své pohodlí a budete se věnovat svým soukromým myšlenkám.",
        "work": "Podívejte si po novém vedlejším pracovním poměru nebo brigádě. Peníze navíc by se vám v tomto období opravdu dost hodily.",
        "relationships": "Halloweenské vyřezávané dýně patří k tradicím. Vyzkoušejte doma svou zručnost a pusťte se do toho bez obav i vy.",
        "health": "Potřebujete kolem sebe pozitivně naladěné lidi. Jen tak se přestanete zabývat starostmi a myšlenky budou veselejší.",
        "tips": "Návštěva příbuzných, nákup kosmetiky a drogerie, seznam vánočních dárků, luštění křížovek a rébusů, psaní krátkých povídek."
    },
    "aquarius": {
        "main": "Je vám jasné, že žádné velké ponocování se dnes konat nebude. To ale neznamená, že byste si měli odepřít alespoň nějakou zábavu. Pokud máte děti, je jasné, čeho se nedělní program bude týkat. Dnešní Halloween si s nimi užijete opravdu do sytosti.",
        "love": "Protože vás čeká nový pracovní týden, večer si zábavu odpustíte. Ale přes den si vyjděte alespoň na společnou procházku.",
        "work": "Pokud chcete doma dělat nějakou práci, tak jen drobné renovace. Také můžete překontrolovat domácí účetnictví a spoření.",
        "relationships": "Radost svým malým ratolestem uděláte tím, že jim pomůžete vyzdobit domácnost strašidelnou výzdobou. Neměly by chybět masky.",
        "health": "Prospěje vám masáž dolních končetin, hlavně tedy lýtek a také chodidel. Prokrvíte si svaly a ulevíte si od bolesti.",
        "tips": "Zábavné aktivity s dětmi, halloweenská výzdoba domácnosti, setkání s přáteli v kavárně, příprava na nový pracovní týden."
    },
    "pisces": {
        "main": "Zatoužíte po romantice. Nic vám naštěstí nestojí v cestě. S partnerem si bez problémů dopřejte klidnou neděli v objetí a nenechte se nikým a ničím vyrušovat. Bude se vám tak lépe sbírat energie do nového pracovního týdne, který může být hodně náročný.",
        "love": "Ani v neděli neuniknete romantickým prožitkům. Díky tomu naberete síly a pozitivní energii do dalšího pracovního týdne.",
        "work": "Smlouvy nebo dohody by neměly pro vás být problém. Dobře si přečtěte poznámky pod čarou, než je odešlete druhé straně.",
        "relationships": "S dobrými přáteli můžete uspořádat menší strašidelnou párty. Uvidíte, že i vy se můžete na Halloween pobavit jako malé děti.",
        "health": "Stres a shon nic dnes opravdu ani nevyřeší, ani nezachrání. Opatrní buďte především při cestách autem nebo jiným dopravním prostředkem.",
        "tips": "Návštěva kamarádů, četba odborné literatury, telefonát s kamarádem, psaní blogu, sušení podzimních plodů a ovoce."
    }
}