{
    "aries": {
        "main": "Pro vás je začátek listopadu opravdu velmi dobré období. Jak ve vztazích, tak v pracovní oblasti. Pokud jste single, nebojte se být aktivnější než doposud. Budete mít mnoho příležitostí, jak se seznámit. V práci se vám dnes podaří skvělý start.",
        "love": "Využijte příznivého postavení planet a seznamujte se. Máte na to, abyste brzy po svém boku měli toho pravého partnera.",
        "work": "Prahnete po kariérním posunu a jste silně orientováni na svou práci. Začátek listopadu pro vás bude skvělým odrazovým můstkem.",
        "relationships": "Doma se vám bude od začátku nového měsíce hodně dařit. Máte tolik energie a je tak nakažlivá, že vám ostatní závidí.",
        "health": "Budete mít celý měsíc problémy s bederní páteří. Nepodceňujte chladné počasí a své oblečení. Zabránit můžete zablokování páteře.",
        "tips": "Seznam vánočních dárků pro děti, posilování ve fitness centru, rozhovor s nadřízeným, nové pracovní projekty, sport."
    },
    "taurus": {
        "main": "Pocítíte jisté omezování a mantinely ve vztahu, což se vám nebude zamlouvat. I když jste klidnější povaha, neznamená to, že se nezačnete stavět na zadní. Než se ale odhodláte k radikálnímu kroku, zvažte všechna pro a proti. Mohli byste chybovat.",
        "love": "Pro mnohé z vás nemusí být ve vztahu dost svobody a začnete se podvědomě partnerovi stranit. Zvažte, zda děláte dobře.",
        "work": "Je z vás cítit nervozita a napětí. Do okolí budete vyzařovat negativní energii, což vám vůbec nepomůže. Zkuste se uklidnit.",
        "relationships": "Rodina má tendence vám neustále radit. Pro vás to již ale není únosné. Musíte se bránit včas, než vám dojde trpělivost.",
        "health": "Musíte si dávat pozor na životosprávu. Máte tendence tloustnout, a to zcela zbytečně. Omezte cukry a sacharidy v jídle.",
        "tips": "Pěstování kuchyňských bylinek, úklid spižírny, malování akvarelem, hraní na hudební nástroje, taneční pro dospělé."
    },
    "gemini": {
        "main": "Počátkem listopadu nebudete ve své kůži. Nálady se vám budou měnit jako na houpačce a pro vaše okolí to nebude vůbec jednoduché. Naopak se můžete setkat s nemilými reakcemi. Pokud nechcete tak nepříjemné napětí stupňovat, musíte se ovládat.",
        "love": "Nevíte, co chcete, a nálady měníte jako dubnové počasí. Pro vaše okolí může být toto chování nesnesitelné. Zkuste se ovládat.",
        "work": "V minulém měsíci jste měli mnoho šancí, jak si vylepšit kariéru. Pokud jste je ale nevyužili, nyní přichází složitější období.",
        "relationships": "Máte tendence nafukovat malicherné záležitosti. Díky tomu je ale doma zbytečně dusno a vaši nejbližší to těžce nesou.",
        "health": "Můžete v těchto dnech cítit bolest kloubů. Protahujte se často a chraňte se před prochladnutím. Dobře se oblékejte.",
        "tips": "Kreativní a výtvarné techniky, hraní na hudební nástroje, malování, četba, sportovní aktivity s přáteli, meditace."
    },
    "cancer": {
        "main": "Listopadový měsíc si pro vás připravil na začátku krásné chvíle. Nebude nouze o romantiku, lásku, dobrou náladu a spoustu pozitivní energie. Využijte těchto darů a pečujte o svůj vztah, budujte si kariéru a pracujte na pohodové náladě doma.",
        "love": "Pro vás je nachystáno mnoho romantiky a lásky. Ať už jste ve vztahu, či nikoliv, strádat nyní rozhodně nebudete.",
        "work": "Pracovní povinnosti, které se vám počátkem nového měsíce dostaly na stůl, bude třeba dobře promyslet. Udělejte si dobrý plán.",
        "relationships": "Všechny problémy a starosti doma se snažíte řešit s nadhledem a co nejkonstruktivněji. To je velmi dobrý přístup.",
        "health": "Pokud si neodřeknete nějaké potraviny, můžete se těšit na pokažený žaludek. Máte tendence kombinovat vše možné.",
        "tips": "Nové pracovní projekty, podnikatelské aktivity, pochůzky po úřadech, rovnání pracovního stolu, registrace na seznamce."
    },
    "leo": {
        "main": "Jedinou oblastí v životě, kde vám dnes bude dobře, je rodina a domov. Tam se můžete realizovat. Vaše nápady padnou na úrodnou půdu a rodina se bude bavit. Ostatní záležitosti vás bohužel mohou zklamat. Nejvíce bohužel čerstvé milostné vztahy.",
        "love": "Jste trochu frustrovaní a nedaří se vám tak, jak jste si původně představovali. Malovali jste si zřejmě vše na růžovo.",
        "work": "Dáváte si dost záležet na svých výkonech, ale stejně se vám nedaří vše odvést tak, jak by si představovali vaši nadřízení.",
        "relationships": "Nevadí vám, že přišel podzim. Nápadů na toto období pro svou rodinu máte mnoho a nenecháte se od ničeho odradit.",
        "health": "Vám nehrozí, že byste si museli tento měsíc stěžovat na zdraví. To ale neznamená, že se budete zanedbávat a přetěžovat.",
        "tips": "Nákup zimních sportovních potřeb, studium východní medicíny, psaní osobního blogu, úprava jídelníčku, bruslení."
    },
    "virgo": {
        "main": "Předposlední měsíc tohoto roku vám přinese hodně pozitivního napětí v lásce. Můžete se těšit na to, že půjdete z jedné schůzky na druhou, od jedné známosti ke druhé. Dnes také využijte přízně hvězd v práci, kde se vám začíná vracet vaše vynaložené úsilí.",
        "love": "Listopad je pro vás v lásce příznivý měsíc. Pozvánek na schůzky bude přehršel a vy nebudete vědět, kam jít dřív.",
        "work": "Konečně se na vás usmálo štěstí i v práci a na vaši hlavu se budou snášet jen samé pochvaly. Dnes vám v práci bude fajn.",
        "relationships": "Máte tolik energie, že to může být až na škodu. Zbrklost zapříčiní jedině nepříjemný úraz, buďte více opatrní.",
        "health": "Dbejte na to, abyste nepodcenili i ten sebemenší zánět. Může se z toho vyklubat dlouhodobá nepříjemná záležitost.",
        "tips": "Hraní deskových her s dětmi, sepsání seznamu vánočních dárků, hledání krátkodobé brigády, sbírání známek, meditace."
    },
    "libra": {
        "main": "Listopad pro vás začíná velmi hezky v milostném životě. Ať už hledáte novou lásku, nebo žijete v partnerském vztahu, nemusíte se obávat velkých výkyvů. Naopak přijdou příležitosti, jak vše zlepšit. Začněte dnes tím, že nebude nic v lásce odkládat.",
        "love": "Nový měsíc přináší do vašeho milostného života mnoho nových příležitostí, které byste rozhodně neměli promeškat.",
        "work": "Nadřízený bude pečlivě sledovat v listopadu vaše pokroky. Dnes rozhodně nebude stačit zírat, kam jste se vypracovali.",
        "relationships": "Máte chuť se více věnovat své fyzické kondici a pustit se do nového sportu? Proč ne. Jen pořádně zvažte, který by to měl být.",
        "health": "Musíte si dávat pozor na nohy, především na kolena. Máte nyní tendence k bolesti a přetěžování dolních končetin.",
        "tips": "Rehabilitační cvičení, taneční lekce pro dva, hraní na hudební nástroje, psaní fejetonů, hledání nového zaměstnání."
    },
    "scorpio": {
        "main": "Začínáte listopad se smíšenými pocity. Ať už v lásce, nebo v kariérním životě. Bude třeba najít ztracené sebevědomí a udržet si odstup. Začněte s tím již dnes, abyste si nepokazili následující dny stresem a sebedehonestací. Máte rozhodně navíc.",
        "love": "Ve vašem případě je s podivem, že podléháte v milostných záležitostech studu. Ale i vy můžete mít takové chvíle.",
        "work": "Tento měsíc bude pro vás v kariéře důležité udržet si nadhled. To jediné vás uchrání před nesmyslnými či radikálními kroky.",
        "relationships": "Přemýšlet budete o dalším vzdělávání. Vzhledem k vašim časovým možnostem to pravděpodobně bude pouze online kurz.",
        "health": "Přemíru fyzické energie bude třeba někde vybít. Máte nějaký pravidelný pohyb? Pokud ne, začněte konečně sportovat.",
        "tips": "Nákup kuchyňského spotřebiče, setkání s rodinou, nákup zimní obuvi, servis sportovních potřeb, procházka po městě."
    },
    "sagittarius": {
        "main": "Nejraději byste dnešní den měli rychle za sebou. Kupí se vám problémy skoro ve všech oblastech života a vy máte přece jen raději méně dramatu a více legrace. Bohužel to nepůjde tak rychle zlepšit, jak byste rádi. Musíte vydržet a být odolní.",
        "love": "Lásce v dlouhodobém vztahu jako kdyby listopad od začátku nepřál. Na vaši hlavu se snáší kupy výčitek, které vás mrzí.",
        "work": "V zaměstnání se může rapidně zhoršit atmosféra a vám se to vůbec nelíbí. Dokonce natolik, že můžete uvažovat o výpovědi.",
        "relationships": "Vaše momentální vnitřní napětí vás může strhnout k rizikovým sportům. Ty vám nejspíš ale přivodí pouze zranění.",
        "health": "Dávejte si pozor při pěší chůzi, kdy si můžete v lepším případě jen vyvrtnout kotník. Koukejte tedy, kam dnes šlapete.",
        "tips": "Oprava drobné elektroniky, nákup bazarového nábytku, renovace domácnosti, příprava na víkendové aktivity, zpívání."
    },
    "capricorn": {
        "main": "Listopad pro vás začne moc hezky. Po nedávném náročném období se konečně pomalu vše začíná zlepšovat a vy se nemusíte přemlouvat ani k práci, ani ke komunikaci s ostatními. Je dobře, že jste se dokázali povznést nad zradu od někoho blízkého.",
        "love": "Vrací se vám dobrá nálada a šíříte kolem sebe pozitivní energii. Díky tomu do svého života přitahujete dobré lidi.",
        "work": "Zřejmě se před vámi objevily nové pracovní možnosti, a tak není od věci se jich chopit a zkusit své štěstí. To vám dost přeje.",
        "relationships": "Rozhodně si nenecháte ujít pozvánku na zajímavé rodinné setkání s oblíbenými příbuznými. A dobře děláte! Nudit se nebudete.",
        "health": "Vylučování potu nebo toxinů z těla vám může působit velké problémy. Snažte se více pít a také chodit do wellness.",
        "tips": "Četba a studium odborné literatury, rekvalifikační studium, úklid pracovního stolu, thajské olejové masáže, tanec."
    },
    "aquarius": {
        "main": "Do předposledního měsíce tohoto roku vstoupíte s opravdu nízkým sebevědomím. Není to ale vůbec nutné. Naopak byste se měli do dalších dní dívat s nadějí, že se vaše situace bude zlepšovat. Hvězdy vám brzy do života pošlou někoho, s kým vám bude dobře.",
        "love": "Bojujete dnes s nízkým sebevědomím a pocity, že nikomu nestojíte za více lásky. Nenechte se zmást. Brzy se vše změní.",
        "work": "Do práce vlétnete jako uragán a budete pracovat bez únavy. Musíte ale myslet na to, že před vámi je ještě celý týden.",
        "relationships": "Splníte slib, který jste dali už před nějakou dobou, ale neměli jste se k jeho dodržení. Uleví se vám, že to máte za sebou.",
        "health": "Zlobit vás může špatná pleť. Je to tím, že tělo zadržuje toxiny a kvůli tomu se vše projeví hned na stavu pokožky.",
        "tips": "Sledování sportovního přenosu, úklid domácí pracovny nebo dílny, ruční mytí automobilu, zazimování terasy, nový playlist."
    },
    "pisces": {
        "main": "Všimnete si toho, že se kdosi o vás intenzivně zajímá a touží si získat vaši pozornost. Vám to ale vůbec vadit nebude, spíše naopak. Milostné jiskření vás bude bavit, a tak postupně během dne můžete propadnout vášnivým představám o novém vztahu.",
        "love": "Jste zcela jistě středem zájmu jisté osůbky, která ani vám není lhostejná. Mezi vámi to začíná opravdu dost jiskřit.",
        "work": "I když se na vás valí spoustu práce, vůbec si nepřipouštíte, že byste to nezvládli. Motivace a energie máte na rozdávání.",
        "relationships": "Neradi se doma pouštíte do konfliktů, ale dnes se tomu rozhodně nevyhnete. Nenechte se vytočit do nepříčetnosti.",
        "health": "Máte mlsný jazýček, a tak se nedivte, když vás po divokých kombinacích bude bolet břicho Buďte více střídmí v jídle i pití.",
        "tips": "Setkání s bývalými spolužáky, nákupy vánočních dárků, hledání předvánoční brigády, vaření exotických pokrmů, četba."
    }
}