{
    "aries": {
        "main": "Doma se dnes bude potřeba pustit do věcí, které jste odkládali delší dobu a nechtělo se vám do nich. Dnešek ukazuje na to, že byste je mohli jednou provždy dokončit a mít od nich klid. Nakonec budete překvapení, jak jednoduché to vlastně bylo.",
        "love": "S protějškem se učíte jeden od druhého novým věcem a novým přístupům ke vztahu. To je velmi dobré znamení, že si rozumíte.",
        "work": "Hlavu plnou nápadů budete mít i dnes. Sepište si je, protože některé ještě musejí uzrát a později přijde jejich doba.",
        "relationships": "Některé povinnosti jste hodně dlouho odkládali, ale nyní se do nich směle pustíte. A uvidíte, že vám půjdou od ruky.",
        "health": "Vyčistěte si hlavu sportováním. Uvidíte, že se vám báječně uleví i po těle. Potřebujete se odreagovat od starostí.",
        "tips": "Práce s podzimními květinami, výroba dekorací, péče o starší příbuzné, hraní deskových a vědomostních her, pečení kaštanů."
    },
    "taurus": {
        "main": "Hromadí se ve vás emoce a choutky po vzrušujícím dobrodružství. Bohužel je to ale v milostné oblasti, kde již žijete v dlouhodobém svazku. Snažte se své chtíče potlačit. Pár jiskřivých chvil vám nestojí za znehodnocení vašeho vztahu. Ublížíte tím i sobě.",
        "love": "Také dnes byste se měli mít na pozoru a neriskovat pro pár chvilek vzrušení váš dlouhodobý vztah. Nestojí vám to za to.",
        "work": "Kroťte dnes choutky zvyšovat hlas či provokovat nadřízeného. Ve hře je totiž trest nebo až výpověď. Neriskujte nyní práci.",
        "relationships": "Dostává se vám možná nevyžádaných rad od příbuzných, které vás jenom vytočí doběla. Neberte je prozatím vážně.",
        "health": "Poraďte se s výživovými odborníky nebo fitness trenérem o tom, jakým způsobem si upravit jídelníček a jak se hýbat.",
        "tips": "Ranní jogging, návštěva wellness centra, práce z domova, příprava obchodní prezentace, nové podnikatelské záměry."
    },
    "gemini": {
        "main": "Měli byste do svého pracovního života vnést více řádu, pravidelnosti a harmonie. To ale neznamená, že pojedete stále ve stejných a dost zkostnatělých stopách. Nové nápady mohou být naopak velmi prospěšné. A to nejen pro vás, ale i pro kolegy.",
        "love": "Možná vám dnes protějšek zruší rande, na které jste se dlouho těšili. Zklamání může být opravdu veliké. Ale vydržte.",
        "work": "Ve vašich povinnostech to bude chtít více systému a řádu. Máte v tom zmatek a začínáte propadat panice či dokonce vzteku.",
        "relationships": "Při výběru doplňků nebo oblečení nedávejte ani na radu někoho z přátel. Nevidí to z vašeho úhlu pohledu, což je chyba.",
        "health": "Měli byste se lépe starat o svou postavu, co se týká držení těla. Máte tendence se hrbit, což vám brání dobře dýchat.",
        "tips": "Bikram jóga ve studiu, renovace domova, plánování zimní dovolené, žhavé rande, telefonát se sourozencem, meditace."
    },
    "cancer": {
        "main": "Nový partner k vám chová tak hluboké city, že je již nemůže déle skrývat a dá vám je najevo. Překvapí vás jeho plány s vámi, ale příjemně, až dojemně. Je jasné, že tento člověk hledá to samé co vy. Tedy vážný, harmonický a dlouhodobý vztah.",
        "love": "Dostane se vám jistých důkazů, že to s vámi váš partner myslí vážně. Taková romantika vám může vehnat slzy do očí.",
        "work": "Pokud dostanete zajímavou pracovní nabídku, nevyhýbejte se jí. Hvězdy radí, abyste se chopili šance, dokud to jde.",
        "relationships": "Nosíte v hlavě povinnosti ostatních doma, hlavně svých dětí. Jste jim k dispozici a víte, kdo a co vlastně potřebuje.",
        "health": "Připravte si pečený čaj, který vás parádně prohřeje a bude vám navíc chutnat. Můžete si kombinovat ovoce, které máte rádi.",
        "tips": "Příprava pečeného čaje, hraní vědomostních her, účast v soutěži, pečení vánočního cukroví s dětmi, kurz keramiky."
    },
    "leo": {
        "main": "Vaše pracovní kroky se začnou dnes ubírat konečně tím lepším směrem. Budete spokojení, a tak se budete i k ostatním chovat tolerantněji a s respektem. Dobrou náladu můžete přenést i domů, kde se také budete více ovládat. To je velmi dobrý počin.",
        "love": "Pokud ještě několik dní vydržíte, dočkáte se kontaktu s někým novým. Překvapí vás intenzita zájmu z jeho strany.",
        "work": "Pomalu vám končí horší období v práci, ale i tak buďte dnes pečliví. Ještě pár dní a budete mít naprosto jiné pocity.",
        "relationships": "Umíte si poručit a ovládat se. Takže se napětí v rodině dá zmírnit především vaším přičiněním. To je pro dnešek chvályhodné.",
        "health": "Hlídejte si, abyste měli dnes správnou porci zeleniny. Dejte přednost zelené zelenině, která je vhodná pro tvorbu krve.",
        "tips": "Cvičení ve fitness centru s trenérem, nákup potravinových doplňků, úprava jídelníčku, sestavení nového playlistu do mobilu."
    },
    "virgo": {
        "main": "Netlačte na pilu, co se milostných záležitostí týká. Pokud se vám někdo nový opravdu líbí, je třeba našlapovat opatrně a jemně. Užívejte si dnešních romantických chvilek a neplánujte zbytečně dopředu. Je to zavádějící, protože vše může být jinak.",
        "love": "Dopřejte si hezké a zábavné chvíle s někým novým. Netlačte na pilu, ničeho tím nedocílíte. Žijte momentálním okamžikem.",
        "work": "Velké výzvy pro vás mohou být stresující. Dávejte si pozor, jaké úkoly si na svá bedra dnes naložíte. Máte špatný úsudek.",
        "relationships": "Před zítřejším svátečním dnem si nakupte vše potřebné na přípravu dobrého rodinného oběda nebo pohoštění pro návštěvy.",
        "health": "Drobná poranění končetin mohou zastihnout jedince vašeho znamení. Buďte tedy opatrní i při běžných denních činnostech.",
        "tips": "Nákup na audiotéce, psaní motivačních citátů, práce se sociálními sítěmi, káva v oblíbené kavárně s bývalými kolegy."
    },
    "libra": {
        "main": "Bude potřeba vaše blízké podpořit v tom, co chtějí dělat. Ať už je to nová práce nebo nové hobby. Uvidíte, že mají dobrý úsudek a vědí, co je pro ně dobré. Na vás je dodat jim odvahu, aby se do toho pustili co nejdříve. Nenechte je bez zájmu.",
        "love": "Pokud jste v blízkém kontaktu s někým, kdo je vám hodně blízký, můžete se těšit. Dostane se vám vyznání lásky.",
        "work": "Dejte si i dnes záležet na kvalitně provedené práci. Budete si ji muset odprezentovat, buďte tedy velmi pečliví.",
        "relationships": "Věřte talentům svých blízkých a podpořte je dnes ve všem, co si usmyslí. Uvidíte, že se vám to brzy vrátí v dobrém.",
        "health": "Vzhled pleti zlepší jednoznačně kvalitní pitný režim. Tekutiny by měly být bez cukru a neperlivé. To by vám naopak uškodilo.",
        "tips": "Nákup knížek pod stromeček, malování olejovými barvami, pořízení výtvarných potřeb, agility cvičení s pejskem."
    },
    "scorpio": {
        "main": "Jen proto, že si nevěříte v lásce, není důvod, abyste se o něco nepokusili. Máte možnost uchopit šanci tak, abyste do budoucna nezůstali sami. Pokud si ale necháte dnes příležitost utéct, budete litovat. Máte druhým co nabídnout, ukažte jim to.",
        "love": "Nenechte si utéct štěstí mezi prsty jen proto, že se bojíte nového vztahu. Později byste své nečinnosti pouze hořce litovali.",
        "work": "Do plnění pracovních povinností se vám moc nechce, ale nesmíte ani slevit z tempa. Váš šéf by na vás zaměřil svou pozornost.",
        "relationships": "Kdosi v rodině si na vás dnes rozhodne zchladit žáhu. Vy se ovšem jen tak nedáte. Pár peprných slov od srdce to vyřeší.",
        "health": "Dnes se nenechte rozhodit a dohnat do situace, kdy budete vulgární. Později byste litovali toho, že jste se neovládali.",
        "tips": "Drobné opravy v domácnosti, nákup kuchyňských pomůcek, míchání nealkoholických koktejlů, kurz aromaterapie, relax."
    },
    "sagittarius": {
        "main": "Bude nutné, abyste také hleděli na své pocity a zkusili odstranit to, co vás dělá smutnými. Může to být dokonce tak, že ze svého okolí odstraníte cíleně toxické osoby, které se na vás nalepily. Nebude to jednoduché, naopak vás to může bolet.",
        "love": "Stanovte si hranice, za které už nepustíte kohokoliv, aby vám ubližoval. Bude třeba být důslední, abyste to ustáli.",
        "work": "Máte tendence zbytečně riskovat ztrátu zaměstnání kvůli nějakým malicherným nesmyslům. Nedělejte nepromyšlené kroky.",
        "relationships": "Dáte doma najevo svou nespokojenost s tím, jaký k vám mají ostatní přístup. Není to příjemné, když vás ignorují.",
        "health": "Doma se podívejte, zda jsou všechny potraviny čerstvé. Raději si dopřejte kvalitní a čerstvé jídlo. Nikoliv prošlé.",
        "tips": "Oprava domácího spotřebiče, plánování rodinného setkání, nákupy potravin na sváteční den, kontrola soukromých e-mailů."
    },
    "capricorn": {
        "main": "Jestliže najdete dostatek sil, zkuste se dál vzdělávat. Nejenže se vám to bude hodit v práci, ale také vám to rozšíří obzory, po čemž vy prahnete celý život. Zkrátka je to pro vás velmi prospěšné. Do cesty vám vběhne někdo nový, kdo o vás projeví zájem.",
        "love": "To, že se o vás zajímá jistá osůbka, vám lichotí. Zřejmě to také pro vás bylo velké překvapení, když jste se dali do řeči.",
        "work": "K finančním prémiím můžete dostat nějaké pěkné benefity. Těšit se z nich budete brzy. Zatím ale pracujte se stejným nasazením.",
        "relationships": "Rádi byste si doplnili vzdělání v nějakém oboru. Není od věci podívat se na internetu, co a kdo vám může nabídnout.",
        "health": "Dávejte si pozor na to, abyste svou energií neplýtvali na cizí problémy. Sice chcete být nápomocní, ale ne vždy je to nutné.",
        "tips": "Nákupy v antikvariátu, plánování volnočasových aktivit s rodinou, třídění fotografií z dovolené, příprava rodinné večeře."
    },
    "aquarius": {
        "main": "Malé chybičky, které se dnes objeví ve vaší práci, nejsou žádná tragédie. Odhalíte je včas a dopomůžou vám k tomu, že se příště budete na povinnosti lépe soustředit. Nenechte se odradit kritikou od ostatních kolegů, kteří vám nesahají ani po kotníky.",
        "love": "Máte stále černé myšlenky na mezilidské vztahy a především pak na lásku. Osud s vámi má ale stejně své plány, bude lépe.",
        "work": "Nenechte se rozhodit tím, že se dopustíte malé chybičky. Není to katastrofa, jak se vám zdá. Věřte svým schopnostem.",
        "relationships": "Udělejte si plány na zítřejší volný den. Dnes ale oželte ponocování, abyste mohli ráno brzy vstávat a bavit se.",
        "health": "Potřebujete odpočívat a také se šetřit. Dejte si něco dobrého k jídlu i pití a uvelebte se dnes na gauči s dobrou knihou.",
        "tips": "Ranní jogging, konzultace u praktického lékaře, nákup vitaminů a potravinových doplňků, plánování volného dne s rodinou."
    },
    "pisces": {
        "main": "Vaše nápady v profesi jsou neuvěřitelně originální a hodně přínosné. Bohužel v lásce propadáte velkým fantaziím, které mohou být na škodu. Věřte své intuici, ale nepodléhejte nereálným představám. Mohli byste být dost zklamaní z jejich nenaplnění.",
        "love": "Věříte svým současným pocitům, a tedy i tomu, že je nová osůbka ve vašem životě to pravé ořechové na celý život.",
        "work": "Dost vám to myslí a je to znát na vašich výsledcích. Není tedy divu, že směle aspirujete na nejlepšího zaměstnance ve firmě.",
        "relationships": "Nepropadejte skepsi a z toho plynoucímu radikálnímu jednání. Zbytečně byste si zkomplikovali život na delší dobu.",
        "health": "Buďte ohleduplní ke svému tělu a dobře se o něj starejte. Vrátí vám to později mnohokrát. Držte se v dobré kondici.",
        "tips": "Příprava zdravé svačinky pro děti, cvičení pilates, hledání zimní dovolené na horách, cvičení bikram jógy, poslech hudby."
    }
}