{
    "aries": {
        "main": "V práci se dnes vyznamenáte tím, že si pod ochranu vezmete nového kolegu a budete se mu věnovat. Máte ještě zřejmě v živé paměti to, když jste začínali v práci vy a jak vám bylo. Naučte nové kolegy, jak se zapojit do týmové práce bez problémů.",
        "love": "Naplánujte si nějaké aktivity, které vás a vašeho současného partnera budou bavit. Může to být něco, co je pro vás úplně nové.",
        "work": "Umíte podat pomocnou ruku těm kolegům, kteří jsou naprostí nováčci. Ukažte jim, že týmová spolupráce je důležitá.",
        "relationships": "S blížícím se adventem máte tendence doma vše dávat do pořádku a ladit. To je dobře, energie máte na rozdávání.",
        "health": "Jemné techniky meditace a dechových cvičení by vás mohly naučit relaxovat a sbírat klid po náročných situacích.",
        "tips": "Rezervace zimní dovolené v zahraničí, sepisování nových exotických receptů, nákup domácího spotřebiče, běh v přírodě."
    },
    "taurus": {
        "main": "Nenechte si ujít příležitostí v milostném životě, které se vám nyní nabízejí. Pokud se totiž nevzpamatujete a necháte si tyto šance uniknout, přijdete možná o hodně. Zkuste se odvázat a být otevření novým možnostem, mohou být pro vás osudové.",
        "love": "Chopte se šancí, které se vám nyní nabízejí, a nenechte si je proklouznout mezi prsty. Jinak můžete přijít opravdu o hodně.",
        "work": "Nadřízeného hrozby, že vás potrestá za špatně provedenou práci, jsou pryč. Máte možnost přesvědčit ho o svých kvalitách.",
        "relationships": "Pocit, že musíte doma něco stále předělávat, vás neopouští. Podívejte se v obchodech s nábytkem, co by se vám líbilo.",
        "health": "Dopřejte si ve stravě více vlákniny. Ta se nemusí nacházet jen v celozrnném pečivu. Vyzkoušet lze i psyllium.",
        "tips": "Rámování obrazů, úprava životopisu, založení nového spořicího účtu v bance, zařizování dětského pokojíku, hledání nové brigády."
    },
    "gemini": {
        "main": "Budete mít pocit, že vy i váš partner mluvíte každý jiným jazykem. Máte velké problémy v komunikaci a nejste ochotní ani jeden slevit ze svých návyků. Pokud tedy partnera nechcete ztratit, bude nutné se začít chovat jinak a dělat potřebné kompromisy.",
        "love": "Moc dobře vám to doma společně nefunguje. Je to dáno tím, že se s partnerem neposloucháte a každý si jedete po svém.",
        "work": "Při komunikaci s nadřízeným kroťte svá slova. Umíte mluvit tak, že působíte nadřazeně a arogantně. To vám službu neudělá.",
        "relationships": "Jestliže se vám něco nelíbí, nenechte si v obchodě nic vnutit. Byli byste později naštvaní sami na sebe, že jste povolili.",
        "health": "Máte-li stále velkou chuť na sladké, měli byste se poradit s lékařem, čím to může být. Krevní testy odpoví na vše.",
        "tips": "Úpravy domácnosti, profesionální mytí automobilu, plánovaní víkendových aktivit s rodinou, zařizování domácí pracovny."
    },
    "cancer": {
        "main": "Místo toho, abyste se upínali v hlavě k nepříjemným představám, naopak se zaměřte na to, co vám říká vaše srdíčko. Poslechněte také svou intuici, která vás navede tím správným směrem. Jinak se vám může stát, že špatně pochopíte situaci ve vztahu.",
        "love": "Nepropadejte fantaziím, ale věřte své intuici a svému srdci. To vám jasně řekne, že máte vedle sebe tu pravou lásku.",
        "work": "Uvědomte si své přednosti a pracovní zkušenosti. To by vám mohlo zvednout sebevědomí, které vám nyní žalostně chybí.",
        "relationships": "Rodina se na vás obrátí s nějakou prosbou, protože ví, že jim vždy dokážete dobře poradit. Ani dnes tomu nebude jinak.",
        "health": "Jestliže se snažíte tělo připravit na vánoční mlsání, je dobré zkusit nějaký očistný či detoxikační jídelníček.",
        "tips": "Výroba interiérových vánočních dekorací, hraní počítačových her, saunování, regenerační masáže, odpoledne ve fitness centru."
    },
    "leo": {
        "main": "Když se dnes přihlásíte o nové povinnosti, musíte si být vědomi toho, co opravdu umíte. Nepouštějte se do ničeho, co znáte jen okrajově. To, pro co se rozhodnete, však bude naprosto v souladu s tím, jaké jsou vaše schopnosti. Nebojte se být aktivnější.",
        "love": "Do života vám osud posílá někoho nového a zajímavého. Nespěchejte na to, chovejte se jinak a vše k vám přijde samo.",
        "work": "Naberete si více povinností, ale víte dobře, že si to můžete dovolit. Je to něco, co zvládáte s přehledem a rychle.",
        "relationships": "Dejte si pokoj s tím, jak každému vnucujete své názory. Kvůli tomu se stále dostáváte do sporů, které jsou zbytečné.",
        "health": "Naučte se užívat vitaminy a potravinové doplňky tak, aby bylo jejich zastoupení ve vašem každodenním jídelníčku vyvážené.",
        "tips": "Renovace malého nábytku, malování dětského pokojíku, péče o starší příbuzné, nákupy potravin a drogerie, zpěv."
    },
    "virgo": {
        "main": "Naplánujte si své pracovní povinnosti tak, abyste je zvládli bez problémů. To, že si dnes nastavíte priority, vám jen pomůže. To samé si zařiďte i doma. Zbytečně se nezabývejte maličkostmi, které ostatním ani nepřijdou divné. Je to malicherné.",
        "love": "Umíte si užívat života se vším všudy. Máte kolem sebe dost lidí, se kterými si dnes můžete vyjít ven a bavit se.",
        "work": "Některé projekty bude třeba dobře zvážit, nebo je dokonce přesunout. Musíte odhadnout své síly a priority v práci.",
        "relationships": "Zkuste dnes doma více odpočívat. Jste přetažení, a proto nemáte dobrý úsudek. Zbytečně některé záležitosti zveličujete.",
        "health": "Zaměřte se na preventivní vyšetření u svých lékařů. Je samozřejmě dobré předcházet nemocem a o své tělo se dobře starat.",
        "tips": "Setkání se sourozenci, prodej zboží na burze, studium cizího jazyka online, cvičení ve fitness pod dohledem trenéra."
    },
    "libra": {
        "main": "V práci se nemusíte bát toho, že by vám došly nápady. Naopak jste rázní a cíleně si jdete za svým. Ukažte tedy ostatním, že ve vás dřímá síla, o které neměli ani potuchy. Díky tomu se můžete posunout na vyšší pozici s daleko lepším platem.",
        "love": "Dopřejte si s novým idolem čas na to, abyste se lépe poznali. Romantickou večeří nic nepokazíte. Bude vám moc hezky.",
        "work": "Dost vám to momentálně pálí, takže přesně víte, na co máte v práci schopnosti a na co ne. Můžete postoupit vysoko.",
        "relationships": "Pro vaše ratolesti byste se rozkrájeli. Nebojte se, že si toho neváží. Naopak si vašeho přístupu a podpory hodně cení.",
        "health": "V těchto dnech by vám mohl chutnat dobrý pečený čaj. Zkuste si nějaký připravit nebo si ho kupte hotový v obchodě.",
        "tips": "Nákup vánočních dárků pro přátele, rande s partnerem ve městě, výroba vánočních dekorací, návštěva kosmetického salonu."
    },
    "scorpio": {
        "main": "Váš partner nemá zrovna stálou náladu a jeho pocity se mění jako dubnové počasí. Zřejmě je zatím něco, o čem se mu nechce mluvit. Ale vězte, že se brzy dozvíte pravdu. Zatím se tedy ovládejte, jinak se celá situace ještě zhorší a nejistota prodlouží.",
        "love": "Výkyvy nálad vašeho miláčka budou pokračovat i dnes, což pro vás bude těžké k pochopení. Zachovejte zatím klid.",
        "work": "Máte dostatek zralého uvažování na to, abyste věděli, že se se současnými problémy v práci poperete naprosto s přehledem.",
        "relationships": "Bude nutné si doma určit, kdo co bude dělat. Připravte si rodinný kalendář povinností, ať na vše nezůstáváte opět sami.",
        "health": "Nedívejte se před spaním na horory, jinak se vám bude opravdu špatně usínat. Můžete mít dokonce noční můry. Pozor na to.",
        "tips": "Milostné hrátky s partnerem, večeře v nové restauraci, zápis do výtvarného kurzu, aromatická koupel, psaní poezie."
    },
    "sagittarius": {
        "main": "Musíte si uklidit ve své mysli i ve svém srdci. Potom teprve budete moct přijmout někoho nového do svého života. V práci si na vás může počíhat kolega, který vám závidí skoro vše. Nedejte se tím znechutit. Naopak si takového člověka vůbec nevšímejte.",
        "love": "Abyste mohli do svého života pustit nového člověka, bude třeba si ujasnit, co vlastně od vztahu chcete a očekáváte.",
        "work": "Vyhněte se nepříjemnému střetu s kolegou, který žárlí na vaše úspěchy. Nenechte se rozhodit jeho jízlivými poznámkami.",
        "relationships": "Pravděpodobně narážíte stále na to, že si doma nerozumíte v základní otázce rozdělení povinností. Nechte to nyní stranou.",
        "health": "Mnozí z vás mají mlsný jazýček, ale přesto si musíte dávat pozor na přehnané kombinace. Můžete si zadělat na problémy.",
        "tips": "Zápis do jazykového kurzu, třídění soukromých e-mailů, obchodní jednání, plánování vánočních svátků, hledání nové práce."
    },
    "capricorn": {
        "main": "Máte ve svém životě nyní někoho, na koho jste pravděpodobně čekali dlouhou dobu. Váš vnitřní hlas vám napovídá, že by to tentokrát mohlo vyjít. Nechte stranou obavy, že se něco opět pokazí. Naopak přemýšlejte pozitivněji a uvidíte, že se budou dít zázraky.",
        "love": "Na člověka, jako je váš nový partner, jste zřejmě čekali velmi dlouho. Nemusíte se bát toho, že byste něco pokazili.",
        "work": "Zamyslete se, jakým směrem se v dalším profesním životě chcete vydat. Nyní jsou k tomu vhodné dny, využijte toho.",
        "relationships": "Sice se někomu z příbuzných nemusí líbit vaši přátelé, ale vás to stejně neodradí od toho se s nimi vídat. Máte svůj rozum.",
        "health": "Dobrou variantou pohybu je tanec. Máte-li možnost, zapište se do lekcí, i kdybyste měli chodit sami, bez partnera.",
        "tips": "Lekce tance pro páry, pořízení surovin na pečení vánočního cukroví, meditační cvičení, rehabilitace zádového svalstva."
    },
    "aquarius": {
        "main": "Nemáte dostatek sil na jisté záležitosti, takže se raději soustřeďte na to, co je opravdu nezbytné. Ostatní zatím nechte svému osudu a neunavujte se tím. Vše má svůj čas a vyžaduje to po vás velkou dávku trpělivosti. Věřte si a nebudete litovat.",
        "love": "Pokud se vám z hlavy podaří dostat pochybnosti o vztazích, jste vlastně vítězové. Můžete začít budovat něco nového.",
        "work": "To, že se soustředíte pouze na důležité věci, je chvályhodné. Zapomeňte dnes na veškeré drby, které se k vám dostanou.",
        "relationships": "Doma to může skřípat kvůli vaší únavě. Nemáte dost sil, abyste se zapojili do běžných činností. Je to dáno stresem z práce.",
        "health": "Dejte dnes přednost teplým nápojům. Ať už je to svařené víno, grog nebo vánoční punč. Ten už můžete někde ochutnat.",
        "tips": "Práce s výtvarnými počítačovými programy, nákupy vánočních dárků pro přátele, cvičení ve fitness centru, saunování."
    },
    "pisces": {
        "main": "Váš nadřízený se pravděpodobně naštve a bude vám promlouvat do duše. Zásadní je, co si z toho vezmete vy. Měli byste se zamyslet nad tím, zda opravdu není v právu váš šéf. Jistě je tu prostor pro sebezdokonalování a hledání nového přístupu.",
        "love": "Přehnané reakce vašeho protějšku vás postaví do situace, které jste se chtěli vyhnout, ale nepůjde to. Musíte to řešit.",
        "work": "Pokud se dnes dostanete k šéfovi na kobereček, neměli byste jeho připomínky k vašim výkonům brát na lehkou váhu.",
        "relationships": "Nenechte se dnes opět někým zcela zbytečně vytočit. Tuto osobu to nesmírně baví a má z vašeho vzteku potěšení.",
        "health": "Hlídejte si dobře množství alkoholu, který dnes vypijete. Nedělá dobře vašim játrům ani slinivce. Raději ho dnes vynechte.",
        "tips": "Registrace v zahraniční online seznamce, výcvik pejska, hraní šachů, nákup vánočních dárků, procházka v zoologické zahradě."
    }
}