{
    "aries": {
        "main": "Na své okolí vyvíjíte nepřiměřený tlak a dnes vám to asi někdo dá znatelně najevo. Především se jedná o milostné vztahy. Kompromisu naopak můžete dosáhnout v pracovní oblasti. Před nadcházejícím víkendem se vám to hodí. Půjdete domů s klidným svědomím.",
        "love": "Protějšek může mít pocit, že mu ubíráte z jeho osobního prostoru stále více. Nechte ho volně dýchat, jinak vám uteče.",
        "work": "Snažte se dojít v pracovní sféře ke kompromisu. Před víkendem si nepřidělávejte vrásky na čele kvůli egu nebo neochotě.",
        "relationships": "Odpusťte si dnes odvážné nápady na změny v interiéru domova. Raději se věnujte velkému úklidu a přípravám na advent.",
        "health": "Problémy se zažíváním vyřešíte pravidelným užíváním probiotik. Pilulky nahradíte jogurtem s probiotickou kulturou.",
        "tips": "Četba cizojazyčné literatury, práce se sociálními sítěmi, videohovor s přáteli, home office, úklid spíže, mytí auta."
    },
    "taurus": {
        "main": "Na jisté starosti si dnes budete připadat slabí. O názor nebo radu s klidem požádejte svého dobrého kamaráda. Jeho pomoc vám prospěje. Díky tomu neuděláte zbytečně unáhlená rozhodnutí, kterých byste později litovali. Večer si dopřejte vydatný spánek.",
        "love": "Přemýšlíte o změnách ve svém životě. Ovšem ve vztazích zatím žádné nedělejte. Mohli byste jich do budoucna litovat.",
        "work": "Není tak jednoduché pro vás dnes řešit nával pracovních povinností. Nadřízený je dost neústupný a vy se budete muset snažit.",
        "relationships": "Rozhovor s dobrým přítelem vám pomůže podívat se na vaše starosti z jiného úhlu. Díky jeho zkušenostem získáte nadhled.",
        "health": "Čerstvé ovoce vám v těchto dnech do těla dodá potřebnou vlákninu a vitaminy. Kupujte spíše to sezonní v biokvalitě.",
        "tips": "Příprava vegetariánského oběda, sázení bylinek, třídění dětského oblečení a obuvi, nákup sportovních potřeb na zimu."
    },
    "gemini": {
        "main": "Stýská se vám po společenském životě, milí Blíženci? Vytáhněte alespoň svého partnera na vaše oblíbené výletní místo. Uvidíte, že oba přijdete na jiné myšlenky, což už jste nutně potřebovali. Nějaký čas musíte také věnovat svým dětem, které toho mají dost.",
        "love": "Romantická vycházka s miláčkem na oblíbené místo vám dnes zvedne náladu. Večer vypněte televizi a povídejte si.",
        "work": "Hlídejte si zbytečné výdaje, které by vás mohly obratem mrzet. Více o nákupech nebo investicích přemýšlejte, milí Blíženci.",
        "relationships": "Děti by rády vídaly své kamarády a spolužáky více, než je možné. Dnes se pokusíte jim v něčem vyhovět, aby byly spokojené.",
        "health": "Na vlasy používejte kvalitní přípravky, které neobsahují žádné umělé látky. Raději volte veganské šampony a kondicionéry.",
        "tips": "Volnočasové aktivity s dětmi, hraní deskových her, sledování oblíbené televizní soutěže, telefonát s rodiči, nákup drogerie."
    },
    "cancer": {
        "main": "Může se vám zdát, že vám protějšek dělá samé naschvály. Jste schopní na něm dnes nenechat nit suchou. Podívejte se ale na situaci z jeho pohledu. Možná zjistíte, že má své starosti a je duchem mimo. Bude potřebovat, abyste ho vyslechli a pochopili ho.",
        "love": "Nehledejte na svém protějšku zbytečně neustále chyby. Má také své starosti a obavy, zkuste mu více naslouchat a tolerovat ho.",
        "work": "Zasloužíte si odměnu za vykonanou práci. Víte to vy a ví to také váš šéf. Nebojte se, že by vás minuly pěkné prémie.",
        "relationships": "Při sportovních aktivitách si dávejte pozor nejen vy, ale také svým potomkům zajistěte vhodné ochranné pomůcky.",
        "health": "Kvalitní pomůcky a prostředky pro zdravé dásně a zuby zakoupíte již v každé drogerii. Obnovujte je pravidelně.",
        "tips": "Třídění letního oblečení, nákup potravin a drogerie on-line, nové exotické recepty, mytí oken, péče o vlasy a pleť."
    },
    "leo": {
        "main": "Pracovní povinnosti vás dnes sice pohltí, ale naštěstí se vám je podaří zvládnout včas, takže nehrozí přesčasy. Doma si tak můžete užít ještě odpoledne se svými drahými a věnovat se příjemnější věcem, než je práce. Večer si dopřejte více vášní.",
        "love": "Na denním pořádku jsou společné aktivity s vaším protějškem. Právě toto vám může v současné těžší situaci velmi prospět.",
        "work": "Snažíte se udržet koncentraci na pracovní povinnosti, ale hlavou jste již dávno doma se svými blízkými. Není se čemu divit.",
        "relationships": "Hvězdy slibují nalezení řešení ve složité situaci. Spokojenost bude nejlepší odměnou pro vás i všechny zúčastněné.",
        "health": "Pro růst a obnovu slabých vlasů užívejte vhodné doplňky. Nejlepší je kolagen, který se postará i o vyhlazení vrásek.",
        "tips": "Digitální detox, pozorování noční oblohy, studium cizího jazyka, četba humorného románu, pečení slaných koláčů."
    },
    "virgo": {
        "main": "Nemusíte se obávat, že byste v pátek měli před sebou nějakou překážku. Naopak se situace začíná obracet ve váš prospěch doslova na všech frontách. Své milé se vám podaří překvapit zajímavým dárkem a také programem, který si pro ně připravíte.",
        "love": "Nebojte se ničeho, hvězdy vás nenechají na holičkách. Do dlouhodobého vztahu vracejí zpátky porozumění a důvěru.",
        "work": "Jestliže máte náladu své milé potěšit pěkným překvapením, tak se vám to dnes podaří. Znáte je totiž velmi dobře.",
        "relationships": "Věnujte své rodině alespoň odpoledne. Vaši společnost začínají postrádat. Vymyslete si pro ně nenáročný program.",
        "health": "Rozčilováním toho moc nezmůžete. Přepadnou-li vás dnes chmury a špatná nálada, raději se jděte projít a vyčistit si hlavu.",
        "tips": "Nákup dárků pro blízké, výroba adventních věnců, sledování televizní soutěže, čištění lednice, výroba dekorací."
    },
    "libra": {
        "main": "Nenoste si dnes domů stres z práce. Negativně se to projeví na vašich partnerských vztazích. Raději si s přáteli nebo rodinou povídejte o příjemných a veselých věcech. Máte před sebou víkend a advent, takže můžete plánovat program pro všechny.",
        "love": "Šetřete energii a nevkládejte ji do zbytečných hádek a vyhrocených situací. Ani s partnerem, ani s přáteli. Nestojí to za to.",
        "work": "Nepoddávejte se tolik stresu z pracovních povinností a zpomalte. Situace se rázem zlepší, jakmile přestanete panikařit.",
        "relationships": "Páteční večer si užijete v kruhu rodiny. Připravte si společně dobrou večeři a udělejte si čas na příjemný rozhovor.",
        "health": "Dopřejte si pestřejší stravu a omezte příjem masa. Nechte se inspirovat exotickými recepty, které obsahují více bylinek.",
        "tips": "Příprava rodinné večeře, studium cizího jazyka, sledování hororů, večer s rodinou, domácí karaoke, hraní deskových her."
    },
    "scorpio": {
        "main": "Stále jedete závratným tempem. Máte opravdu jedinečný přístup k práci a nutno říct, že se vám vyplácí. Není nouze o originální nápady, které motivují ostatní kolem vás k lepším výkonům. To se týká i domácnosti. Kdosi z rodiny se k vám dnes přidá.",
        "love": "Planeta Venuše ve vašem znamení vytváří opravdu excelentní podmínky pro milostné vztahy. Zájem opačného pohlaví je nevídaný.",
        "work": "Mnoho z vašich spolupracovníků si vezme vaše dobré rady k srdci. Buďte na sebe pyšní. Jdete jim dobrým příkladem.",
        "relationships": "Máte spoustu kreativních nápadů a myšlenek. Zapojte do jejich realizace své blízké. Vaše nápady je doslova pohltí.",
        "health": "Ostropestřec mariánský je známý pro své detoxikační účinky. Především se používá v tabletkách pro očistu jater.",
        "tips": "Úklid terasy nebo balkonu, nákup zimní obuvi po internetu, práce z domova, čtení pohádek dětem, poslech oblíbené hudby."
    },
    "sagittarius": {
        "main": "Měli byste dnes zvolnit především v pracovní oblasti. Hrozí vám kolaps, jestliže nesundáte nohu z plynu. Energie vám pak zákonitě bude chybět hlavně při jednání s lidmi a vašimi nejbližšími. Zkuste si naplánovat na víkend více odpočinku a relaxace.",
        "love": "Nový idol se sice naoko tváří, že je trochu nedostupný. Ale nebojte se, jen vás zkouší. Uvnitř duše je z vás celý unešený.",
        "work": "Pozor na vyčerpání. Máte stále vysoké pracovní tempo a trochu neuváženě vydáváte více energie, než zvládnete doplnit.",
        "relationships": "Máte-li možnost, vydejte se na procházku do míst, kde to máte rádi. Přijdete na jiné myšlenky, než kdybyste jen seděli doma.",
        "health": "Na podporu imunity jsou velice vhodné přípravky, které obsahují výtažky z echinacey. Poraďte se v lékárně o jejich nákupu.",
        "tips": "Procházka po okolí, výroba adventních věnců, úklid ložnice, konzervování zeleniny, sušení ovoce, nákup elektroniky."
    },
    "capricorn": {
        "main": "Sice v práci jedete jako mašina, ale pomalu se dnes začínáte obracet k víkendu. Těšit vás může to, že doma zavládne pohoda a jakákoliv omezení pro vás nic neznamenají. Připravte si výzdobu na adventní neděli a udělejte plány na nadcházející volné dny.",
        "love": "Překvapit vás mohou názory někoho z vašich přátel. Neodsuzujte ho hned. Spíše podobné téma k rozhovoru příště vynechte.",
        "work": "Vaši kolegové dnes opravdu nestačí zírat, jaké máte tempo. Opatrně ale ať neděláte za ně jejich práci, nejste za to placení.",
        "relationships": "Páteční odpoledne nebo večer si udělejte pohodu. Můžete si připravit popcorn a domácí kino. Film vybírejte demokraticky.",
        "health": "Pracujte na sobě a poslouchejte nejrůznější motivační podcasty a rozhovory. Díky tomu se můžete mentálně posunout.",
        "tips": "Domácí kino, vydatný spánek, příprava lehkého oběda, sledování oblíbeného filmu, výroba domácích limonád a sirupů."
    },
    "aquarius": {
        "main": "Nepřikládejte dnes význam menším nedorozuměním mezi vámi a protějškem. Je to dáno napětím, které vzniklo ke konci týdne a brzy se zas rozplyne. Těšit vás může to, že se vám na účtě nakupilo dost peněz a vy si můžete začít plánovat vánoční nákupy.",
        "love": "Zachovejte chladnou hlavu, pokud dnes mezi vámi a partnerem dojde k dílčím nedorozuměním. Je to i situací ve společnosti.",
        "work": "Díky tomu, že máte na kontě jistou finanční rezervu, nemusíte si dělat starosti s pravidelnými platbami za domácnost.",
        "relationships": "Vaše argumenty mohou být o něco slabší než jindy. Nepouštějte se tedy do vážných debat v rodině, prohráli byste.",
        "health": "Ostré a pálivé koření vám v podzimních dnech udělá dobře. Prohřeje tělo a zlikviduje nejrůznější infekce či bakterie.",
        "tips": "Nové exotické recepty, pěstování bylinek, nákup hygienických pomůcek a potravin po internetu, seznam vánočních dárků."
    },
    "pisces": {
        "main": "Sebevědomí vám zvedne rodina a domácí prostředí. Poznáte, že vše, co pro své milé děláte, kvitují s nadšením a vděkem. Zvláště pokud jim připravíte něco dobrého na zub. Partnerský vztah jen kvete, ale je třeba o něj stále pečovat. Nic není samozřejmé.",
        "love": "Část dne si vyhraďte pro vášeň a milostné hrátky. Je na čase si také trochu užít, obzvlášť pokud máte trvalý vztah.",
        "work": "Jakákoliv smlouva, kterou je třeba dotáhnout do konce, má šanci na úspěch. To samé se týká schvalování nejrůznějších žádostí.",
        "relationships": "Rodina ocení to, jakým způsobem se staráte o její komfort a pohodlí. Navíc máte talent udělat jim domácí prostředí útulné.",
        "health": "Pobyt na čerstvém vzduchu spojte s lehkou fyzickou aktivitou. Stačí ostrá chůze, abyste si skvěle pročistili plíce.",
        "tips": "Čtení literatury faktu, nákup kancelářských potřeb, mytí auta, barvení vlasů, péče o chrup, nákup drogerie a kosmetiky."
    }
}