{
    "aries": {
        "main": "Pokuste se neděli uchopit tak, že svým chováním a rétorikou nebudete ubližovat nejen ostatním, ale také sobě. Jakékoliv invektivy by mohly někoho ranit a vás mrzet. Protože jste i dnes celkem impulzivní, vyhněte se obchodům kde byste, jen utráceli.",
        "love": "V dlouhodobých vztazích vás dnes může cokoliv nepříjemně rozhodit. Nenechte se. Litovali byste každého slova, které dnes vyřknete.",
        "work": "I dnes se vás drží nutkavé choutky něco nakupovat. Nemyslíte při tom na horší časy a to by se vám mohlo tedy sakra vymstít.",
        "relationships": "To, že někdo nesouhlasí s vašimi názory, neznamená, že se musíte přestat bavit. To by svědčilo o vaší duševní nevyzrálosti.",
        "health": "Také dnes dodržujte pitný režim, jak to jen půjde. Ale nezapomínejte, že byste mohli prostydnout kvůli špatnému oblečení.",
        "tips": "Hraní deskových her s kamarády v parku, návštěva hudebního festivalu, plánování zimní dovolené na horách, meditace."
    },
    "taurus": {
        "main": "Jakkoliv se budete snažit, první říjnová neděle pro vás nemusí být tak povedená, jak byste si přáli. Vyrovnat se budete muset s nepříjemným chováním partnera, ale také se svou vlastní nervozitou. Je pro vás záhadou, kde jste k ní dnes přišli.",
        "love": "Budete se také dnes muset vyrovnat nepochopením a nedorozuměními. Je třeba zatnout zuby a věřit, že toto zvládnete se ctí.",
        "work": "Měli byste rozhodně lépe přemýšlet o všech nabídkách, které se dnes k vám dostanou. Nejsou totiž tak výhodné, jak se zdá.",
        "relationships": "Zkuste potlačit touhy dát průchod svým nepříjemným emocím. Můžete své blízké docela dost vyděsit. Vztek a křik nejsou řešení.",
        "health": "Nepřeceňujte se, pokud si budete dávat zmrzlinu nebo ledovou kávu. I pár kostek ledu vám dokáže způsobit problémy.",
        "tips": "Hledání zimní dovolené u moře, plánování třídního srazu, kosmetické procedury, pečení jablečných dezertů, meditace."
    },
    "gemini": {
        "main": "V neděli se můžete shodou okolností dostat do kontaktu s tak přitažlivou osobou, která vás naprosto uhrane. Nejste-li zadaní, nic nestojí v cestě tomu, abyste se blíže poznali. Ti z vás, kteří mají rodinu, by se měli věnovat společným hobby.",
        "love": "Kdosi s obrovských sex-appealem se bude dnes pohybovat ve vaší blízkosti. Jste-li nezadaní, není důvod proč se neseznámit.",
        "work": "Z jakéhokoliv investování a obchodování můžete jen vytěžit. Pokud se vám něco nabízí, dejte se do toho bez obav.",
        "relationships": "Plány, které máte na říjen s rodinou nejsou vůbec špatné. Dnes je doma předneste a uvidíte, komu udělají velkou radost.",
        "health": "Ať už se dnes stane cokoliv, snažte se zachovat klid a chladné uvažování. Rozčilováním byste se dostali do problémů.",
        "tips": "Dopoledne s dětmi v aquaparku, jóga podle online videa, regenerační masáže zad, plavání, venčení pejsků s kamarády."
    },
    "cancer": {
        "main": "Dnes nebudete tolik spokojení s průběhem dne, jak byste rádi byli. Je před vámi mnoho složitých situací, které budou třeba řešit s chladnou hlavou. Nechte stranou nevděk příbuzných, který vůči vám projeví. Raději se soustřeďte na své další kroky.",
        "love": "Pokud nezkrotíte své emoce, které s vámi nyní cloumají, nebudete v lásce úspěšní. Rozhodně ne tak, jak byste si přáli.",
        "work": "Hlídejte výdaje svých potomků. Nenechte se jimi neustále přemlouvat k nákupům zbytečností, o kterých tvrdí, že je potřebují.",
        "relationships": "Máte pocit, že i přes vaši snahu pomáhat vám vaši nejbližší nejsou tolik vděční, jak by asi měli. To vás může rozesmutnit.",
        "health": "Dodejte tělu vápník. Ten zajistí, aby klouby mohly fungovat bez velké lékařské péče. Chce to ale důslednost a pravidelnost.",
        "tips": "Čtení knížek s dětmi, sledování televizní pohádky, poslech vinylových desek, malování olejovými barvami, salsa."
    },
    "leo": {
        "main": "Den může být krásný díky tomu, že si uděláte společné chvilky s vaším novým miláčkem příjemnější. Zajděte si na oběd do příjemné restaurace nebo odpoledne do kina. Nic vám nebrání ale také zůstat doma a za dveřmi ložnice se intimněji poznávat.",
        "love": "S vaší novou známostí jde všechno tak, jak jste si tajně přáli. Ale je nutné přiznat, že na tom máte doslova lví podíl.",
        "work": "Potěší vás zjištění, že nějaké nákupy budou ještě obohaceny o jisté bonusy nebo výhody. V dnešní době si jich važte.",
        "relationships": "Přestože máte stále chuť k setkáním s přáteli, dnes si dejte pohov. Zítra začíná nový pracovní týden, připravte se na něj.",
        "health": "Pokud se sami nemůžete vypořádat s toxiny v těle, zvolte si nějakou vhodnou masáž. Najdete jistě spoustu variant.",
        "tips": "Ruční mytí automobilu v myčce, nákup potravin s dovážkou do domu, procházka k nejbližší řece, výlet vlakem do okolí."
    },
    "virgo": {
        "main": "Milostné vztahy budou dnes problém. Pokud máte pocit, že musíte ustupovat jen vy a není to spravedlivé, je tomu tak. Ovšem násilím nebo vynucováním ničeho nedosáhnete. Zvažte, zda vám současný partnerský vztah opravdu přináší to, co by měl.",
        "love": "Pokud se vám v mileneckém vztahu nedaří, nic nelamte přes koleno. Musíte se cítit dobře a milovaní. Jinak to nemá cenu.",
        "work": "Sice se na první pohled může zdát, že se vám jisté předměty hodí a jsou nadčasové, ale opak je pravdou. Brzy vás omrzí.",
        "relationships": "Pokud se dnes přenesete přes nepříjemné poznámky doma, bude vám lépe. Musíte však na to najít síly. Zkuste to, stojí to za to.",
        "health": "Vyberte si nové cvičení pod dohledem trenéra. Je jasné, že bude mít více nápadů a zkušeností, které mohou pomoci.",
        "tips": "Hledání zájmového kroužku pro děti, fotografování v zoologické zahradě, telefonát s bývalým spolužákem, příprava do práce."
    },
    "libra": {
        "main": "Dobře se může dařit těm, kteří se dnes oddají romantice a milostným záležitostem. Tam máte opravdu velké příležitosti, jak se den nejen užít, ale také zapracovat na počínajícím partnerském vztahu. Nepropásněte svou šanci na něco velmi krásného.",
        "love": "Nezadaní z vás mohou vyrazit na rande s velkou nadějí na úspěch. Budete mile překvapení, jak snadno vše půjde.",
        "work": "Neúměrně vysoké budou dnes vaše investice do předmětů, které ale prakticky vůbec nepotřebujete. Zvažte tedy jejich nákup.",
        "relationships": "Ani dnes nebudete klidní a trpěliví. Dost vás mohou stále trápit rozbouřené emoce a neurovnané spory v rodině.",
        "health": "Zkuste si naplánovat takový jídelníček, který vás ochrání před alergiemi. Máte mnoho možností, jak něco vhodného najít.",
        "tips": "Sušení podzimního ovoce, výroba bylinného odvaru, domácí barvení vlasů, pěstování bonsají, studium ikebany, kendó."
    },
    "scorpio": {
        "main": "Pokud se nyní snažíte o navazování nových kontaktů, tak to má úplně jiný důvod, než by do vás lidé řekli. Netoužíte totiž po ničem jiném, než po nových zkušenostech, informacích a zajímavostech. Jste dychtiví po všem novém, ovšem láska to zřejmě není.",
        "love": "Rádi byste navázali nové kontakty, ale jen v přátelské rovině. Chcete poznávat nové věci a získávat zkušenosti.",
        "work": "Máte i dnes silný smysl pro povinnost, takže místo utrácení za nesmysly budete platit jen složenky a účty. Musíte to přijmout.",
        "relationships": "S novými informacemi a vědomostmi se můžete pochlubit vašim blízkým. Budou překvapeni, co všechno znáte a umíte.",
        "health": "Bude fajn, pokud si naordinujete brusinkový čaj. Ten vám pomůže při ochraně před infekcí močových cest a propláchne ledviny.",
        "tips": "Kosmetické profesionální procedury, plánování nového pracovního týdne, sledování kriminálního seriálu, pečení kaštanů."
    },
    "sagittarius": {
        "main": "Nezadaní jedinci vašeho znamení by se neměli chovat nesměle a vysedávat v koutě. Naopak buďte vidět a pokud obdržíte pozvání ke schůzce, neodmítejte ho. Osoba, která vás pozve, se vám nejen líbí, ale ani vy jí nejste lhostejní. Je to znamení.",
        "love": "Byla by škoda chovat se skromně a nenápadně, když se kolem vás stále častěji objevuje někdo velmi přitažlivý. Má o vás zájem.",
        "work": "Nečekané výdaje vás konečně přimějí, abyste se zamysleli nad ukládáním korunek stranou. V této náročné době se budou hodit.",
        "relationships": "Vyhýbejte se rozhovorům s příbuznými, o kterých si nemyslíte nic dobrého. Mohou z vás jen dolovat informace o rodině.",
        "health": "Dnes byste mohli ostatním půjčit energii a ještě by vám zbylo dost pro vás samotné. Využijte ji k pozitivním aktivitám.",
        "tips": "Procházka v botanické zahradě, četba zahraničního tisku, sledování politické debaty, návštěva koňských dostihů."
    },
    "capricorn": {
        "main": "To, že se vám něco momentálně nevydařilo v lásce vás může dost mrzet. Bude třeba, abyste si tuto zkušenost odžili a procítili. Díky tomu můžete přijít na to, proč se to stalo. Také vás to může poučit do budoucna. Nevěšte hlavu, i když to není jednoduché.",
        "love": "Můžete se dočkat odmítnutí od vašeho nového idola a také následného ukončení vztahu. Nenechte se ale odradit od lásky.",
        "work": "Uvědomíte si, že jste v dost obtížné situaci, co se financí týká. Naštěstí ještě není tak pozdě, aby se dalo něco dělat.",
        "relationships": "V rámci cestování také rádi poznáváte lidi z jiných kultur. To není vůbec špatná vlastnost. Můžete mít mnoho známých.",
        "health": "Disponujete velkou dávkou energie, o kterou byste se hned mohli s někým dělit. Zkuste ji ale využít pouze a jen pro sebe.",
        "tips": "Návštěva u příbuzných, psaní krátkých povídek, výroba šperků z korálků, pečení domácího chleba, filatelie, bonsaje."
    },
    "aquarius": {
        "main": "Vaše kroky v jakékoliv oblasti života máte hned počátkem října opravdu dobře promyšlené. Víte, kde zvolnit a naopak, kdy byste měli mít nad situací pevný dohled. Není proto divu, že máte v podstatě úspěch kdekoliv a s kýmkoliv. To je skvělé.",
        "love": "Víte, že nemá cenu na vašeho nového partnera vyvíjet jakýkoliv nátlak. Mohl by ho totiž vyděsit a vše by bylo ztracené.",
        "work": "Máte velmi dobře promyšleno, do čeho vložíte své finance. To je správné. Veďte k tomu také své děti, naučí se tím hodně.",
        "relationships": "Rodina se na vás v mnoha ohledech spoléhá a ví proč. Jste pro ně naprosto nezastupitelní v jistých záležitostech.",
        "health": "Pocítit můžete problémy s pohybovým aparátem. Dnes to mohou být velké klouby, jako jsou kolena. Nohy si šetřete.",
        "tips": "Sportovní aktivity s dětmi v přírodě, houbaření, sbírání podzimních plodů a ovoce, sledování sportovního utkání."
    },
    "pisces": {
        "main": "Měli byste poslouchat vaši intuici, která vám dnes může hodně ulehčit život, a to po všech stránkách. Zastavte se na chvíli a vnímejte, co vám život přináší a zda je to přesně to, co jste chtěli. Pokud ne, okamžitě změňte směr. Uvidíte, jak se vše pohne.",
        "love": "Naslouchejte signálům vaší intuice, které jste doposud přehlíželi. Ukáží vám přesný směr, kterým se v lásce vydat.",
        "work": "Také dnes vám budou v hlav vrtat investice, které byste rádi udělali. Popřemýšlejte o nich z dlouhodobého hlediska.",
        "relationships": "Pokud to jde, dnes se absolutně distancujte od širšího příbuzenstva a nenavazujte s nimi kontakty. Je to kontraproduktivní.",
        "health": "Přílišná snaha o nabírání nových sil může být kontraproduktivní. Nelámejte nic přes koleno a nechte se nést dnem v pohodě.",
        "tips": "Setkání s přáteli, příprava pohoštění pro návštěvy, četba zahraniční literatury, sušení podzimního ovoce a hub."
    }
}