{
    "aries": {
        "main": "Vyplatí se, abyste se ještě pokusili se svým protějškem udobřit. I když se na vás může tvářit nazlobeně, uvnitř již pomalu roztává a přemýšlí, že vám odpustí. Pokuste se tedy našlapovat po špičkách a opět nic nepokazit. Třeba rychlým jednáním.",
        "love": "Pokuste se ještě jednou dnes svému partnerovi omluvit. Možná najdete způsob, jak byste si ho mohli konečně udobřit.",
        "work": "Nadřízený vám dnes projeví vděk a komplimenty za vaše momentální výkony a přístup k práci. Hodně vás tím může překvapit.",
        "relationships": "Před přicházejícím úplňkem se mohou nálady vás i vašich blízkých měnit jako dubnové počasí. Nenechte se rozhodit.",
        "health": "Co takhle si dnes vyrazit na masáže nebo do vířivky? Také saunování má své pozitivní účinky v tomto ročním období.",
        "tips": "Setkání s přáteli u kávy, hraní na hudební nástroje, zpívání s dětmi, domácí karaoke, nákup herního losu, příprava na víkend."
    },
    "taurus": {
        "main": "Rodina se vás zřejmě pokusí překvapit nějakým skvělým plánem na volné dny nebo dnešní večer. Pokud to odmítnete, bude vás to později mrzet. Přijměte to, že se vás snaží rozptýlit a dělají to z lásky k vám. Nikoliv ze svých sobeckých důvodů.",
        "love": "Pomohlo by vám, kdybyste se s protějškem dnes dokázali přenést přes nepříjemnosti, které vám komplikují současné dny.",
        "work": "Přehodnotíte vše, co jste dosud v práci zažili, a bude chtít svou reputaci opět napravit. Nebude to nakonec tak složité.",
        "relationships": "Pokud vás vaši milovaní doma překvapí nějakým příjemným programem na páteční den či nadcházející víkend, neodmítejte to.",
        "health": "Místo sladkých, nezdravých svačinek můžete během dne popíjet čerstvě připravené smoothie ze zmražených letních plodů.",
        "tips": "Vyřizování pracovních e-mailů, káva s kolegy po obědě, fotografování v botanické zahradě, úklid zahradního nábytku."
    },
    "gemini": {
        "main": "V zaměstnání vyčníváte vysoko nad ostatními svými výkony a také přístupem k povinnostem. Nadřízený si toho samozřejmě všímá a může mít pro vás již připraveny jisté odměny nebo benefity. Zatím však ještě vyčkává, aby se ve svém rozhodnutí utvrdil.",
        "love": "Charismatickou osůbku po vašem boku, kterou jste potkali nedávno, vám může dost lidí dnes závidět. Mají také proč.",
        "work": "Vašemu šéfovi se zalíbí váš přístup k práci a to, jak umíte vše vyřídit a sklízíte úspěchy. Uvažuje i o finanční odměně pro vás.",
        "relationships": "Hledání nových informací a možných zážitků, to je to, co vás dnes bude především naplňovat. Doporučit vám mohou něco přátelé.",
        "health": "Dobré zdraví je třeba také udržovat nejrůznějšími vitaminovými přípravky, které můžete nakoupit v lékárně. Nechte si poradit.",
        "tips": "Home office, úklid pracovního stolu, dokoupení kancelářských potřeb, sportování s dětmi, hraní deskových a vědomostních her."
    },
    "cancer": {
        "main": "Domů dnes z práce můžete přijít příjemně nabuzení a s velkou energií. Ovšem ostatní mohou být v lenošivější náladě, což vám může trochu vadit. Pokuste se s nimi však nehádat a buďte více tolerantní. Také ke svému partnerovi buďte ohleduplní.",
        "love": "Jakmile uděláte alespoň minimální gesto a přestanete naléhat na partnera, hned mezi vámi začne proudit správná energie.",
        "work": "I kdybyste měli povinností nad hlavu, dnes je zvládnete stejně dobře jako v předešlých dnech a půjdete včas domů.",
        "relationships": "Snažte se o udržení klidu a nehádejte se. Nechcete mít přece pokažený nacházející víkend? Zvolte metodu kompromisu.",
        "health": "Zkuste dnes bezmasou stravu. Není to vůbec špatné nechat tělo jeden den odpočívat a nenamáhat si zbytečně zažívání.",
        "tips": "Nákup nové kosmetiky, lékařská prohlídka, hledání nové brigády na podzim, sestavení nového jídelníčku, studium astrologie."
    },
    "leo": {
        "main": "Zaujmout vás může osoba, která je nesmírně atraktivní a vyvolává ve vás velmi silné erotické představy. Bohužel to ale nebude fungovat v duševním souznění. Jste každý z jiného těsta. Smiřte se s tím, že mezi vámi může vztah fungovat pouze v rovině sexu.",
        "love": "Kdosi vás může velmi silně přitahovat, ale přesto se v jeho společnosti necítíte dobře. Musíte si udělat v myšlenkách jasno.",
        "work": "Můžete dnes začít s některými kolegy nový projekt. Dobře si vše naplánujte, ať vám spolupráce na novém úkolu jde od ruky.",
        "relationships": "Nenechte se dnes opět vtáhnout do hádek s příbuzným. Zbytečně byste si kazili doma dobrou náladu. To přece nechcete.",
        "health": "Hlídat byste si měli stav svých zubů. Objednejte se ke svému stomatologovi na kontrolu, ať máte klid, že je vše v pořádku.",
        "tips": "Wellness procedury doma, nákup nových šperků a kabelek, výroba interiérových dekorací, fotografování podzimní přírody."
    },
    "virgo": {
        "main": "Budete mít od rána v hlavě myšlenky jen na váš nový vztah, který se nevyvíjí podle vašich původních představ. Napadat vás mohou nejrůznější řešení, ale měli byste si je zatím nechat jen pro sebe a rozhodně je nevytahovat do diskuse s partnerem.",
        "love": "Jestliže vás dnes napadnou radikální myšlenky, zatím si je ještě nechte projít hlavou. Nemusíte dnes vynášet žádné soudy.",
        "work": "I když ze sebe máte dobrý pocit, šéf to tak optimisticky nevidí. Nejlepší bude, když jeho poznámky budete dnes ignorovat..",
        "relationships": "Páteční den uteče jako voda. Než se nadějete, bude večer. Ten můžete prožít se svými blízkými a dobře se bavit.",
        "health": "Jakákoliv náročná manuální práce pro vás dnes není to pravé ořechové. Můžete si přivodit ošklivé a bolestivé poranění.",
        "tips": "Plánování zimní dovolené na horách, péče o starší příbuzné, hledání předvánoční brigády, studium cizího jazyka, meditace."
    },
    "libra": {
        "main": "Do života vám zřejmě vstoupila osoba, která vás od prvního setkání baví a je vám s ní hodně příjemně. Uvědomíte si, že si s tímto člověkem dokážete představit další schůzky. Jestliže ale budete příliš tlačit na pilu, můžete si šanci pokazit.",
        "love": "S někým, s kým se nějaký čas vídáte, vám dnes může být opravdu hodně příjemně. Zjistíte, že ve scházení se chcete pokračovat.",
        "work": "Ani dnes by vás v práci nemělo zaskočit nic, s čím byste si neuměli poradit. Ale nezůstávejte kvůli tomu ani o minutu déle.",
        "relationships": "Páteční podvečer vám i rodině může zpříjemnit návštěva kina. Pokud vaši drazí nebudou chtít vyrazit, máte ještě přátele.",
        "health": "Problémy s kůží, alergie či kopřivka mohou být i vážnějšího charakteru. Bude nutné se nechat ošetřit u lékaře, zajděte si tam.",
        "tips": "Pořízení kancelářských potřeb do domácnosti, kontrola domácího účetnictví, založení nového spořicího účtu, sportování."
    },
    "scorpio": {
        "main": "V práci možná dojde ke změnám, které vás zaskočí a ani trochu se vám nemusí líbit. Pokud to budou navíc změny personálního charakteru, bude vám to ležet v hlavě ještě několik dní, než vše přijmete. Bohužel to jsou skutečnosti, které musíte respektovat.",
        "love": "Nacházející úplněk vám bohužel do milostného života přináší chaos a zpomalení. Myslete na to, že vše mají na svědomí hvězdy.",
        "work": "Jisté změny v kolektivu pro vás mohou být nečekané a taková informace vás dost zaskočí. Budete se z toho dlouho dostávat.",
        "relationships": "Večerní zábavou pro vás může být turnaj v pokeru s přáteli. Zahrajte si o něco zajímavého, ať to má atmosféru.",
        "health": "Meditace je vhodná ke zklidnění mysli, dechu a také k novému způsobu života. Stačí si jen vybrat tu správnou techniku.",
        "tips": "Hraní her na počítači s kamarády, četba nového historického románu, nákup nového elektrokola, studium kaligrafie, filatelie."
    },
    "sagittarius": {
        "main": "V zaměstnání dojde k nedorozumění mezi vámi a některými z kolegů. Mají z vás totiž pocit, že se nechcete podílet na společných úkolech. Je pravděpodobné, že to nezůstane jen mezi vámi a jimi, ale také se to může donést nadřízenému. Jednejte rychle.",
        "love": "V dlouhodobých vztazích nastávají mezi vámi a partnerem konkurenční boje. Je škoda, že si takto chcete kazit pátek.",
        "work": "Kolegové mají pocit, že se s nimi nechcete o práci dělit. Není na místě se s nimi raději dohodnout na povinnostech?",
        "relationships": "Hledejte možnost, jak si připravit na víkend nějaký zajímavý kulturní program. Zkuste něco neobvyklého, po čem jste toužili.",
        "health": "Neplácejte dnes jedno jídlo přes druhé. Bude vám nejen špatně, ale budete mít i výčitky kvůli své postavě. To není dobré.",
        "tips": "Úklid sklepa nebo garáže, pořízení nových pracovních nástrojů, venčení pejska, turnaj v šipkách s kamarády, příprava koktejlů."
    },
    "capricorn": {
        "main": "V lásce jste zřejmě dostali opravdu zabrat, takže momentálně na vztahy ani nepomýšlíte. Ovšem do budoucna nevylučujete nic. Nechte tedy zahojit svou duši přirozeným procesem a uvidíte, co vám život znovu přinese. Nyní se však musíte zotavit.",
        "love": "Přestože jste dostali v lásce jistou nepříjemnou lekci, i tak se nemíníte vztahů vzdát. Dnes na to ale nemyslíte.",
        "work": "Pokud to půjde, dnes si povinnosti dokončete včas a utíkejte domů. Potřebujete si odpočinout, a ne vysedávat do noci u počítače.",
        "relationships": "Domácí kino, něco dobrého na zub a svařené víno. To by vám dnes mohlo stačit ke štěstí, co myslíte? Podzimní večer si to žádá.",
        "health": "Dostatek zeleniny vám zaručí dobrý příjem vitaminů a potřebných látek, ale také dostatečné množství vlákniny do těla.",
        "tips": "Úprava životopisu, hledání podzimní brigády, plánování víkendových aktivit, nákupy potravin do zásoby, setkání se sousedy."
    },
    "aquarius": {
        "main": "S partnerem byste dnes měli opustit vám velmi dobře známý domov a vyjít si mezi lidi. Změna prostředí vám jistě pomůže. Takže pokud to půjde, jděte třeba do kina na nový film. Nakonec se ale oba dva budete těšit domů, konkrétně do ložnice.",
        "love": "Vyrazte si do kina s partnerem. Uvidíte, jak rychle mezi lidmi přijdete na jiné myšlenky. Ale domů se budete opravdu těšit.",
        "work": "Ani dnes vám nic neunikne. Umíte si poradit se vším, co vám dnes přistane na stole. Bystré myšlení vám není cizí.",
        "relationships": "I vy se dnes můžete cítit vyčerpaní. Dopřejte si alespoň aromatickou koupel, která vám udělá dobře na psychiku.",
        "health": "Užíváním probiotik dostanete své tělo do pohody, co se imunity týká. Nakupte si kvalitní přípravky v lékárně nebo obchodě.",
        "tips": "Péče o domácí mazlíčky, třídění oblečení pro charitu, registrace na online seznamce, poslech vinylových desek, sportování."
    },
    "pisces": {
        "main": "Pozor na to, abyste se dnes, těsně před víkendem, nepohádali s partnerem. Ve vzduchu visí hádky a naprosto zbytečné. Vyhněte se tedy řešení malicherností a hledání chyb na tom druhém. Druhý den uvidíte, že vaše reakce byly naprosto přehnané.",
        "love": "Doma se mezi vámi a vaším protějškem může schylovat k hádce kvůli malichernostem. Buďte vy těmi, kdo bude klidnější.",
        "work": "Zanechte sklonů porovnávat se s ostatními kolegy. Máte své zkušenosti a dovednosti, které jsou cenné. Važte si toho.",
        "relationships": "Dobrým programem na páteční podvečer je domácí kino nebo karaoke s rodinou či přáteli. Pobavit se můžete v pohodlí domova.",
        "health": "Dnes by vás mohli kamarádi tahat ven na skleničku alkoholu. Pokud si dáte jen jednu, tak klidně vyrazte. Jinak seďte doma.",
        "tips": "Čtení pohádek s malými dětmi, nákup zimní dovolené v zahraničí, úklid domácnosti, psaní humorných fejetonů na internetu."
    }
}