{
    "aries": {
        "main": "Budete míc více starostí v práci. Soustřeďte se tedy na to a ostatní nechte volně plynout. Stejně byste počátkem týdne nic jiného nevyřešili. Doma vás mohou unavovat spory, takže dáte vesele přednost těm lidem, se kterými je momentálně větší legrace.",
        "love": "Nezadaným stále nehrozí nic nepříjemného ve vztazích. Raději se ale věnujete přátelům, kteří jsou vám blízcí.",
        "work": "To, že přehlížíte jisté povinnosti, vám v tomto týdnu přidělá hromadu práce navíc. Bude třeba pracovat i doma.",
        "relationships": "Přestanou vás bavit spory doma, a tak se budete snažit trávit čas s přáteli, se kterými je legrace. Máte jich hodně.",
        "health": "V těchto dnech vás mohou zlobit ledviny. Především tehdy, pokud si budete dopřávat alkoholu více, než je zdrávo.",
        "tips": "Rozhovor s nadřízeným, týmová spolupráce na novém projektu, nákup nových knížek pro děti, malování akvarelovými barvami."
    },
    "taurus": {
        "main": "Váš miláček se nemá k tomu, aby vám projevil více citů a láskyplných vyznání. Budete to muset bohužel oželet, pokud se nechcete hádat. Netlačte na něj, sám si brzy uvědomí, kde udělal chybu. Raději se zaměřte na svou práci, tam máte co dohánět.",
        "love": "Od partnera očekáváte větší příval citů a vyznání než doposud. Bohužel se toho dnes nemusíte dočkat. Zkuste vydržet.",
        "work": "Chybí vám nadšení do práce a váš nadřízený to samozřejmě zaznamená. Budete nyní pod jeho ostřížím zrakem, pozor na to.",
        "relationships": "Není vhodné nyní investovat do nejrůznější vzdělávacích kurzů. Ať už svých, nebo vašich dětí. Jsou špatně zvolené.",
        "health": "V tomto týdnu si musíte dávat dobrý pozor na nachlazení. Podzimní počasí tomu nahrává v plné síle. Dbejte na oblékání.",
        "tips": "Pouštění draka, podzimní servis kola, trénink ve fitku, výtvarné aktivity s dětmi, fotografování, žhavé rande, zpívání, malování."
    },
    "gemini": {
        "main": "Lákat vás budou noví známí, se kterými si dobře porozumíte v důležitých oblastech života. S těmi jste schopní diskutovat. Jakmile vás ale začnou nudit, rádi se vrátíte ke svým jistotám. V práci vám zatím vše přeje a nestojí vám v cestě žádná překážka.",
        "love": "Dnes budete rádi společníkem někomu, kdo je atraktivní a zábavný. Ať již vyrazíte mezi lidi, nebo zůstanete doma.",
        "work": "Pokračujete v nastaveném tempu z minulého týdne a využíváte všech svých dovedností k úspěchům v zaměstnání. Půjde to dobře.",
        "relationships": "V tyto dny umíte vstřebávat všechny nové informace velice rychle a jednoduše. Věřte tomu, že se vám budou hodit.",
        "health": "Můžete nyní procházet složitějším období, které se odrazí na vašem psychickém rozpoložení. Dejte si pozor na stres.",
        "tips": "Drobné renovace domácnosti, kontrola domácího účetnictví, poslech vinylových desek, sepisování rodinných receptů."
    },
    "cancer": {
        "main": "To, že vám nyní nejde komunikace s partnerem, se odráží i v pracovní sféře. Nejste schopní se soustředit na cokoliv a váš nadřízený vám to brzy vyčte. Pokuste se tedy zaměřit pozornost tam, kde cítíte největší problémy. Můžete je snadno odstranit.",
        "love": "Žárlivost na vašeho partnera vás vede k neuváženým výrokům. Ty mohou váš vztah opravdu poškodit. Dávejte si na to pozor.",
        "work": "Vy nebudete bohužel v dobré mentální kondici a může docházet ke zbytečným chybám. Dejte si pozor na ukvapená řešení projektů.",
        "relationships": "Vy jste vaší rodině vždy nablízku a pomáháte, kde můžete. To je chvályhodné, ale také se můžete zcela vyčerpat.",
        "health": "Již od dnešního dne můžete pociťovat bolesti kloubů. Především ti z vás, kteří tím trpí chronicky, delší dobu.",
        "tips": "Práce z domova, příprava nové prezentace, vegetariánské jídlo, odpolední vycházka s dětmi na hřiště, houbaření."
    },
    "leo": {
        "main": "Dobrý dojem uděláte svým chováním na vaše nové objekty zájmu. Umíte je svým galantním chováním přesvědčit, že jste neúžasnějšími bytostmi v jejich životě. Vaše cílevědomost vám také pomáhá v pracovní sféře, kde jí je ale opravdu potřeba víc než kdy jindy.",
        "love": "Na ty, o které máte zájem, umíte udělat opravdu dobrý dojem. Mají z vás dnes pocit, že jste ty nejúžasnější osůbky.",
        "work": "Nechybí vám cílevědomé chování, což vám hodně pomáhá v dosažení vysněných kariérních cílů. Nesmíte ztratit nastavené tempo.",
        "relationships": "Máte mnoho energie a také mnoho plánů. Je možné, že znovu zatoužíte po setkání s dobrými kamarády. Uspořádejte večírek.",
        "health": "Pokud si zajdete na lymfatické masáže, může vám to hodně usnadnit fungování v tomto měsíci. Je třeba čistit tělo.",
        "tips": "Dietní jídelníček, nákup čerstvých surovin, cvičení pilates, meditace a dechová cvičení, poslech vinylových desek."
    },
    "virgo": {
        "main": "Budete dnes sršet sebevědomím, i kdyby se mělo stát cokoliv. V pracovní sféře vám vše bude vycházet, jak jste si naplánovali. To je pro vás obrovská motivace. Navíc budete dobrým vzorem pro nové i starší kolegy, a to se také cení. Jste zkrátka na špici.",
        "love": "I kdybyste nyní ukončili nový vztah, nic vás nerozhodí. Víte, že to nebylo zřejmě to pravé pro vás. Svědomí máte čisté.",
        "work": "V práci si poradíte dnes téměř s každým úkolem. Není pro vás problém pomoci i ostatním kolegům, protože vám záleží na úspěchu.",
        "relationships": "V domácím prostředí panuje dusno a to vám moc klidu na duši nepřidá. Máte rádi svou pohodičku. Ta však nyní chybí.",
        "health": "Vy se opravdu nemusíte bát o svou fyzickou kondici. Spíše tělu dopřejte vitaminy, aby bylo nadopováno před nadcházející zimou.",
        "tips": "Studium cizího jazyka, projížďka na kole po okolí, nákup nových knížek ke studiu, příprava ovocných dezertů a dortíků."
    },
    "libra": {
        "main": "Nemáte nyní nouzi o nové ctitele. Naopak jich máte tolik, že nevíte, s kým dřív si vyjít na rande. Musíte vybírat, ale nemůžete ani sáhnout vedle. Všichni potenciální partneři jsou velice kvalitní osůbky, se stejnými zájmy, jaké máte vy. Tak do toho.",
        "love": "O nápadníky nouzi nemáte. Na schůzku jděte klidně s kýmkoliv, nemůžete se prakticky splést při dnešním rozhodování.",
        "work": "Stojí před vámi několik úkolů, které můžete brát jako výzvu. Uvidíte, že máte na to se s nimi poprat. Ostudu si neuděláte.",
        "relationships": "Dlouhodobé potíže v rodině se mohou opět objevit na scéně. Vám to na náladě rozhodně nepřidává. Budete ve stresu.",
        "health": "U vás mohou nastat velké problémy s pokožkou. Dávejte si dobrý pozor na to, jaké používáte kosmetické produkty.",
        "tips": "Oprava domácích spotřebičů, podzimní úklid domácnosti, procházka přírodou, rybaření, venčení pejska v parku."
    },
    "scorpio": {
        "main": "Vystačíte si dnes sami se sebou. Nic nestojí v cestě ani výletu, na který se vydáte sami bez problémů. Naopak si možná tento stav budete užívat. Věřte svým instinktům jak v práci, tak v osobním životě. Hodně se vám to vyplatí jak dnes, tak i do budoucna.",
        "love": "Na to, abyste vyrazili na nějaký pěkný výlet, není nutné hledat partnera na seznamce. Můžete si klidně vyrazit sami.",
        "work": "V práci bude třeba ustát náročnější období. Vy to však můžete zvládnout, pokud budete věřit vlastnímu úsudku i zkušenostem.",
        "relationships": "Máte dar nyní nasávat všechny nové informace jako houba. Měli byste se zamyslet nad novým rekvalifikačním kurzem.",
        "health": "Močové cesty budou vaší velkou starostí. Tedy pokud si nedáte pozor. Hodně pijte, snažte se neprochladnout a nechytit infekci.",
        "tips": "Nákup zimního oblečení a obuvi, servis letních sportovních potřeb, jóga ve skupině s lektorem, četba cizojazyčných knih."
    },
    "sagittarius": {
        "main": "Máte sklony k sobě lákat nové lidi jako lampa noční můru. Je toho tolik, co na vás mohou ostatní obdivovat. Je důležité, abyste si to dnes uvědomili i vy sami. Zkuste takto zapůsobit i na kolegy v práci. Když jim odhalíte kousek sebe sama, bude vše jinak.",
        "love": "Opačné pohlaví na vás dnes bude moct oči nechat. Může za to vaše atraktivita a otevřená povaha. Tím lákáte všechny k sobě.",
        "work": "S kolegy to moc dobré v práci nebude. Nemůžete se shodnout skoro na ničem. Řešení se bude muset ujmout váš nadřízený.",
        "relationships": "V důležitém rodinném rozhodování nemáte zcela jasno, na čí stranu se vůbec máte postavit. Bude vás to hodně trápit.",
        "health": "Jako jedno z mála znamení budete plní energie. Je jasné, že ji taky ale musíte někde vydat. Máte svůj oblíbený sport, že ano?",
        "tips": "Reklamování závadného zboží, návštěva městské knihovny, vyřizování úředních záležitostí, luštění rébusů, tanec v páru."
    },
    "capricorn": {
        "main": "Můžete pocítit absolutní nedostatek lásky a empatie od druhých. V milostné oblasti budete jako na houpačce a budete postrádat pevnou půdu pod nohama. Nic si z toho nedělejte, je to přechodné období, které skončí stejně tak rychle, jak začalo.",
        "love": "Cítíte se vyčerpaní a to bude mít dopad i na vaše milostné vztahy. Jako kdybyste se nemohli v ničem zorientovat.",
        "work": "Bude znát, že jste velmi vyčerpaní. To, co byste dělali za běžné situace, dnes budete zvládat velmi těžko. Chce to klid.",
        "relationships": "Objem vašich znalostí a zkušeností je neuvěřitelný. Je škoda, pokud se o ně nechcete podělit alespoň s někým z rodiny.",
        "health": "Kupodivu vám nehrozí žádné velké zdravotní obtíže. Kromě únavy, která je na podzim typická, se těšíte dobrému zdraví.",
        "tips": "Odpolední relax s knížkou, hledání předvánoční brigády, úprava životopisu, aromaterapie, wellness procedury, meditace."
    },
    "aquarius": {
        "main": "Nesmíte na svého nového miláčka tolik spěchat. Máte v povaze chtít všechno hned a tady. Ale v tomto případě se vám vyplatí velká dávka trpělivosti. Také se potom ale můžete těšit na velice příjemné překvapení. Není hanba jít na lásku dnes pomaleji.",
        "love": "Rádi byste s vaší novou známostí pokročili, ale zatím není kam spěchat. Netlačte zbytečně na pilu, všechno má svůj čas.",
        "work": "V práci si budete dnes počínat docela dobře. Musíte jen našlapovat opatrně a každý svůj krok si rozmyslet. Pak nepochybíte.",
        "relationships": "Doma se na vás ostatní stále spoléhají. To vám sice lichotí, ale na spoustu věcí zůstáváte stále sami. To není řešení.",
        "health": "U vás mohou nastat problémy v oblasti pohybového aparátu. Dbejte o dostatek potravinových doplňků pro klouby a šlachy.",
        "tips": "Psaní romantických básní pro partnera, hraní na hudební nástroje, zpívání, četba klasické literatury, procházka se psem."
    },
    "pisces": {
        "main": "V dlouhodobých vztazích a manželstvích se můžete potkat s velkými zkouškami. Chcete od partnera něco víc než jen tiché večery. Bohužel na to nebude mít dnes asi tu správnou náladu a vy se budete muset přizpůsobit. To je ale přirozená věc mezi partnery.",
        "love": "Dlouhodobé vztahy budou podrobeny zkoušce. Budete vyžadovat pozornost od svého partnera. To se nemusí potkat s pochopením.",
        "work": "Vaše tendence porovnávat se s každým nejsou zrovna to nejlepší, co můžete hned zkraje týdne udělat. Hleďte si svého.",
        "relationships": "Nejste v úplně pohodovém vztahu s jistým příbuzným. Bude nutné si dávat pozor na vše, co dnes na jeho adresu řeknete.",
        "health": "Máte pocit, že vám docházejí síly. Je tomu skutečně tak, jste náchylní k úbytku energie i vitality. Je třeba to napravit.",
        "tips": "Fotografování památek, návštěva sportovního parku s malými dětmi, oběd mimo domov, registrace v online seznamce."
    }
}