{
    "aries": {
        "main": "To, že vám ubývají síly, s sebou nese jen podrážděnost, chaos a absolutní nechuť se pouštět do něčeho náročného nebo nového. Dobře uděláte, pokud si zvolíte mírnější tempo. V práci vám to sice povinnosti tolik nedovolí, ale pokuste se silami šetřit.",
        "love": "Nedostatek trpělivosti, jak už bývá vaším zvykem, vnáší také dnes do mezilidských vztahů chaos. Mohli byste toho litovat.",
        "work": "I přestože pociťujete silnou únavu, nechce se vám jen tak vzdát svých současných možností. Energie vám však ubývá.",
        "relationships": "Místo toho, abyste napravili doma to, co se vám nelíbí, necháte to dnes být. Evidentně si s tím vůbec nevíte rady.",
        "health": "Rána jsou stále chladnější. Musíte umět dobře vrstvit oblečení, abyste neprochladli. Jde jen o zvyk a nápaditost.",
        "tips": "Hraní deskových her s dětmi, příprava rodinné večeře, nákupy čerstvých surovin, poslech jazzové hudby, kosmetika."
    },
    "taurus": {
        "main": "Vaše trpělivost je obdivuhodná. Jak ve vztazích, tak v zaměstnání. Dokážete dnes svému okolí, že na vaši urputnost a výdrž jen tak nikdo nemá. Dobře se to ukáže především v práci, kde i vy sami budete muset uznat, jak moc jste schopní a výkonní.",
        "love": "Vaše drahá polovička opravdu není ve formě, a tak její projevy lásky vůči vám nejsou také nic moc. Budete muset vydržet.",
        "work": "Sami sebe budete v duchu muset pochválit za to, jak jste se dokázali zvednout doslova ze dna. Uvědomíte si, jak jste silní.",
        "relationships": "Možná se k vám nahlásí na víkend návštěva. Připravte se na to předem, ať nic nehoníte na poslední chvíli. Neuspěli byste.",
        "health": "Při bolestech v krku si naordinujte nějaké bylinkové pastilky, které vám od počátečních nepříjemnosti pomohou.",
        "tips": "Zpracování podzimního ovoce a zeleniny, příprava s dětmi do školy, velký úklid domácnosti, odpoledne v umělecké galerii."
    },
    "gemini": {
        "main": "Pokud vás v práci nadřízený pověří, abyste vedli v nějakém projektu tým lidí, ujmete se toho s nadšením. Možná jste totiž na takovou příležitost čekali celkem dlouho a nyní máte konečně šanci předvést, co ve vás opravdu dřímá za schopnosti.",
        "love": "Můžete se těšit na sdílení zájmů a názorů s někým, kdo je vám velmi blízký. Máte stejný pohled na svět oba dva.",
        "work": "Nebude vám vadit organizace většího kolektivu. Ba naopak se v tomto můžete celkem dobře předvést. Šéf to bude kvitovat.",
        "relationships": "Spojíte se s dávnými přáteli a naplánujete si večírek. To je skvělý nápad, můžete zjistit, kam jste se všichni posunuli.",
        "health": "Podrážděné nervy se mohou nepříjemně podepsat na vaší pokožce nejrůznějšími alergiemi nebo dokonce silným ekzémem.",
        "tips": "Nákupy vinylových desek v antikvariátu, studium cizího jazyka, kaligrafie, sledování dokumentárních pořadů, fitness."
    },
    "cancer": {
        "main": "Snažte se zachovat osvědčený pracovní postup a nezavádějte do svých rutinních činností žádné inovace. Dnes se vám nic takového nevyplatí. Můžete totiž něco zanedbat a z toho bude opravdu velký problém. Dělejte tedy vše tak, jak jste doposud byli zvyklí.",
        "love": "Nezadaní jedinci by se neměli neustále zašívat doma. Vyrazte si s kamarády ven a uvidíte, že vše není tak negativní.",
        "work": "Pokud budete těkat z jednoho úkolu na druhý, snadno něco přehlédnete. Je tedy nutné zpomalit a jít krok po kroku. Nespěchejte.",
        "relationships": "Nebudete chtít, aby se stále prohlubovaly příkopy mezi vámi a vašimi příbuznými. Pokusíte se tedy zakopat válečnou sekeru.",
        "health": "Bolavá místa na těle můžete mazat nejrůznějšími gely a krémy. Jen si zjistěte, jaké jsou pro vás opravdu vhodné a neškodné.",
        "tips": "Poslech nové audiotéky, výroba interiérových dekorací, příprava rodinného oběda, odpoledne v plaveckém bazénu."
    },
    "leo": {
        "main": "Jestliže se nechcete vázat ale pouze si užívat žhavé flirty a randění, nic vám v cestě nebrání. Především, pokud vedle sebe máte někoho, kdo to má úplně stejně jako vy. Dnešek podobným milostným dobrodružstvím bude velmi nakloněn. Užijte si to.",
        "love": "Přitažlivost mezi vámi a jistou osůbkou jistě je. Sex je ale tak všechno, co spolu můžete prožít. Možná vám to bude stačit.",
        "work": "Vaše práce bude brzy oceněna, a to i tak, jak si představujete. Těšit se můžete i na lepší pracovní pozici.",
        "relationships": "Do cesty se mohou připlést nějaké hádky v rodině, které se vás bohužel mohou také týkat. Nebude to vůbec příjemné.",
        "health": "Bezlepkové pečivo není vůbec špatné vyzkoušet. Uleví vašemu tělu a také bude chutnat. Stačí ho doplnit dobrou pomazánkou.",
        "tips": "Skládání písní, příprava na víkend s přáteli, hledání nové brigády, luštění rébusů, oprava domácího spotřebiče, pilates."
    },
    "virgo": {
        "main": "Dopřejte si lázně, vířivku nebo masáže. Potřebujete si odpočinout především po fyzické stránce. Svěřit se můžete do rukou odborníků i na místech, která jste ještě nenavštívili. Jistě neprohloupíte. Naopak můžete najít skvělé služby za hezké ceny.",
        "love": "Bez partnera už dlouho po tomto světě chodit nebudete. Ale vy to už také tušíte. Nenechte se odradit ostychem a strachem.",
        "work": "Hleďte si svého a udělejte vše tak, jak se od vás čeká. Jinak dostanete od šéfa opět studenou sprchu a nebude to příjemné.",
        "relationships": "Ani dnes byste se neměli úplně vyhýbat nějakým wellness procedurám. Můžete si během nich srovnat myšlenky v hlavě.",
        "health": "Popíjejte mátový nebo zázvorový čaj s medem. To vám během dne prohřeje organismus a pomůže chránit před nachlazením.",
        "tips": "Návštěva aquaparku s dětmi, cvičení s trenérem, četba humorného románu, setkání s kamarády v baru, nákup lístků do kina."
    },
    "libra": {
        "main": "Máte-li domluvený rozhovor s vaším nadřízeným, velmi dobře si uvědomte a v hlavě srovnejte, co mu vlastně budete říkat. Je možné, že v záchvatu rozčilení nebo chuti sdělit vše můžete prozradit něco, co mělo zůstat utajeno. Zachovejte klid.",
        "love": "Zadaným jedincům na poli lásky moc pšenka nekvete. S partnerem prožíváte citové ochlazení a slyšíte jen kritiku.",
        "work": "Dopředu byste se dnes měli připravit na plánovaný rozhovor s nadřízeným. Jinak hrozí, že vám ujede něco tajného.",
        "relationships": "Naplánujte nějakou kulturní akci pro vás i rodinku na tento víkend. Bude to sice náročnější, ale váš plán bude stát za to.",
        "health": "Dejte si záležet na tom, jaké si kupujete oblečení a z jakých materiálů. Kvalitní bavlněné pomůže předcházet alergiím kůže.",
        "tips": "Poslech motivačního podcastu, studium cizího jazyka, psaní romantických básní, hra na hudební nástroje, kolektivní sporty."
    },
    "scorpio": {
        "main": "Dnes se můžete polekat toho, že se v práci objevily nějaké neshody. Protože máte kolegy rádi, nechcete si je rozhádat. Budete tedy pátrat po příčině těchto hádek. Důvod je ale zcela prostý. Je toho na vás i kolegy zkrátka moc a jste ve stresu.",
        "love": "Nejednejte bez rozmyslu. Všechna rozhodnutí musíte opravdu zvážit několikrát. Dejte si dostatek času na přemýšlení.",
        "work": "Dnes se mohou objevit malé neshody v pracovním kolektivu, ale jen z toho důvodu, že je toho na vás moc a jste pod tlakem.",
        "relationships": "Vzdělávejte se, cvičte šedé buňky mozkové. Uvidíte, že v tomto období jste schopní nasávat informace jako houby.",
        "health": "Zavlažujte tělo i přesto, že je podzim. Dopřejte si nejrůznější čaje, odvary, dobré polévky a ovocná či zeleninová smoothie.",
        "tips": "Houbaření, dopolední turistický výšlap, filatelie, hraní na hudební nástroje s přáteli, šachy, sportovní aktivity."
    },
    "sagittarius": {
        "main": "Ukažte světu, co se ve vás skrývá. Umíte vzít za práci a nápady máte skvělé. Nebojte se je tedy ukázat a prezentovat v práci. Díky tomu si můžete na svou stranu po dlouhé době získat svého šéfa. V milostné sféře popusťte uzdu fantazii a jednejte.",
        "love": "Nemáte se za co stydět. Proto není na místě, abyste byli přehnaně skromní a odpírali si něco, co vás vzrušuje a baví.",
        "work": "Sami víte, že nejste flákači a že umíte zabrat. Snažte se to předvést dnes, možná si tím alespoň trochu usnadníte další dny.",
        "relationships": "Zapřemýšlejte o tom, na jaké kulturní akci jste byli naposledy. Možná bude stát za to, opět něco dobrého vymyslet.",
        "health": "Přestože se cítíte fit, nezapomínejte na své denní dávky vitaminů. Předcházíte tak nemocem a chráníte se s předstihem.",
        "tips": "Setkání se staršími příbuznými, hledání nového zaměstnání, rozhovor se šéfem, třídění rodinných fotografií, zpěv."
    },
    "capricorn": {
        "main": "Dnešek pro vás nebude úplně jednoduchý, ale vy ho zvládnete. Jen se nesmíte oddávat tolik smutku a depresivním náladám. Procházíte si procesem uzdravování duše a to s sebou nese i takové pocity, jaké máte dnes. Soustřeďte se na to, co vám dělá radost.",
        "love": "Nesmíte si sami sobě zavírat dveře tím, že přestanete věřit na lásku. Přemýšlejte o tom, co vás ještě může potkat.",
        "work": "Práce vás může vyčerpávat natolik, že nejste schopní vymýšlet nové postupy a řešit složitější úkoly. Snažte se zachovat klid.",
        "relationships": "I když se vám dnes někdo z rodiny omluví za své chování, nebudete schopní s tím něco dělat. Potřebujete čas, aby to přešlo.",
        "health": "Jako vhodný potravinový doplněk byste měli konzumovat čistý kolagen. Je výborný pro správnou funkci kloubů, kůže i zubů.",
        "tips": "Vyřizování úředních záležitostí, poslech motivačního podcastu, úklid domácnosti, rámování obrazů, odpoledne ve fitness centru."
    },
    "aquarius": {
        "main": "Dnes bude třeba odolat stresu, který na vás přenáší váš nadřízený. Je zřejmě z něčeho nervózní, a tak to přenáší i na vás. Nenechte se ničím rozhodit, mohli byste tak nadělat spoustu chyb. Raději zachovejte klid a své povinnosti si zvládnete na výbornou.",
        "love": "Užívejte si se svou novou láskou den, jako kdybyste spolu byli poprvé. Zajděte si na dobré jídlo, do kina nebo na skleničku.",
        "work": "Budete muset odolávat nátlaku ze strany nadřízeného, který může být nervózní. Nenechte se rozhodit. Vy si své zvládáte.",
        "relationships": "Ani vy nemáte tolik sil, abyste vše doma zvládli sami. Budete si muset říct o pomoc při domácích pracích ostatním.",
        "health": "Jestliže toužíte po pohybu v terénu, ale nechce se vám běhat, vyzkoušejte chůzi ostřejším tempem. Jen se dobře obujte.",
        "tips": "Home office, obchodní schůzka, plánování třídního srazu, ruční mytí a úklid auta, studium astrologie, výroba raw dezertu."
    },
    "pisces": {
        "main": "Máte-li nějaké starosti, o kterých se vám těžko hovoří, zkuste poprosit o pomoc dobrého kamaráda, kterému můžete věřit. Ten by vás mohl alespoň vyslechnout a možná vám opravdu dát cennou radu. Uvidíte, že se vám nakonec velmi uleví a oddychnete si.",
        "love": "Pokud o něčem pochybujete, požádejte o radu důvěrného kamaráda. Nebojte se svěřit s něčím, co vás trápí delší dobu.",
        "work": "Kolegové uvítají, že se chcete více zapojit do týmových projektů. Dostanete možnost, abyste předvedli, co ve vás je.",
        "relationships": "Pozor si dejte na nepříjemné úrazy, ke kterým dnes inklinujete. Zapomeňte na rizikové sporty a nedovolte to ani dětem.",
        "health": "Meditace je jednou z metod, jak si zklidnit mysl, nabudit mysl a také se naučit koncentrovat na důležité věci. Zkuste to.",
        "tips": "Nákupy v hobbymarketu, péče o příbuzné, podvečerní návštěva kina, příprava míchaných nápojů, aromatická koupel."
    }
}