{
    "aries": {
        "main": "Mezi vámi a vaším protějškem nebudou dnes roztržky takového charakteru, jaké byly dřív. Uklidní vás to a budete se cítit daleko lépe. Doma se vám s blízkými také podaří znovu obnovit pohodu. Na svědomí to bude mít dobré jídlo, které jim přinesete.",
        "love": "V trvalých svazcích dochází stále k menším nedorozuměním. Avšak už to není naštěstí tak vážné jako v minulých dnech.",
        "work": "Nikdo si na vás v zaměstnání dnes nemůže stěžovat. Jedete ve svém obvyklém tempu a nenecháváte se rozhodit ničím.",
        "relationships": "Dnes si u svých blízkých napravíte reputaci tím, že jim přinesete domů jejich oblíbené lahůdky. Díky tomu budete mít fajn den.",
        "health": "Vaše vlasy si zaslouží více péče. Zakupte si kvalitní přípravky a pomůcky, které vám vaši hřívu neponičí, ale podpoří.",
        "tips": "Online pracovní porada, odpolední setkání s obchodním partnerem, fotografování památek ve městě, studium kaligrafie."
    },
    "taurus": {
        "main": "Měli byste se podívat na to, jakou máte celkovou životosprávu. Možná nebude od věci některé potraviny a nápoje ze svého jídelníčku na čas nebo úplně vyloučit. Mohou vám způsobovat zdravotní obtíže, alergie nebo vám zbytečně drží kila navíc.",
        "love": "Nezadaní jedinci mezi vámi nemají zřejmě žádné touhy vstupovat opět do vážného vztahu. Raději si užíváte klidu.",
        "work": "Bude třeba se podívat na to, jaké máte úspory. Možná je nyní máte skoro vyčerpané, ale určitě najdete způsob, jak je obnovit.",
        "relationships": "Chcete-li si udržet hezký vzhled, raději se zaměřte na úpravu jídelníčku a svou intuici. Sami nejlépe víte, co vám sluší.",
        "health": "Máte nějaký oblíbený sport? Tak se mu dnes věnujte. Pokud ne, pokuste si nějaký najít. Zvedne vám to náladu a sebevědomí.",
        "tips": "Registrace v novém vzdělávacím kurzu, kosmetické procedury, návštěva wellness centra, lekce tance pro páry, úklid domova."
    },
    "gemini": {
        "main": "V zaměstnání jste si v posledních dnech svou pilnou prací vysloužili obdiv a autoritu u kolegů a také vašich nadřízených. Je pravděpodobné, že vás neminou hezké prémie či povýšení. Teď ale nesmíte v úsilí polevit, máte před sebou ještě nějaké cíle.",
        "love": "Ani dnes se nevyhýbejte společnosti. Pokud čekáte návštěvu, připravíte se na ní pečlivě. Opravdu dobře se pobavíte.",
        "work": "U kolegů máte respekt. Ten jste si ale zasloužili sami, svou usilovnou prací a originálními nápady. Hlavně nyní nepolevte.",
        "relationships": "Věnujte potřebný čas svým dětem. Budou zřejmě potřebovat pomoct se školními povinnostmi. Dost se na vás spoléhají.",
        "health": "Přestaňte se rozčilovat s věcmi, které nemůžete změnit či nijak ovlivnit. Místo stresu si jděte zasportovat do fitness centra.",
        "tips": "Zařizování domácí dílny, renovace čalouněného nábytku, příprava s dětmi na školní povinnosti, návštěva plaveckého bazénu."
    },
    "cancer": {
        "main": "Také dnes se vám bude v práci trochu hůře dýchat. Nepůjde tak snadno dělat kompromisy s kolegy, protože na ně nebudou chtít přistoupit. Vaše ústupky tak budou muset být o hodně větší než jste původně zamýšleli. To vás může opravdu hodně rozladit.",
        "love": "Nezůstávejte mimo společenské dění. Jakmile k vám dorazí pozvánka do společnosti, neodmítejte jí. Budete se bavit.",
        "work": "Kompromisy mezi vámi a jistými kolegy nebudou tak jednoduché, jak jste si mysleli. Budete muset udělat větší ústupky.",
        "relationships": "S přáteli si můžete naplánovat nějaké hezké aktivity na prodloužený víkend. Nápadů máte spoustu, stačí se domluvit.",
        "health": "Oblíbené wellness procedury vám dnes zvednou náladu. Ulevíte si od stresu a napětí. Pomohou také aromatické masáže zad.",
        "tips": "Návštěva praktického lékaře, profesionální kosmetické ošetření, plánování zimní dovolené na horách, nákup dýně."
    },
    "leo": {
        "main": "Dobře se vám bude dnes pracovat s vašimi kolegy. Jedete jak dobře namazaný stroj a nemůže se stát, že by někdo z vás nebyl spokojený. Všechno vám jde bez problémů dobře a máte nakročeno k týmovému úspěchu. Važte si toho, často se to nestává.",
        "love": "Sice k vašemu partnerovi můžete stále cítit intimní přitažlivost, ale neshodujete se v otázkách na společný život.",
        "work": "V kolektivu si nemůžete stěžovat na špatné chování ostatních. Naopak vám vše klape a báječně si rozumíte s ostatními.",
        "relationships": "Díky vaší neústupnosti vybojujete dnes pro své blízké důležitý kompromis v rodině. Do budoucna si za to budete děkovat.",
        "health": "Máte-li rádi výtvarné umění, věnujte se mu častěji. Pomáhá vám uvolnit stres a také u něj báječně meditujete.",
        "tips": "Nákup výzdoby na Halloween, třídění staršího dětského oblečení, volnočasové aktivity, míčové hry, studium ikebany."
    },
    "virgo": {
        "main": "K milostnému vzplanutí může nečekaně dojít mezi vámi a někým, koho znáte velmi dlouho. Zřejmě jste si ani v duchu nedokázali představit, že byste spolu mohli být v tak úzkém kontaktu. Vaše překvapení bude určitě obrovské, ale nesmí vás paralyzovat.",
        "love": "Přiblížit se k vám citově může dnes člověk, které již delší dobu znáte, ale nenapadlo by vás to. Můžete být dost překvapení.",
        "work": "Vyhněte se vážnějším konverzacím v práci. Je to risk, který by se nemusel vyplatit. Hlavně co se týká politických názorů.",
        "relationships": "Konečně by se mohlo dostat i na vaše potřeby. Na ty, které se týkají vašeho vzhledu a vysněných změn. Výsledek bude super.",
        "health": "Velké porce čerstvé zeleniny by měly být součástí vaší denní stravy. Dávejte přednost hlavně zelené zelenině.",
        "tips": "Zařizování domácí pracovny, nákup administrativních potřeb, založení profilu na seznamce, příprava na prodloužený víkend."
    },
    "libra": {
        "main": "Doma bude třeba drahé polovičce konečně dát jisté hranice, za které by se neměla ani náhodou pouštět. Pokud vám oběma jde o zachování vztahu, uvidíte jak rychle to dotyčný pochopí a začne se konečně chovat jinak. Můžete se dočkat i upřímné omluvy.",
        "love": "Dejte druhé straně najevo, kde jsou mantinely, přes které by neměla jít. Pokud to řeknete důrazněji, pochopí to hned.",
        "work": "Sice v práci opravdu excelujete, ale i tak zůstaňte skromní. Kolegové nejsou zvědaví na vaše neustále chvástání.",
        "relationships": "Vymyslete si na víkend nějaké pěkný program pro sebe a své ratolesti. Tajně se vyptejte, co by je bavilo dělat.",
        "health": "Místo nezdravých smažených chipsů z obchodu si zkuste takové připravit doma, ale v méně mastné podobě. Ochuťte je po svém.",
        "tips": "Rehabilitace zad, návštěva fitness centra, meditační a dechová cvičení, třídění staršího oblečení, hledání brigády."
    },
    "scorpio": {
        "main": "Jestliže mezi ostatními příbuznými hoří nějaké dlouhodobé spory, vy do nich nyní nezasahujte. Nemáte ani dostatek potřebných informací ani dostatek sil, abyste jim pomohli je vyřešit. Proto se raději stáhněte a starejte se o své problémy doma.",
        "love": "Nedělejte závěry z něčeho, o čem zatím nemáte přesné informace. Stále se točíte na místě jako v začarovaném kruhu.",
        "work": "Jestliže vám opravdu nezbývá dost sil, uvědomte si, že vás čeká prodloužený víkend a vy si tak budete moct odpočinout.",
        "relationships": "S něčím v rodině si nedokážete poradit, a tak to necháte být. Dobře děláte. Jisté záležitosti se týkají někoho jiného.",
        "health": "Před jakýmkoliv sportem i po něm byste měli praktikovat strečink. Pomůže předejít poranění svalů, šlach nebo kloubů.",
        "tips": "Setkání se staršími příbuznými, milostné sms s partnerem, filatelie, kaligrafie, nákup chovatelských potřeb, procházka."
    },
    "sagittarius": {
        "main": "Dobře se bude třeba připravit na blízkou rodinnou událost. Projděte si svůj šatník a podívejte se také na doplňky. Bude možná třeba něco udělat i s vaším účesem. Zkrátka dejte se dohromady raději dříve než na poslední chvíli něco dohánět. To by nevyšlo.",
        "love": "Zadaným se dnes do vztahů připletou menší půtky a konflikty. Zřejmě jste oba unavení a podráždění, nedivte se.",
        "work": "S nadřízeným si vycházíte vstříc, protože ani jeden z vás nemá zájem nastavené příměří ničím narušovat. Jen tak dál.",
        "relationships": "Rodinná sešlost, která je před vámi, vás může trochu stresovat. Bude třeba pořídit vhodný dárek a také pro sebe oblečení.",
        "health": "Báječným posilováním psychiky mohou být bojová cvičení. Volte podle věku i kondice. Na výběr máte aikido, kendo nebo tai-chi.",
        "tips": "Cvičení pod dohledem instruktora fitness, renovace drobného nábytku, návštěva městské knihovny, plánování lázní."
    },
    "capricorn": {
        "main": "Váš milostný život může nabrat opravdu rychlý spád. Do cesty vám vstoupí zajímavá osoba, která stojí za to, abyste si jí pustili blíže k tělu. Dodá vám to znovu sebevědomí a dobrý pocit, že můžete najít znovu lásku. Věřte hvězdám, mají s vámi plány.",
        "love": "I když byste to nečekali tak rychle, můžete potkat osůbku, která to s vámi bude konečně myslet opravdu vážně. Nebojte se toho.",
        "work": "Uprostřed týdne vám totálně dojde energie a vy se budete zuby nehty držet povinností, abyste je splnili podle představ.",
        "relationships": "Rozhodnete se po jistých informacích vymazat některé z příbuzných nebo známých ze svého telefonu. Je to nevyhnutelné.",
        "health": "Dobrou náladu si nemusíte navodit jen alkoholem. Co takhle si k posezení namíchat koktejly v té nealkoholické podobě?",
        "tips": "Home office, plánování prodlouženého víkendu, péče o domácí mazlíčky, sport v přírodě, hledání partnera na online seznamce."
    },
    "aquarius": {
        "main": "Nenuťte dnes nikoho, ani sebe, do nějakých vážných a radikálních kroků. Lépe uděláte, když necháte vše svému osudu. Nebude trvat dlouho a vy budete mít naprosto jasno v tom, co se vůbec kolem vás děje. Vám prospěje také trochu klidu a nadhledu.",
        "love": "Přesto, že si budete chtít se svým protějškem o vás dvou dnes promluvit, vaše snahy budou marné. Ztratíte důvěru.",
        "work": "Víte, že kolegové mají také práce nad hlavu, což částečně omlouvá jejich chování. Bude to pro vás důvod, abyste si to tak nebrali.",
        "relationships": "Dnes bohužel vaše dobré rady mohou padnout na neúrodnou půdu. Vybírejte si pouze takové lidi, kterým to vyhovuje.",
        "health": "Doma je dobré udržovat pořádek hlavně tehdy, máte-li čtyřnohé mazlíčky. Jejich pelíšky by měly být čisté a voňavé.",
        "tips": "Poslech nové audioknihy, práce se sociálními sítěmi, třídění pracovních e-mailů, placení povinných plateb, kontrola výdajů."
    },
    "pisces": {
        "main": "V práci se vám tedy dařit dnes nebude, protože jste pomalí a laxní. Alespoň podle názoru vašeho nadřízeného. Ten se dokonce odhodlá k tomu, aby vám pohrozil vyhazovem nebo snížením platu. Protože toto opravdu nechcete, půjdete znovu do sebe.",
        "love": "V dlouhodobém vztahu může docházet k nedorozumění a nepochopení. Zkuste mít více respektu a tolerance vůči partnerovi.",
        "work": "Nadřízený vám začne vyhrožovat sankcemi, které budou mít opravdu vážný charakter. O práci ani dobrý plat přijít nechcete.",
        "relationships": "Pokud se dozvíte nějaké pomluvy na svou adresu, bude vám to jedno. Pokud však půjde o vaše blízké, můžete začít řádit.",
        "health": "Pokud vás dnes čekají pochůzky s příbuznými, musíte se obrnit trpělivostí. Je jasné, že to pro vás bude psychicky náročné.",
        "tips": "Péče o starší příbuzné, manikúra, návštěva plaveckého bazénu, hledání partnera na online seznamce, studium výtvarné techniky."
    }
}