{
    "aries": {
        "main": "Protože je dnes volný den, zřejmě patříte mezi ty, kteří do zaměstnání nemusí. Díky tomu si můžete užít vydatnou a klidnou snídani s rodinou a pak se rozhodnout, jakým způsobem den budete trávit. Pokud tedy již nemáte připravené plány. Den bude příjemný.",
        "love": "Dnes si můžete s novým idolem udělat den jen pro vás dva. Nikam nemusíte, tak si spolu užijte milostné dovádění.",
        "work": "Dnes vás absolutně nic nepřiměje k tomu, abyste se chopili nějakých pracovních povinností. Máte potřebu dost odpočívat.",
        "relationships": "Pokud nikam nemusíte pospíchat, nechte si dost času na bohatou a zdravou snídani. Pak už bude vše podle vašeho plánu.",
        "health": "Buďte obezřetní, pokud pojedete někam autem. Pokud budete ospalí za volantem, raději na chvíli někde zastavte a prospěte se.",
        "tips": "Snídaně v novém bistru, příprava na obchodní jednání, příprava na nový obchodní projekt, plánování zimní dovolené u moře."
    },
    "taurus": {
        "main": "Dopřejte si dnes kulturní akci. Den máte volný a tak nic nebrání tomu, abyste si vyrazili s rodinkou za hezkým programem. Nejen, že se něco nového můžete dozvědět a dovzdělat se. Ale také budete mít radost, že jste se odhodlali k jinému programu.",
        "love": "Naplánujte si dnes program s dobrými přáteli. Uvidíte, že nápadů budou mít přehršel a nebude problém si vybrat.",
        "work": "Budete přemýšlet o tom, zda si ještě nenajít přivýdělek nebo brigádu, která by vám pomohla zlepšit finanční situaci v rodině.",
        "relationships": "Volný den nahrává tomu, abyste si vyrazili za zábavou. Volte nějaké kulturní vyžití. Jistě najdete zajímavou výstavu.",
        "health": "Při pohybu v terénu si dejte pozor na vyvrtnutý kotník. Kvůli své nepozornosti se můžete při chůzi zranit raz dva.",
        "tips": "Nákup exotických surovin, domácí karaoke s dětmi, taneční lekce pro páry, ruční mytí a čištění automobilu, procházka po okolí."
    },
    "gemini": {
        "main": "S vaším partnerem si dnes vyhraďte také čas jen pro vás dva. Máte za uplynulé dny opravdu co dohánět. Především pak v romantických a milostných hrátkách. Uvidíte, že se mezi vámi vše může opět vrátit k dobrému. Musíte nyní myslet jen pozitivně.",
        "love": "Využijte volny den k tomu, abyste si s partnerem udělali hezkou, romantickou procházku. Vystačíte si sami dva.",
        "work": "Užijte si volný den bez toho, aniž byste opět mysleli na pracovní povinnosti. Raději se chopte domácích prací.",
        "relationships": "Pokud nikam dnes nevyrážíte na výlet, dopřejte si vydatnou snídani a s vašimi nejbližšími si tento okamžik užijte.",
        "health": "Používejte ochranné a bezpečnostní prvky, pokud se dnes vydáte na projížďku lesem na kole. Hrozí vám nepříjemné pády.",
        "tips": "Nákup odborných knížek přes internet, hraní deskových her s kamarády, čištění oblečení a obuvi, setkání s rodinou."
    },
    "cancer": {
        "main": "Nový partner je natolik okouzlující osůbka, že se nemůžete dočkat, až ho představíte svým známým a kamarádům. Chcete totiž znát okamžitě jejich názor a čekáte pochvalu. Té se vám opravdu dostane. Jen dejte pozor, abyste to s vychloubáním nepřeháněli.",
        "love": "Váš nový idol je galantní a šarmantní osoba, se kterou se budete rádi ukazovat ve společnosti a chlubit se kamarádům.",
        "work": "Odpočiňte si od starostí, které jste si včera přinesli z práce. Nemyslete na potíže a snažte se relaxovat něčím příjemným.",
        "relationships": "Mnozí z vás dnes mohou vyspávat včerejší ponocování a kocovinu. Ale někteří již budou od rána doma stíhat úklid.",
        "health": "Dopřejte si dostatek vitaminů v čerstvé podobě. Nakupte si ovoce a zeleninu a konzumujte je v pravidelných porcích.",
        "tips": "Plány na víkend s rodinou, pečení ovocného koláče, pokerový turnaj s kamarády, sušení podzimní zeleniny, četba."
    },
    "leo": {
        "main": "Z práce dnes půjdete domů s veselou náladou. Potřebujete si také odpočinout a budete rádi, pokud vám to dnes vyjde. Doma si můžete skvěle odpočinout v přítomnosti přátel, pro které si připravíte samou lahůdku.",
        "love": "Dojdete k tomu, že nechcete svůj čas trávit s někým, kdo si vás neváží. A tak se rozhodnete dát vaší nové známosti košem.",
        "work": "Budete rádi za to, že jste si nevzali žádné resty z práce domů. Také si potřebujete odfrknout od povinností a bavit se.",
        "relationships": "Připravte si doma dobré pohoštění, výborné míchané nápoje a zkuste domácí karaoke. Možná vás to uchvátí všechny.",
        "health": "Jestliže máte dnes chuť na čokoládu, ale nechcete přibrat, zvolte si hořkou, s vysokým obsahem kakaa. Jen pozor na množství.",
        "tips": "Nákupy potravin s dovážkou do domu, domácí péče o účes, třídění knížek, zařizování domácí pracovny, zpívání s dětmi."
    },
    "virgo": {
        "main": "Užijte si volného dne v takové míře, jak to jen půjde. V žádném případě nemyslete na práci, ale zaměřte svou energii na mezilidské vztahy. Tam se totiž vynaložené úsilí bude vracet v tom nejlepším. Zažijete jistě krásné chvíle s novým idolem.",
        "love": "Hezké chvilky můžete prožít dnes s někým, koho znáte delší dobu, ale o samotě jste spolu nikdy nebyli. Budete překvapení.",
        "work": "Bude třeba najít způsob, jak se dostat ze současné finanční krize. I když to bude stát trochu úsilí, nakonec na to přijdete.",
        "relationships": "Volný den vás dnes bude bavit. Máte mnoho nápadů jak se zabavit sami nebo s rodinou. Nebude chvilka, abyste se nudili.",
        "health": "Pokud máte potřebu, klidně zalehněte i odpoledne do postele. Tělo si zřejmě říká o své, tak ho pozorně poslouchejte.",
        "tips": "Psaní milostných povídek, rande naslepo, úklid domácí knihovny, třídění staršího oblečení, zazimování terasy, odpočinek."
    },
    "libra": {
        "main": "Vybírejte si dobře, s kým dnes budete trávit většinu dne. Pokud jste zadaní, nebude až takový problém, protože budete nejraději s vašimi blízkými. Větší starosti budou mít ti z vás, kteří žijí zatím jako nezadaní. Nebudete vědět, kam dřív skočit.",
        "love": "Single osůbky se mohou těšit nebývalému zájmu okolí o svou osobu. Pozvánky do společnosti se mohou množit. Vybírejte dobře.",
        "work": "Hvězdy radí, abyste se zdrželi jakýchkoliv myšlenek na půjčky. Nejsou vhodné dny k tomu uzavírat smlouvy s finančními závazky.",
        "relationships": "Volné dny pro vás rozhodně nebudou nudné. Dnes začnete prodloužený víkend opravdu zajímavým způsobem zábavy.",
        "health": "Jestliže vás něco chronického stále trápí, musíte se včas objednat ke svému lékaři a podstoupit vyšetření. Je to jistota.",
        "tips": "Přípravy na víkend s rodinou, úklid pracovního stolu, nákupy dětského nábytku v e-shopu, sledování televizní soutěže."
    },
    "scorpio": {
        "main": "Po náročném týdnu byste si rádi odpočinuli. To ale neznamená, že se musíte celý den povalovat na gauči. Rodinka si možná připravila nějaký zajímavý program, který není tak náročný. Pokud se k nim připojíte, nebudete litovat. Zábava to opravdu bude.",
        "love": "Nevhodné chování vůči vašemu protějšku jen tak neomluvíte. Proto raději dobře přemýšlejte o tom, co mu dnes řeknete.",
        "work": "Dnes si dovolte odpočívat tak, jak si zasloužíte. Tedy lenošením a příjemnými aktivitami, které jsou na hony vzdálené práci.",
        "relationships": "Prodloužený víkend je tu a vy si jistě rádi uděláte příjemný program. Pokud nemáte žádné plány, přizpůsobte se rodině.",
        "health": "Při prvním nachlazení užívejte bylinné čaje, vitaminy a buďte v teple. Tím můžete předejít vážnějšímu průběhu onemocnění.",
        "tips": "Rozhovor se sousedy, nové podnikatelské projekty, schůzka s příbuznými, rehabilitační cviky na záda, venčení pejska s přáteli."
    },
    "sagittarius": {
        "main": "Buďte dnes více spontánní a dělejte věci tak, jak vás napadnou nebo se přizpůsobte nápadům ostatních a nechte se překvapit. Budete mít tak opravdu hezký den, protože místo zklamání z očekávaného, se vám může dostat příjemných a nečekaných zážitků.",
        "love": "Nenechte se ničím a nikým odradit od toho, abyste si se svým novým miláčkem udělali krásný den. Buďte spontánní a otevření.",
        "work": "Volný den využijte k nejrůznějším úpravám domova. Máte šikovné ruce a dobré nápady. Je škoda toho vůbec nevyužít.",
        "relationships": "Věnujte pozornost svému zevnějšku. Pokud s něčím nejste spokojení, je nejvyšší čas to změnit k lepšímu. Půjde to.",
        "health": "Mírnější bolesti v krku zaženete spolehlivě pastilkami z islandského lišejníku. Koupit si je můžete v lékárně.",
        "tips": "Návštěva přírodovědného muzea, bezmasý oběd, odpoledne v plaveckém bazénu, četba knih, poslech nových gramofonových desek."
    },
    "capricorn": {
        "main": "Dostali jste šanci potkat velmi citlivou osobu, která je stejně romanticky založená jako vy. Povolte uzdu své fantazii, uvidíte že si okamžitě získáte její srdce. Otevřená a upřímná komunikace bude základem do dalších dní a do budování pouta mezi vámi.",
        "love": "Člověk, se kterým se nyní vídáte, je velmi citově založená osoba. Nebojte se být otevření a upřímní v komunikaci.",
        "work": "Dopřejte si dnes opravdový klid od všech pracovních záležitostí. Nesmíte na práci a resty ani pomyslet. Jinak se neuvolníte.",
        "relationships": "Dost se vám uleví, když si vyčistíte prostředí kolem sebe od toxických osob a jejich nezdravého vlivu na vás.",
        "health": "Nevyhýbejte se živočišným tukům, pokud nemáte nějaká zdravotní omezení. Jejich konzumace je tělu prospěšná, hlavně v zimě.",
        "tips": "Nákup luxusních interiérových dekorací, renovace domova, domácí kino, příprava občerstvení, sledování televizní soutěže."
    },
    "aquarius": {
        "main": "Vypusťte z hlavy starosti ze zaměstnání. Máte nárok na to, abyste se věnovali také jiným věcem než jen povinnostem. S kamarády si užijete zábavu, s rodinou se vám dostane úlevy. Vyberte si podle svého a hlavně tak, abyste byli spokojení vy.",
        "love": "Místo toho, abyste si opět lámali hlavu s tím, jak to dopadne mezi vámi a partnerem, dopřejte si den mezi kamarády.",
        "work": "Snažte se dnes doma nepřemýšlet o tom, co se dělo v zaměstnání v tomto týdnu. Čím méně o tom budete hloubat, tím lépe.",
        "relationships": "Přestože jste si v uplynulých dnech přišli v rodinných vztazích jako na houpačce, dnes vám bude daleko lépe.",
        "health": "Tenis nebo squash můžete i v tomto období provozovat v hale. Zajít si dnes můžete s kamarádem a dát si souboj.",
        "tips": "Nákup vstupenek na sportovní utkání, posezení s kamarády u piva, deskové a vědomostní hry, plánování výletu po Evropě."
    },
    "pisces": {
        "main": "Konečně se vás pustí smůla ve finanční oblasti. Rodinné finance se podaří nějakým způsobem stabilizovat a vy si opravdu otřete pot z čela. Bude ale dobré, abyste si udělali pořádek ve všem, co máte každý měsíc povinně zaplatit. Jinak to nepůjde.",
        "love": "Nechte dnes svého protějška, ať si dělá věci po svém. Možná přijde na to, že ne všechno je pro váš vztah dobré.",
        "work": "Krize s penězi se pomalu vytrácí a vám se může finanční stránka v rodině stabilizovat. Konečně máte přehled o všech platbách.",
        "relationships": "Máte tendence vše zlehčovat, ale díky tomu můžete opravdu riskovat zdraví. A to nejen své, ale i vašich nejbližších.",
        "health": "Hry jako šachy nebo dáma u vás podpoří logické myšlení. Navíc vás mohou naučit klidu a přemýšlení, bez zbytečných emocí.",
        "tips": "Sušení podzimního ovoce a zeleniny, hraní počítačových her, rozhovor s rodiči, návštěva divadelního představení."
    }
}