{
    "aries": {
        "main": "Jste temperamentní a spontánní, takže vám nedělá problém improvizovat v jakékoliv situaci. Analytické schopnosti vás samy navedou k nejlepšímu řešení situací a zaujetí postoje. Nejlépe vám dnes bude v přítomnosti vašich dobrých přátel a rodiny.",
        "love": "Otevřená a upřímná komunikace je to, co od ostatních očekáváte. Jak od přátel, tak od svého protějšku. Dnes se toho dočkáte.",
        "work": "Zvládnete náročnější úkoly, aniž byste si o ně museli říkat. Máte na víc, ale jděte na to postupně. Předveďte své schopnosti.",
        "relationships": "Nebojte se komplikací a nenechte se jimi vyvést z míry. Nepotřebujete plán, abyste se se svými blízkými bavili, jak se vám líbí.",
        "health": "Jednodenní detox nebo půst tělu přinese odlehčení a lepší trávení. Zvolte si metodu, která vám bude vyhovovat.",
        "tips": "Pracovní porada, kontrola firemní korespondence, káva s kolegou, rozhovor s partnerem, inline brusle s dětmi v parku."
    },
    "taurus": {
        "main": "Momentálně s přehledem a velkou energií zvládáte vše, co před vás osud postaví. U některých lidí z okolí to může vyvolávat až závist. Nikdo z nich však netuší, že je za tím spoustu práce a vytrvalosti. Ta je Býkům vlastní, ale i tak to stojí hodně sil.",
        "love": "Nezadaní Býci mohou narazit na osudovou lásku. I přesto si necháte otevřená zadní vrátka a pokračujete v seznamování.",
        "work": "Jste spolehlivý zaměstnanec, takže si na vás jen tak někdo nic nenajde. I přesto se dnes opět budete muset ovládat.",
        "relationships": "Máte energie na rozdávání a jste inspirací pro své okolí. Vaše rodina z vašeho nadšení může čerpat jen to nejlepší.",
        "health": "Pozor si dejte na chlazené nápoje nebo zmrzliny. Hlídejte si zbytečné záněty mandlí a krku. Bylo by to nepříjemné.",
        "tips": "Jednodenní půst, omezení alkoholických nápojů, posilování, sport v přírodě, vycházka k nejbližší řece, meditace."
    },
    "gemini": {
        "main": "Rodinou budou rezonovat nepříjemné informace o jistém členu, který nemá dobré úmysly. Je třeba si na jeho chování dávat pozor, jinak mu snadno padnete do pasti. Pozitivní je, že máte v rodině mezi sebou jinak pevné vazby, takže na to nejste sami.",
        "love": "Nezvyklé chování vaší nové lásky vás může zarazit. Rozhodně si dáte odstup, ale situaci budete nadále sledovat.",
        "work": "Spolehlivost je vaší předností. Tak se dnes v práci postavte úkolům čelem a dotáhněte je k dokonalosti. Šéf bude nadšený.",
        "relationships": "Rodinné intriky a faleš v širší rodině si nepřipouštějte k tělu, jinak vás to totálně vyčerpá. Žijte si po svém.",
        "health": "Krční páteř nebo ramena vás mohou pobolívat, protože máte nedostatek pohybu. Zvlášť pokud máte sedavé zaměstnání.",
        "tips": "Nákup nových odborných knih, pracovní porada, péče o pokojové rostliny, minigolf s přáteli, podvečerní procházka po okolí."
    },
    "cancer": {
        "main": "Nesmíte dnes promeškat v práci důležitý den. Je před vámi velká změna, která by vám mohla značně vylepšit životní situaci. Tak se snažte rozhodnout tak, abyste toho v budoucnu nelitovali. Můžete si vzít čas na rozmyšlenou a poradit se s rodinou.",
        "love": "Nové kontakty vám rozšíří obzory o další zajímavé informace a obory. Budete se chtít vídat víc a společně se bavit.",
        "work": "Vytoužené povýšení je dnes ve hře. Rozhodněte se správně a především rozumně. Znáte své momentální možnosti a také svou cenu.",
        "relationships": "Malý výlet po okolí se bude líbit vám i dětem. Ty nezapomeňte vybavit koloběžkou nebo jiným sportovním náčiním.",
        "health": "Protahujte během dne více krční páteř a snažte se sedět u počítače rovně. Zádům prospěje větší posilování svalstva.",
        "tips": "Nákup sušených bylinek a čajů, rámování fotografií nebo obrazů, káva s kolegou, příprava s dětmi do školy, třídění oblečení."
    },
    "leo": {
        "main": "Jestliže to alespoň trochu půjde, zažádejte si o možnost práce z domova. Potřebujete se na své pracovní povinnosti více koncentrovat a to vám může domácí prostředí usnadnit. Nadřízený má pro vaše důvody pochopení, takže home office nic nebude bránit.",
        "love": "Velmi rychle se můžete sblížit se zajímavou osobou. Nezadaní se nemusí ničím omezovat a vyrazit na dnešní rande.",
        "work": "Bonusem k dobru vám může dnes být náklonnost šéfa. Měli byste ji využít k prospěchu. Možná bude dobrý home office na pár dní.",
        "relationships": "Máte chuť se věnovat všemu, co vám přijde na rozum. Zkuste se více koncentrovat na rodinu a její požadavky či přání.",
        "health": "Cvičení v přírodě, jako je běh, jízda na kole nebo inline brusle, vám pomohou při okysličování plic a tonizaci svalstva.",
        "tips": "Třídění výtvarných potřeb, úklid domácí dílny, ruční čištění automobilu, návštěva starších příbuzných, sportovní aktivity."
    },
    "virgo": {
        "main": "I dnes máte velká očekávání a hlavně nároky na druhé. Ale již si pomalu uvědomujete, že tudy cesta nevede. Nic a nikdo v životě není dokonalý, milé Panny. Uvidíte, že jakmile snížíte svá očekávání, značně se vám uleví a život se bude zdát zábavnější.",
        "love": "Uberte ze své snahy mít naprosto dokonalý vztah. I vy máte chyby a snadno je přehlížíte. Zato u ostatních netolerujete nic.",
        "work": "Dostane se vám úspěchu v zaměstnání, ale také máte sklony k přehnaným touhám po pochvale. Buďte více skromnější. Sluší vám to.",
        "relationships": "I když vše nejde tak hladce, nevzdávejte to. Zvláště při komunikaci s vašimi potomky. Chce to více trpělivosti.",
        "health": "Ramena a šíje vás mohou pobolívat. Je to sedavým způsobem zaměstnání nebo jednostrannými pohyby. Cvičte a rehabilitujte záda.",
        "tips": "Omezení alkoholických nápojů, telefonát se sourozenci, velký úklid domácnosti, nákup léků na alergie, přesazování rostlin."
    },
    "libra": {
        "main": "Do života vám může vstoupit osoba, se kterou budete mít společné zájmy. Ať už se bude jednat o nový milenecký vztah, nebo pouze o přátelský, rozhodně za to budete rádi. S tou osobou máte o mnoho víc společného, než si zatím umíte představit, milé Váhy.",
        "love": "Přiblížit se k vám může osoba, se kterou vás budou pojit společná témata a názory na život. Blýská se na lepší časy.",
        "work": "Šéf se sice může jevit nepříjemně, ale s vámi to nemá naštěstí co dělat. Vy si vedete opravdu velmi dobře v jeho očích.",
        "relationships": "Chvála se pohrne ze všech stran, co se týká úprav zahrady nebo terasy. Na pomocné práce se hodí ruce kohokoliv z nejbližších.",
        "health": "Meditační cvičení jsou dobrou metodou, jak předejít vyčerpání organismu. I malá chvilka vnímání sama sebe udělá hodně.",
        "tips": "Úklid domácnosti, nákup letního oblečení a obuvi, návštěva veterinární kliniky, výtvarné práce, registrace na seznamce."
    },
    "scorpio": {
        "main": "V domácím prostředí se nedaří komunikace tak, jak byste si představovali. Naštěstí jste dnes v pohodě a nemáte chuť se hádat. Proto necháte situaci bez komentáře a půjdete si raději po svém. Děláte dobře, zbytečně byste si kazili zbytek dne, Štíři.",
        "love": "Single jedinci si jedou po svém, a tak se nebrání ani žhavým flirtům. Dbejte však na dodržování jistých pravidel.",
        "work": "Na cestě je zřejmě povýšení nebo alespoň příjemná finanční odměna za vykonanou činnost. Potěší vás obojí. Zasloužíte si to.",
        "relationships": "Určité věci, které vám kdosi vytýká, si neberte tolik k tělu. Sami víte, jak doma s ostatními fungujete, a nic jiného neřešte.",
        "health": "Možná budete potřebovat dobrého přítele, kterému se svěříte s trápením a chmurami. Věřte, že i to pomáhá, milí Štíři.",
        "tips": "Příprava ovocných smoothie, home office, odpolední procházka se psem, telefonát s příbuznými, poslech audiotéky."
    },
    "sagittarius": {
        "main": "Sami můžete dnes sice někoho kritizovat, ale i vy se nechováte zrovna vzorově. Zaměřte se na to, jakým způsobem k vylepšení situace můžete přispět. Rozhodně to stojí za pokus, než začnete vše házet do jednoho koše a odsuzovat. Snaha se určitě vyplatí.",
        "love": "Určitá pravidla ve vztahu by se dodržovat měla. A to na obou stranách. I vy se tedy budete muset něčemu přizpůsobit.",
        "work": "Pocítíte sami, že vám chybí pořádná motivace do práce. Bude třeba se zamyslet nad vaším dalším vývojem a kvalifikací.",
        "relationships": "Nápady, které se týkají zvelebení domácnosti, realizujte co nejdříve. Jste na vrcholu kreativního cítění a výtvarna.",
        "health": "Dnes se zkuste vyhnout obloukem alkoholickým nápojům, cigaretám a podobným neřestem. Pro váš organismus uděláte to nejlepší.",
        "tips": "Návštěva lékaře, příprava bylinných čajů, omezení alkoholických nápojů, odpolední cvičení, romantická procházka s partnerem."
    },
    "capricorn": {
        "main": "Protějšek vás dráždí svým chováním a vy máte od rána chuť ho trochu převychovat. Není to úplně nejlepší nápad, protože nemáte dost trpělivosti. Nakonec by mohlo dojít k nepříjemnému konfliktu, který by vznikl z malichernosti. Takže zatím opatrně.",
        "love": "Zadaní Kozorozi stále bojují s chutí partnera usměrnit. Jeho nekonečné argumenty vás vytáčejí, ale nepřestáváte ho provokovat.",
        "work": "I když máte v něčem pravdu, nadřízenému se nevyplatí dnes oponovat. Mohlo by vás to stát jeho důvěru, která nebyla zadarmo.",
        "relationships": "Velké změny v domácnosti, ke kterým se chystáte, by přinesly jen chaos. Zatím si nápady sepište a dejte si čas na rozmyšlenou.",
        "health": "Používání respirátorů a roušek má svá omezení. Dbejte na jejich správné použití a častou výměnu. Jinak hrozí dýchací obtíže.",
        "tips": "Třídění e-mailů, práce s počítačem, online workshop, nákup odborných časopisů, péče o prarodiče, příprava rodinné večeře."
    },
    "aquarius": {
        "main": "Pořád se snažte si držet svá malá tajemství ohledně milostného života a možné nové lásky. Ostatním svůj objev představte teprve tehdy, až se oba lépe poznáte. Vaše drahá polovička na to má ten samý názor. Užívejte si počáteční romantiky jen ve dvou.",
        "love": "Vyplatilo se vám být více zdrženliví v milostných otázkách. Rázné rozhodnutí by vás teď mrzelo. Naštěstí jste ho neudělali.",
        "work": "Nadřízenému ukazujete již několik dní, že jste velmi schopní a že si můžete dovolit volnější režim. Home office by byl fajn.",
        "relationships": "Budete potěšeni důvěrou, kterou ve vás vloží příbuzní. Je jasné, že jste jediní, na koho se mohou dnes spolehnout.",
        "health": "Mohou vás dnes provázet dýchací obtíže. Důvod přikládejte spíše pylům a alergenním látkám z kvetoucích keřů, které jsou všude.",
        "tips": "Nákup jazykových učebnic, oprava malého spotřebiče, poslech motivačního podcastu, založení webových stránek, domácí kino."
    },
    "pisces": {
        "main": "Vztahové záležitosti jdou mimo vás. Lépe řečeno, moc toho v této oblasti ovlivnit nemůžete. Nechte proto vše plynout a jen tu situaci pozorujte. Uvidíte, že se brzy dočkáte odpovědí na nevysvětlené věci. Ovšem do té doby si dáte od seznamování volno.",
        "love": "Jste stále trochu paralyzování a zklamání z čerstvého vztahu je i dnes znatelné. Do zásadních rozhodnutí se zatím nehrnete.",
        "work": "Přes mírné překážky jste schopni si poradit. Značí to váš intelekt a také schopnost improvizovat v nečekaných situacích.",
        "relationships": "Nadbytek energie věnujte do zvelebování domácnosti. Možná by se vašim dětem líbil nový pokojíček nebo útulná herna.",
        "health": "Snažte se alespoň chvilku věnovat fyzickému pohybu. Odčerpáte tak nadbytečnou energii, která by vás po zbytek dnes zlobila.",
        "tips": "Pracovní porada, vyhledávání nových obchodních příležitostí, práce se sociálními sítěmi, žhavé rande, regenerační masáže."
    }
}