{
    "aries": {
        "main": "Promluvte si doma o tom, jak by měla vypadat vaše letní dovolená. Nemusíte ani překročit hranice republiky, abyste se dobře bavili. Nejjednodušší plánování budou mít ti z vás, která mají chalupu. Tam je program jasný. Radost vám udělá všeobecný kompromis.",
        "love": "V partnerském vztahu se pomalu, ale jistě rozpouští poslední mráčky nesouladu, a vrací se tak mezi vás vášeň a nadšení.",
        "work": "Můžete dnes nabýt dojmu, že přes veškerou snahu, se nemůžete zalíbit šéfovi. Neberte si to osobně a nastavené tempo držte.",
        "relationships": "Vaše nápady jsou blízkými velice dobře přijímány. Předneste jim dnes své plány na letní dovolenou, budou mít úspěch.",
        "health": "I když jste velmi energické znamení, občasná meditace je mysli velmi prospěšná. Pusťte si k tomu také klidnou hudbu.",
        "tips": "Kontrola soukromé korespondence, kontrola pojistných smluv, ruční mytí auta, rámování rodinných fotografií, meditace."
    },
    "taurus": {
        "main": "V mysli jste dnes jen a jen se svou novou láskou. Přehráváte si doslova každou společně prožitou minutu a kocháte se pocity vášně. Protějšek je na tom podobně, takže žhavé sms si budete vyměňovat celý den. Pozor na chyby v práci, byl by průšvih.",
        "love": "Nemůžete se dočkat každé vteřiny, kterou chcete trávit s novou láskou. Opačná strana to má stejně. Ničemu se nebraňte.",
        "work": "Nadřízený se dnes rozhodne, že s vámi pronese pár vtipů. Budete se muset přemáhat, abyste si zachovali usměvavou tvář.",
        "relationships": "Děti za vámi mohou dnes přijít s otázkami, které se týkají nadpozemských témat. Rozhovorem přijdete na zajímavé skutečnosti.",
        "health": "Nevynechávejte ze stravy maso, luštěniny, vejce a kyselinu listovou. Pro tvorbu červených krvinek jsou zásadní.",
        "tips": "Dokončení pracovního projektu, plánování víkendu, nákup potravin s dovážkou, příprava lahůdek na grilování, rodinná večeře."
    },
    "gemini": {
        "main": "V práci se vám podaří naskočit zpět do sedla a předvést se v dobrém světle. Díky tomu si nadřízený oddychne, že jste zpět, a nadchnou ho vaše nové nápady. Nebojte se být více kreativní, rozhodně na to máte. Potřebujete pořádně zaměstnat hlavu.",
        "love": "Napadne vás, že si po nedávných zklamáních v lásce dáte oddech. Seznamování nechte na vhodnější dobu a užívejte si přátel.",
        "work": "Na cestě je zlepšení vztahů s nadřízenými. Evidentně je uchvátí vaše pracovitost, nápady a také zodpovědnost. Jen to udržet.",
        "relationships": "Vaše umělecké sklony se dnes projeví při výzdobě a dekorování domova. Určitě se vám dostane pochvaly a obdivu za kreativitu.",
        "health": "Mnozí z vás mohou trpět nyní větší bolestivostí kloubů. Nezapomínejte ve stravě doplnit kolagen. Vyberte si silný přípravek.",
        "tips": "Třídění soukromých úředních dokumentů, home office, příprava lehkého oběda, thajské masáže, procházka s přáteli po okolí."
    },
    "cancer": {
        "main": "Máte-li zálibu v kulinářském umění, dnes se pusťte do vaření. V kuchyni vám to půjde jedna radost a máte šanci se blýsknout před vašimi nejbližšími. Navíc si osvojíte nové recepty, které vám ale v repertoáru zůstanou napořád. Možná objevíte nové hobby.",
        "love": "Víte, že láska prochází žaludkem, a vy jste labužníci. Připravíte pro svého miláčka dnes jednu lahůdku vedle druhé.",
        "work": "Atmosféra na pracovišti je dnes o poznání lepší než včera. Díky tomu se můžete s důvěrou pustit do společných projektů.",
        "relationships": "Nezdržujte se dnes v zaměstnání více, než je nutné, a utíkejte domů za svými blízkými. Čeká vás hezký a zábavný podvečer.",
        "health": "Průdušky by zasluhovaly, abyste se naučili určitá dechová cvičení, kterými si zvětšíte objem plic a jejich prokrvení.",
        "tips": "Setkání s klienty, zpracování úředních dokumentů, kreativní psaní, hledání nové brigády, nákup potravin na víkend."
    },
    "leo": {
        "main": "I když vás vaše práce baví, dnes si rozhodně neplánujete pracovat přesčas. Rodina čeká, že si na ně konečně uděláte více času. Mají pro vás naplánovanou aktivitu, které se rozhodně nebudete bránit. Naopak se vám bude líbit, že se někdo chopil iniciativy.",
        "love": "Čas, který trávíte se svým partnerem, utíká jako voda. Rozhodnete se ke společnému bydlení, abyste si byli nablízku.",
        "work": "Úspěchy na pracovním poli vám dodají sebevědomí a odvahu do náročnějších projektů. Ty si ale nechte na příští týden.",
        "relationships": "Snažte se dnes z práce odejít natolik brzo, abyste si se svou rodinou užili ještě denní světlo při podvečerní procházce.",
        "health": "Jestliže se chystáte shodit nějaké to kilo, vhodnou potravinou je kvalitní rýže. Nejlepší bude připravená v rýžovaru.",
        "tips": "Romantické aktivity s partnerem, nákup čerstvých potravin, příprava zeleninového smoothie, kolektivní míčové hry."
    },
    "virgo": {
        "main": "Páteční den je tak trochu odpočinkový v kariérní oblasti. Spory se vám dnes vyhnou, takže tam se můžete cítit v pohodě. Doma to bude náročnější, ale bavit se budete. Nebojte se požádat o pomoc zbytek rodiny, pokud se pustíte do nějaké práce.",
        "love": "V trvalém vztahu máte dnes více živo a partner vás najednou začíná bavit víc a víc. Překvapení se tak jen pohrnou.",
        "work": "Existuje velká šance, že se ke konci pracovního týdne naštěstí vyhnete konfliktům v zaměstnání. Víkend bude hned lepší.",
        "relationships": "Práci, kterou potřebujete nutně dokončit v domácnosti, nezvládnete sami. Povolejte na pomoc někoho pracovitého z rodiny.",
        "health": "Zkuste si dnes udělat studený salát z luštěnin a zelených bylinek. Určitě najdete recept, který vám bude chuťově vyhovovat.",
        "tips": "Dokončení pracovních úkolů, plánování víkendu, oprava domácího spotřebiče, nákup hygienických prostředků, večerní procházka."
    },
    "libra": {
        "main": "Pozor na malé uklouznutí. A to v milostné oblasti. Zadaným by dnešní žhavý flirt zkomplikoval život ve velké míře. Tak si raději nechte choutky na rande s přitažlivou osobou zajít. Zato nezadané Váhy si naopak takové dobrodružství mohou dovolit.",
        "love": "Buďte připraveni, že vám do života mohou vstoupit osoby, které vás budou přitahovat. A to i přesto, že jste třeba zadaní.",
        "work": "Kontrolujte více svou komunikaci vůči ostatním v práci. Máte tendence prosazovat své nápady na úkor ostatních kolegů.",
        "relationships": "Zjistíte, že při výuce s dětmi máte jisté mezery. Možná jste i spoustu věcí ze školy zapomněli. Nevadí, znalosti si oprášíte.",
        "health": "Únava z pracovního týdne vás přejde, jakmile budete doma u svých blízkých. Více odpočívejte v rodinném prostředí.",
        "tips": "Týmová spolupráce s kolegy, třídění pracovních e-mailů, nákup lahůdek na víkend, rodinná večeře, sledování oblíbeného filmu."
    },
    "scorpio": {
        "main": "Poslední pracovní den vás natolik utahá, že rádi ulehnete do postele hodně brzo. I když se na vás rodina těší, nemusíte si vyčítat, že půjdete včas spát. Zítra je také den a můžete si ho užít společně plni sil. Jen si ho pořádně ještě dnes naplánujte.",
        "love": "Protějšek vám s chutí oplácí váš zájem. To vás utvrdí v tom, že jste pro sebe jako stvoření. Máte šanci na trvalý vztah.",
        "work": "Práce je pro vás důležitá, ale ne natolik, abyste kvůli ní zanedbávali rodinu. Dnes si dopřejte luxus a jděte domů včas.",
        "relationships": "Sportu se jako rodina nevyhýbáte. Ale co takhle najít něco nového, co by vás opět motivovalo a zabavilo přes léto?",
        "health": "Včasný spánek dopomůže ke správné regeneraci těla. Dnes neponocujte více, než je potřeba. Zítra to pocítíte jen v dobrém.",
        "tips": "Plánování víkendu, nákup čerstvých potravin, prodej zboží na internetu, studium cizího jazyka, poslech oblíbené hudby."
    },
    "sagittarius": {
        "main": "Nezadaným jedincům nepřijde dnes vůbec smutné, že jsou bez partnera. Naopak si budou užívat přítomnost svých dobrých přátel a společné zábavy. Vhodný protějšek do života stále hledáte, ale netlačíte zároveň na pilu. Víte, že váš čas ještě přijde.",
        "love": "Pokud nemáte trvalý vztah, nevadí vám to. Jste zatím ve fázi poznávání a hledání toho správného protějšku pro život.",
        "work": "Máte bojovnou náladu, a tak to můžou dnes odnést i vaši kolegové, a to zcela bezdůvodně. Nedělejte si zbytečné nepřátele.",
        "relationships": "Udělejte si doma pohodu a připravte si bohatou večeři. U společného stolu si můžete povyprávět vše z uplynulého týdne.",
        "health": "Pozor dávejte na to, co dnes konzumujete. Smažená jídla nejsou zrovna to pravé, co byste měli dnes jíst k obědu.",
        "tips": "Generální úklid domácnosti, oprava malého spotřebiče, nákup čerstvých potravin, poslech motivačního podcastu, servis auta."
    },
    "capricorn": {
        "main": "V řadách Kozorohů se často najdou umělci a výtvarně nadané osoby. Pokud něco takového patří mezi vaše záliby, věnujte jim dnes více času. Je to pro vás jistá forma relaxu a vybití. Nepotřebujete k tomu nikoho, jen svou fantazii a šikovné ruce.",
        "love": "Nezadávejte partnerovi pražádný důvod, aby se do vás pustil. Naopak se snažte náročnou situaci ustát s grácií a odstupem.",
        "work": "Jste pod ochranou hvězd, a tak máte před sebou celkem příjemný poslední pracovní den. Těšte se na víkend a nekažte si ho.",
        "relationships": "Může vás zasáhnout výtvarná múza a napadnou vás kreativní nápady. Nebraňte se jim. Mohou to být nové dekorace do domu.",
        "health": "Místo sledování televize do noci si dnes naordinujte poslech oblíbené knihy z audiotéky. Užijte si to, zachumlaní do peřin.",
        "tips": "Ranní běh v přírodě, třídění firemních emailů, home office, oběd s přáteli, plánování výletů, romantika s partnerem."
    },
    "aquarius": {
        "main": "S rodinou bude třeba připravit se na blížící se volné dny. Možná mají nějaká přání, na která se stále nedostalo, a tak byste jim je mohli pomoct splnit. Nezadaní by měli vyzkoušet nějaký nový způsob, jak se nezávazně seznámit. Hlavně mimo online seznamku.",
        "love": "Oblíbenou technikou k seznámení je venčení pejska v parku. Ti z vás, kteří jsou pejskaři, jsou tedy v absolutní výhodě.",
        "work": "Legrace a naladění na stejnou vlnu vás s kolegy pojí již delší dobu. Není proto problém si dnes udělat čas na společný oběd.",
        "relationships": "Plánování nadcházejícího víkendu není jen vaší výsadou. Je třeba přihlédnout k přáním ostatních členů domácnosti.",
        "health": "Naklíčená semínka nejrůznějších plodin můžete použít jako ozdobu a koření nejrůznějších jídel. Hodí se i k masům.",
        "tips": "Konzultace s nadřízeným, oběd s dovážkou, nákup zahradnických potřeb, plánování víkendu, mytí automobilu v myčce."
    },
    "pisces": {
        "main": "Obezřetnost budou vyžadovat jistá firemní tajemství. Musíte si dávat velký pozor, komu a co říkáte. Určité informace by měly zůstat utajeny, vzhledem ke konkurenčnímu prostředí. Naštěstí jste důvtipní a z nejrůznějších nástrah se dokážete vymluvit.",
        "love": "Nebojte se opustit ještě stále čerstvou známost, pokud vám nevyhovuje. Proč se trápit a být těmi, kteří se snaží víc?",
        "work": "Opatrně se sdělováním interních informací o projektech. Kdosi na pracovišti by toho mohl lehce zneužít proti vám.",
        "relationships": "Naplánujte si víkend jen podle představ vašich a vaší rodiny. Neohlížejte se na jiné. Prospěje vám výlet jen s nejbližšími.",
        "health": "Výtvarné techniky jsou dobré pro vaši psychickou pohodu. Zvolte takové, které máte rádi a které alespoň trochu umíte.",
        "tips": "Čištění a třídění šperků, nákup výtvarných potřeb, online pracovní porada, home office, příprava vegetariánského oběda."
    }
}