{
    "aries": {
        "main": "Single Berani dnes budou postaveni před otázku, jak by měl vypadat jejich další vztah a jaké vlastnosti očekávají od partnera. Často sami nevíte, co by se vám líbilo, a měníte názor. Také vy si musíte sáhnout do svědomí a zjistit, co můžete druhému dát.",
        "love": "Hledáte-li nového partnera, přiznejte si na rovinu, jaké by měl mít vlastnosti. Zároveň si musíte uvědomit, co nabízíte vy.",
        "work": "V těchto dnech vám do cesty může přijít hezká výhra z loterie. Pokud ano, nezapomeňte si nějakou tu korunku odložit stranou.",
        "relationships": "Odpoledne si můžete vyplnit kolektivními sporty s rodinkou. Výbornou zábavou může být minigolf. Najděte hřiště v okolí.",
        "health": "Pohybový aparát si udržujte v kondici správným pohybem a také dobrým následným strečinkem. Ten pomáhá k uvolnění.",
        "tips": "Pracovní porada, káva s kolegou, rámování rodinných fotografií, nákup dekorací na terasu, práce se dřevem, venčení psa."
    },
    "taurus": {
        "main": "Dbát musíte nejen na vzdělání a psychiku, ale také na zdraví, milí Býci. Máte sklony sníst bez rozmyšlení, cokoliv vám přijde pod ruku. Ale to není dobře a váš žaludek vám to dá najevo. Pro lepší trávení a také podporu imunity se zaměřte na superpotraviny.",
        "love": "Možná stále hledáte lásku, ale nevidíte, že je blíž, než si myslíte. Ve vašem okolí je osoba, která si na vás myslí.",
        "work": "Samostudium nebo rekvalifikační kurzy jsou to pravé, čemu byste se měli momentálně věnovat. Poohlédněte se dnes po něčem.",
        "relationships": "Odpočinek dnes nebude jen o lenošení u televize. Děti vás mohou vtáhnout do zábavných činností podle jejich gusta.",
        "health": "Dnes si do stravy přidejte mořské řasy nebo sladkovodní řasu chlorellu. Podpoří správné zažívání a upraví kyselost organismu.",
        "tips": "Pohybové aktivity na čerstvém vzduchu, zpevňování těla, drobné renovace nábytku, návštěva hobby marketu, pití bylinných čajů."
    },
    "gemini": {
        "main": "Kromě oblasti lásky se vám bude dařit poměrně všude. Proto se tedy dnes koncentrujte jen na to, co jde dobře, ostatním se netrapte. Pokud vás i přesto bude cokoliv trápit, energii investujte do sportu. Přibrat můžete své děti nebo kamarády.",
        "love": "Hvězdy se rozhodly, že vám zkomplikují cestu za láskou. Vězte, že to může být složité, ale ne věčné. Neztrácejte víru.",
        "work": "Daří se vám prokázat spolehlivost a zodpovědnost vůči pracovním povinnostem. Máte vše dobře zorganizované, což je základ.",
        "relationships": "Do sportovních aktivit je třeba zapojit dnes i ratolesti. Nudí se a vymýšlejí jednu lumpárnu za druhou. Potřebují se vybít.",
        "health": "Pozornost a péči budou vyžadovat dnes vaše stehna, boky nebo bederní páteř. Správnými masážemi dosáhnete uvolnění.",
        "tips": "Schůzka s obchodním partnerem, příprava prezentace, práce se sociálními sítěmi, kreativní činnosti, aromatické masáže."
    },
    "cancer": {
        "main": "Klid, který dnes bude panovat v zaměstnání, doma vystřídá napětí. Ale jen to příjemné. Děti si vás ukradnou pro sebe a vám nezbude nic jiného než se jim věnovat. Napínavé deskové hry nebo menší sportovní klání s sebou přinese zdravou soutěživost a zábavu.",
        "love": "Náhlá milostná vzplanutí mohou být na pořadu dne. Záleží, jak se k tomu postavíte vy. Žhavý flirt si mohou dovolit nezadaní.",
        "work": "Atmosféra v zaměstnání je stále výborná, nemusíte se bát konfliktů. A to i tehdy, že se musí uzavřít jistá nedorozumění.",
        "relationships": "Zvolněte tempo, a místo sportu si dnes doma můžete zahrát soutěžní nebo vědomostní hru. Adrenalinu si užijete i tak dost.",
        "health": "Jako pochoutku si během dne dopřejte hrst dýňových semínek nebo mandlí. Dostanete tak do těla příznivé látky a vitaminy.",
        "tips": "Prodej zboží na internetu, hra na hudební nástroje, návštěva dětského hřiště s dětmi, vyřizování soukromých e-mailů."
    },
    "leo": {
        "main": "Dnes budete mít tendence pustit si pusu na špacír. Opatrně s tím. Ne všechny připomínky ostatních jsou bezcenné. Než nad nimi vyřknete ortel, nechte si je projít hlavou. Možná zjistíte, že i vy se můžete mýlit a potřebujete větší nadhled. Nikdy není pozdě.",
        "love": "Váš nový protějšek je přesně to, co jste dlouho hledali. Ve společnosti vám dnes rozhodně ostudu neudělá, milí Lvi.",
        "work": "Nemusíte mít ke všemu hned poznámky a připomínky. Vše si potřebujete nechat projít hlavou a vyslechnout postřehy ostatních.",
        "relationships": "Pro dnešek si neplánujte žádné velké úpravy domácnosti nebo úklid. Naopak se věnujte činnostem, které vás těší.",
        "health": "Připravte si k obědu zeleninový salát z čerstvých surovin. Ochutit ho můžete semínky, kvalitním olejem a sýrem feta.",
        "tips": "Týmová spolupráce na projektech, objednávka odborné literatury, sázení okrasných dřevin, procházka s partnerem po okolí."
    },
    "virgo": {
        "main": "Vás nový objev vás dnes může zaskočit. Vysloví názory na život, které vám dosud tajil. Nedělejte ale zbytečně unáhlená rozhodnutí, mohla by vás za pár dní mrzet. Spíše si zkuste s partnerem vážněji pohovořit a celou situaci v klidu rozebrat.",
        "love": "Vy, kteří jste v novém vztahu, se můžete dnes dočkat zklamání. Zdá se, že máte se svou známostí rozličné názory na život.",
        "work": "Neuváženým jednáním byste svého nadřízeného rozpálili doběla. Těžko byste se z téhle nepříjemné situace dostávali zpět.",
        "relationships": "Kdosi vám může stále oponovat a kritizovat vaše nápady. Nechte ho vypovídat, ale nedovolte, aby vám srážel sebevědomí.",
        "health": "Dnešek je vhodný také k menší očistné kúře v podobě půstu. Zvolte si jeden druh zeleniny nebo ovoce, který budete jíst.",
        "tips": "Nové pracovní úkoly, rekvalifikace v oboru, návštěva stomatologa, odpolední program s dětmi, příprava rodinné večeře."
    },
    "libra": {
        "main": "Na vaší energii se podepsal včerejší superúplněk, ale vám to zas tolik vadit dnes nebude. Nic náročného dnes řešit nebudete, a tak si můžete i dostatečně odpočinout. Jedinou pozornost si vyslouží vaši starší příbuzní, kteří vás budou během dne potřebovat.",
        "love": "Kupodivu dnes nastane klid a mírný úbytek energie. Také si musíte sami v sobě uspořádat plány ve vztazích do budoucna.",
        "work": "Úlevu přinese odlehčená atmosféra na pracovišti. Mnozí z vás také využijí příležitosti pracovat alespoň dnes z domova.",
        "relationships": "Starší příbuzní se dnes neobejdou bez vaší pomoci. Jste totiž momentálně jediní, kteří si ví rady s jejich problémy.",
        "health": "Po včerejším silném úplňku můžete cítit větší únavu. Vhodné bude se včas dostat do postele a dobře se vyspat na další den.",
        "tips": "Úklid domácí pracovny, malířské práce, renovace nábytku, odpolední procházka po městě, posezení s přáteli na terase."
    },
    "scorpio": {
        "main": "Dnes se probuďte z romantického opojení a snažte se soustředit. Některá slova si můžete mylně vyložit a hrozí, že způsobíte trapnou chvíli. Především tedy v milostné sféře hrozí nedorozumění. Také byste snadno mohli přehlédnout nabídku možného povýšení.",
        "love": "Zaskočit vás může komunikace mezi vámi a partnerem. Než začnete jednat, raději se pořádně zamyslete nad jeho slovy.",
        "work": "Máte velkou šanci na povýšení nebo mimořádnou odměnu. Vyplatila se vaše odvaha a vytrvalost, které do všeho vkládáte.",
        "relationships": "Začněte si připravovat program na víkend. Možností je dost. Záležet bude jen na počasí a náladě vašich nejbližších.",
        "health": "Tělu musíte dodat správný pitný režim. Omezte alkohol a kofein na minimum. Naopak pijte hodně čisté vody celý den.",
        "tips": "Plánování víkendových aktivit, obchodní schůzka, samostudium cizího jazyka, příprava zeleninových jídel, romantická procházka."
    },
    "sagittarius": {
        "main": "Nezadané jedince přepadne chuť na žhavé rande. Nevyplatí se vám ale rozhodně ponocovat a konzumovat příliš alkoholu. Zítřejší ráno by vás mohlo hodně bolet. Hrozí vám kocovina nejen z alkoholu, ale i ta morální. Zamyslete se nad tím, co je pro vás priorita.",
        "love": "Dávejte pozor na roztržitost a neuvážené flirty. Mohli byste snadno zranit city někoho, kdo k vám má opravdu blízko.",
        "work": "Zkuste si udržet pozitivní myšlenky, i když to od včera v zaměstnání skřípe. Uvidíte, že se brzy situace uklidní.",
        "relationships": "Udělejte něco, co zvedne náladu všem doma. Můžete objednat jídlo z oblíbené restaurace a společně si ho vychutnat.",
        "health": "Dávejte si pozor na to, kolik alkoholu si dnes dáte. Ráno by vás totiž mohla překvapit dost nepříjemná kocovina.",
        "tips": "Nákup sportovních potřeb, výlet s dětmi do zoo parku, úklid domácí pracovny, návštěva kosmetického salonu, příprava večeře."
    },
    "capricorn": {
        "main": "Na vaši povahu dnes bude působit jakýkoliv nátlak jako rudý hadr na býka. Přestože napětí z minulých dní zmizelo, nenecháte se do ničeho násilím tlačit a přemlouvat. Měli byste však svého protivníka varovat, aby později od vás neschytal lavinu nadávek.",
        "love": "Nemáte rádi, když vás někdo tlačí silou do činů a vyjádření. Dotyčný od vás pak totiž obdrží nepříjemnou slovní smršť.",
        "work": "Určité spory s kolegy jsou nadbytečné. Jejich myšlení nezměníte, a tak nezbývá nic jiného než je nechat jít vlastní cestou.",
        "relationships": "Nečekaně v sobě můžete objevit umělecké sklony. Vložíte do nich své vnitřní emoce. Vaše díla budou pochválena ostatními.",
        "health": "Kolagen, který si budete denně přidávat do stravy, vám jednoznačně zlepší kvalitu vlasů, pleti a nehtů. Začněte již dnes.",
        "tips": "Příprava ovocného smoothie, kontrola domácího účetnictví, účast ve vědomostní soutěži, setkání s přáteli ve městě."
    },
    "aquarius": {
        "main": "Před vámi je opět den plný výzev. Ať už se to týká práce, lásky nebo rodiny. Dejte na svou intuici a nenechte se ničím vyhodit ze sedla. Máte zkušenosti a odvahu, tak je použijte a směle do toho. Na konci dne na sebe budete moc být jen pyšní.",
        "love": "Nezadaní jedinci by se dnes měli více otevřít možnostem seznamování. S internetem jste jedna ruka, tak se do toho dejte.",
        "work": "Ti z vás, kteří se chystají na přijímací pohovor, by se neměli tolik stresovat. Máte co nabídnout, tak to ukažte.",
        "relationships": "Vaše výtvarné nápady a šikovné ruce přijdou doma vhod. Dokážete přeměnit starší věc na něco originálního během chvilky.",
        "health": "Vaše vlasy si zaslouží konečně profesionální péči. Zkuste se ke kadeřníkovi dostat dnes nebo se objednat co nejdříve.",
        "tips": "Dokončení pracovního projektu, týmová spolupráce s kolegy, třídění soukromé korespondence, servis a čištění automobilu."
    },
    "pisces": {
        "main": "Můžete se cítit jako odborníci při práci se sociálními sítěmi, pohybujete se na nich s jistotou, ale přesto vás vždy může něco nepříjemně zaskočit. Opatrně nakládejte s osobními informacemi, klidně je může zneužít kdosi, komu budete slepě důvěřovat.",
        "love": "Opatrně při hledání partnera na sociálních sítí. Mnoho z potenciálních nápadníků není takových, za které se vydávají.",
        "work": "Nadřízený ukáže, že stojí pevně za vámi. Je si vědom vašich kvalit a také vašeho čestného jednání. Zastání přijde vhod.",
        "relationships": "Míčové hry s přáteli nebo dětmi v přírodě vás dnes spolehlivě zbaví přebytečného napětí. Zahrajte si třeba i o ceny.",
        "health": "Omezte užívání alkoholu. Zadržuje nejen vodu v těle, ale obsahuje také dost kalorií. Uvidíte, že se tělu uleví.",
        "tips": "Rozhovor s nadřízeným, úklid pracovního stolu, návštěva kadeřnictví, sledování oblíbeného seriálu, poslech audiotéky."
    }
}