{
    "aries": {
        "main": "Týden začnete v menším útlumu a rozhodně se nechováte jako správné ohnivé znamení. Raději dáváte přednost klidnějším aktivitám, které vám pomohou utéct z rozbouřené reality. Potřebujete se lépe koncentrovat na události dalších dní v novém měsíci.",
        "love": "Nová známost vás může doslova ohromit svými znalostmi a vědomostmi. Otázkou je, zda vám to bude stačit ke spokojenosti.",
        "work": "S kolegy se vám dnes bude spolupracovat o něco hůře než v předchozích dnech, ale nenechte se zbytečně rozhodit.",
        "relationships": "V pondělí toho máte sami opět dost, a tak se vám nechce pouštět do dalších půtek doma. Raději se budete všem klidit z cesty.",
        "health": "Využijte lepší počasí k tomu, abyste si zlepšili kondičku. Například tím, že si prodloužíte obvyklé podvečerní procházky.",
        "tips": "Vyřizování pracovní korespondence, kontrola domácího účetnictví, procházka v lesoparku, masáže dolních končetin."
    },
    "taurus": {
        "main": "Máte chuť si svou lásku předcházet a rozmazlovat ji. Jste si vědomi toho, že na vztahu se musí stále pracovat. Překvapení v podobě romantického pikniku v přírodě však dnes bude také podřízeno počasí. Vy jste však nápadití a máte v záloze náhradní program.",
        "love": "Pro svého miláčka si připravte překvapení v podobě soukromého pikniku. Pokud nebude přát počasí, najdete jinou variantu.",
        "work": "Nová pracovní nabídka se může objevit jako blesk z čistého nebe. Je nutné jí pečlivě zvážit. Nese s sebou velkou zodpovědnost.",
        "relationships": "Soustřeďte se dnes na to, abyste si společně poseděli u oběda nebo večeře. Odložte mobily a užijte si jeden druhého.",
        "health": "Nohám dopřejte masáže bylinnými gely, teplou koupel a pedikúru. Celé dny vás nosí, takže si zaslouží opravdu péči.",
        "tips": "Otužování, masáže dolních končetin, nákup čerstvého ovoce a zeleniny, oběd s dovážkou, samostudium kreativních technik."
    },
    "gemini": {
        "main": "Potíže vám hned zkraje týdne připraví hvězdy v oblasti lásky. I když vás to může mrzet, nechcete trávit čas sebelítostí a zbytečnými úvahami. Jako správné vzdušné znamení se hned přeorientujete na jiné oblasti života. Tam cítíte větší šance.",
        "love": "Komplikují se vaše snahy najít si stálý a vyhovující vztah. Nenuťte se do ničeho, co vám do budoucna přinese jen stres.",
        "work": "S největší pravděpodobností měsíc zakončíte v práci úspěšně. Dostane se vám pochvaly od nadřízeného, na kterou jste čekali.",
        "relationships": "Potřebujete do plic vehnat čerstvý vzduch a do hlavy čisté myšlenky. Za oblíbeným sportem vyrazte s celou rodinou.",
        "health": "Nezanedbávejte mysl a zaměstnejte mozek. Postačí i obyčejné luštění křížovek nebo se vrhněte na studium cizího jazyka.",
        "tips": "Nákup knih a odborné literatury, kreativní psaní, úprava pracovního prostředí, exotická kuchyně, projížďka na kole."
    },
    "cancer": {
        "main": "Jste-li praví Raci, jste také labužníci. Ovšem o své požitky z jídla se rádi dělíte se svými nejbližšími. Drahá polovička ocení nejen snahu, ale také příjemnou atmosféru, kterou u večeře pro dva dokážete vykouzlit. Jste na dobré cestě vztah posunout dál.",
        "love": "Svou novou lásku si můžete začít hýčkat domácím jídlem a krásným servírováním. Sami víte, že láska prochází žaludkem.",
        "work": "Dlouhodobé spory na pracovišti se pomalu začnou vytrácet. Záleží i na vás, jak se k tomu dnes postavíte, milí Raci.",
        "relationships": "Dejte si pozor na to, co dnes budete vařit. Ne všichni doma mají stejné chutě jako vy, a navíc je může pozlobit zažívání.",
        "health": "Dobrou náladu vám zajistí sms s partnerem, které budou tak žhavé, že vám připomenou vášnivé začátky vašeho vztahu.",
        "tips": "Pracovní porada, rekvalifikace v oboru, romantické sms s partnerem, návštěva sourozenců, venčení pejska, večerní jóga."
    },
    "leo": {
        "main": "Do světa dnes klidně můžete vypustit své názory, ať už jsou kritické sebevíc. Pokud je totiž budete správně prezentovat, nehrozí žádný konflikt. Naopak tím můžete někomu otevřít oči. A v pracovní oblasti tím jen pomůžete ke kolektivním úspěchům.",
        "love": "Váš miláček oplývá iniciativou a dnes si pro vás připraví opravdu milé překvapení. Užijte si jeho přítomnost do sytosti.",
        "work": "Nebojte se být kritičtí ke kolegům. Pokud budou vaše připomínky dobře a upřímně míněné, jistě je přijmou s pochopením.",
        "relationships": "Dohlédněte na to, aby vaše ratolesti jedly zdravě. Celkem snadno mohou propadnout fast foodu a energetickým nápojům.",
        "health": "Nakupte si do zásoby potřebné vitaminy, především B. Ten zajistí vyrovnanou náladu a pomůže při zvýšeném cholesterolu.",
        "tips": "Nové obchodní příležitosti, příprava s dětmi do školy, odpolední procházka lesem, návštěva wellness, poslech audiotéky."
    },
    "virgo": {
        "main": "Jste rodinné typy, proto se nemůže stát, že byste nejevili zájem o své starší příbuzné. Uznáváte hierarchii v rodinných vztazích a máte potřebnou dávku zodpovědnosti. Pokud vás tedy dnes vaši prarodiče či rodiče požádají o pomoc, nebude váhat.",
        "love": "V mezilidských vztazích je u vás opravdu živo. Nebojte se projevit své nápady. Může z toho vzejít zajímavá spolupráce.",
        "work": "Zavčas si uvědomíte své možnosti a také to, jak prosazujete v práci své záměry. Předejdete konfliktům s nadřízeným i kolegy.",
        "relationships": "Musíte se také občas zajímat o to, jak se mají vaši starší příbuzní. Nezapomeňte, že se o vás také kdysi starali.",
        "health": "Z jídla dnes vynechte uzeniny a červené maso. Pokud máte chuť, dopřejte si jen drůbež nebo králíka. Tam je jistota diety.",
        "tips": "Nové podnikatelské aktivity, ruční mytí auta, vyřizování úředních záležitostí, péče o pokožku těla, podvečerní procházka."
    },
    "libra": {
        "main": "Sami se staráte o svůj duševní a duchovní rozvoj. Ale dopřáváte to i vašim nejbližším, třeba dětem? Dnes byste se měli těmto tématům věnovat a popovídat si s vašimi ratolestmi. Překvapí vás svými vyspělými názory na život. I tak ale potřebují vaše rady.",
        "love": "Do svého okolí přijímáte v podstatě jakoukoliv osobu, která má stejné zájmy jako vy. Dejte si pozor, ať se v někom nezmýlíte.",
        "work": "Jste bystří a není pochyb o tom, že máte nakročeno k úspěchům na pracovním poli. Nepromeškejte dnes žádnou šanci.",
        "relationships": "Je třeba, abyste sice sobě i rodině nakoupili tolik potřebné oblečení, věnujte ale také pozornost duševní stravě ve formě knížek.",
        "health": "Střídejte si při sprchování teplou a studenou vodu, především na dolní končetiny. Zabráníte takto nechtěným otokům.",
        "tips": "Konzultace lékařských zákroků, péče o příbuzné, dietní strava, nákup potravin s dovážkou, pečení domácího chleba."
    },
    "scorpio": {
        "main": "Odeznívat budou spory s nejbližšími a to vám dodá i více sebevědomí. V pracovní oblasti se to u vás neprojeví, ale doma bude atmosféra daleko příjemnější. Snažte se o to ji udržet takovou co nejdéle. Jste teprve na začátku týdne, tak to nepokazte.",
        "love": "Bouře v mezilidských vztazích se pomalu dnes začínají uklidňovat. Už bylo načase, spory vás dost vyčerpávají.",
        "work": "Protože jste ve svém oboru profíky, není od věci poohlédnout se po lepší pozici, kde budete moct své zkušenosti zúročit.",
        "relationships": "Nenoste si dnes domů žádné stresy ze zaměstnání. Ostatní členové domácnosti vaše emoce snadno nasají jako houby.",
        "health": "Kávu si nemusíte úplně odpírat, ale nezapomínejte na to, že musíte pak do těla dodat také čistou minerální vodu.",
        "tips": "Nákup čerstvých surovin na tržišti, káva s kolegy v parku, nové pracovní projekty, renovace domácnosti, meditace."
    },
    "sagittarius": {
        "main": "Rádi byste si se svými milými naplánovali již nějakou příjemnou a hlavně zaslouženou letní dovolenou. Bohužel se stále musíte ohlížet na to, jaká budou pravidla pro cestování. To vám ale nebrání v tom, abyste si alespoň částečně připravili plán.",
        "love": "Kdosi pro vás neznámý vám může odhalit své city a vyznat vám lásku. Pozor na to, jak zareagujete, je to citlivé téma.",
        "work": "Držte si svůj pověstný optimismus a nenechte se strhnout k tomu, abyste uráželi své spolupracovníky. Máte jen slabší období.",
        "relationships": "Na rodinné radě si již dnes zkuste probrat nápady na letní dovolenou. I když si zatím musíte počkat na přesná pravidla.",
        "health": "Rozházenou mysl pomůže zklidnit meditace v příjemném prostředí a za doprovodu oblíbené hudby. Uvidíte, že energie přijde hned.",
        "tips": "Meditační a dechová cvičení, pečení sladkých dezertů, účast ve vědomostní soutěži, péče o starší příbuzné, kardio cvičení."
    },
    "capricorn": {
        "main": "Hlava vám pracuje naplno. Pro vás to ale dnes nepřináší jen potěšení. Naopak, někteří z vašich kolegů nebo přátel vám nestačí, a tak se snadno dostáváte do ožehavých situací. Své názory si dnes raději nechte pro sebe a věnujte se klidovým činnostem.",
        "love": "Nezavdávejte nikomu příčinu, aby se do vás navážel. Snažte se nepříjemnou konverzaci udržet dále od sebe, jinak vás pohltí.",
        "work": "Víte, že se málokdy mýlíte. Vaši kolegové nejsou ale dnes připraveni na konfrontaci. Nechte ožehavé téma vyšumět.",
        "relationships": "Dáte si dnes pauzu od domácích prací. Raději si zahrajete oblíbené deskové hry. Vybírat můžete opravdu z velké nabídky.",
        "health": "Kupodivu vám k dobré náladě přispějí nejrůznější výtvarné činnosti. Jistě máte nějakou svou oblíbenou, tak se do ní dejte.",
        "tips": "Kreativní práce, nákup výtvarných potřeb, výcvik psa, servis automobilu, vaření, odpolední setkání s přáteli v parku."
    },
    "aquarius": {
        "main": "Nikdo vám nemůže vyčítat lenost a pohodlnost. Jste pravým opakem. Dnešek vám jen potvrdí to, že když jdete šancím naproti, můžou se vám splnit přání. Nepřežeňte to s velkým nasazením, jinak vám bude v týdnu chybět energie. Vydatný spánek vám prospěje.",
        "love": "Okouzlit vás může optimistická a veselá povaha osoby, u které byste to nepředpokládali. Dovolte si jí více poznat.",
        "work": "Vaše vysněná práce není nic nemožného. Stačí se více dívat kolem sebe a každou šanci chytit v počátku. Sny se mohou naplnit.",
        "relationships": "Snažte se dnes dodržet hodinu, kdy ulehnete do postele. Ponocování by se vám vymstilo hned zítra a práce by za nic nestála.",
        "health": "Aby se vám dnes dobře usínalo, měli byste si připravit ložnici. Základem je čistý vzduch a příjemné ložní prádlo.",
        "tips": "Nové pracovní projekty, kontrola domácího účetnictví, odpolední kardio v přírodě, podvečerní setkání s přáteli."
    },
    "pisces": {
        "main": "Budete se dnes muset poprat s nepříjemnými nástrahami ve všech oblastech života. Klid najdete pouze o samotě, se svými oblíbenými činnostmi. Vězte, že květen je u konce, a nový měsíc vám do života může přinést lepší zážitky. Je tu šance na lepší zítřky.",
        "love": "Zjistíte, že kdosi, kdo je vám velmi blízký, se ve skutečnosti jen přetvařuje. Je načase takové lidi ze svého okolí vyloučit.",
        "work": "Nároky nadřízeného vám mohou připadat neúměrné. Rádi byste si s ním vše vyříkali pořádně od plic, ale není na to vhodný den.",
        "relationships": "Výtvarné aktivity, do kterých se dnes pustíte, na vás mají opravdu blahodárné účinky. Vaše psychika tím posílí.",
        "health": "Bude třeba uklidnit roztříštěné myšlenky. Nejlepším způsobem je meditace a dechové cvičení. Postačí pár základních cviků.",
        "tips": "Lekce jógy podle internetu, sledování oblíbené soutěže, výroba raw dezertů, deskové hry s dětmi, aroma koupel."
    }
}