{
    "aries": {
        "main": "Vstup do nového roku pro vás bude hodně rychlý a ostrý, ostatně tak, jak jste zvyklí. Nemáte problém ani v jedné oblasti života. a proto se snažte, aby vám to podobně vycházelo i v následujících dnech či týdnech, protože máte našlápnuto k vysokým cílům.",
        "love": "Ve vztazích to bude od začátku nového týdne i roku jiskřit, tak nepropásněte žádnou šanci na začátek něčeho zajímavého.",
        "work": "Pracovní povinnosti vám jdou od ruky a jste nesmírně rychlí, ovšem také dost pyšní sami na sebe. Možná to ostatním kolem vadí.",
        "relationships": "Volný čas budete chtít věnovat úpravám domova či úklidu. Dobře si své aktivity naplánujte, ať se nevyčerpáte hned.",
        "health": "V novém týdnu nového roku jste v parádní fyzické kondici. Zřejmě jste si o vánočních svátcích hlídali jídelníček.",
        "tips": "Nové zimní outdoorové aktivity, vyřizování pracovní korespondence, příprava bezmasého oběda, nákup výtvarných potřeb."
    },
    "taurus": {
        "main": "Jistá osůbka se vám hodně líbí a hned máte v hlavě jasno, jaký to je vlastně člověk. Bohužel vaše rychlé soudy dnes nejsou vůbec to pravé a měli byste od nich upustit. Jinak se můžete také šeredně spálit. Dejte si čas na to, než se této osobě svěříte.",
        "love": "Rádi byste soudili na první dojem, ale tahle taktika by se vám opravdu nemusela vyplatit. Zkuste se držet zpátky.",
        "work": "Umíte báječně využít svých schopností a dosavadních zkušeností ve svém oboru. Díky tomu stoupáte strmě nahoru.",
        "relationships": "Máte pocit, že se již delší dobu potýkáte se stereotypem v životě a toužíte po razantních změnách. Záleží však na tom v čem.",
        "health": "Vám se o vánočních svátcích mlsání nějak zalíbilo. Máte tendence v tom pokračovat a tím pádem také přibírat na váze.",
        "tips": "Setkání se staršími příbuznými, telefonát s bývalým kolegou, procházka zimní přírodou, sledování hudební soutěže."
    },
    "gemini": {
        "main": "Ve vašem životě bude nyní láska ústředním tématem, protože byste rádi konečně měli někoho fajnového po svém boku. Máte také jasno, jak by měla dotyčná osoba vypadat. Jediné, nad čím se bohužel nezamýšlíte, je váš přístup k milostným vztahům.",
        "love": "Milostné vztahy nyní hrají velkou roli ve vašem životě a vy pátráte po tom, jací jsou vlastně vaši noví nápadníci.",
        "work": "V zaměstnání se vám bude dařit již od prvního dne nového roku. Je to fajn, když máte své vize a umíte s nimi dobře nakládat.",
        "relationships": "Bojovat budete s jistým členem rodiny, jehož chování si ale vykládáte naprosto mylně. Dejte si na to velký pozor.",
        "health": "Vaše tělo trápí již delší dobu toxiny, které stále nejdou pryč. Bude třeba, abyste si našli metodu, kterou to zvládnete.",
        "tips": "Oprava domácího spotřebiče, nákup interiérových dekorací, setkání se staršími sourozenci, plánování jarní dovolené."
    },
    "cancer": {
        "main": "Nový rok vás může v práci zastihnout nepřipravené, a tak vás docela zaskočit. Máte systém a nevěříte svým schopnostem, což vás může dostávat pod stále větší tlak, ze kterého pak pocházejí zásadní chyby. Snažte se zpomalit tempo a uklidněte se.",
        "love": "Hned zkraje nového roku se objeví nepříjemné problémy v dlouhodobém vztahu. Snažte se nepodléhat emocím a radikálním nápadům.",
        "work": "S příchodem nového roku jste v práci ztracení a nevíte si moc rady. Také vám chybí motivace a chuť vyhledávat nové projekty.",
        "relationships": "Doma pěstujete přílišnou nervozitu a zakládáte hádky. To není vůbec dobré dělat už na počátku nového roku, přestaňte.",
        "health": "Vy jste se přes Vánoce nehlídali v jídle, ale ani nyní se s tím nijak netrápíte. To se bohužel odrazí na vaší postavě.",
        "tips": "Dietní úprava jídelníčku, luštění rébusů a křížovek, schůzky na úřadech, nákup potravin s dovážkou do domu, tanec."
    },
    "leo": {
        "main": "V partnerském vztahu to dnes bude vřít, protože si od partnera vyslechnete nepříjemné narážky a výčitky. Bude nutné zachovat klid a mírnit rétoriku, než bude opravdu zle. Přece nechcete začínat nový rok s hádkami a obtížnými partnerskými situacemi.",
        "love": "Zadaní z vás si mohou od partnera vyslechnout dost nepříjemné výčitky, což pro vás může po klidných svátcích být šok.",
        "work": "Jste připraveni řešit všechny složitější úkoly, protože jste se jimi v uplynulých týdnech dobře a poctivě zabývali.",
        "relationships": "Kdosi z přátel bude potřebovat vaši podporu a vy mu ji bez váhání poskytnete. Také víte, že mu máte zřejmě co vracet.",
        "health": "Na vás dopadá bohužel únava, zřejmě po náročnějších vánočních svátcích. Jste náchylní k namožení svalů a kloubů.",
        "tips": "Odpolední odpočinek, zimní sporty, venčení pejska s přáteli, novoroční úklid domácnosti, studium výtvarných technik."
    },
    "virgo": {
        "main": "Ve vaší blízkosti je človíček, který vás neskutečně baví, ale není to vůbec váš typ. Záleží jen na vás, jak si v tomto vztahu budete počínat a jak vlastně pokračovat. Pokud vás tato osůbka fyzicky nezaujme, pravděpodobně z toho nic vážného opravdu nebude.",
        "love": "Kdosi, kdo se pohybuje ve vaší blízkosti, sice není váš typ, ale hodně vás baví a líbí se vám. Otázka je, jak s tím naložíte.",
        "work": "I kdyby se v práci nyní dělo cokoliv, vy zachováte stoický klid a nic vás nerozhodí. Je otázka, jestli děláte dobře.",
        "relationships": "Pocítíte značnou únavu hned zkraje týdne a nebude se vám to vůbec líbit. Rádi byste se věnovali své rodině a domácnosti.",
        "health": "Pokud si nebudete dávat pozor na to, jak chodíte ven oblékaní, máte velké šance, že si přivodíte problém s dýchacími cestami.",
        "tips": "Týmová spolupráce na projektu, pracovní schůzky, vyřizování soukromé korespondence, psaní romantických básniček."
    },
    "libra": {
        "main": "Vaše lenost a pohodlnost z vás na začátku roku může udělat opravdu špatný příklad pro ostatní kolegy. Také nadřízený si na vaši pracovní morálku bude stěžovat a zcela oprávněně. Zkuste se dát v dalších dnech do kupy a začněte konečně pracovat.",
        "love": "Nebojte se navazování nových kontaktů. Je totiž jasné, že můžete potkat někoho, s kým zůstanete delší dobu. Hvězdy vám přejí.",
        "work": "V práci to nebude hned zkraje roku žádná hitparáda. Budete bojovat s vlastní pohodlností a také s nezajímavými úkoly.",
        "relationships": "Rádi byste svým blízkým poradili, ale zdá se, že o vaše rady nikdo doma nestojí. Dejte si pozor, aby to nesklouzlo k hádkám.",
        "health": "Budete se těšit výbornému zdraví a také fyzické kondici. Nic vám nebrání ve sportování a otužování vhodným způsobem.",
        "tips": "Vyřazování staršího oblečení do charity, bruslení na městském kluzišti, vybavení domácího pracovního koutku, běžkování."
    },
    "scorpio": {
        "main": "Se svým milostným životem tedy opravdu spokojení nejste a nebudete. Pokud si vztah chcete uchovat nebo si teprve nějaký začít, budete se muset více snažit. Jinak budete stále sami a také dost frustrovaní, jelikož nic nebude stále podle vás.",
        "love": "Nový rok vám přináší malé rozčarování, protože nejste spokojeni se svým milostným životem. Bude to chtít větší snahu.",
        "work": "Nové pracovní příležitosti se k vám jen pohrnou. Bude fajn si udělat přehled, co opravdu stojí za to a z čeho nic nebude.",
        "relationships": "Bude vám dost líto, že doma hned v novém roce nepanuje dobrá nálada, i když se to snažíte zvrátit. Zatím marně.",
        "health": "Hlídejte si svou stravu, která během vánočních svátků mohla být trochu divočejší, než jste zvyklí. Do pořádku ji dáte hned.",
        "tips": "Práce s novou elektronikou, psaní romantických povídek, hledání nového partnera na online seznamce, setkání s kamarádem."
    },
    "sagittarius": {
        "main": "Láska vám nyní žádné starosti nedělá, ale také se nechcete k ničemu a k nikomu vázat. Raději si užíváte flirtování, randění a seznamování. To je pro vás velmi přínosné, protože tak máte daleko větší přehled a ujistíte se, co opravdu od vztahů očekáváte.",
        "love": "V lásce máte pocit lehkosti a oživení, nedělá vám problém flirtování, ale do vážného vztahu se vám zatím nechce.",
        "work": "V práci budete pod dohledem závistivých kolegů a nebude to pro vás žádná legrace. Snažte se udržet nervy na uzdě.",
        "relationships": "Lednové dny vás varují, abyste si dávali pozor na ukvapené a zbrklé pohyby, kterými si můžete přivodit nepříjemný úraz.",
        "health": "Jste pod tlakem a to se projeví na vaší psychice. Nesmíte se nechat dostat do stresu, protože vaše nervy pracují naplno.",
        "tips": "Studium nového cizího jazyka, zápis do rekvalifikačního kurzu, servis domácího spotřebiče, povánoční nákupy ve slevách."
    },
    "capricorn": {
        "main": "Díky uplynulým vánočním svátkům jste tak trochu bez energie a značně vyčerpaní. Proto se není čemu divit, že se nehrnete ani do žádného milostného dobrodružství, na které také potřebujete dostatek sil. Dopřejte si zatím odpočinek a nic si nevyčítejte.",
        "love": "Nedá se říct, že byste byli v těchto dnech opravdu připravení na nová milostná dobrodružství, protože jste trochu přetažení.",
        "work": "Před vámi nyní stojí opravdu vážné úřední záležitosti, kterým je třeba věnovat náležitou pozornost. Dejte si na tom záležet.",
        "relationships": "Jistá aktivita, do které se v nejbližších dnech chcete pustit, se nebude vůbec líbit zbytku vaší rodiny a dají vám to najevo.",
        "health": "Vy jste v počátku nového roku ve velmi dobré formě a především se to týká mentálních funkcí. Pracujte na sobě i dál.",
        "tips": "Nové pracovní projekty, úklid domácí pracovny, výtvarné a kreativní práce s dětmi, četba nových knížek, wellness procedury."
    },
    "aquarius": {
        "main": "Máte před sebou týden, kdy budete potřebovat dost pracovat na svých zakázkách či úkolech a nemíníte promarnit ani jednu jedinou příležitost. Na nic byste neměli čekat, protože to jen prodlužuje vaši cestu za úspěchem a možná i novou kariérou.",
        "love": "Single jedinci mezi vámi nemají nyní zájem o něco, co je jen povrchní a bez budoucnosti. Vybíráte si perspektivnější vztahy.",
        "work": "Dost intenzivně začnete pracovat na nových projektech. Nechcete ztratit ani jeden den nového roku tím, že budete jen čekat.",
        "relationships": "Za okny sice panuje pravá lednová zima, ale vy si doma uděláte svůj parádní program a nebudete se nijak omezovat.",
        "health": "Vaší velkou devízou hned ze začátku roku je parádní fyzická kondice. I kdybyste se dnes unavili, regenerovat budete rychle.",
        "tips": "Péče o domácí mazlíčky, nákup potravin s dovážkou do domu, setkání se staršími příbuznými, taneční lekce pro páry, bruslení."
    },
    "pisces": {
        "main": "V milostné oblasti jste vsadili bohužel asi na špatnou kartu, protože vám současný partner nenabízí tolik, jako vy dáváte jemu. Zbytečně tak plýtváte silami na nevhodnou osobu. Zkuste se od tohoto vztahu včas odpoutat, i když to bude bolestivé.",
        "love": "Hodně se zabýváte někým, kdo vám neoplácí stejnou mincí. Je načase udělat si v tomto vztahu jednou provždy pořádek.",
        "work": "Do pracovních povinností si zatím vnášíte docela slušný chaos, ale zase ne takový, abyste jej sami nezvládli. Zkuste to změnit.",
        "relationships": "Dávejte na sebe pozor, protože vám hrozí úrazy, vzniklé ze zbrklého chování. Nepospíchejte nikam a buďte v klidu.",
        "health": "Rok začněte opatrně, protože jste zatím dost náchylní k úrazům. Ty si můžete přivodit neopatrnými pohyby či sportem.",
        "tips": "Outdoorové sportovní aktivity, dechová cvičení, rehabilitace zad, fotografování zimní přírody, studium cizích jazyků."
    }
}