{
    "aries": {
        "main": "S novým idolem si užíváte pohodu, která mezi vámi dvěma panuje. Navíc svého partnera okouzlujete nápady, které jsou originální a neotřelé. Evidentně si dáváte velmi záležet na tom, aby to mezi vámi pokračovalo dál a samozřejmě bez velkých problémů.",
        "love": "Vaší nové lásce se zamlouvá váš optimismus a nápady, kterými vylepšujete váš vztah. Je vidět, že vám na tom záleží.",
        "work": "Věříte si o něco víc, než by bylo zdrávo. Bohužel, vaše výsledky nejsou tak vynikající, spíše jsou průměrné.",
        "relationships": "I když budete mít stále co dělat, neměli byste vynechávat ze svého programu přátele a dobré kamarády. Stýská se jim.",
        "health": "Váš organismus trápí již delší dobu škodliviny, které stále nejdou pryč. Bude nutné, abyste si našli vhodnou léčebnou metodu.",
        "tips": "Setkání se staršími příbuznými, oprava domácího spotřebiče, tanec, vyřizování osobní korespondence, setkání s kamarádem."
    },
    "taurus": {
        "main": "Ve vašem povolání můžete být velmi úspěšní, už jen z toho důvodu, že máte opravdu co nabídnout. Vašimi přednostmi jsou především sice běžné atributy, ale ve vašem podání jsou výjimečné. Umíte s nimi velmi dobře nakládat a využívat je ku prospěchu.",
        "love": "V lásce jste stále trochu ukvapení a rozhodujete se na základě prvotních pocitů, které nejsou ale vůbec relevantní.",
        "work": "Kreativita, zkušenosti, originalita a schopnosti. To jsou atributy, které byste v práci měli využívat pravidelně, nejen dnes.",
        "relationships": "Pokud jste si naplánovali a také dopřáli nějakou změnu své image, je možné, že nejste vůbec spokojení s tím, jak to dopadlo.",
        "health": "Vaše kondice je i po svátcích vynikající. Pondělí vám ukazuje, co všechno dělat, abyste se fyzicky udrželi ve formě.",
        "tips": "Nákup výtvarných potřeb, nákup interiérových dekorací, odpolední odpočinek, psaní romantických básniček, běžkování."
    },
    "gemini": {
        "main": "Nový týden startujete ve výborné náladě. Nejenže se vám daří v lásce, ale ani v práci to není špatné Máte příliv nových nápadů a vizí, také jste si možná dali nějaká předsevzetí a rádi byste je naplnili. Objasní se vám dost věcí, o kterých přemýšlíte.",
        "love": "Ve společnosti záříte a docela si to užíváte. Není to nic proti ničemu, pokud to nebudete přehánět a zanedbávat své vztahy.",
        "work": "Podvědomě toužíte po úspěchu a také zaslouženém ohodnocení své práce. Na mysl vám znenadání může přijít změna místa.",
        "relationships": "Chování jednoho z vašich vzdálených příbuzných vám dělá starosti. Připadá vám totiž dost nezodpovědné a riskantní.",
        "health": "Přes Vánoce jste se neovládali v jídle, ale zatím vás to netrápí. Nový rok je ještě v začátcích a máte čas zhubnout do plavek.",
        "tips": "Studium nového cizího jazyka, filatelie, nákupy čerstvých potravin s dovážkou do domu, hraní karetních her s kamarády."
    },
    "cancer": {
        "main": "Pondělní den vás zaskočí tím, že se věci nedějí podle vašich představ, ale opět je v nich chaos a zmatek. Navíc děláte chyby, jejichž náprava vás stojí spoustu sil. V partnerském vztahu zažíváte zklamání, které pramení z nepochopení jeden druhého.",
        "love": "Společný život s vaším partnerem dostává značné trhliny. Je to díky tomu, že nenacházíte soulad v názorech na budoucnost.",
        "work": "Spoustu vašich problémů v práci způsobí fakt, že děláte chyby a později se k nim musíte vracet. Tím plýtváte svým časem.",
        "relationships": "Příbuzní to sice s vámi myslí dobře, ale vy si nenecháte zatím do ničeho mluvit, a tím vznikají zbytečné krize.",
        "health": "Dopadá na vás únava po náročných vánočních svátcích. Máte sklony k namožení svalů a kloubů či zablokování krční páteře.",
        "tips": "Četba nových knížek, studium cizích jazyků, studium kaligrafie, pečení sušenek s dětmi, pozdní snídaně."
    },
    "leo": {
        "main": "Bude dobré zaměřit svou pozornost tím směrem, kde jsou nyní velmi výnosné pracovní aktivity. Tam se vám bude dobře dařit a tam také můžete zúročit vše, co jste se doposud naučili. V milostných a mezilidských vztazích jste plni energie a sil.",
        "love": "Vám je v podstatě jedno, že je zimní období, protože jste činorodí a aktivní v mezilidských vztazích, že se nestačíte nudit.",
        "work": "Jisté pracovní povinnosti vám mohou vynést slušné peníze. Není od věci se na ně tedy více zaměřit a využít svých schopností.",
        "relationships": "Doma vás kdosi bude chtít vyprovokovat tím, že bude kritizovat vaše nápady a myšlenky. Nenechte se strhnout k hádkám.",
        "health": "Mlsání o svátcích se vám hodně zalíbilo a bohužel máte sklony v tom pokračovat i nadále. Pozor na to, vaše figura trpí!",
        "tips": "Zápis do rekvalifikačního kurzu, fotografování zimní přírody, ruční čištění automobilu, odstrojení vánočního stromečku."
    },
    "virgo": {
        "main": "V zaměstnání jedete podle svých zažitých vzorců a spoléháte se na to, že vám vše projde. Bohužel se na vás může obrátit pozornost nadřízeného a vy budete pod jeho přísným dohledem, dokud se nezlepšíte. Budete se muset vzpamatovat a konečně zabrat.",
        "love": "Ve vaší blízkosti je človíček, který má o vás zájem, ale vy to snad ani netušíte. Otevřete konečně oči, ať si to uvědomíte.",
        "work": "Vy jste v práci v pohodě a nad věcí, i když máte popravdě co dohánět. Nepokazte si pověst zbytečnou lenivostí.",
        "relationships": "Jste velmi pracovité znamení a chvíli neposedíte, ale měli byste šetřit energii, budete ji potřebovat na akce se svou rodinou.",
        "health": "Jste ve stresu a to se jednoznačně projeví na vaší psychice. Nesmíte se nechat ovládat nervozitou, protože pak jste podráždění.",
        "tips": "Úklid domácí pracovny, setkání se staršími příbuznými, ruční práce, poslech vinylových desek, vydatný spánek."
    },
    "libra": {
        "main": "Tvoříte si kolem sebe prostředí, ve kterém se nacházejí stejně naladění jedinci, se kterými dostává váš společenský život nový rozměr. Konečně si můžete užívat příjemné momenty, kdy se s lidmi můžete bavit, aniž byste se museli něčeho obávat.",
        "love": "Do vašeho okruhu blízkých známých se v posledních den stahují lidé, kteří jsou stejně svobodomyslní jako vy. Užívejte si to.",
        "work": "Rádi byste si práci plnili tak, abyste neměli prodlevu, ale bohužel dnes často budete ztrácet nit a návaznost povinností.",
        "relationships": "Někteří z vás mají velmi šikovné ruce a rádi tvoří. Možná že není od věci, abyste své výrobky ukázali konečně světu.",
        "health": "Vaší silnou stránkou hned ze začátku roku je výborná fyzická kondice. Regenerovat budete rychle, ale také odpočívejte.",
        "tips": "Výtvarné a kreativní práce s dětmi, rehabilitace zad, úklid sklepa a dílny, sbírání známek, tvorba fotokoláží z Vánoc."
    },
    "scorpio": {
        "main": "Bude nutné si uvědomit, co vlastně od svých milostných vztahů nebo románků očekáváte. Pokud jednou chcete něco a podruhé něco jiného, těžko s vámi lidé vyjdou, protože nechápou, o co vám jde. Snažte se do svého života vnést jinou, pozitivní energii.",
        "love": "Od vztahu si zřejmě slibujete víc, než je možné a než vám je váš partner schopen nabídnout. Rozmyslete si, co opravdu chcete.",
        "work": "Je před vámi spousta pracovních povinností, které si potřebujete dokončit v takovém čase, abyste měli klid na ostatní nové.",
        "relationships": "S rodinou si dnes pusťte oblíbený film, u kterého si všichni sednete a uděláte si pohodový večer. Připravte si popcorn.",
        "health": "Vy jste na začátku nového roku ve velmi dobré fyzické i psychické kondici. Ovšem pracovat na sobě musíte dál.",
        "tips": "Servis domácího spotřebiče, taneční lekce pro páry, poslech vinylových desek, nákup nové odborné a naučné literatury."
    },
    "sagittarius": {
        "main": "V lásce se vám bude dařit a také to bude ústřední téma celého vašeho dne. Máte pocit, že jste konečně našli tu správnou rovnováhu, která vám naprosto vyhovuje. Ani jeden z vás se nemusí k ničemu nutit násilím a vše jde naprosto přirozeně a samo.",
        "love": "V partnerských vztazích budete prožívat krásný den, kdy cítíte, že vše jde zlehka, bez velký snah a přizpůsobování.",
        "work": "Neberte si v práci nyní moc složité úkoly, protože se vám nedaří propojit správné informace s jejich využitím.",
        "relationships": "Vydejte se dnes na bruslení nebo za wellness procedurami a ulevte si od přetížené psychiky po náročných vánočních svátcích.",
        "health": "S novým rokem jste dost náchylní k poraněním. Ty si můžete přivodit sami při rizikovém sportu nebo na pracovišti.",
        "tips": "Wellness procedury, bruslení, příprava oběda pro rodinu, venčení pejska s přáteli, péče o domácí mazlíčky."
    },
    "capricorn": {
        "main": "V lásce si nyní dáváte na chvilinku pohov, protože si svůj život chcete lépe zorganizovat, rozmyslet si, co od milostných vztahů očekáváte a co jste schopní sami obětovat. Možná budete překvapení, jak dobře takové vlastní sebezpytování funguje.",
        "love": "Milostné vztahy jsou pro vás zatím tabu, nechcete se moc angažovat a vše berete spíše jako přátelství. Záleží jen na vás.",
        "work": "Jestliže dostanete nějakou nabídku práce, která se vám velmi líbí, nečekejte na nic a vrhněte se do toho s nejlepším úmyslem.",
        "relationships": "Máte výborné nápady, jak si vylepšit domácnost pěknými interiérovými doplňky, které si můžete dokonce vyrobit sami.",
        "health": "Hlídejte si jídelníček, který během vánočních svátků mohl být trochu volnější, než jste zvyklí. Půjde to skoro samo.",
        "tips": "Povánoční nákupy ve slevách, dechová cvičení, ranní cvičení jógy, navazování romantických vztahů s novými známými."
    },
    "aquarius": {
        "main": "Pokročili jste ve vlastním smýšlení a v tom, jak chcete dále prožívat svůj život. Máte spoustu nových podnětů k tomu, abyste se změnili a své další kroky směřovali tím správným směrem. Rádi se vzdáte krátkodobých románků a také nejistého zaměstnání.",
        "love": "Single osůbky mezi vámi budou nyní vyhledávat spíše vážnější vztahy, protože flirty na jednu noc opravdu nechcete.",
        "work": "Intenzivně dnes začnete pracovat na tom, abyste byli úspěšní dlouhodobě, nikoliv jen přechodně. Chtěli byste si přilepšit.",
        "relationships": "Doma si dnes pusťte oblíbený film, u kterého si všichni sejdete a uděláte si příjemný večer. Budete se dobře bavit.",
        "health": "Budete se těšit výbornému fyzickému a mentálnímu zdraví, nic vám nebrání v tom, abyste posilovali, cvičili a otužovali se.",
        "tips": "Péče o domácí mazlíčky, outdoorové sportovní aktivity, péče o pokojové rostliny, příprava na nový školní týden s dětmi."
    },
    "pisces": {
        "main": "Prožíváte jisté vzrušení, pokud jste v blízkosti jistého člověka, ale také se trochu bojíte. Bude třeba, abyste si v hlavě ujasnili, proč tomu tak je a zda je to pro vás ta správná cesta. Nemá cenu se do něčeho nutit nebo přemáhat jen kvůli dobrodružství.",
        "love": "Jistá osůbka vás neustále přitahuje, ale také cítíte jisté napětí a nervozitu v její přítomnosti. Musíte na to jít pomaleji.",
        "work": "V zaměstnání se po víkendu budete muset lépe soustředit na své povinnosti, protože jste ještě trošku roztěkaní a neklidní.",
        "relationships": "Zajděte si dnes zabruslit, do bazénu, za masážemi a ulevte si od náročných pracovních povinností. Potřebujete si odpočinout.",
        "health": "Dnes je správná doba k péči o pokožku. Výsledky jsou viditelné ihned, ale nezapomínejte na mrazem vysušené ruce.",
        "tips": "Nové pracovní projekty, nákup potravin s dovážkou domu, úklid domácnosti, zimní sportovní aktivity, návštěva kina."
    }
}