{
    "aries": {
        "main": "Dnes si velmi dobře rozmyslete jakékoliv půjčky nebo smlouvy, které by pro vás do budoucna byly absolutně nevýhodné. Musíte si vše zvážit, než někam napíšete své jméno. Raději takové záležitosti odložte na dobu, kdy se budete moct plně soustředit.",
        "love": "Po delší době zřejmě zažíváte krásný vztah a rádi byste si jej udrželi do budoucna. Nebude to tak složité, jak se obáváte.",
        "work": "Ani dnes se nehrňte do zbytečného upisování se něčemu, co bude do budoucna velmi nevýhodné, až dokonce prodělečné.",
        "relationships": "Odpočinkem pro vás může být i nějaká originální hobby aktivita. Věnujte tomu část neděle, můžete tak relaxovat.",
        "health": "Nedělní oběd dnes může být jen ze zeleniny a bílého masa. Nakombinujte si vůně, chutě a barvy podle fantazie.",
        "tips": "Odstrojování vánočního stromečku, nové kroužky pro děti, příprava na obchodní jednání, nákup exotických lahůdek."
    },
    "taurus": {
        "main": "Zkuste se dnes zaměřit na praktické záležitosti svého života, jako jsou spoření peněz, vytváření finančních rezerv, úpravy domácnosti a péče o své zdraví. Nechte naopak na pokoji váš nepodařený milostný život. Tam dojde k nápravě později.",
        "love": "Neděle nemusí být tak špatná, pokud si nebude stále klást otázky o vašem milostném životě. Zaměřte se na něco jiného.",
        "work": "Založte si nějaký výhodný spořicí účet, který by vám mohl vytvořit časem slušný finanční polštář na horší časy.",
        "relationships": "Procházka po oblíbeném místě v okolí nebo ve městě by vám dnes mohla udělat radost. Přijdete na jiné myšlenky.",
        "health": "Uděláte si více času na sebe a svou rodinu a na okamžik vypnete z obvyklého stresu. Krátká relaxace vám udělá dobře na duši.",
        "tips": "Příprava bezmasého oběda, nákup potravin s dovážkou domů, pracovní schůzky, hledání nového partnera na online seznamce."
    },
    "gemini": {
        "main": "Buďte velmi patrní na to, co dnes svým milým řeknete a hlavně jakým tónem. Občas umíte být jízliví, aniž byste to tušili, ovšem vaše drahé to raní a jsou pak smutní. Náprava dnešního průšvihu by mohla nakonec být velice obtížná i pro vás.",
        "love": "Určitě se vám nevyplatí současná rétorika, proto važte svá slova, jinak můžete někoho velmi ranit a náprava bude složitá.",
        "work": "Plánování rodinné dovolené zahrnuje také rozpočet. Udělejte si tedy přehled, co vše bude třeba uhradit teď a co potom.",
        "relationships": "Doma si budete dnes chtít užít nějaké své hobby aktivity a nic vás nedonutí dělat domácí práce. Pozor na hádky.",
        "health": "Na sport vás dnes neužije. Najdete jinou aktivitu, která vás bude udržovat v kondici. Potřebujete protáhnout ztuhlé svalstvo.",
        "tips": "Hledání nových kontaktů na sociálních sítích, cvičení ve fitness centru, pořízení vstupenek na koncert."
    },
    "cancer": {
        "main": "Dnes si promluvte s dětmi o tom, jaké by si představovaly kapesné a za co by si ho měly zasloužit. Bude třeba dost trpělivosti, ale nakonec se můžete dobrat k pozitivním výsledkům. Důležité je, aby vaše ratolesti měly základní finanční gramotnost.",
        "love": "Dnes si jděte po svém a sejděte se s rodinou nebo přáteli, pomůže vám to alespoň na chvíli zapomenout na trable ve vztahu.",
        "work": "Dětem bude potřeba nastavit správné kapesné, aby se naučily hospodařit s penězi a nečekaly s nataženýma rukama.",
        "relationships": "Najděte si čas na vaše potomky, kteří vám tak trošku rostou před očima a vy je nestíháte. Chce to projevit více zájmu.",
        "health": "V neděli přijde psychické i fyzické zklidnění. Uzavíráte se do sebe a vnímáte své nitro. Láká vás jóga a východní učení.",
        "tips": "Úklid ozdob a dekorací, rekvalifikační studium, studium nové meditační techniky, návštěva kina, outdoorové sportovní aktivity."
    },
    "leo": {
        "main": "Je možné, že už od rána vycítíte mezi sebou a protějškem napětí, které by mohlo vygradovat ve velké hádky. Proto uděláte nejlépe, když se vydáte za svým programem a každý zvlášť, tím se může vypjatá atmosféra uklidnit a večer už vše bude jinak.",
        "love": "Jakmile i dnes ucítíte ve vztahu napětí, raději si s partnerem dopřejte každý svůj vlastní program, uleví se vám.",
        "work": "Vynechte dnes ze svého programu návštěvy obchodních center a raději se jděte projít do přírody. Tam nic neutratíte.",
        "relationships": "Jakmile na vás bude někdo z příbuzných tlačit a do něčeho vás nutit, nebude se vám to líbit a dáte to dost hlasitě najevo.",
        "health": "Krátká zdravotní procházka v neděli po obědě bude pro posílení fyzického i psychického zdraví jednoznačně nejlepší.",
        "tips": "Meditace, turnaj v pokeru s přáteli, sbírání známek, rezervace letní dovolené u moře, nákupy potravinových doplňků."
    },
    "virgo": {
        "main": "Určitě se dnes nevydávejte do obchodních center na další nákupy ve slevách, protože byste si jen opět vytahali peníze z kapsy. Raději se věnujte úklidu vánočních dárků, pokud jste to stále ještě nestihli. Bude třeba jim najít vhodné místo, aby byly vidět.",
        "love": "Volný nedělní den by neměl mít náročný program, nýbrž pouze odpočinkový, plný příjemných zážitků s vaší drahou polovičkou.",
        "work": "Pokud jste si dali vše do pořádku, tak si dnes dejte pohov od placení výdajů. Raději se pusťte do domácích prací.",
        "relationships": "Doma bude třeba uložit ještě některé vánoční dárky a vy pro ně musíte najít nové místo. Zabrat vám to může skoro celý den.",
        "health": "Zařaďte do svého denního programu vhodnou formu pohybu, který vám pomůže zhubnout v kombinaci s potřebnou dietou.",
        "tips": "Nákupy ve slevách, novoroční úklid domácnosti, vydatná snídaně s přáteli v bistru, návštěva kosmetického salonu."
    },
    "libra": {
        "main": "Máte-li chuť si pořídit vysněný předmět, na který jste si šetřili korunky, udělejte to až tehdy, jestliže budete mít přesný přehled o nejlepší ceně a také kvalitě zboží. Finance na to máte, nebojte se tedy později investovat, uděláte si velkou radost.",
        "love": "Den přeje setkání s dobrými přáteli, kteří jsou pro vás skoro jako rodina. Báječně si společný program užijete.",
        "work": "Můžete si dovolit v těchto dnech investovat do něčeho hodnotnějšího. Nejdříve si ale prozkoumejte trh a správné ceny.",
        "relationships": "Odpočívejte, relaxujte a věnujte se svým volnočasovým aktivitám, které vám dělají radost. Je důležité najít si čas pro sebe.",
        "health": "Spánkový deficit se u vás projeví krátkou odpolední únavou. Nenechte se rozhodit a klidně si na chvíli jděte lehnout.",
        "tips": "Pořízení nové elektroniky, odstrojování vánočního stromečku, poslech nového cizojazyčného podcastu."
    },
    "scorpio": {
        "main": "Naslouchejte svému vnitřnímu hlasu, který říká, že nová a velká láska je velmi blízko. Nic by vás od tohoto pocitu nemělo odradit. Svou pozornost ale zaměřte na své rodinné finance, které se dostávají do záporných hodnot, a je třeba s tím něco dělat.",
        "love": "Věřte své intuici a také tomu, že na vás číhá láska a je velmi blízko. Nic by vás od tohoto pocitu dnes nemělo odradit.",
        "work": "Při kontrole svého bankovního konta na vás mohou skoro přijít mdloby. Bude nutné spořit tak, abyste se neocitli v problému.",
        "relationships": "Rádi byste si dnes doma odpustili všechny domácí práce a naučili se nové výtvarné techniky nebo se učili cizí jazyky.",
        "health": "Zdravotní procházka na čerstvém, chladném vzduchu vám uklidní nervy a vy si vyčistíte hlavu. Především se ale dobře oblečte.",
        "tips": "Setkání s kolegy po práci, úklid ozdob a dekorací, skládání písní, psaní milostných básniček, natáčení nového podcastu."
    },
    "sagittarius": {
        "main": "Obklopte se dnes těmi lidmi, které znáte dlouho a máte s nimi hezký vztah. S těmi se dokážete dobře pobavit a uvolnit se, kdežto s někým novým se vám dnes tak hezky povídat nebude. Potřebujete mít pocit bezpečí a jistoty, nejlépe s rodinou.",
        "love": "Dejte dnes přednost být v kontaktu s někým, koho dobře znáte a v jehož přítomnosti jste sami sebou. To vám svědčí nejvíce.",
        "work": "Domácí práce na vás nepočkají, zvlášť pokud jde o generální úklid. Toho se chopte co nejdříve, ať máte klid.",
        "relationships": "Musíte si udělat čas na své děti, které již mají spoustu nových přátel, jen vy nemáte příležitost si s nimi o tom popovídat.",
        "health": "Vaše děti nebo vnoučata vás dnes mohou uprosit, abyste si s nimi šli zabruslit nebo zasáňkovat. Užijete si to společně.",
        "tips": "Hraní deskových her s dětmi, nákup vitaminů a potravinových doplňků, sledování sportovního přenosu, rezervace dovolené."
    },
    "capricorn": {
        "main": "Snažte se dostatečně odpočívat, protože vám docházejí síly. Najděte si správný relaxační program a nepodceňujte ani správnou spánkovou hygienu, protože vaše tělo potřebuje regenerovat. Nedělní den prožijete tedy v prostředí domova, nikoliv mezi lidmi.",
        "love": "Nedělní den využijete spíše k relaxaci a odpočinku, než abyste se vydávali ven, mezi velké davy lidí. Vyhovuje vám to víc.",
        "work": "Odpočiňte si od myšlenek na práci a finanční investice, nemáte v tomto jasný úsudek a bylo by to pro vás ohromné riziko.",
        "relationships": "Pokud na vás dnes bude někdo z příbuzných naléhat a do něčeho vás nutit, dost vás to naštve. Ale zkuste se více ovládat.",
        "health": "Kvalitní a chutný nedělní oběd nemusí být omáčka s knedlíkem, ale jistě přijdete na chuť novým a lehčím receptům.",
        "tips": "Úklid domácnosti, cvičení ve fitness centru, estetické zákroky, pletení a háčkování, hraní na hudební nástroje s kamarády."
    },
    "aquarius": {
        "main": "Pokuste se dnes se svým partnerem vrátit zpět do vztahu klid a pohodu, protože potřebujete rovnováhu do dalších náročných dní. Mohou váš čekat jak v práci, tak v rodinném životě. Také si odpusťte divoké utrácení peněz ve slevách a akcích.",
        "love": "Dnes dostanete šanci na to, abyste svého miláčka uklidnili a vrátili tak do vašeho vztahu rovnováhu. Tu zkuste udržet i dál.",
        "work": "Dejte si dnes pohov od nákupů a slídění po obchodech. Doma vám stojí práce, kterou je třeba dokončit co nejdříve.",
        "relationships": "Dostali jste zřejmě hodně hezkých vánočních dárků a bude nutné si je uložit nebo je také konečně začít používat.",
        "health": "Odpočívejte, relaxujte s knížkou a do ničeho se nehrňte. Pokud už ale vyrazíte za sportem, tak pouze rekreačně.",
        "tips": "Venčení pejska s přáteli v parku, malování mandal na kamínky, setkání s přáteli ve vinárně, hledání nového zaměstnání."
    },
    "pisces": {
        "main": "Dobře vám bude mezi lidmi, kteří jsou vašemu srdci nejbližší. Může to být rodina, ale i dobří přátelé či kamarádi. Zkrátka se obklopte lidmi, kterým věříte a můžete se s nimi báječně uvolnit. Vyhněte se ale i dnes půjčování peněz, nevrátily by se vám.",
        "love": "Ve společnosti vašich nejbližších z rodiny vám dnes bude fajn. Dejte si něco dobrého k jídlu a povídejte si o běžných věcech.",
        "work": "Stále hrozí nebezpečí, že pokud podlehnete nátlakům ze strany přátel a půjčíte jim finanční obnos, nedostanete ho zpátky.",
        "relationships": "Dnes si vyhraďte den na to, že se budete připravovat na nový pracovní týden. Je důležité najít si čas pro sebe.",
        "health": "Pokud na vás během dne dopadne únava, dopřejte si kratší odpočinek a pokuste se nabrat nové síly do dalšího týdne.",
        "tips": "Posezení v oblíbeném bistru, nákupy léků a zdravotnických potřeb, poslech nové audioknihy, konzultace se stomatologem."
    }
}