{
    "aries": {
        "main": "Se svým partnerem si užíváte pohodu, která mezi vámi momentálně panuje. Svůj protějšek také okouzlujete plány, které jsou originální stejně jako vy. Velmi vám záleží na tom, aby to mezi vámi pokračovalo v tom nejlepším duchu dál a bez obtíží.",
        "love": "Štěstí v lásce je na vaší straně, a to ještě několik dní. Planeta lásky Venuše se o to postará, takže nemusíte mít obavy.",
        "work": "Umíte se druhým více přizpůsobit, což je v pracovní sféře opravdu znát. Je to dobře, s kolegy tvoříte dobrý tým.",
        "relationships": "Neměli byste zapomínat na své přátele, protože se jim po vás stýská. Najděte si na ně čas, nejlépe tento týden.",
        "health": "Vaše tělo je již delší dobu trápeno nejrůznějším škodlivinami, kterých se sami již neumíte zbavit. Pomůže vám lékař.",
        "tips": "Posezení s příbuznými nebo sousedy, servis elektronického přístroje, taneční lekce pro páry, vyřizování e-mailů."
    },
    "taurus": {
        "main": "V práci jste pravděpodobně velmi úspěšní, hlavně proto, že máte ostatním co nabídnout. Umíte velmi dobře nakládat se svými silnými stránkami a využívat je pro úspěchy své nebo celého týmu. Kolegové nebo vaši nadřízení jsou si toho plně vědomi.",
        "love": "Jste připraveni do nového vztahu, i přestože se vám ten poslední příliš nevyvedl. Vy jste ale odvahu a chuť neztratili.",
        "work": "Jistý kolega se vás bude snažit vyvést z míry, protože vám nepřeje. Můžete podraz čekat v tomto týdnu, pozor tedy!",
        "relationships": "Změna image vás pravděpodobně přitahovala již dlouho, ale výsledek zřejmě není takový, abyste byli stále spokojení.",
        "health": "V tomto roce jste v bezvadné fyzické i mentální kondici. Není nic, co byste museli nyní podstupovat za léčení.",
        "tips": "Pořízení výtvarných potřeb, nákup nových doplňků a šperků, relax s knihou, poslech motivačního podcastu, kaligrafie."
    },
    "gemini": {
        "main": "Poslední lednový týden startujete v pohodové náladě, protože se vám daří nejen v lásce, ale také v práci je to fajn. Oplýváte mnoho nápady a zřejmě jste si vzali k srdci i nějaká předsevzetí, která byste rádi naplnili. Přijdete na nové metody.",
        "love": "Z velké zábavy ve vztahu může vzniknout úplně opačná situace. Dnes si dávejte pozor, budete značně rozčarovaní.",
        "work": "Dbejte zvýšené pozornosti a nesnažte se svého šéfa vytočit, i kdybyste měli pravdu. Hrozí vám postih nebo vyhazov.",
        "relationships": "Starosti vám přidělává někdo z rodiny, kdo se chová opravdu zvláštně. Můžete mít o něj spíš strach, než abyste se zlobili.",
        "health": "Jste na začátku nového roku 2023 ve velmi dobré fyzické i psychické kondici. Ovšem nesmíte usnout na vavřínech a udržujte se dál.",
        "tips": "Samostudium cizího jazyka, sbírání známek, nákupy řezaných květin s dovážkou do domu, hraní na hudební nástroje."
    },
    "cancer": {
        "main": "Dnešní den vás může poněkud zaskočit, protože vše nejde podle vašich plánů. Bohužel zažíváte zmatek a chaos, o který jste nestáli, a můžete nadělat chyby, jejichž náprava vás později bude stát mnoho sil. Zklamat vás může vývoj milostného vztahu.",
        "love": "V dlouhodobých vztazích vznikají v posledních dnech velké rozepře, za kterými stoji nervozita a nedostatek porozumění.",
        "work": "Snažte se v práci vše řešit s chladnou hlavou, jinak se vám podaří nasekat spoustu chyb a ty nepůjdou napravit jen tak.",
        "relationships": "Mezi vámi a příbuznými dochází k rozbrojům, protože si nenecháte jen tak do ničeho mluvit, ale naopak máte svůj názor.",
        "health": "Dopadla na vás velká únava po náročných vánočních svátcích a rodinných oslavách. Máte sklony k namožení kloubů.",
        "tips": "Četba módních časopisů, rekvalifikační studium, pečení sušenek a koláčků, návštěva plaveckého bazénu nebo aquacentra."
    },
    "leo": {
        "main": "Zaměřte pozornost tam, kde můžete nyní najít velmi dobrou práci na hlavní nebo vedlejší pracovní úvazek, či získat nové obchodní kontakty s dobrými vyhlídkami. Úspěšně můžete zúročit vše, co jste se ve svém životě dosud naučili. Bude to opravdu cenné.",
        "love": "Ti zadaní z vás mají trošku problém se sebeovládáním a to vnáší do vztahu nervozitu. Partner nechápe vaše propady.",
        "work": "Ocitáte se pod tlakem již na začátku týdne a nemáte příliš dobrý pocit z toho, jak vás nadřízený úkoluje. Přijde vám to moc.",
        "relationships": "Nenechte se vyprovokovat k hádkám někým, kdo si neustále dovoluje kritizovat vaše nápady a plány. Nestojí to za to.",
        "health": "Jste pod tlakem a to se zákonitě projeví na vaší psychice. Nenechte se ovládat nervozitou, protože pak děláte velké chyby.",
        "tips": "Servis domácí elektroniky, lekce latinskoamerických tanců, poslech nového podcastu, pořízení odborné literatury."
    },
    "virgo": {
        "main": "Jste pověstní tím, že umíte ve svůj prospěch využít vše, co můžete. Použijte tyto své schopnosti i dnes a informace, které se k vám dostanou, využijte při cestě k úspěchu. Finančnímu, profesnímu anebo při hledání nové lásky. Vše je ve vašich rukou.",
        "love": "Ve vašem okolí je zřejmě někdo, kdo má o vás opravdový zájem, jenže to není tak úplně váš typ. Dejte mu to opatrně najevo.",
        "work": "Díky vašim výkonům v práci jste si vysloužili důvěru nadřízeného, a tak není divu, že vám dnes opět svěří důležitý projekt.",
        "relationships": "Měli byste více šeřit síly a věnovat je svým blízkým místo toho, abyste se věnovali neposedným aktivitám, kterých máte plno.",
        "health": "O Vánocích se vám mlsání sladkostí hodně zalíbilo. Máte tendence v tom pokračovat, ale s tím je spojené přibírání na váze.",
        "tips": "Úklid pracovního stolu, pochůzky po úřadech, kreativní práce s dětmi, poslech vinylových desek, vydatný odpočinek."
    },
    "libra": {
        "main": "Sami si kolem sebe tvoříte prostředí, kde toužíte mít lidi podle svého gusta. Nikdo, kdo by vám nevyhovoval, tam nemá co dělat. Pokud si takto své okolí vyčistíte, bude se vám daleko lépe fungovat, aniž byste se museli něčeho dramatického obávat.",
        "love": "Do nového roku jste vykročili tou správnou nohou a ve vztazích se vám začíná dařit. Navíc vás konečně může zasáhnout láska.",
        "work": "Naštěstí jste natolik odolní, že si k tělu nepřipustíte žádné jízlivé poznámky někoho z kolegů. Je to jedině dobře.",
        "relationships": "Bude fajn, když se některými z vašich originálních rukodělných výtvorů pochlubíte sousedům nebo přátelům. Potěší vás pochvala.",
        "health": "Vaší silnou stránkou bude hned z počátku roku výborná fyzická kondice. Snažte se i přesto hodně odpočívat a regenerovat.",
        "tips": "Výtvarné a umělecké aktivity, rehabilitační cviky na bolavé klouby, úklid domácnosti, filatelie, tvorba fotokoláží."
    },
    "scorpio": {
        "main": "Ať se snažíte, jak jen můžete, stále se nemůžete zbavit citů, které chováte k blízkému příteli? Lásce si nedá poroučet a jen těžko se vlastní vůlí donutíte zapomenout. Přestože riskujete přátelství, dejte city najevo. Uleví se vám a budete mít jasno.",
        "love": "Vaše pocity, že vás neobklopují momentálně lidé, se kterými byste chtěli mít hlubší, nebo dokonce milostný vztah, jsou správné.",
        "work": "Není dobré dávat ostatním najevo, že jste v něčem o hodně lepší než oni, protože pak vznikají zbytečné třenice a nedorozumění.",
        "relationships": "S rodinou si dnes připravte oblíbený popcorn a pusťte si nějaký film, na který byste se nyní rádi znovu podívali.",
        "health": "S novým týdnem můžete odstartovat cestu za lepší životosprávou. Detoxikace organismu vám pomůže začít správně a efektivně.",
        "tips": "Nový rekvalifikační kurz, procházka po lese, ruční mytí a čištění auta, vyznání se s citů, pozvání na rande."
    },
    "sagittarius": {
        "main": "V milostných záležitostech by se vám mohlo dařit opravdu dobře a bude to hlavní téma celého dnešního dne. Možná také pocítíte, že jste konečně našli ten správný moment v životě, který vám naprosto vyhovuje. Nikdo vás k ničemu nemusí nutit a vše jde samo.",
        "love": "Přestože jste měli za to, že jste potkali někoho velmi výjimečného, v posledních dnech si můžete připadat nerozhodní.",
        "work": "Nevyplatí se vám nyní dělat na pracovišti rozbroje, které jsou kvůli nesmyslným věcem. Mohlo by se vám to vymstít.",
        "relationships": "Den je vhodný k wellness aktivitám nebo sportování. Stačí, abyste si vybrali podle své chuti a momentální fyzické kondice.",
        "health": "Nový rok 2023 začínáte pomaleji, protože jste zatím dost náchylní k poraněním, která si paradoxně přivodíte u sportu.",
        "tips": "Odpočinkové a relaxační procedury, bruslení na městském kluzišti, venčení pejska v lese, nákup veterinárních potřeb."
    },
    "capricorn": {
        "main": "V milostném životě si nyní berete oddechový čas, protože si svůj život chcete lépe zorganizovat a utříbit si, co od milostných vztahů čekáte a co jste ochotní obětovat. Možná budete dost překvapení tím, co vše se o sobě samých nakonec dozvíte.",
        "love": "Ke konci ledna by vás v lásce mohla překvapit příjemná událost. Bude to pro vás překvapení, se kterým jste nepočítali.",
        "work": "Opatrní buďte v těchto dnech v jednání s kolegy, mnozí mají pocit, že se nad ně povyšujete a volíte velmi ponižující rétoriku.",
        "relationships": "Sami si můžete vyrobit nějaké vkusné interiérové dekorace, které jste viděli v módních časopisech nebo na internetu.",
        "health": "Stresové situace na vás nemají dobrý vliv. Jestliže přes den nezvolníte své pracovní tempo, nesmíte se divit velké únavě.",
        "tips": "Nákupy ve slevách, meditační a dechová cvičení, ranní lekce jógy podle internetu, hledání nových přátelských vztahů."
    },
    "aquarius": {
        "main": "Udělali jste celkem zajímavý pokrok v tom, jak vidíte své další kroky a budoucnost v životě. Přišli jste na nové podněty k tomu, jak se změnit, a své další kroky nacílit tím správný směrem. Vzdáte se krátkodobých románků a nevyhovujícího zaměstnání.",
        "love": "V těchto dnech jste pro ostatní jako magnet, jen si musíte dobře vybírat a udělat si program tak, aby vám to vyhovovalo.",
        "work": "V posledních lednových dnech si práci naplánujte tak, abyste stihli dokončit vše, co je do konce měsíce třeba.",
        "relationships": "Sejděte se dnes s přáteli, kamarády nebo dobrými sousedy a pobavte se nad dobrým pohoštěním. Nudit se nebudete.",
        "health": "Těšíte se výbornému fyzickému a mentálnímu zdraví, ale nic vám nebrání v tom, abyste nadále na sobě pracovali, posilovali, cvičili.",
        "tips": "Péče o čtyřnohé kamarády, sportovní aktivity ve fitness centru, péče o hrnkové květiny, příprava s dětmi do školy."
    },
    "pisces": {
        "main": "Každá chvilka v blízkosti jistého člověka vás doslova přivádí do extáze, ale také máte trochu strach. Bude nutné, abyste si sami uvědomili, zda je to pro vás ta správná cesta. Pokud byste se měli do něčeho nutit, nebude to pro vás mít takovou hodnotu.",
        "love": "Pokud se stále nemůžete vzpamatovat z toho, že jste byli v lásce zklamaní, nebojte se, hvězdy pro vás chystají překvapení.",
        "work": "V tomto týdnu si dávejte velký pozor na kolegiální vztahy na pracovišti, protože se k vám kdosi nechová vůbec čestně a férově.",
        "relationships": "Zajděte si dnes zasportovat na čerstvý vzduch nebo do wellness centra za procedurami a ulevte si od náročných povinností.",
        "health": "Pohlídejte si, jak dobře chodíte ven oblékání, protože v těchto chladných dnech se vám povětrnostní předpověď hodí.",
        "tips": "Nové obchodní kontakty, nákup veterinárních potřeb, návštěva kina nebo muzikálu, úklid domácnosti, thajské masáže."
    }
}