{
    "aries": {
        "main": "Splní se vám přání a zůstanete aspoň odpoledne doma sami. Ohromně si to užijete, ale nakonec se budete zase těšit na všechny své nejbližší. Nebraňte se změně, která je na spadnutí. Ať už půjde o nové pracovní místo, změnu bydliště nebo třeba koníčku.",
        "love": "Opačné pohlaví má pro vás velmi zajímavý nápad, jak si zpříjemnit váš společný program. Není čeho se obávat, bude to zábava.",
        "work": "Ať už se dnes budete cítit jakkoliv, nic vám nedovolí, abyste zanedbali své povinnosti. Chcete mít příští týden čistý stůl.",
        "relationships": "Měli byste si připravit nějaké zajímavé aktivity na víkend, které můžete dělat se svou rodinou. Doma už vám bude těsno.",
        "health": "Při stereotypní činnosti si v práci odpočinete. Hrozí vám jen bolesti hlavy od krční páteře. Ty uvolní horká koupel i masáž.",
        "tips": "Procházka s dětmi v lesoparku, úklid vánočních ozdob a dekorací, cvičení jógy ve studiu, psaní romantických povídek."
    },
    "taurus": {
        "main": "Cokoliv máte na srdci a co vás hodně trápí, budete muset někomu svěřit. Nemůžete totiž na tak silné pocity zůstat sami, protože máte na srdci ještě stále živé šrámy. Vyhledejte dnes kamaráda, který vám ochotně bude nejen naslouchat, ale také vám rád dá cennou radu.",
        "love": "Nadšení z nové známosti nepolevuje a není se třeba obávat toho, že z druhé strany je to jinak. Oba dva se na sebe těšíte.",
        "work": "Páteční den už by pro vás mohl být více odpočinkový, protože jste si své zařídili. I přesto nepodléhejte prokrastinaci.",
        "relationships": "Pokud se k vám dnes na návštěvu objednali příbuzní, musíte si pro ně připravit pohoštění a také příjemně vyzdobit domácnost.",
        "health": "Je nutné se naučit správnému pitnému režimu, protože voda zbaví tělo škodlivých látek a zavlaží suchou pleť.",
        "tips": "Nové outdoorové sporty, luštění rébusů a záhad, studium cizího jazyka, výtvarné práce s dětmi, nákup nového spotřebiče."
    },
    "gemini": {
        "main": "Měli byste si uvědomit, zda je pro vás přednější chodit někde s kamarády, nebo zda být se svým partnerem. Pokud jste v posledních dnech svůj protějšek zanedbávali, máte opravdu co napravovat. Dobře si rozmyslete, kdo dostane ve vašem životě více prostoru.",
        "love": "Jakmile se ani dnes neovládnete, je jasné, že svůj protějšek nepříjemně zasáhnete a náprava nebude vůbec jednoduchá.",
        "work": "Nenechte se dnes zbytečně vtáhnout do klábosení s kolegy, kteří svou práci mají již hotovou. Vy budete jen pozadu.",
        "relationships": "Objednejte si lístky na muzikál, do divadla nebo do kina a vytáhněte rodinu za kulturou. Potřebujete nějakou změnu.",
        "health": "Doma si oblečení navrstvěte tak, abyste si mohli kdykoliv odložit a abyste také hlavně neprochladli od nohou.",
        "tips": "Psaní romantických básní pro partnera, nákupy v antikvariátu, hledání nového zájmového kroužku pro děti, bruslení ve městě."
    },
    "cancer": {
        "main": "Vaši domácí pracovnu byste si konečně měli uklidit nebo přizpůsobit vašim potřebám a vkusu. Bude třeba probrat také všechny účty a složenky, zda jste něco opravdu nezanedbali, protože pak by vám z toho mohly hrozit postihy a nepříjemné pokuty.",
        "love": "Opačně pohlaví má nyní tendence naprosto propadnout vašemu kouzlu. Dejte nějakému vztahu šanci, může to vyjít.",
        "work": "K ruce budete dnes svým kolegům, protože si s něčím nebudou vědět rady a vy potřebujete, aby práce byla hotová.",
        "relationships": "Doma jsou rádi, že se s vámi mohou bavit na jakékoliv téma, a přesto se neurazíte. Naopak máte svůj pověstný smysl pro humor.",
        "health": "Své dobré zdraví podpoříte tak, že vyrazíte do sauny nebo vířivky za wellness procedurami. Vyčistíte si plíce i kůži.",
        "tips": "Luštění záhad a rébusů, výtvarné práce, sledování hudební soutěže, sáňkování, běžky, bruslení, lyžování, četba."
    },
    "leo": {
        "main": "Máte zvláštní smysl pro humor a docela nepříjemné, jízlivé poznámky, kterými byste se mohli někoho opravdu ošklivě dotknout. Bude lepší, když dnes budete mít pusu na zámek a necháte si své připomínky pro sebe. Energii raději vložte do něčeho hodnotného.",
        "love": "Věřte, že čas všechno mezi vámi a partnerem urovná. Nyní však musíte ukázat, jak moc vám na vašem vztahu záleží.",
        "work": "I přesto, že jste si prošli v týdnu náročnými dny, dnes se napětí v práci trochu zmírní a vy nebudete již pod takovým tlakem.",
        "relationships": "Věnujte se dnes potomkům, kteří mají své starosti a potřebují s nimi pomoci. Vy si naštěstí víte s problémem rady.",
        "health": "Pomoc se sestavením nového dietního jídelníčku vám může poskytnout výživový odborník. Musíte jen upřesnit, kolik chcete shodit.",
        "tips": "Setkání se staršími příbuznými, hledání nových zájmových aktivit, cvičení ve fitness centru s trenérem, lyžování."
    },
    "virgo": {
        "main": "Připravte si na nadcházející víkend zajímavý, originální program a překvapte svůj protějšek. Uvidíte, že partnera opravdu dost zaskočíte a seberete mu vítr z plachet, pokud se bude chtít hádat. I tak může být víkend fantastický pro vás oba.",
        "love": "Dobře uděláte, pokud si dnešní podvečer a večer vyhradíte jen pro váš vztah. Je třeba si více popovídat a uvolnit se.",
        "work": "Možná se dnes budete již cítit vyčerpaní a bez energie, ale těší vás to, že je poslední pracovní den a zítra máte volno.",
        "relationships": "Rodinné návštěvy nepřesouvejte na jiný den a na příbuzné si udělejte dostatek času. Není dobré je rušit, vypadalo by to divně.",
        "health": "Připravte si k večeři lehčí stravu, plnou zeleninových salátů, večerní proteinový chléb a libovou drůbeží šunku.",
        "tips": "Nákupy kosmetiky a parfémů na e-shopu, aquaerobik nebo plavání, bruslení s dětmi na městském kluzišti, hledání nových receptů."
    },
    "libra": {
        "main": "V práci vás dnes nečeká nic výjimečného, vše půjde jako obvykle. Pokud tedy můžete odejít domů dříve, využijte této možnosti a vydejte se vstříc vytouženému volnu a víkendu, stráveným s těmi, které máte rádi. Nesmírně se na ně přece těšíte!",
        "love": "Nebojte se zavítat na nějakou zajímavou kulturní akci, kde můžete narazit na nové přátele, a dokonce i potenciální milence.",
        "work": "Dnes si dejte záležet na tom, abyste si hleděli svého a nezapovídali se příliš dlouho s kolegy. Ztratili byste čas.",
        "relationships": "Kulturní vyžití pro dnešní den bylo zřejmě plánované, takže vyrážíte s nadšením a velkým očekáváním ven, do víru společnosti.",
        "health": "Určitě neponocujte, protože tím si svou imunitu jen rozhodíte. Raději se dobře vyspěte do dalšího pracovního dne.",
        "tips": "Konzultace u stomatologa, domácí kino, hraní deskových her, třídění obnošeného oblečení a hraček, návštěva městské knihovny."
    },
    "scorpio": {
        "main": "Po hektickém týdnu se dnes objeví někdo, kdo vnese do vašeho života pohodu. Zřejmě půjde o někoho z rodiny či příbuzných, kdo k vám přijede na víkend na návštěvu. Měli byste se obklopovat více takovými lidmi, hlavně mnohem častěji.",
        "love": "Vašemu zájmu by neměla uniknout osůbka, která má srdce na dlani. Je to někdo, kdo by se pro ostatní rozdal a má u vás šanci.",
        "work": "Dokončete všechno, co je potřeba v lednu udělat, ať v příštím týdnu můžete začít něco nového, co na vás již čeká.",
        "relationships": "Zajistěte si výlet někam do blízkého pohraničí a vydejte se za nákupy, kulturou nebo za sportovními událostmi. Bude to změna.",
        "health": "Určitě dnes zapomeňte na ponocování a pití alkoholu nebo kouření cigaret. Máte zřejmě spánkový deficit, který je třeba dohnat.",
        "tips": "Třídění starších knih v knihovně, psaní milostných dopisů partnerovi, četba humorných fejetonů, práce se sociálními sítěmi."
    },
    "sagittarius": {
        "main": "Nové obchodní projekty a úkoly zatím ještě nezačínejte. Prioritní by pro vás měly být ty věci, které jste ke konci měsíce dodělali a potřebujete si je ještě jednou zkontrolovat, zda jsou v pořádku. Příští týden budete mít více energie.",
        "love": "Partnerské vztahy pro vás budou zřejmě do konce ledna tabu. Potřebujete si ujasnit, co vlastně od dlouhodobého vztahu chcete.",
        "work": "Všechny potřebné práce se snažíte udělat nejpozději do oběda, takže se nemuset bát, že byste v práci zůstávali přesčas.",
        "relationships": "Jeden z vašich rodinných známých o vás šíří pomluvy a po tom, co se to doneslo až k vám, už nebudete mlčet a jdete si to vyříkat.",
        "health": "Raději se neobjevujte na místech, kde je špatný vzduch i energie a velké davy lidí. Mohlo by vám to oslabit imunitu.",
        "tips": "Úklid vánočních ozdob, příprava rodinného oběda, bruslení na zimním stadionu, tvorba webových stránek pro kamaráda."
    },
    "capricorn": {
        "main": "Večer můžete strávit se svými oblíbenými přáteli nebo s příbuzným a věřte, že se nejen dobře pobavíte, ale také si dáte něco dobrého k jídlu nebo k pití. Víc ke štěstí už rozhodně potřebovat nebudete. Nezůstávejte proto v práci příliš dlouho.",
        "love": "Věřte si v navazování bližšího kontaktu s někým novým a zajímavým, protože je to velmi příjemný a zábavný společník.",
        "work": "Jestliže si nechcete na víkend domů odnést problémy s kolegy, dejte se dnes do pohody a snažte se chovat slušně.",
        "relationships": "Jděte do společnosti a udělejte si hezký večer mimo domov. Nový film nebo zajímavý rockový koncert budou to pravé.",
        "health": "Na úpravu životosprávy není nikdy pozdě, proto byste s tím měli začít. A také odpolední spánek vás postaví zpátky na nohy.",
        "tips": "Skládání romantických písní, outdoorové aktivity, hledání letní dovolené u moře, posílání firemních e-mailů, pilates."
    },
    "aquarius": {
        "main": "Ve vaší blízkosti se stále častěji drží lidé, kteří se chtějí hřát ve výsluní vaší slávy a záře. Dobře si hlídejte, kdo je opravdu váš přítel, nebo kdo se jen tak kolem vás míhá a má tendence vás zneužít ve vlastní prospěch. Nebude těžké to rozpoznat.",
        "love": "Místo toho, abyste opět něco vymýšleli, nechte aktivitu na svém partnerovi. Také chce uplatnit nějaké své nápady.",
        "work": "Pokuste se opravdu dotáhnout všechny rozdělané věci do úspěšného konce, protože bude nutné mít do dalšího měsíce čistý stůl.",
        "relationships": "Předem dlouho plánované návštěvy v rodině neodkládejte. Není dobré to přesouvat na jiné dny, dnes se to povede.",
        "health": "Dejte pozor na úrazy dolních končetin. Středa varuje před pády i uklouznutí. Ženy dnes mají vysokou šanci na otěhotnění!",
        "tips": "Hraní pokeru s přáteli, deskové hry, domácí kino, oprava dětského pokoje, založení běžného účtu pro starší děti."
    },
    "pisces": {
        "main": "Točíte se poslední dobou v jednom kole? V zaměstnání nevíte kam dříve skočit a doma se také nezastavíte. Nezatěžujte se tolik a alespoň před víkendem se snažte zpomalit své pracovní tempo. Raději se věnujte svým nejbližším a odpočiňte si od povinností.",
        "love": "Dnes se vydejte do společnosti a neseďte doma. Odmítnuté setkání by vás totiž mohlo doopravdy mrzet hodně dlouho.",
        "work": "Na nic si v práci nestěžujte, protože by to mohla slyšet nesprávná osoba a podrazit vám nohy, když to budete nejmíň čekat.",
        "relationships": "Chybět vám může další kulturní vyžití, jako je kino, divadlo nebo rockový muzikál. Bavit se můžete s přáteli nebo s rodinkou.",
        "health": "Náročný program nedovolí všímat si řeči vlastního těla. Únavu a vyčerpání si zkrátka nepřipouštíte, věříte, že brzy přejde.",
        "tips": "Práce z domova, pobyt ve wellness centru, hraní deskových her, servis domácí elektroniky, povánoční nákup oblečení."
    }
}