{
    "aries": {
        "main": "Dobře uděláte, pokud nikomu nepřislíbíte finanční půjčku, ani kdyby to byli vaši přátelé. Ani vy nemáte totiž momentálně na rozhazování. Pokud se dnes máte v úmyslu k něčemu upisovat, vezměte si ještě čas na rozmyšlenou, než to finálně uděláte.",
        "love": "Procházka s vaším partnerem v přírodě vám oběma dodá energii do posledních lednových dní. Bude třeba načerpat síly.",
        "work": "Také dnes si můžete dopřát zajímavé nákupy, ale i tak si dobře hlídejte stav konta, protože se můžete zapomenout.",
        "relationships": "Relaxací pro vás může být nové hobby nebo hudba či umění. Pokud něčemu z toho holdujete, dejte se do toho ihned.",
        "health": "Pohyb může dnes napáchat více škody než užitku. Dostávejte se kondice pozvolna, jinak si koledujete o nepříjemné zranění.",
        "tips": "Registrace v novém zájmovém kroužku pro děti, příprava společného rodinného obědu, výlet za rodinou, procházka ze psem."
    },
    "taurus": {
        "main": "Pokuste se soustředit svou pozornost na spoření peněz, vytvoření finančního polštáře a na kontrolu výdajů za domácnost. Je nutné si nastavit hranice, které nebudete při nákupech překračovat. Pak si můžete spořit korunky bez velkých problémů.",
        "love": "Přípravy na nový pracovní týden dnes budou ve znamení odpočinku a minimálních outdoorových aktivit. Chcete relaxovat.",
        "work": "Nastavte si hranice, které při utrácení dnes nepřekročíte. Uvidíte, že vám to velmi pomůže při jakémkoliv nakupování.",
        "relationships": "Oblíbené místo se dnes může stát cílem vaší rodinné procházky. Vyčistíte si hlavu a přijdete na nové, originální nápady.",
        "health": "Stres v zaměstnání vás tlačí k špatné životosprávě. Jídlo z fast foodu, kávy i cigarety se snažte dnes omezit na minimum.",
        "tips": "Příprava rodinné snídaně, návštěva aquacentra, online nákup potravin, hledání starých přátel na sociálních sítích."
    },
    "gemini": {
        "main": "Buďte opravdu opatrní a hlídejte si, co dnes svým nejbližším sdělíte a především jakým tonem. Občas umíte být pořádně jízliví, a aniž byste to tušili, můžete svými řečmi či slovy ostatním jen ublížit. Náprava by byla složitá i pro vás.",
        "love": "Dejte si záležet na tom, jaký program pro svou drahou polovičku dnes připravíte. Je jasné, že s tím budete mít hodně práce.",
        "work": "Nesmíte příliš riskovat a své finance nyní investovat špatným směrem. Mohlo by vás to v budoucnu opravdu mrzet.",
        "relationships": "Budete se dnes chtít věnovat jen sami sobě a ostatní vás zajímat nebude. Máte na to plné právo, takže si nic nevyčítejte.",
        "health": "Jestliže cítíte v krku jemné škrábání, ihned byste si měli naordinovat teplou vincentku, jako správné kloktadlo.",
        "tips": "Registrace v online seznamce, cvičení pod dohledem fitness trenéra, nákup vstupenek na rockový koncert, tance."
    },
    "cancer": {
        "main": "Promluvte si dnes se svými dětmi o tom, v jaké výši by si představovaly kapesné a za co by si ho měly zasloužit. Bude potřeba, abyste byli dostatečně trpěliví, ale nakonec se můžete dobrat k pozitivním výsledkům. Důležité je, aby vaši potomci získali základní finanční gramotnost.",
        "love": "I když se možná se svou láskou dnes neuvidíte osobně, udržujte komunikaci alespoň po sociálních sítích nebo sms zprávách.",
        "work": "Pokud se v těchto dnech pokusíte vyhledat pomoc finančního poradce, uděláte jen dobře. Má pro vás cennou radu.",
        "relationships": "Vaše děti vám rostou před očima a vy se nestačíte divit. Zkuste si na ně najít více času, jinak něco zmeškáte.",
        "health": "Do svého nedělního programu přidejte vhodnou formu pohybu. Ten vám může prospět, pokud chcete být znovu na jaře fit.",
        "tips": "Generální úklid domácnosti, renovace drobného nábytku, výroba nových interiérových dekorací, outdoorové sporty."
    },
    "leo": {
        "main": "Už od rána vycítíte mezi vámi a vaším protějškem napětí, které by mohlo vygradovat ve velkou hádku. Proto uděláte nejlépe, když se vy i partner vydáte dnes za svým programem každý zvlášť a sejdete se doma až k večeru. To už bude energie naprosto pozitivní.",
        "love": "Vašemu protějšku dnes dojde, že jste si ho v posledních dnech dobírali a ne vše bylo myšleno vážně. Bude to úleva.",
        "work": "Vzrůstá ve vás netrpělivost, protože byste rádi některé záležitosti již uzavřeli, ale bohužel to stále nejde. Vydržte.",
        "relationships": "Pokud se dnes někdo pokusí vás násilím k něčemu přinutit nebo měnit váš názor, se zlou se u vás potáže, i kdyby byl z rodiny.",
        "health": "Kratší zdravotní procházka v neděli po obědě je jednoznačně dobrá pro zdravý životní standard. Vytipujte si zajímavé místo.",
        "tips": "Meditační a dechová cvičení, turnaj v šipkách v oblíbené hospůdce, sestavení hudebního playlistu, nákupy potravin."
    },
    "virgo": {
        "main": "Dnes si ušetřete cestu a nechoďte do obchodních center pro další zboží ze slev. Raději si korunky pěkně schovejte bokem, budou se vám brzy hodit. Místo běhání po obchodech si najděte novou pohybovou aktivitu. Můžete k tomu připojit i svou rodinu.",
        "love": "Závěr týdne by se vám mohl ve vztahu povést. Ale jen za podmínky, že budete stále udržovat příjemné rozpoložení mezi vámi.",
        "work": "Nenechte se nyní ničím odradit od svých úmyslů, co se investic týká. Chce to jen čas a dostatek relevantních informací.",
        "relationships": "Snažte se ihned využívat a používat všechny vánoční dárky, které jste dostali. Pokud je založíte do skříně, zapomenete na ně.",
        "health": "Odpolední odpočinek po nedělním obědě vám jen prospěje. Nemusíte lámat sportovní rekordy nebo doma stěhovat nábytek.",
        "tips": "Pořízení zboží v povánočních výprodejích, pozdní snídaně s přáteli, odpoledne v kosmetickém salonu, telefonát s příbuznými."
    },
    "libra": {
        "main": "Zřejmě stále toužíte po nějakém zboží, které je velmi drahé. Přestože jste si na něj šetřili peníze, najednou vám jich přijde líto a nebudete je chtít za něco utratit. Přesto byste si klidně mohli dopřát opravdu hodnotné zboží. Zamyslete se.",
        "love": "Komunikujte s novým protějškem, snažte se o sblížení, ale nehrajte si na něco, co nejste. Tím byste se jen shodili.",
        "work": "Budete mít radost z nakoupených předmětů, ale je také nutné ještě šetřit nějaké peníze na pozdější dobu. Dnes neutrácejte.",
        "relationships": "Věnujte se dnes tomu, co vám udělá radost a u čeho naberete síly. Může to být jakákoliv relaxační procedura, hudba nebo sport.",
        "health": "U vás se bohužel spánkový deficit projeví velkou únavou. Bude třeba si odpočinout, proto se klidně ještě vyspěte.",
        "tips": "Nákup nové elektroniky, hledání nového partnera, poslech nového cizojazyčného podcastu, úklid ložnice a dětského pokoje."
    },
    "scorpio": {
        "main": "Naslouchejte své intuici, která říká, že se velká láska pohybuje opravdu hodně blízko vás. Nic by vás od takového setkání nemělo odradit. Pozornost ale zaměřte na své rodinné finance, kde se dostáváte do dluhů a hrozí vám problémy.",
        "love": "Uvidíte, že troška přístupnosti se vám dnes vyplatí. Rozhodně nebudete na ostatní působit jako největší mrzout pod sluncem.",
        "work": "Hledejte nejrůznější možnosti vedlejšího příjmu a nenechte se jen tak odradit. Jistě zvládnete práci s počítačem a internetem.",
        "relationships": "Doma se věnujte tomu, co vám dělá radost a nijak vás nezatěžuje. Zkuste se také naučit něco úplně nového, co vás láká.",
        "health": "Nedělní procházka na čerstvém lednovém vzduchu vám uklidní nervy a vy si báječně vyčistíte hlavu od myšlenek.",
        "tips": "Posezení se sousedy u kávy, příprava na nový pracovní týden, hraní deskových her, výroba interiérových dekorací."
    },
    "sagittarius": {
        "main": "Obklopte se v tuto neděli doma pro jistotu takovými lidmi, které znáte už opravdu dlouho a máte k nim velmi blízko. S těmi se jistě dokážete dobře pobavit a také se uvolnit. V rodině budete vyhledávat bezpečí a komfort, což není zase tak složité.",
        "love": "Udělejte si dnes pohodovou neděli jen pro sebe a svůj klid. Dopřejte si oblíbené aktivity, které jste dlouho odkládali.",
        "work": "Poproste někoho z přátel, jestli vám mohou finančně vypomoct. Jistě se jeden takový najde a vy tak vyřešíte svůj problém.",
        "relationships": "Hádka u rodinného stolu ve vás zanechala špatnou náladu. Zkusíte si ji zlepšit mezi přáteli nebo si zajdete do přírody.",
        "health": "Relaxujte, regenerujte, odpočívejte u knížky a hudby. To vše jsou požadované aktivity na nedělní den či odpoledne.",
        "tips": "Příprava s dětmi do školy, rodinný oběd v restauraci, rezervace letní dovolené u moře, sledování hudební soutěže."
    },
    "capricorn": {
        "main": "Měli byste dnes dostatečně dlouho a důsledně odpočívat, protože vám opravdu chybí síly. Vyberte si správný relaxační program, nepodceňujte také správnou spánkovou hygienu, protože vaše tělo se potřebuje ve spánku regenerovat. Nedělní den prožijete v prostředí domova.",
        "love": "Pokud se dnes vydáte na rande, hezky se upravte a dejte si na svém vzhledu hodně záležet. Bude to pro vás důležité.",
        "work": "Zamyslete se nad tím, zda byste nenašli nějaký nový zdroj příjmů, které by vám dovolily žít o něco kvalitněji.",
        "relationships": "Zkuste se více ovládat, pokud ucítíte, že kdosi z rodiny se snaží vás neustále kritizovat a tím vás provokovat.",
        "health": "Nedělní oběd nemusí být jen omáčka s knedlíkem. Zkuste japonskou nebo korejskou kuchyni, která je velmi chutná.",
        "tips": "Úklid domácnosti, plánování estetických zákroků na těle, hraní na hudební nástroje s přáteli, procházka po městě, ruční práce."
    },
    "aquarius": {
        "main": "S partnerem byste se dnes měli pokusit vrátit svému vztahu opět klid a pohodu. To vše totiž budete muset stihnout velice rychle. Potíže vás mohou čekat v rodinném životě, kde se hromadí napjatá atmosféra. Snažte se dnes nic vážného neřešit.",
        "love": "Dnešní den byste měli prožít v klidu, nedávejte si žádné velké cíle na vycházky s partnerem a snažte se šetřit síly oba.",
        "work": "Pokud se dnes rozhodnete upsat k půjčce, můžete být klidní, tuto se vám podaří brzy splatit a bez velkých problémů.",
        "relationships": "Pravděpodobně jste našli pod stromečkem hodně hezkých vánočních dárků, ale musíte je také začít používat, abyste je využili.",
        "health": "Jestliže na vás v průběhu dne udeří silná únava, jděte si na chvilinku lehnout, ať naberete nové síly do zbytku dne.",
        "tips": "Malování na sklo a keramiku, setkání s přáteli u dobré kávy, hledání vedlejšího přivýdělku, venčení pejska v lese."
    },
    "pisces": {
        "main": "Hezky vám bude s těmi lidmi, kteří jsou vašemu srdci nejblíž. Může to být nejen vaše rodina, ale i velmi dobří přátelé. Zkrátka si kolem sebe vytvořte kruh těch, kterým věříte a můžete se s nimi báječně bavit. I dnes se ale vyhněte půjčování peněz.",
        "love": "Dopřejte si den, který bude podle vašich plánů, a na nikoho jiného se neohlížejte. Potřebujete se připravit na nový týden.",
        "work": "Peníze, které vám po zaplacení všech složenek a účtů zbyly, pečlivě uložte třeba do obálky, budou se vám brzy opět hodit.",
        "relationships": "Musíte se pravděpodobně připravit na nový pracovní týden, takže si udělejte čas a věnujte se sami sobě. Doma to pochopí.",
        "health": "Nedělní oběd se může skládat jen z listové zeleniny a bílého masa. Nakombinujte si všechny barvy, chutě a vůně podle sebe.",
        "tips": "Návštěva oblíbeného divadelního klubu, bruslení na městském kluzišti, cvičení s trenérem ve fitness centru, meditace."
    }
}