{
    "aries": {
        "main": "Ať už máte známost čerstvou nebo jste dlouhodobě zadaní, jistě si dnes uděláte alespoň malou chvilku na to, oslavit si s protějškem mezinárodní den žen. Nezapomínejte na to, že si stačí dát jen malý dortík a sklenku dobrého vína, nic megalomanského.",
        "love": "Pánové by si dnes měli vzpomenout na to, že dnešní den patří ženám a oslavě jejich mezinárodního svátku. Chce to kytičku.",
        "work": "S kolegy si v práci můžete udělat malé posezení a při kávě a dortíku si připomenout mezinárodní den žen. Uvolnění vám pomůže.",
        "relationships": "Nebudete se moct dočkat dne, až si vyrazíte s přáteli na víkend, který jste si naplánovali dopředu. Naštěstí se to již blíží.",
        "health": "I přestože se cítíte dobře a vitální, není rozumné vynechávat vitaminy a přestat dbát na zdravou, pestrou stravu.",
        "tips": "Půjčení knih příteli, úklid domácnosti, doplnění domácí lékárny, příprava low carb stravy, pěstování kuchyňských bylinek."
    },
    "taurus": {
        "main": "Rádi byste se s kolegy dnes zapovídali u kafíčka a dobrého zákusku, ale nemáte příliš času a nechcete jím plýtvat. Abyste ale nevypadali jako škarohlídi, kolegům to vysvětlete v dobrém, jistě to pochopí. Jinak si o vás mohou myslet, že jste náfukové.",
        "love": "Muži by dnes svým ženám měli přinést minimálně květiny, protože to k dnešnímu dni zkrátka patří. Nezapomeňte na to.",
        "work": "Dnes se nedejte příliš odlákat nebo zdržet od svých pracovních povinností. Sice si popovídáte s kolegy, ale zameškáte čas.",
        "relationships": "Potěší vás dobré zprávy o vašem příteli. Budete mít radost za něj a při nejbližší příležitosti mu pogratulujete osobně.",
        "health": "Vaše ruce či nohy jsou nyní náchylné k úrazům, které si můžete způsobit sami neopatrným chováním, ať už doma, nebo na ulici.",
        "tips": "Plánování aktivit na víkend s rodinou, sbírání starých mincí, třídění obnošeného oblečení, výroba domácí zmrzliny."
    },
    "gemini": {
        "main": "Určitě si také dnes hlídejte jakoukoliv konverzaci s někým z nadřízených. Ať už půjde o slovní, či písemné vyjadřování, může dojít k přešlapům a škodám, které půjdou jen stěží rychle napravit. Opačná situace je ale ve vztazích, kde byste mlčet neměli.",
        "love": "Neradi byste propásli jakoukoliv šanci na navázání zajímavých kontaktů. Ani dnes nebudete zahálet, ale právě naopak.",
        "work": "Nevyplácí se vám jakkoliv protestovat proti slovům vašeho šéfa. Budete se muset velmi ovládat, abyste situaci ustáli.",
        "relationships": "Domluvit se můžete s rodinou nebo dobrými přáteli na naplánování víkendu za nejbližší hranice naší země. Nápadů je dostatek.",
        "health": "Popřemýšlejte o kratší pouze od sociálních sítích. Bude to prospěšně vaší psychice a také si odpočinou namáhané oči.",
        "tips": "Romantické rande s novým idolem, výroba fotokoláží, předplatné pro nový časopis, hraní na hudební nástroje a zpěv."
    },
    "cancer": {
        "main": "Muži by neměli dnes zapomínat na své partnerky a měli by je obdarovat malou pozorností, protože dnes ženy slaví svůj mezinárodní svátek. Radost uděláte malou kytičkou či skvělou čokoládou. Ukažte své drahé polovičce, že vám není vůbec lhostejná.",
        "love": "Milí pánové, vaše ženské protějšky dnes od vás budou čekat malou pozornost, slaví totiž oblíbený mezinárodní svátek.",
        "work": "Dobře všem na pracovišti udělají příjemné chvilky u kávy. Je třeba udržovat mezilidské vztahy v práci na výborné úrovni.",
        "relationships": "Místo vytouženého klidu doma si opět budete muset vyhrnout rukávy a začít pracovat. Přiberte si pomocníka z řad rodiny.",
        "health": "Snažte se alespoň nějaký čas věnovat protažení těla a lehčímu cvičení. Uvidíte, jak to pomůže vašemu pohybovému aparátu.",
        "tips": "Péče o starší příbuzné, návštěva stomatologa, plánování třídního srazu, sepisování rodinných receptů, dekorování domu."
    },
    "leo": {
        "main": "V profesní sféře se vám nabídne možnost k vylepšení vaší kariéry. Bude to nabídka, kterou byste neměli odmítnout, protože taková se ani neodmítá. Ovšem vy sami svým přístupem rozhodnete o tom, jakým směrem se vaše další pracovní kroky budou ubírat.",
        "love": "Jestliže s vaší drahou polovičkou slavíte dnešní mezinárodní den žen, oba si to náležitě užijete a budete se dobře bavit.",
        "work": "Dočkat byste se mohli nabídky v pracovní oblasti, která se jen tak neodmítá. Je na vás, jak se k celé záležitosti postavíte.",
        "relationships": "Hvězdy stojí při vás a radí vám, abyste si dovolili nějakou malou změnu vašeho vzhledu, která vám bude jen ku prospěchu.",
        "health": "Může vám během dne kolísat krevní tlak, a tak si dávejte pozor na rychlé vstávaní či pohyby, kdy se vám může zatočit hlava.",
        "tips": "Zákroky na estetické klinice, profesionální péče o účes, úklid balkonu, pěstování pokojových rostlin, nákupy drogerie."
    },
    "virgo": {
        "main": "Vaše snaha dokončit nějaké pracovní úkoly se míjí účinkem. Nemáte dostatek vnitřní síly k tomu, abyste se donutili k velkým výkonům. Sice nakonec vše zvládnete, ale vyčerpání bude obrovské. Najděte si způsob, jakým budete o víkendu relaxovat.",
        "love": "Dnes můžete napravit chyby, kterých jste se dopustili včera kvůli velké síle úplňkových konstelací. Buďte otevření všemu.",
        "work": "Negativní postavení planety Mars vám komplikuje kariérní oblast. Musíte se do dokončení povinností hodně přemáhat.",
        "relationships": "Bohužel se budete muset doma opět přizpůsobit a to se vám nezdá správné. Zatím jste stále v opozici, ale nepotrvá to dlouho.",
        "health": "Pokračujte v režimu, který dodržujete nyní, protože vám evidentně dělá dobře. Budete si muset ale něco odpustit.",
        "tips": "Pořízení cestovních zavazadel, studium cizího jazyka, rezervace letenek, servis elektrokola, odpočinek s knihou."
    },
    "libra": {
        "main": "Dokonalí gentlemani se najdou i mezi muži v tomto znamení. Takže jejich partnerky by se neměly obávat, že zapomenou na dnešní hezký svátek všech žen. Pracovní oblast vám všem dnes nabídne nové šance na lepší pracovní pozici a s tím spojený vyšší plat.",
        "love": "Muži v tomto znamení jsou známí galantností, a proto je více než pravděpodobné, že dnes nezapomenete na malou pozornost.",
        "work": "Dopluje k vám jakási pracovní nabídka, u které byste neměli dlouho váhat. Byla by škoda přijít o lepší místo a plat.",
        "relationships": "Začněte doma více pomáhat, protože je to třeba. Přece nechcete, aby vše za vás dělal jen partner nebo vaše děti.",
        "health": "Bude třeba si vyčistit organismus na jaro nějakou vhodnou očistnou kůrou. Hlavně vám ale dieta či detox nesmí uškodit.",
        "tips": "Hraní na hudební nástroje, zápis dětí v novém sportovním kroužku, rozhovor s nadřízeným, plánování víkendu s přáteli."
    },
    "scorpio": {
        "main": "I kdybyste nebyli zvyklí slavit dnešní mezinárodní den žen, přece jen si se svým protějškem můžete malinkou soukromou oslavu udělat. Výborná večeře ve dvou, kterou si sami připravíte, bude chutnat. Nebojte se být vynalézaví a odvážní v erotických hrách.",
        "love": "Příjemné překvapení si dnes mohou pro svou novou lásku připravit muži, přestože mezinárodní svátek nejsou zvyklí slavit.",
        "work": "Sice se nechcete ničím zdržovat, ale malé posezení s kolegy u zákusů a kávy ničemu neuškodí. Pauza je také třeba.",
        "relationships": "Také dnes se za vámi vypraví někdo pro dobrou radu. Přestože se nachází v problémech, dobré řešení spolu najdete.",
        "health": "V tyto dny nepodceňujte stále počasí, které může ublížit hlavně vašim ledvinám a močovému měchýři. Dobře se oblékejte.",
        "tips": "Zakoupení zájezdu do zahraničí, konzultace s odborným lékařem, příprava rodinného oběda, výroba jarních dekorací."
    },
    "sagittarius": {
        "main": "Můžete se dnes cítit absolutně bez nápadu a energie, takže o sobě začnete v pracovní oblasti pochybovat. To je ale špatně, protože tento stav je pouze přechodný, nikoliv trvalý a vám se za pár dní opět vrátí vaše skvělé, bryskní myšlení a nápady.",
        "love": "Ženy, narozené v tomto ohnivém znamení, dnes budou očekávat minimálně malou kytičku k oslavě mezinárodního dne žen.",
        "work": "Dnes se může projevit krize v nápadech, na což nejste úplně zvyklí a budete se s tím muset poprat. Ale zvládnete to!",
        "relationships": "Určitě se k vám dnes donese to, jak o vás někdo z příbuzných veřejně hovoří, a pranic se vám to nebude líbit. Chcete omluvu.",
        "health": "Vaše energie je opravdu vyčerpaná a vy potřebujete odpočívat. Naučte se během dne nemyslet stále na práci a povinnosti.",
        "tips": "Příprava ovocného poháru pro děti, hraní deskových her, výroba fotokoláží, rámování obrazů, thajské masáže v salonu."
    },
    "capricorn": {
        "main": "Místo toho, abyste se nechali unášet nepříjemnými scénáři o tom, jak špatně váš současný vztah skončí, věnujte se s partnerem oslavě mezinárodního dne žen. Chvíle, které dnes prožijete spolu, vám nikdo jiný nedá a budou k nezaplacení. Užijte si lásku.",
        "love": "Váhání, zda máte ve vztahu se svou novou láskou dál pokračovat, ale dnes vezme za své. Raději si spolu oslavíte MDŽ.",
        "work": "Uvítáte, když se dneska najde v práci chvilka na příjemné posezení s kolegy, povídání a kávičku. Užijete si to všichni.",
        "relationships": "Porozhlédněte se po nějakém zajímavém fitness vybavení do domu. Můžete si ho dopřát a doma se dát pomalu do formy.",
        "health": "Hrozí vám nachlazení, a pokud ho podceníte, tak je možný i zápal plic. Proto se o sebe dobře starejte a opatrujte se.",
        "tips": "Studium aromaterapie, oběd s kolegou v nové restauraci, kaligrafie, psaní romantických sms partnerovi, lekce tance."
    },
    "aquarius": {
        "main": "Ve vaší profesi se můžete dnes opět ukázat jako skvělý profík a vaše reputace poletí strmě vzhůru. Díky tomu, jaký máte přístup ke svým povinnostem, zaujmete i své nadřízené a za pár dní se můžete stát vedoucími jistých zajímavých a náročných projektů.",
        "love": "Mnohé ženy v tomto znamení si dnešní den rády oslaví. Díky tomu může být doma pohoda a dobrá nálada jako už dlouho ne.",
        "work": "Vaším přístupem k práci překvapíte dnes i svého šéfa, který vám může začít dávat na starost daleko důležitější projekty.",
        "relationships": "Všechny povinnosti, které na vás číhají dnes doma, budete mít hotové, než řeknete švec, a ještě vám zbyde volný večer.",
        "health": "Nesmíte brát na lehkou váhu jakékoliv sebemenší poranění, protože se z toho může vyvinout ošklivý a bolestivý zánět.",
        "tips": "Nákup oblečení na internetovém obchodě, detoxikace organismu, nákup biokosmetiky pro děti, založení webových stránek."
    },
    "pisces": {
        "main": "I kdybyste dnes mezinárodní den žen neslavili z jakéhokoliv důvodu, nic vám to vadit nebude. Naopak si možná zrovna vy rádi odpočinete od davů lidí a zůstanete v pohodlí a bezpečí domova. Jistě máte něco, čím si vyplníte volný večer, a nebudete se nudit.",
        "love": "Možná dnes nemáte s kým svátek oslavit, možná nemáte náladu. Každopádně vás veselí mine, ale vám to vadit nebude.",
        "work": "I když se v práci všichni trápíte, po pracovní době si můžete s kolegy zajít do oblíbené kavárny nebo restaurace na drink.",
        "relationships": "Pokud stále cítíte, že to doma neklape jako dřív, do ničeho násilím nezasahujte a dovolte, ať se věci vyřeší samy.",
        "health": "Dechová cvičení jsou velmi dobrý způsob, jak se zbavit psychického napětí z dnešních starostí. Najděte si k tomu klidné místo.",
        "tips": "Příprava nové pracovní prezentace, hledání nových obchodních nápadů a kontaktů, pochůzky po úřadech, káva s kolegou."
    }
}