{
    "aries": {
        "main": "Dobře by vám mohlo dnes být ve společnosti vašeho partnera, se kterým pocítíte opět blízkost duší a erotické napětí. Odreagujete se tak od starostí v práci, které vás dnes mohou celkem zaměstnávat. Milostné hrátky vám rozhodně vylepší náladu.",
        "love": "Zkuste si udělat se svým partnerem hezký páteční večer, do kterého by měla patřit romantika. Chybí vám něžnosti a vášeň.",
        "work": "Netrpělivost a sklony k výbušnému jednání jsou vaší velkou slabinou, musíte si tedy uvědomit, kam v práci směřujete a jak.",
        "relationships": "Oblíbených aktivit máte opravdu mnoho a dělá vám problém to vše stihnout. Musíte si dnes pečlivě vybrat, co budete dělat.",
        "health": "Zeleninové polévky jsou základ pro stále chladné dny. Můžete je ale také nahradit klasickými vývary. Už jste zkoušeli telecí?",
        "tips": "Konzultace u lékaře, nákupy speciální diety, večer na diskotéce, aromatické olejové masáže ve wellness, hledání nové práce."
    },
    "taurus": {
        "main": "Hodně pracovních záležitostí si dnes stačíte vyřídit, ale přesto vám mohou ještě nějaké zůstat na stole. Nad těmi ale můžete mávnout rukou a jít včas domů, jelikož vy máte náskok a můžete si tudíž dovolit zvolnit. Neváhejte dnes vyrazit na zajímavé rande.",
        "love": "Oslovit by vás mohl někdo, od koho byste to rozhodně nečekali. Nebuďte ale dlouho překvapení, ať vám známost neuteče.",
        "work": "Sice si dnes budete v práci chtít dodělat vše, co je třeba, ale rozhodně vám kvůli tomu nehrozí, že zůstanete přesčas.",
        "relationships": "Dnes se podívejte na svou zahrádku a rozmyslete si, co bude třeba upravit nebo zasadit. Je ta správná chvíle koupit sazenice.",
        "health": "Cvičení ve fitness centru bude pro vás nejlepší, protože vám může poradit zkušený trenér, jak které partie formovat.",
        "tips": "Kontrola firemní pošty, korespondence s přáteli, vyřizování na úřadech, nákup čerstvého ovoce a zeleniny, setkání s rodinou."
    },
    "gemini": {
        "main": "Sice vás stále mohou rozčilovat názory někoho z příbuzných, ale není nutné se tím zabývat stále a věnovat tomu energii. Tu byste měli naopak dát do plánování víkendových dní, protože na to spoléhají vaši nejbližší doma. Jistě máte dobré nápady v záloze.",
        "love": "Nenechte si zbytečně utéct příležitosti v milostné oblasti, které by se vám mohly opravdu líbit. Hlavně neseďte doma.",
        "work": "Opět se vám nevyplatí být hubatí v práci. Pokud se neovládnete, můžete očekávat jen problémy navíc. Dávejte si dnes pozor.",
        "relationships": "Více než hádky napříč rodinou by vás měl zajímat program na víkendové dny. Doma očekávají, že něco konečně vymyslíte.",
        "health": "Ve svém okolí můžete mít toxické osoby, které vám ubírají energii nebo vámi šikovně manipulují, aby dosáhly svého.",
        "tips": "Renovace starého nábytku, nákupy starožitného nádobí, sportovní aktivity v přírodě, návštěva městské knihovny."
    },
    "cancer": {
        "main": "Zkuste hledat způsoby, jak si zalepit díru ve vašem rodinném rozpočtu, jelikož si v poslední době vyhazujete z kopýtka a nehledíte na to, kolik vám na účtě zůstává. Není vyloučené, že si budete muset přilepšit nějakou novou brigádou či vedlejší prací.",
        "love": "Připravte si hezký páteční program pro sebe a svého partnera. Dobře vám bude spolu v kině nebo na večeři v nové restauraci.",
        "work": "Velkého uznání se vám může dostat od nadřízených, kteří si všímají vašich výrazných úspěchů a výborných postřehů.",
        "relationships": "Nechte dnes některé náročné aktivity na jiné dny a odpočívejte. Podívejte se na pěkný film, poslouchejte oblíbenou hudbu.",
        "health": "Rehabilitační cviky by se měly naučit i vaše děti, pokud nedělají žádný sport. Potřebují si napravit záda po sezení ve škole.",
        "tips": "Hraní her s přáteli, příprava daňového přiznání, výcvik psa, návštěva kadeřnického salonu, nákup potravin ve velkoobchodě."
    },
    "leo": {
        "main": "Poslední den pracovního týdne vás sice uklidní v profesní oblasti, kde máte vše pod kontrolou. Ovšem v milostných záležitostech bude pokračovat nejistota, která vznikla nedávno. Hrdost, která je vašemu znamení vlastní, vás bude nutit do zásadních úvah.",
        "love": "Budete bojovat s hrdostí, která vám nedovoluje hrát druhé housle. Díky tomu můžete jistou situaci přestat řešit.",
        "work": "Když si dnes dáte do pořádku vše, co jste tento týden začali, půjdete domů nadšení. Zasloužíte si volný večer a pořádný relax.",
        "relationships": "Uvolnění můžete najít v činnostech, které jsou spojené s rodinou a vašimi nejbližšími. Pohoda je předem zaručena.",
        "health": "Dnes si doma trošku zacvičte a najděte si třeba online nějaké rehabilitační cvičení. Zbavíte se napětí a pod jedním i nepříjemných bolestí.",
        "tips": "Večer v baru, kamarádské posezení při dobré večeři, nákup potřeb denní potřeby nebo knih, oprava domácího spotřebiče, meditace."
    },
    "virgo": {
        "main": "Máte určitě ve svém blízkém okolí někoho důvěryhodného a spolehlivého, kdo vám může poradit ohledně vašich milostných záležitostí. Oslovte tedy tuto osůbku a dejte si spolu schůzku. Její rady by vám nyní mohly opravdu prospět, jen se jich musíte držet.",
        "love": "V náročných vztahových záležitostech by vám mohl dnes pomoci někdo z vašich přátel, kterému se budete potřebovat svěřit.",
        "work": "Neujdete kritice nadřízeného, která vás hodně zamrzí, ale víte, že je na druhou stranu v něčem oprávněná. Domů půjdete rádi.",
        "relationships": "Pohodový večer vám zajistí setkání s kamarády u dobrého jídla a sklenky kvalitního vína. Budete se dobře bavit.",
        "health": "Nesmíte se dnes nechat vytočit doruda, protože uškodíte jen sami sobě. Váš tlak vyletí vysoko a vy budete následně unavení.",
        "tips": "Nákup hraček pro děti, výroba velikonočních dekorací, rezervace wellness hotelu v zahraničí, poslech podcastu."
    },
    "libra": {
        "main": "Dnešní poslední pracovní den v tomto týdnu vám naštěstí uteče jako voda a vy se budete těšit domů. Je jasné, že si i vy potřebujete odpočinout a mysl zaplnit jinými zájmy, než jsou pracovní povinnosti. Ve společnosti budete dnes večer středem zájmu.",
        "love": "Single jedinci z vašeho znamení si mohou dnes ve společnosti užívat zcela nepokrytého zájmu o svou osobu, což je potěší.",
        "work": "Uvítáte, že je poslední pracovní den v tomto týdnu, protože jste sice pracovití, ale i na vás dolehne únava. Jděte domů včas.",
        "relationships": "Rozhodnete se doma vytvořit na víkend velmi příjemné prostředí, ve kterém nebude komukoliv nic chybět, včetně dobrého jídla",
        "health": "Vynechte se své stravy potraviny, které obsahují vysoké množství cukru. Jedině tak můžete dosáhnout lepší váhy do léta.",
        "tips": "Setkání s přáteli v kavárně, zábava s dětmi v herně, profesionální wellness ošetření, malování mandal, psaní básní."
    },
    "scorpio": {
        "main": "Páteční den pro vás v zaměstnání bude téměř k nevydržení, protože od rána máte plnou hlavu své nové lásky. Budete se velmi těšit na večerní rande, a tak vám pracovní povinnosti nepřijdou vůbec na mysl. Stačí tedy, pokud si jen odbydete rutinní činnosti.",
        "love": "Máte dnes velkou příležitost zažít krásné a romantické chvíle s partnerem. Nabudí vás to oba k dalším schůzkám.",
        "work": "I když vám tento týden v práci vše vycházelo, přece jen se budete těšit domů, za svými milovanými. Potřebujete si odpočinout.",
        "relationships": "Již dnes se můžete vydat na chalupu nebo chatu, kde si užijete volný víkend se svými blízkými. Bude se vám líbit zahradničení.",
        "health": "Vaše ledviny mohou doplatit na hazard s lehkým oblékáním. Dejte si dobrý pozor na momentální jarní výkyvy počasí.",
        "tips": "Sázení kuchyňských bylinek, návštěva estetické kliniky, poslech vinylových desek, hraní vědomostních her s rodinou."
    },
    "sagittarius": {
        "main": "Páteční večer bude zasvěcený romantice a milostným hrátkám. Pokud tedy máte dnes rande se svým novým miláčkem, už pravděpodobně víte, co vás čeká. Dejte si záležet na svém vzhledu, nebo výběru restaurace či klubu. Ostatní nechte na partnerovi.",
        "love": "Večeře v romantické restauraci vás může dnes s vaším novým idolem příjemně navnadit na pozdější milostné hrátky.",
        "work": "Výrazně se vám uleví, když se dnes vydáte z práce domů. Je vám jasné, že potřebujete odpočinek a oporu ve vašich milovaných.",
        "relationships": "Večer mimo domov by se vám mohl líbit, především pokud vyrazíte do kina, divadla nebo hudebního klubu. Tanec vás bude bavit.",
        "health": "Alespoň jednou denně byste si měli dopřát velkou porci zelené zeleniny, která obsahuje důležitou kyselinu listovou.",
        "tips": "Dokončení pracovních povinností, úklid domácí kanceláře, kontrola pošty a e-mailů, čištění pelíšků domácích mazlíčků."
    },
    "capricorn": {
        "main": "Vydali jste za celý týden spoustu energie na práci i záležitostí v rodině, a tak se nedivte, že se dnes budete cítit totálně vyždímaní. Ani vás nenapadne, že byste dnešní večer měli prožít někde jinde než doma, v klidu a bezpečí, obklopení nejbližšími.",
        "love": "Romantický večer si dnes můžete udělat i doma, kde si připravíte komfortní prostředí a užijete si jeden druhého.",
        "work": "Pocítíte dnes velkou únavu, kterou jste vůbec nečekali. Bude třeba dokončit jen to nejnutnější a jít včas z práce domů.",
        "relationships": "Páteční den zatoužíte prožít doma, v klidu a pohodlí. Rozhodně vás nebude lákat večer mezi davy lidí někde v klubu.",
        "health": "Jakmile se vám zhorší zdraví, měli byste se také zaměřit na svou psychiku, protože ta jde ruku v ruce s fyzickou kondicí.",
        "tips": "Nové obchodní kontakty a projekty, hledání letního lázeňského pobytu, pěstování bylinek, ruční mytí automobilu."
    },
    "aquarius": {
        "main": "Pochyby o novém partnerovi ve vás stále zůstávají, takže se dnes šikovně vymluvíte a na rande nepůjdete. Budete si totiž chtít uspořádat myšlenky tak, abyste věděli jak dál. Buďte ale slušní a chovejte se diplomaticky, abyste nezranili city dotyčného.",
        "love": "Budete se rozhodovat, zda dáte svému novému protějšku ještě šanci, nebo se slušně vymluvíte a na rande dnes nepůjdete.",
        "work": "Ani pátek vás nedonutí zpomalit tempo. Jste rozjetí a máte chuť si dokonce vzít práci domů. To ale není dobrý nápad.",
        "relationships": "Nevšímejte si dalších výpadů vůči vám nebo vašim nejmilejším od někoho, kdo vám nesahá ani po kotníky. Je to pod úroveň.",
        "health": "Pořád sledujte předpověď počasí, aby vás nezastihla na cestách nějaká nepříjemná průtrž mračen. Buďte vybavení.",
        "tips": "Pokerový turnaj online, romantické rande ve městě, večeře s dovážkou do domu, aromatická bylinná koupel, sledování seriálů."
    },
    "pisces": {
        "main": "Kdosi nový zanechal ve vaší mysli a ve vašem srdci zřejmě silné dojmy, protože už jen při vzpomínce na tuto osobu se usmíváte. Možná vám tedy konečně hvězdy seslaly do života toho pravého partnera, se kterým můžete prožívat šťastné dny a roky.",
        "love": "Při vzpomínce na někoho nového ve vašem okolí se vám na tváři rozlije spokojený úsměv. Znamená to, že se vám líbí?",
        "work": "Pracovní den vám utíkat nebude vůbec a vy se budete v práci muset přemáhat ke každému úkolu. Uleví se vám, až půjdete domů.",
        "relationships": "Víkendové aktivity by se měly odehrávat mimo domov, protože potřebujete prostě změnu. Uvidíte, že to prospěje celé rodině.",
        "health": "Pokud vás dnes přepadnou pocity, jako kdyby se o vás pokoušela chřipka, zůstaňte doma pod peřinou a s teplým čajem.",
        "tips": "Dopolední procházka s pejskem, péče o nemocné příbuzné, odpoledne ve městě, pečení sladkých koláčků, kreslení mandal."
    }
}