{
    "aries": {
        "main": "Dejte si hned od pondělí pozor na to, jakým způsobem komunikujete s okolím, protože máte sklony být více expresivní, než je u vás zvykem, a mohli byste si zadělat na pořádný průšvih. Raději brzděte ve vyjadřování, než abyste se později chytali za hlavu.",
        "love": "Volte dnes svá slova tak, abyste neublížili někomu, koho máte vlastně velmi rádi, jelikož byste mu mohli opravdu ublížit.",
        "work": "Sice vás pracovní povinnosti zmáhají, ale nedáváte to na sobě zatím znát. Pozor na únavu, která by vás dovedla k chybám.",
        "relationships": "Rádi se věnujte pohybu, a tak není divu, že si ani dnes neodpustíte nejrůznější aktivity s vašimi přáteli nebo příbuznými.",
        "health": "Sice jste zatím v dobré zdravotní kondici, ale velká únava může vše změnit. Doplňujte vitaminy a dobře spěte.",
        "tips": "Úprava stávajícího jídelníčku, hledání kontaktů na sociálních sítích, psaní citátů, skládání básní, oprava elektrokola."
    },
    "taurus": {
        "main": "Mezi lidmi jste dnes jako ryba ve vodě a užíváte si pozornosti ostatních. Celkem zaslouženě jste ve středu dění, jelikož máte vybrané chování a také obrovský přehled, takže vaše rozhovory s ostatními mají úroveň. Užívejte si přízně druhých.",
        "love": "Umíte se velmi dobře pohybovat ve společnosti, a tak není divu, že jste středem pozornosti všude, kam vkročíte.",
        "work": "Vaše pracovní povinnosti vám jdou opět jedna báseň, a tak můžete být nápomocní ještě ostatním kolegům, kteří jsou v nesnázích.",
        "relationships": "Doma se vše pomalu dalo do pořádku, a tak není důvod, proč si neudělat hezké odpoledne nebo večer při pěkném filmu.",
        "health": "Bolesti kloubů a končetin může mít u vás na svědomí přílišná námaha při sportování či jiných fyzických aktivitách.",
        "tips": "Příprava nových exotických jídel, hledání zájmové aktivity pro děti, venčení a výcvik pejska, četba detektivního románu."
    },
    "gemini": {
        "main": "Nemyslete hned na to, že pokud vám v práci něco nejde, musíte hledat někde jinde. Jste urážliví, ale to není správné řešení, stačí se na vše podívat z jiného úhlu a hned vás napadne něco parádního. Nevzdávejte se tak snadno a bojujte za své sny.",
        "love": "Nebojte se toho, že byste si ve společnosti nezískali něčí pozornost. Vaše záměry ale musí být opravdu upřímné.",
        "work": "Sice vám kdosi naznačí, že na jisté povinnosti nemáte, což vás může vykolejit, ale neměli byste tomu tolik věřit.",
        "relationships": "Bude fajn, pokud se rozhodnete něco udělat se svou vizáží. Blíží se plavková sezona a vy se budete chtít pochlubit figurou.",
        "health": "Měli byste omezit používání sociálních sítí, kde utápíte zbytečně mnoho času. Ten můžete raději věnovat sportu.",
        "tips": "Plánování nových výletů s přáteli, nákup nového románu, výroba bižuterie doma, sepisování cukrářských receptů."
    },
    "cancer": {
        "main": "V hlavě nosíte nápady na nejrůznější zahradnické práce, které vám vlastně dělají radost a ze kterých vzejde něco velmi přínosného a pěkného. Zapojte do této aktivity také své děti, které mohou takové činnosti hodně bavit a ještě se od vás něco přiučí.",
        "love": "Velmi pozitivní pocity ve vás vyvolal velký obrat v lásce a najednou se konečně vše dalo tím správným směrem.",
        "work": "V zaměstnání nejste zrovna nadšení a máte pohybnosti o tom, jaké vlastně podáváte výkony. Zpětná vazba není vypovídající.",
        "relationships": "Příchod krásného jarního počasí vám do hlavy nasadí brouka a budete si chtít upravit domov, balkon nebo zahrádku.",
        "health": "Neměli byste podceňovat žádnou bolest, která vás dnes postihne. Může to být vážnějšího charakteru a chce to lékaře.",
        "tips": "Odpoledne v městské knihovně, oprava dětských oděvů, nákup nového domácího spotřebiče, vážný rozhovor s partnerem."
    },
    "leo": {
        "main": "Nosíte-li v hlavě myšlenku, že by vám prospěla změna vizáže, není to vůbec špatný nápad, jen si musíte vše dobře naplánovat. Nelitujte v žádném případě peněz, které za tuto proměnu vydáte, bude to totiž dost povedené a vaše okolí bude nadšené.",
        "love": "Kdosi si dneska dělá zálusk na vašeho miláčka, pokud tedy o něj nechcete přijít, budete si ho muset víc hlídat.",
        "work": "V zaměstnání si můžete dovolit dnes malinko zvolnit, protože vaše výsledky jsou bezkonkurenční a máte dost velký náskok.",
        "relationships": "Vaše obavy, že se vám nedaří dosáhnout požadovaných změn ve vizáži, jsou liché Naopak, vše jde podle plánu a velmi dobře.",
        "health": "Srdce je nyní více zatěžováno, kvůli tomu že prožíváte nejrůznější emoční výkyvy. Zkuste meditovat a zpomalit.",
        "tips": "Objednávka zboží s dovážkou do domu, odpoledne v aquaparku, setkání se sousedy u sklenky vína, sledování sportovního utkání."
    },
    "virgo": {
        "main": "Vaše poznání, že váš miláček je pro vás velmi důležitý, vám dost ulevilo a vám spadl kámen ze srdce. Protože váš vztah stojí za záchranu, udělali jste pro to oba v uplynulých dnech více než dost, a tak můžete oba být spokojení a plánovat další kroky.",
        "love": "Budete se dnes snažit o udobření se svým partnerem, protože máte zcela jasno o dalším vývoji vztahu. Nechcete o něj přijít.",
        "work": "Vám dnes nikdo nic neodpustí, a tak se bude muset sakra otáčet, abyste dnes byli úspěšní jako vždy. To se zadaří.",
        "relationships": "Vašemu protějšku není dnes vůbec radno jakkoliv radit. Raději si šetřete energii pro sebe, bude se vám hodit do dalších dní.",
        "health": "Jste opravdu ve výborné fyzické i mentální kondici a ta vám umožňuje si plnit své veškeré povinnosti i radůstky.",
        "tips": "Venčení pejska s kamarády, výroba velikonočních interiérových dekorací, poslech jazzové hudby, čištění a servis auta."
    },
    "libra": {
        "main": "Mnohým z vás se nebude chtít do společnosti, ale pokud chcete s někým navázat více než přátelský vztah, budete muset vyrazit mezi lidi a začít být opravdu hodně aktivní. Mezi čtyřmi zdmi se opravdu těžko hledá nový partner. Tak směle do toho.",
        "love": "Nemáte-li nyní žádný pevný vztah, brzy se vám do cesty připlete sympatická osoba, se kterou můžete konečně něco podniknout.",
        "work": "Máte své nové záměry a cíle, které jste si stanovili nedávno, a ty vám jdou docela dost rychle a dosahujete neskutečných výsledků.",
        "relationships": "Abyste doma zabránili nějaké hádce, to se vůbec nepovede, utlumíte jen část a zbytek se o slovo znovu přihlásí.",
        "health": "Správnou a vyváženou životosprávou můžete ovlivnit mnohé, hlavně svou váhu. Kvalitní jídlo a pití vás ale také potěší.",
        "tips": "Zakládání nových kontaktů na sociálních sítích, setkání se staršími příbuznými, venkovní sportovní aktivity, posilování svalů."
    },
    "scorpio": {
        "main": "Budete mít hodně příležitostí na to, abyste se uchytili v nějaké zajímavém segmentu trhu. Také jsou před vámi šance do zajímavého kurzu nebo vzdělávacího programu, který vás může přiblížit k vašemu vysněnému povolání. Zvažte, co si vyberete.",
        "love": "V lásce není důvod se obávat nějakých nepříjemných překvapení, protože začínáte týden ve velmi pozitivem ladění.",
        "work": "Příležitost, že se můžete dále vzdělávat, je skvělá a měli byste ji okamžitě využít. Kurzy jsou pro vás jako životabudič.",
        "relationships": "Také dnes si za vámi mohou přijít pro radu vaše děti. Doma fungujete jako někdo, za kým se chodí často s problémem.",
        "health": "V tomto měsíci si musíte dávat zvýšený pozor na močový měchýř, který má tendence k zánětům. Mohlo by to být nepříjemné.",
        "tips": "Nákupy sazeniček a semínek pro jarní výsadbu, rodinný nákup v supermarketu, rezervace dovolené v zahraničí, četba románu."
    },
    "sagittarius": {
        "main": "Planety doporučují, abyste dnešní den strávili ve společnosti lidí, které máte rádi. Ať už to znamená rodinu nebo i přátele. Navzájem se obohatíte pozitivní energií a radostí z očekávání jara. Sdílená radost je vždy silnější, to je známá pravda.",
        "love": "Ti z vás, kteří mají vztah, musí nyní bojovat, protože partner jim nyní nedává nic zadarmo. Naopak si to velmi užívá.",
        "work": "Stále pociťujete únavu z minulého týdne a ze všech pracovních povinností. Nakupilo se vám jich opravdu hodně.",
        "relationships": "Velmi neradi uslyšíte své příbuzné, jak nehezky mluví o někom. Budete je muset okamžitě usměrnit, aby byl klid.",
        "health": "Začíná u vás úřadovat jarní únava a nesmíte se tedy divit tomu, že se cítíte naprosto bez energie a dobré nálady.",
        "tips": "Ruční mytí automobilu, založení hudební skupiny s kamarády, pořízení starých plakátů v antikvariátu, den v knihovně."
    },
    "capricorn": {
        "main": "V profesní sféře bude stále panovat vyčerpávající období, kdy vám absolutně chybí nové nápady a vize, schází vám kvůli tomu motivace a dochází energie. Přistihnete se u toho, že přemýšlíte o změně práce nebo o podnikání. To by vám ale velice dobře šlo.",
        "love": "Dostanete nové nápady, jak vylepšit vztah s novým partnerem. Máte k tomu opravdu dobré podmínky a také počasí.",
        "work": "Sami se sebou nejste vůbec spokojení, protože nové nápady nepřicházejí a chybí potřebná energie k dotažení úkolů.",
        "relationships": "Věnujte se novým informacím, které jste se nedávno dozvěděli, jsou totiž zásadní pro jisté záležitosti uvnitř vaší rodiny.",
        "health": "Močový měchýř a ledviny jsou hlavním zdravotním tématem pro tyto dny. Dobře se oblékejte, noste teplou obuv a hodně pijte.",
        "tips": "Školení řidičů ve firmě, vedení menšího týmu lidí, online porada, setkávání se s novými lidmi při charitativní činnosti."
    },
    "aquarius": {
        "main": "Vy si své plány splníte podle toho, co jste si tento týden předsevzali, a tak nebudete trpět zbytečnými výčitkami svědomí jako ostatní. V lásce budete totálně zmatení z chování svého protějšku, jenž dělá chvílemi naprosto nepochopitelné kroky.",
        "love": "Vaše nová známost se jevila jako skvělá partie, ale nyní tomu již tak není. Vadí vám na něm nevyzrálost a naivita.",
        "work": "Planeta Merkur vám pomáhá v naplňování vašich pracovních plánů. Předveďte ostatním, co se ve vás opravdu skrývá.",
        "relationships": "Domácí práce, které ostatním přijdou nezáživné, jste si vymysleli jen vy a je na vás je udělat. Budete mít své uděláno.",
        "health": "Vyhýbat se vám nemusí zánětlivá onemocnění, která by mohla být opravdu nepříjemného charakteru. Buďte na sebe opatrní.",
        "tips": "Týmová spolupráce s kolegy, přidělení nových pracovních úkolů, plánování s obchodním partnerem, rehabilitace zad."
    },
    "pisces": {
        "main": "Před vámi je konečně ta velká láska. Vztah bude plný jarního porozumění, romantických gest a naplnění. Ten, kdo o vás usiluje, to bude mít poměrně jednoduché, protože vy jste se na takový vztah těšili už několik let, a tak budete vstřícný otevřít náruč i srdce.",
        "love": "Jistá osoba si vás k sobě přilákala a snaží se si vás k sobě připoutat. Je jen na vás, jak se k tomu momentálně postavíte.",
        "work": "Kritické poznámky nadřízených se vám opravdu nelíbí a mohou vás urazit. Bude třeba zjistit, jak toto zastavit.",
        "relationships": "Dochází vám energie a během dne postrádáte dřívější elán do života. Prospěje vám dovolená s vašimi nejbližšími.",
        "health": "Budete se zřejmě potýkat s nadměrnými emocemi a velkým psychickým náporem. Uvolněte si mysl poslechem oblíbené hudby.",
        "tips": "Organizace týmových pracovních aktivit, společná práce na obchodním projektu, nákupy léků a zdravotnického materiálu."
    }
}