{
    "aries": {
        "main": "Den volna vám může kazit pocit, že váš milostný život trochu ochladl a zešedl. Připadá vám, že se partner od vás odtahuje. Nesnažte se pokoušet jeho žárlivost, to by bylo z deště pod okap. Pokud vám teď chybí romantika, zkuste ji vrátit do vztahu sami.",
        "love": "Dnes byste mohli vyvést nějakou hloupost, která by narušila váš vztah. Ztracená partnerova důvěra se těžko získává zpět.",
        "work": "Na práci nezapomínáte ani o víkendu, potřebovali byste ale vypnout a načerpat novou energii. V zaměstnání se bude hodit.",
        "relationships": "Veškeré vaše vztahy ovlivňuje ohromná vůle po úspěchu. Dnes toužíte být středem pozornosti a uděláte pro to cokoliv.",
        "health": "Zapomnětlivost vás asi trochu potrápí. Soustředit se na práci nebo studium bude obtížnější než jindy, ale zvládnete to.",
        "tips": "Pohoda s partnerem, lahůdkový oběd mimo domov, zhlédnutí nového filmu či divadelní hry, posezení v baru, společný relax."
    },
    "taurus": {
        "main": "Neděle nebude právě vhodným dnem pro romantickou lásku. Mnozí Býci se místo toho budou cítit pod pantoflem a pod tíhou nároků svého partnera. Vaše citové výlevy dnes asi nepadnou na úrodnou půdu. Čeká se od vás spíše prozaická péče o váš protějšek.",
        "love": "Pokud se budete příliš angažovat a tlačit na pilu, mohli byste dostat košem. Dnes platí - kdo nic nedělá, nic nezkazí.",
        "work": "Pokud vaše finance nevytvářejí zisk, jaký byste si přáli, můžete se poradit s odborníky. Spoléhejte ale i na svůj rozum.",
        "relationships": "Soužití více generací v jedné domácnosti bude dnes problematické. Nebude se vám příliš dařit prosazovat si své potřeby.",
        "health": "Nežijeme proto, abychom jedli, jíme proto, abychom žili. Ani zde to nepřehánějte, jinak si koledujete o zažívací potíže.",
        "tips": "Návštěva příbuzných, kolektivní sportovní aktivity, karetní hry, odpolední představení s dětmi, péče o domácnost, četba."
    },
    "gemini": {
        "main": "Volný den ve vás probudí hříšné myšlenky, které zatoužíte převést do reality. Dnešek je skvělý pro sexuální radovánky, očekávejte silné zážitky. Můžete si užít chvíle nespoutané vášně. Máte talent navnadit k lechtivým experimentům i svůj protějšek.",
        "love": "Něčí neskrývané sebevědomí na vás zapůsobí jako afrodiziakum. Později si ale můžete uvědomit, že jde spíše o aroganci.",
        "work": "Své majetkové poměry máte dokonale zmapované. Žádný investiční krok neděláte bez rozmyslu jen tak pro zábavu či risk.",
        "relationships": "Nový protějšek vašeho kamaráda či sourozence vás může zaskočit. Ovládnete se však a nebudete situaci nijak komentovat.",
        "health": "Pokud vám v soukromí všechno vychází podle plánu, cítíte se spokojeně. Dnes by se neměl vyskytnout žádný větší zádrhel.",
        "tips": "Romantické schůzky, rozmazlující péče o zevnějšek, výběr nového účesu, milostné aktivity s protějškem, orientální tance."
    },
    "cancer": {
        "main": "Zaznamenáte více empatie od lidí, které máte ve své blízkosti. Poznáte, že se můžete spolehnout nejen na svou rodinu, ale i na kamarády nebo sousedy. Nikdo z nich si nedovolí vás v čemkoliv klamat. Dají vám najevo své sympatie, podporu i uznání.",
        "love": "Sálá z vás pozitivní energie a ostatní se vedle vás cítí skvěle. Budete lehce navazovat přátelské i milostné vztahy.",
        "work": "Dnes se můžete odměnit za všechnu vynaloženou snahu v práci. Dopřejte si trochu toho utrácení a vyhazování z kopýtka.",
        "relationships": "Překvapí vás problémy příbuzných, o kterých jste neměli ani tušení. Rádi pomůžete, ale nejdříve musíte vysondovat jak.",
        "health": "Fyzicky jste naprosto v pořádku, ale vaše psychická vyrovnanost jaksi pokulhává. Necítíte se tak úplně ve své kůži.",
        "tips": "Rodinný výlet, návštěva galerie nebo muzea, oběd či večeře v novém podniku, sportování s partnerem, milostné chvilky."
    },
    "leo": {
        "main": "Budete neskutečně velkorysí. Řešení rozbrojů, které komplikují vaše blízké vztahy, vezmete za správný konec. Ukážete, že stabilita v rodině je vám nade vše. V žádném případě se nebudete řídit heslem - oko za oko. Klidně uděláte první krok ke smíření.",
        "love": "Napětí ve vztahu se rozplynulo a oba můžete opět svobodně dýchat. Není žádný důvod žárlit nebo si v něčem nedůvěřovat.",
        "work": "Dárek pro partnera vás nebude stát mnoho, ale může vám hodně cenného přinést. Nebojte se pustit své peněžence žilou.",
        "relationships": "Mnohé rozhádané vztahy dostanou příležitost k rozřešení. Ať už je vina na jakékoliv straně, nebudete si to vyčítat.",
        "health": "Máte motivaci k tomu, abyste na sobě něco zlepšili. Ať jde o vzhled nebo zdravotní stav, vždy volte kvalitní prostředky.",
        "tips": "Návštěva příbuzných, řešení rodinných problémů, navazování vztahů, setkání s přáteli, zábava ve společnosti, bowling."
    },
    "virgo": {
        "main": "Neděle je vhodným časem pro posílení vzájemné jistoty mezi partnery. Budete o sebe pečovat s nevšední láskou a něhou. Čeká vás poklidný den plný lásky a pohody. Pokud vůbec pocítíte potřebu vystrčit nos z domova, tak jedině jako nerozlučná dvojice.",
        "love": "Úspěchy na pracovním poli se pozitivně odrazí i na vašem naladění v soukromí. Partnera těší váš nemizící úsměv na tváři.",
        "work": "Práce vám jde jako po másle a i složité činnosti zvládáte levou zadní. Můžete si proto užívat obdivných pohledů okolí.",
        "relationships": "Nezapomeňte na sliby, které jste dali příbuzným. Pro děravou a zasněnou hlavu vám během odpoledne spousta věcí unikne.",
        "health": "Domácí cvičení vám dovoluje věnovat svému tělu alespoň zlomek potřebného času. Nemusíte se trmácet do horoucích pekel.",
        "tips": "Návštěva kulturních akcí, milostné schůzky, posezení s přáteli, společenské hry, nákup drobností do bytu, relaxace."
    },
    "libra": {
        "main": "Na své okolí dnes působíte nadmíru sympaticky a pohodově. Váš společenský život dostane nové vzruchy. Případné samotářské sklony vezmou za své, nejlépe se budete cítit v kolektivu více lidí. Můžete se tím pádem těšit i na zbrusu nová přátelství.",
        "love": "Všude, kde se objevíte, budete oblíbení a stanete se centrem pozornosti. Jedné zajímavé osobě okamžitě padnete do oka.",
        "work": "Umíte blízkým udělat radost, i když máte jen omezené finanční prostředky. Také dnes vás napadne, čím byste je potěšili.",
        "relationships": "Vaše dobrá nálada bude nakažlivá a rodina ji velmi ocení. Společně se pobavíte, zasmějete a prožijete příjemnou neděli.",
        "health": "Zdrojem velké části vašich zdravotních potíží byl v nedávné době stres. Když si odpočinete, jako zázrakem většina zmizí.",
        "tips": "Dlouhý spánek, sledování veseloher, návštěva cukrárny s rodinou, kino, divadlo, zimní sporty, nakupování pro radost."
    },
    "scorpio": {
        "main": "Vypadá to, že se vám naskytne spousta milostných příležitostí. Nezadané může svým vyznáním překvapit člověk, který si zatím své sympatie nechával pro sebe. Některé jedince osloví zcela neznámá osoba, nebude nouze o pozvání na kávu nebo na schůzku.",
        "love": "Mnozí zamilovaní se dnes vysloví, či je naopak potěší vyznání citů. Nezadaní si plně uvědomí nevýhody osamělého života.",
        "work": "V second handu či na burze se vám podaří nakoupit téměř nové věci za zlomek ceny. Na výhodné nabídky jste dnes experti.",
        "relationships": "Ve vztazích k druhým si udržujete zdravé sebevědomí. Nevykolejí vás žádný neúspěch při seznamování ani přímé odmítnutí.",
        "health": "Na nedostatek energie si nemůžete stěžovat. Hvězdy vám nahrávají do karet a umožní vám zvládnout, cokoliv si zamanete.",
        "tips": "Vydatná snídaně, otevřený rozhovor s partnerem, péče o zevnějšek, sportování na čerstvém vzduchu, změna jídelníčku."
    },
    "sagittarius": {
        "main": "Ve vaší duši se rozhostí pravý nedělní klid. Vnitřní pohodu zatoužíte přenést i na své okolí. S potěšením se budete věnovat přípravě oblíbené rodinné pochoutky a po obědě dopřejete svým blízkým volnost. Umožníte jim, aby si každý užil neděli po svém.",
        "love": "Milostným schůzkám nechte volný průběh. Když se budete chovat přirozeně, okamžitě zjistíte, jak na tom u druhého jste.",
        "work": "Koncem ledna čekejte průměrné příjmy. Pro vás je ale důležitější, že můžete počítat se stabilním částkou do rozpočtu.",
        "relationships": "Nejednoho zrozence postihne poněkud introvertní nálada. Rodina ale jistě uvítá, že dnes toužíte jen po její společnosti.",
        "health": "Těžký oběd vyvažte střídmou a zdravou večeří. Zkuste si vystačit třeba s ovocným salátem nebo zeleninovou pomazánkou.",
        "tips": "Kreativní činnosti, společné aktivity s rodinou, oběd mimo domov, návštěvy příbuzných, posezení v hospůdce s přáteli."
    },
    "capricorn": {
        "main": "Budete milostně velmi spokojení. Hvězdy podpoří vaši erotickou představivost. O intimních otázkách se vám bude mluvit snadno a s partnerem si navzájem vylíčíte své touhy. Posílí se ovšem vztahy k opačnému pohlaví obecně, takže pozor na okolní svody.",
        "love": "V milostném životě budete velmi vynalézaví a nároční. Návrhy, které partnerovi dáte, budou poněkud těžšího kalibru.",
        "work": "Dnes se snažíte udělat na druhé dojem, takže si vyhazujete z kopýtka. Měli byste brát v potaz, jak je na tom vaše konto.",
        "relationships": "Hlídání potomků vašimi prarodiči vám zajistí volné pole působnosti. Rádi byste byli s partnerem alespoň chvíli o samotě.",
        "health": "Dnes neváháte investovat jisté částky do své tělesné schránky. Zajímá vás ale spíše její estetické vylepšení než zdraví.",
        "tips": "Příprava romantické večeře při svíčkách, nákup svůdného prádla či hraček pro dospělé, výzdoba interiéru, tanec, rande."
    },
    "aquarius": {
        "main": "Možná jste ve vztazích měli dojem jakéhosi chladu či odstupu. Nyní se můžete radovat, méně příznivé konstelace polevily. V osobním životě pocítíte příliv mnoha forem lásky, a zdaleka nejen té milostné. Posílí se i vzájemná pouta s rodinou či přáteli.",
        "love": "Pokud jste se pohádali, vše spěje ke vzájemnému smíření. Už bylo na čase, napjatá domácí atmosféra vám vysávala energii.",
        "work": "Věnujte velkou pozornost kontrole rodinného hospodaření. Ústřižky ze složenek byste neměli vyhazovat, ale zakládat.",
        "relationships": "Rodinná porada vám umožní najít kompromis ohledně problematických záležitostí. Už se nebudete dohadovat o zbytečnostech.",
        "health": "Naučte se cviky zpevňující hluboké zádové svalstvo. Zlepšíte si tím držení těla a předejdete tak i bolestem páteře.",
        "tips": "Seznámení s partnerovými rodiči, zazimování zahrady a sadu, posezení s přáteli v hospůdce, příprava podkladů do práce."
    },
    "pisces": {
        "main": "Ve vztahu budete spokojení. Hvězdy vám umožní prožít klidné chvíle s protějškem. Budete na něm hledat jen pozitiva a povahové rozdíly velkoryse přehlížet. V zájmu vzájemného souladu vsadíte na chválu a povzbuzování místo kritiky. Uvidíte ty výsledky!",
        "love": "Dáte protějšku najevo, jak přitažlivý pro vás i po dlouhých letech je. Společné chvilky okořeníte něčím netradičním.",
        "work": "Potěší vás dárek ze strany partnera. Ačkoliv si to nechcete sami připustit, přemýšlíte, kolik peněz to muselo stát.",
        "relationships": "Uděláte si doma útulno a uzavřete se před celým světem. K absolutní pohodě vám chybí málo, knížka nebo oblíbený seriál.",
        "health": "S partnerem vyrazíte na čerstvý vzduch. Alespoň krátká večerní procházka dovolí odplavit náplavu negativních emocí.",
        "tips": "Otevřený rozhovor s protějškem, řešení dlouhodobých problémů, návštěva kina či divadla, svižná procházka před spaním."
    }
}