{
    "aries": {
        "main": "Ženete se za kariérou a nemohli jste si na to vybrat vhodnější den. Koncem ledna jste plni energie i odhodlání stihnout tisíc věcí najednou. Není pro vás problém přesvědčit nadřízené i kolegy, že dnes nemáte konkurenci, která by vás mohla ohrozit.",
        "love": "Kamarádi vás dnes nenechají na holičkách. Ať se jedná o jakoukoliv žádost, je předem splněna. Vrátí vám vaši laskavost.",
        "work": "Na nadřízené opačného pohlaví zapůsobíte i jinými přednostmi, než jsou vaše znalosti. Jen pozor, ať to nepřeženete.",
        "relationships": "Byť nepřemýšlíte nad tím, co na druhé prozrazujete, žádné problémy tím nezpůsobíte. Naopak odlehčíte složitou situaci.",
        "health": "Máte dost sil a odhodlání, abyste v zaměstnání dokázali cokoliv. Jen ve volném čase neumíte zbylou energii uvolnit.",
        "tips": "Úklid kuchyně a kontrola záručních lhůt, poslech hudby, návštěva sourozenců, večerní nákupy v poloprázdném supermarketu."
    },
    "taurus": {
        "main": "Připadá vám, že jste v rodině pod drobnohledem a blízcí vám chtějí diktovat váš denní harmonogram. Zdržte se ostrých komentářů. Je pravděpodobné, že blízcí vám chtějí pomáhat, ale svou péčí vás spíše dusí. Vyslechnete je, ale zařídíte se po svém.",
        "love": "Dnes se raději nepouštějte do rozborů povahy vašeho protějšku. Je tu riziko, že vaše kritická slova by nebrala konce.",
        "work": "Mnozí Býci dnes mohou reagovat dost prchlivě. Myslete na možné následky a využijte svůj temperament nějak užitečněji.",
        "relationships": "Dnešní mezilidská komunikace skrývá jistá úskalí. Pokud budete mít potřebu si něco vyříkat, pouštíte se na tenký led.",
        "health": "Chladné počasí oslabuje i močové cesty. Vyplatí se udržovat tělo v teple a nezapomínat na dostatečný přísun tekutin.",
        "tips": "Kosmetické ošetření, četba zábavné knížky, samostudium cizích jazyků, sledování filmů na Netflixu, saunování, horká koupel."
    },
    "gemini": {
        "main": "Budete velice tvůrčí a hraví, což má pro okolí velkou přitažlivost. V zaměstnání si snadno získáte obdivovatele, kteří se možná pokusí překročit pracovní rámec. Pokud jste nezadaní, mohli byste se poohlédnout po kreativním partnerovi z řad umělců.",
        "love": "Pro partnera byste dnes snesli modré z nebe. Na své soužití myslíte jen v dobrém a žádné mínusy na vztahu nevidíte.",
        "work": "Vyplatí se vám udržovat na pracovišti přátelskou atmosféru a harmonii. Dnešními výkyvy nálad si u nikoho nepřilepšíte.",
        "relationships": "S příbuznými po boku dnes zvládnete téměř cokoliv. Jako celistvá rodinná jednotka oplýváte neuvěřitelnou duševní silou.",
        "health": "Je vhodné vložit část vydělaných peněz do vylepšování vašeho zdraví. Fitness centrum, sauna nebo vitaminy jsou to pravé.",
        "tips": "Kreativní práce, umělecká tvorba, rukodělná činnost, kulturní zážitky, četba, kreslení s dětmi, surfování po internetu."
    },
    "cancer": {
        "main": "Nyní si budou Raci bez ohledu na pohlaví nejvíce rozumět s blízkými ženami. Přirozeně se upevní vaše vztahy. Můžete si vyjasnit některé nesrovnalosti, které leží mezi vámi, i načerpat něco z jejich ženské moudrosti. Potěší vás vzájemné souznění.",
        "love": "Za přátele si dnes budete vybírat jedince, kteří by vám jindy ani nepadli do oka. Zajímá vás spíše jejich duševní krása.",
        "work": "Kdo si počká, ten se dočká. Platí to o vztahu k nesympatickým kolegům i k práci, která se zdá neřešitelná. Chce to čas.",
        "relationships": "Přesvědčíte se o tom, že široká rodina vám nabízí opravdu stabilní zázemí. Dnes zafunguje jako zcela bezpečné útočiště.",
        "health": "Proč jste pořád sami se sebou nespokojeni? Nebuďte na sebe tak přísní a po tvrdém tréninku si dopřejte i trošku relaxu a odpočinku.",
        "tips": "Péče o domácnost, ruční práce, návštěva příbuzných, posezení s kamarádkou, povídání o životě, tantra jóga pro ženy."
    },
    "leo": {
        "main": "Je čas pro sdílení vašich pracovních potíží. S nikým je nerozebíráte, a to je škoda, ochuzujete se o podporu. Pravděpodobně nemáte dostatek odvahy, abyste zahájili nějaký svůj projekt. Požádejte tedy někoho blízkého, aby vám pomohl s prvními kroky.",
        "love": "Když se svěříte s tím, co tíží vaši hlavu, věřte, že se vám velice uleví. Ověříte si, že nic se nejí tak horké, jak se uvaří.",
        "work": "Potřebujete se soustředit na některé pracovní potíže. Zkuste odhodit hrdost a neodmítejte nabízenou pomocnou ruku.",
        "relationships": "Neradi blízké zatěžujete svými starostmi, oni vám ale rádi pomohou. Rodinný brainstorming může mít překvapivé výsledky.",
        "health": "Únava pramení i z nevhodného jídelníčku. Namísto tučných a hutných jídel se snažte konzumovat hlavně zeleninu a ovoce.",
        "tips": "Důvěrné rozhovory, telefonát se vzdálenými příbuznými, setkání s rodiči, čtení dětem, návštěva divadla, firemní párty."
    },
    "virgo": {
        "main": "Dolehnou na vás zvýšené nároky v zaměstnání. Asi máte dojem, že podáváte výkony, ale náležitá odměna nepřichází. Na pracovním poli nazrál ideální čas pro skupinové aktivity. Týmová práce přinese lepší výsledky, než když se do povinností pustíte sami.",
        "love": "Jistý člověk se uchází o vaši pozornost, ale vy si ho schválně nevšímáte. Dnes by bylo férové říci mu pravdu do očí.",
        "work": "V zaměstnání vám bude okolí závidět množství energie. Do hlavy vám ale nevidí, a tak nepozná, že trochu klamete tělem.",
        "relationships": "Uvědomíte si, že domácí zázemí vám dává sílu i chuť do pracovních výzev. Blízcí vám fandí a každý váš úspěch je těší.",
        "health": "Důkladně si vyčistěte a ošetřete i drobnější poranění. A jste si jistí, že už vám nepropadlo očkování proti tetanu?",
        "tips": "Kolektivní pracovní činnost, roztřídění dokumentů a uspořádání písemností, vyčištění e-mailové schránky, seznamování se."
    },
    "libra": {
        "main": "Někomu z blízkých dáte jasně najevo, co si o něm myslíte. Odložíte tentokrát svou diplomacii a budete s ním jednat čestně, ale na rovinu. Po prvním šoku by to mělo dotyčného přimět k zamyšlení nad jeho chováním. Nechtěl by přijít o vaše sympatie.",
        "love": "Minulost vám může pocuchat současné vztahy. Máte-li za sebou nevyřešená partnerství, udělejte za nimi tečku co nejdříve.",
        "work": "Hrdost pro vás znamená víc než tučná výplatní páska. Dnes si nenecháte od nadřízených líbit jejich nadřazené jednání.",
        "relationships": "Pubertální jedinci by vaše kritická slova nemuseli vydýchat. Váš humorný přístup a nadhled je ale dokáže zpacifikovat.",
        "health": "Málokdo se s vaší kondicí může měřit. Máte spoustu fyzických i psychických sil a nepřekvapí vás žádné zásadní problémy.",
        "tips": "Inventura rodinných financí, kontrola bankovních výpisů, administrativní záležitosti, zápis do jazykového kurzu, zumba."
    },
    "scorpio": {
        "main": "V zaměstnání bude třeba zvládat více činností najednou. Nebude lehké ukočírovat je tak, abyste je všechny stihli včas. Odložte svou vrozenou nechuť svěřovat jakoukoliv práci druhému člověku. Podělte se o své úkoly a uvidíte, jak se vám uvolní ruce.",
        "love": "Uvědomíte si, co pro vás současný partner znamená. Podle toho přizpůsobíte víkendový program a budete se mu věnovat.",
        "work": "Kolegové vám dnes absolutně nestačí. Před víkendem jste plní energie a chuti stihnout tisíc věcí najednou. Klobouk dolů!",
        "relationships": "Doma se moc neohřejete, a když, jste duchem nepřítomni. Místo věnování se blízkým řešíte, jak zlepšit rodinný rozpočet.",
        "health": "Sportovní aktivity s dětmi vám ukážou, kde je vašemu tělu třeba pomoci. Začněte cvičit a nepodceňujte fyzioterapii.",
        "tips": "Umělecké aktivity, studium, rozhovor se šéfem, žádost o zvýšení platu, stěhování nebo rekonstrukce bydlení, posilování."
    },
    "sagittarius": {
        "main": "Budete mít potřebnou razanci prosazovat své vize. V práci můžete snadno dosáhnout ještě lepších výsledků než dosud, a to i díky spolupráci s ostatními kolegy. Nejvíce vás ale bude těšit, když budete moci druhým předávat své znalosti a zkušenosti.",
        "love": "Láska má v těchto dnech zelenou. S druhými lidmi umíte komunikovat a své city dáváte najevo. To vám seznámení usnadní.",
        "work": "Dnešní klima je příznivé pro učitele a přednáškovou činnost. Budete ve svém živlu, když budete moci školit své kolegy.",
        "relationships": "Večeře u jednoho stolu vám umožní, abyste si promluvili o všem, na co jindy nezbývá čas. Přijdete na jiné myšlenky.",
        "health": "Největší dopad na vás dnes bude mít stres v zaměstnání. Doma si dopřejte odpočinek podle svého gusta a nepřepínejte se.",
        "tips": "Pracovní prezentace, přednášková činnost, vyučování ostatních, rozšíření podnikání, navazování kontaktů, kulturní akce."
    },
    "capricorn": {
        "main": "Dnešek je vhodný pro chvíle ve dvou. Vaše sebevědomí v milostné oblasti stoupne. Díky Venuši jste atraktivní a snadno se seznamujete. Navíc vám bude přihrávat zajímavé jedince opačného pohlaví. Na nedostatek pozornosti si nebudete moci stěžovat.",
        "love": "Krátkodobým románkům dnes dáte sbohem a začnete žít zodpovědněji. Už vás nebaví plahočit se v lásce od čerta k ďáblu.",
        "work": "Po pracovní stránce šlapete jako dobře seřízený stroj a jste přesvědčeni o svém úspěchu. Konkurencí se nedáte ohrozit.",
        "relationships": "Práci si nosíte dokonce i domů a nemůžete se divit, že se to příbuzným nebude líbit. Myslí pouze na vaše dobro a zdraví.",
        "health": "Malá odpolední přestávka stačí na to, aby se vaše tělo zregenerovalo. Dnes se nebudete přepínat až do posledních sil.",
        "tips": "Odpověď na seznamovací inzerát, chatování, rande, společná masáž s protějškem, erotické experimenty, návštěva sexshopu."
    },
    "aquarius": {
        "main": "V popředí vašeho zájmu bude partnerský život. Rádi byste na sebe měli víc času, pohlcují vás ale pracovní povinnosti, které vám ukrajují velkou část dne. Jste-li oba na stejném pracovišti, je to ideální stav. Teď vám ponorkové stavy určitě nehrozí.",
        "love": "Dnes vám to opravdu sluší. Koutkem oka zaznamenáte, že po vás i nadřízený vrhá mlsné pohledy. Docela vám to polichotí.",
        "work": "Podpora životního partnera je pro vás velmi důležitá. Dnes vám vytvoří ideální podmínky pro úspěch v profesní oblasti.",
        "relationships": "Někdo z blízkých vás bude podezřele ignorovat. Nebude vám jasné, jestli je uražený, nebo dnes jenom není ve své kůži.",
        "health": "Patříte-li k lidem s vyšší sportovní aktivitou, mohou vám hrozit bolesti přetažených svalů. Nenakládejte si příliš.",
        "tips": "Založení účtu, program s partnerem, společný sport a saunování s následnou masáží, prohlížení videozáznamů a fotografií."
    },
    "pisces": {
        "main": "Z předchozího vztahu jste si vzali ohromné ponaučení a dáte si dobrý pozor, abyste stejné chyby neopakovali také v novém partnerství. Sice si nějaké stereotypy do čerstvé lásky vnesete, ale s protějškem jste natolik perfektní pár, že to zvládnete.",
        "love": "Únava ze zaměstnání vám nedovolí věnovat se partnerovi tak, jak jste měli v plánu. Radovánky budete muset mírně odložit.",
        "work": "Už jste vše promysleli a rodinnou radu při sestavování domácího rozpočtu prostě obejdete. Pozvete ji až k hotové věci.",
        "relationships": "Více se dnes orientujete na potřeby svých blízkých. Zabezpečení rodiny vám leží na srdci a uděláte pro něj maximum.",
        "health": "Strnulé zírání do počítače či do papírů očím nesvědčí. Dopřejte jim přestávky, aby vás nezaskočil třeba zánět spojivek.",
        "tips": "Playstation s dětmi, pedikúra, návštěva kosmetiky, vylepšování postavy díky plastické chirurgii i bez skalpelu, zubař."
    }
}