{
    "aries": {
        "main": "Hvězdy vám přichystaly vhodnou půdu pro nové pracovní tahy. Nebojíte se být velkorysí a rozmáchnout se pěkně do široka. Nebudete vyčkávat a sami si vyberete, koho z vaší branže oslovit. Můžete najít nové pracovní partnery, klienty i zaměstnavatele.",
        "love": "Také na poli lásky dnes budete mít ohromné množství sil. Ani velmi vyčerpávající den v zaměstnání na tom nic nezmění.",
        "work": "V pondělí si pozorněji všímáte rodinných výdajů. Není vyloučeno, že se konečně rozhoupáte k vedení domácí účetní knihy.",
        "relationships": "Z bezpečí domova dnes budete utíkat, jak jen to půjde. Raději než trávit večer s rodinou si někam vyrazíte s přáteli.",
        "health": "Jste sice ve formě, ale nepřetěžujte se příliš. Doplňujte vitaminy a stopové prvky formou lehkých zeleninových pokrmů.",
        "tips": "Prezentace profesních schopností, realizace podnikatelských plánů, oprava automobilu, založení spoření, masáž, pedikúra."
    },
    "taurus": {
        "main": "V milostném životě se vám během dne daří lépe než v tom pracovním. Z neúspěchů v zaměstnání proto utečete do náruče milované osoby. Nezadaní Berani pocítí šanci najít si nový protějšek. Postavení planet vám nabízí přímo ideální adepty na lásku.",
        "love": "Překvapí vás náruživost vašeho protějšku. Zároveň budete potěšeni, že jste pro něj beze všech pochyb stále atraktivní.",
        "work": "Kariérní úspěchy i štědré finanční ohodnocení vám dávají křídla. S novou chutí se rozletíte k ještě vyšším cílům.",
        "relationships": "Nemusíte mít dnes velké starosti o to, z čeho zaplatíte přání vašich blízkých. Může se objevit nečekaný zdroj příjmu.",
        "health": "Neváhejte dnes utužovat kondici už od samého rána, protože jinak nebudete stíhat všechno, co je teď zapotřebí.",
        "tips": "Diplomatické jednání, nerušený odpočinek, netradiční zážitky, péče o pokožku, oběd v restauraci, lázeňské procedury."
    },
    "gemini": {
        "main": "Začnou se objevovat nové pracovní možnosti. Jedinci, kteří už dlouho čekají na vhodnou příležitost, se mohou konečně dočkat. Je dokonce možné, že najednou nebudete vědět, které nabídce dát přednost. Bude užitečné to s někým probrat ze všech stran.",
        "love": "Vyhnete se vztahům bez perspektivy. Zapomenete na vzorec, podle něhož jste si doposud vybírali stejné typy partnerů.",
        "work": "Vaše schopnost pracovat je vynikající. Pokuste se ale všechny své zásadnější kroky konzultovat s životním partnerem.",
        "relationships": "Přesvědčíte svou rodinu o tom, že má ve vašem srdci své pevné místo, přestože máte i jiné povinnosti. Určitě to pochopí.",
        "health": "Jako samostatný pokrm, přílohu i do polévek zkuste pohanku. Vysoký obsah rutinu je maximální posilou pro cévní systém.",
        "tips": "Sebevzdělávání, pracovní pohovor, přestavba interiéru podle Feng Shui, práce se dřevem, zálohování složek v počítači."
    },
    "cancer": {
        "main": "V lásce dnes pocítíte nepřízeň hvězd. Jindy pohodový vztah zastíní první mráčky a hrozí vyšší možnost přeháněk a bouřek. Po nich se naštěstí vzduch zase pročistí a partnerství dostane nové grády. Podvečerní usmiřování vás vrátí do zajetých kolejí.",
        "love": "Svému protějšku dnes budete velmi pozorným a trpělivým posluchačem. Můžete si spolu popovídat na všechna možná témata.",
        "work": "Asi máte pocit, že za stejnou práci dostáváte zaplaceno méně. Vaše pracovní snahy by se měly zhodnotit za několik týdnů.",
        "relationships": "Situace se může začít vyvíjet ve váš prospěch. Měli byste se ovšem samostatně rozhodovat a pak si za svými názory stát.",
        "health": "Najdete způsob, jak si dokonale psychicky odpočinout. Možná vyzkoušíte zcela novou formu relaxace a už se jí nepustíte.",
        "tips": "Hledání lepšího zaměstnání, moderní formy hubnutí, půst a kompletní pročištění organismu, střihání vlasů, péče o pleť."
    },
    "leo": {
        "main": "Vaše pozitivní rozpoložení se z víkendu přenese i do začátku pracovního týdne. V zaměstnání se budete cítit velmi dobře, nahrává vám totiž pracovitý Mars. Pro vás to znamená nezdolnost a vytrvalost. Žádný úkol dnes pro vás nebude dost obtížný.",
        "love": "Seznamování vám nebude dělat žádný problém. Znáte své kvality, a tak s druhými flirtujete s naprostou samozřejmostí.",
        "work": "V oblasti práce se nyní těšíte výjimečné nebeské přízni. Byl by hřích toho nevyužít a lenošit, to vás ale ani nenapadne.",
        "relationships": "Silným sebevědomím můžete ostatní jak okouzlit, tak vyprovokovat. V kontaktu s okolím proto volte promyšlený přístup.",
        "health": "Pokud vás trápí alergie, nezapomínejte na pravidelné odborné kontroly. Zjistíte, zda nepotřebujete upravit dávky léků.",
        "tips": "Nedodělky v domácnosti, odzimování zahrady, nákup nových elektrospotřebičů, mytí oken, nákup čerstvých květin a bylinek."
    },
    "virgo": {
        "main": "Energie a elánu máte na rozdávání. V zaměstnání projevíte nebývalou samostatnost a rozhodnost. Díky zdravému sebevědomí si budete své nápady prosazovat zcela sami a i jejich realizaci zajistíte vlastními silami. Také doma dnes budete mít hlavní slovo.",
        "love": "Dnešek přeje odvážným chvílím ve dvou. Svůj protějšek potěšíte milostným nábojem a zvýšenou chutí k experimentování.",
        "work": "Po finanční stránce budete konzervativní a šetrní. Věnujete se jen nákupům osvědčeného zboží, ideálně v akční nabídce.",
        "relationships": "Doma vám připadá, že vás zavalilo množství nesmyslných úkolů. Suchá rutina je dnes pod vaší rozlišovací schopností.",
        "health": "Dnes po práci vyrazíte ven, i kdyby se tam čerti ženili. Cítíte, že pohyb v přírodě a čerstvý vzduch vás nabijí energií.",
        "tips": "Uzavření restů v zaměstnání, práce s moderní technologií, masáž z rukou partnera, výběr svůdného prádla, vydatný spánek."
    },
    "libra": {
        "main": "Na druhé dnes budete pohlížet přehnaně kriticky. K lidem ve vašem okolí budete mít spoustu výhrad a pocítíte potřebu navést je na správnou cestu, ideálně podle vašeho vlastního vzoru. Nechte si své názory raději pro sebe, vděku byste se nedočkali.",
        "love": "Pár skleniček alkoholu vás zbaví nejen celodenního stresu, ale i velké části zábran. Mohli byste pak být nadmíru družní.",
        "work": "Především učitelé a vědečtí pracovníci budou mít řadu stoupenců, kteří podpoří jejich názory. Očekávejte velký ohlas.",
        "relationships": "Zbytečně nerýpejte do věcí, které vám vadí u členů rodiny. V domácnosti byste tím mohli vyvolat pěkně dusnou atmosféru.",
        "health": "Sezení je věda. Základem je vhodná židle, ale o správné držení těla už se musíte postarat sami. Ve hře jsou vaše záda.",
        "tips": "Nákup elektroniky do domácnosti, obchodní schůzka s potenciálními investory, obchod s realitami, úklid automobilu."
    },
    "scorpio": {
        "main": "Na pracovišti oceníte přátelskou atmosféru a kamarádské vztahy s kolegy. Dostanete-li se do časové tísně, spolupracovníci vás v tom nenechají. V kolektivu zvládnete téměř jakoukoliv povinnost. Díky tomu přijdete domů včas a vyhnete se přesčasům.",
        "love": "Než si někoho pustíte do života, chcete ho dobře poznat. Poučili jste se z minulých zkušeností, které nebyly jen růžové.",
        "work": "Pracovně si budete připadat trochu přehlížení, či naopak terčem závisti. Začátek nového týdne tedy nebude nejrůžovější.",
        "relationships": "Budete mnohem průbojnější než obvykle. Díky tomu nebudete zbytečně skromní a dokážete své osobní přednosti dobře prodat.",
        "health": "Pohoda doma i na pracovišti vám zajistí vyrovnanou psychiku. Díky tomu se upřímně zasmějete každému žertu na svou adresu.",
        "tips": "Káva s kolegy, týmová práce, studium, kolektivní sporty, setkání s přáteli, telefonát příbuzným a pozvání na Velikonoce."
    },
    "sagittarius": {
        "main": "Hvězdy vám budou dodávat iniciativu a sílu se prosadit. Po profesní stránce vám nebude co vytknout. Vaše schopnosti i výsledky vaší práce budou ceněny velmi vysoko. Ve svém oboru si teď můžete vybudovat dobré jméno, na kterém budete dále stavět.",
        "love": "Miláček ocení, když mu dáte chvilku času pro sebe. Potřebuje se ponořit do svého vnitřního světa a utřídit si myšlenky.",
        "work": "Mělo by se vám naskytnout více vhodných pracovních příležitostí. Při hledání nového místa máte velkou naději na úspěch.",
        "relationships": "Rodina si o vás bude myslet, že jste tiší blázni. Překvapte je, promluvte na ně a řekněte ještě něco rozumného.",
        "health": "Hlavu mnohých Střelců zatěžují milostné problémy. Je jen na vás, zda to negativně neovlivní jiné oblasti vašeho života.",
        "tips": "Plnění náročných úkolů, prezentace osobních kvalit, pracovní pohovory, procházka cestou domů, chvíle s oblíbeným hobby."
    },
    "capricorn": {
        "main": "Práce vám v pondělí půjde od ruky skoro sama. Hvězdy jsou na vaší straně, a tak prvním pracovním dnem proplujete bez potíží. Na stole nemáte z poslední doby téměř žádné resty a do nových úkolů se pustíte s elánem. Ještě se budete na všechny usmívat.",
        "love": "Láska má zelenou. S druhými umíte zcela hladce komunikovat a své city dáváte najevo, takže bude seznamování hračkou.",
        "work": "Tušíte, že by stačilo málo a byli byste ve svém oboru ještě váženější či bohatší než teď. Jde jenom o vaše priority.",
        "relationships": "Domácí pohodu naruší spor kvůli banalitě. Zamyslete se, zda nemáte na konfliktu díl viny, a urychleně haste, co se dá.",
        "health": "Jestli dnes budete mít tu příležitost, tak si jděte zacvičit. Vyčistíte si hlavu a bude vám hned mnohem a mnohem lépe.",
        "tips": "Vedení týmu spolupracovníků, kontrola internetového bankovnictví, studium odborné literatury, domácí práce, procházka."
    },
    "aquarius": {
        "main": "Pondělí vás zastihne ve vynikající formě. Je ideální čas pro pracovní záležitosti, ovšem s jedinou podmínkou. Kroťte svou přebujelou výřečnost, jinak by se snadno mohla vyhrotit ve váš neprospěch. Pro dnešek se zuby nehty držte hesla - mlčeti zlato.",
        "love": "V lásce to bude chtít větší než malé množství taktu. Máte sklon jít na všechno silou a přehánět, i pokud jde o city.",
        "work": "Při finančních operacích a sepisování důležitých dokumentů buďte opatrní. Mějte na paměti, že se nevyplatí spěchat.",
        "relationships": "Když už se jednou pevně rozhodnete, nezabývejte se pak neplodným přemítáním o promarněných možnostech. Čas nevrátíte.",
        "health": "Váš organismus nyní potřebuje určité ohledy. Bude třeba dodržovat pravidelné životní tempo, každý extrém vám škodí.",
        "tips": "Samostatné pracovní činnosti, vedení týmu, podnikání, záskok za nemocného kolegu, pohybové aktivity, večerní relaxace."
    },
    "pisces": {
        "main": "V pracovní oblasti budete moci trochu polevit. V základní strategii máte jasno a řada věcí bude běžet samospádem. Díky tomu budete už jen dolaďovat provozní detaily. Svou pozornost dnes věnujete ideální organizaci a řízení svých pracovních úkonů.",
        "love": "V čerstvých vztazích dnes převáží fyzická přitažlivost a sexuální radovánky. Delší partnerství naopak ovládne stereotyp.",
        "work": "Většina Ryb bude v zaměstnání zažívat poklidné chvíle. Ačkoliv je pondělí, nikdo po vás nebude žádat vyhrocené výkony.",
        "relationships": "Budete se s potěšením věnovat společenskému životu. Rádi si prodloužíte víkend a zúčastníte se nějaké atraktivní akce.",
        "health": "Svaly na nohách posilujte přirozeným způsobem. Věnujte více času procházkám, zabruslete si nebo si vyšlápněte schody.",
        "tips": "Kontrola hospodaření s domácími financemi, údržba auta, cvičení v rychlém tempu - aerobic, zumba, bruslení, plavání."
    }
}