{
    "aries": {
        "main": "Hvězdy podporují vaši vytrvalost v práci i v lásce. Využijte jejich přízně pro realizaci náročných profesních plánů. Ozáří také oblast milostných vztahů a rozpustí všechny ledy. Pokud jste usilovali o něčí přízeň, teď by vám to mohlo konečně vyjít.",
        "love": "Budete si gratulovat, že po svém boku máte tak skvělého partnera. V jisté situaci by se každý druhý zachoval jinak.",
        "work": "Je vhodný čas pro vytrvalostní činnosti. S trpělivostí dokončíte, co jste započali, a uspějete v soutěživém kolektivu.",
        "relationships": "Společenská nálada vás večer táhne mezi lidi. Nezáleží na tom, zda je znáte, či nikoliv. Dnes se umíte bavit s každým.",
        "health": "Snažte se o dobrou koordinaci pohybů, nadměrná zbrklost by mohla vést k úrazům. Náchylné jsou zvláště končetiny a hlava.",
        "tips": "Realizace náročných profesních plánů, zahájení podnikání, oslovení zbožňovaného protějšku, návrh sestěhování či sňatku."
    },
    "taurus": {
        "main": "V zaměstnání se posunete v poznání svých spolupracovníků. Někteří z nich se nečekaně vybarví k lepšímu. Možná máte pocit, že mrháte časem, protože váš přínos nikdo nevidí. O to víc vás překvapí kolega, který vyzdvihne vaše výsledky před ostatními.",
        "love": "Mezi vámi a partnerem může dojít k ostřejší výměně názorů. Slovní přestřelka by mohla vyústit až v tichou domácnost.",
        "work": "Ve čtvrtek upevníte kolektiv spolupracovníků. Dáte se do společného díla a při plnění povinností se stihnete i pobavit.",
        "relationships": "Pro dnešek se stanete ideálními parťáky pro mladší sourozence a příbuzné. Udržujete krok s dobou a jste pro ně cool.",
        "health": "Něžnosti s partnerem vás opět uvedou do klidu. Hodit se to bude hlavně po psychicky vysilujícím týdnu v zaměstnání.",
        "tips": "Administrativní činnosti, servis a mytí automobilu, kontrola jeho vybavení, zábavné aktivity s dětmi, zdravotní cvičení."
    },
    "gemini": {
        "main": "Budete se cítit zamilovaní, jako by paprsky předjarního sluníčka rozehřívaly i vaše srdce. Partner vás začne přitahovat novým kouzlem či se můžete do někoho platonicky zakoukat. Nezadaní budou silně vnímat signály, které k nim vysílá opačné pohlaví.",
        "love": "Amorovy šípy vás zasáhnou přímo do srdce. Dlouhodobě zadaní Blíženci budou prožívat rozechvění jako na začátku vztahu.",
        "work": "Nezaměstnaní mohou narazit na ideální místo. Nejde vám pouze o finanční stránku, ale také o uplatnění vašich zkušeností.",
        "relationships": "Víte, že když k dětem zaujmete rovnocenný postoj, budete jim blíž. Rodičovskou autoritu nezískáte jen příkazy a zákazy.",
        "health": "Je možné, že přes veškerou námahu nakonec neuspějete. Vaše psychika však bude dost silná, aby se vyrovnala s neúspěchem.",
        "tips": "Tvůrčí činnosti, práce s mezilidským kontaktem, večerní intimní chvíle ve dvou, důvěrné rozhovory, vyznání citů, rande."
    },
    "cancer": {
        "main": "Potíže s kolegy nebo s nadřízeným nebudou mít ve čtvrtek dlouhého trvání. Vše se během krátké chvíle vyjasní. Nemáte problém uznat svou chybu nebo druhým vyjít vstříc. To vám dnes mezilidskou komunikaci výrazně usnadňuje, a to nejen na pracovišti.",
        "love": "Někdo z vašich známých se vám stále více duševně přibližuje. Je otázkou, zda vzklíčí přátelství, nebo láskyplný cit.",
        "work": "Většina Raků si v práci nejvíce cení mezilidských vztahů a materiální ohodnocení řeší až druhotně. Platí to i dnes.",
        "relationships": "I doma si s gustem z někoho vystřelíte. Může jít i o docela drsné kanadské žertíky, vždy však v rámci dobrého vkusu.",
        "health": "Dlouhé vysedávání u počítače příliš nesvědčí vašim očím. Nezřídka zjistíte, že potřebujete silnější dioptrické brýle.",
        "tips": "Vylepšování vztahů na pracovišti, zaškolení nového kolegy, úklid kanceláře, péče o pokojové rostliny, školení, sauna."
    },
    "leo": {
        "main": "Vaše pracovní výkony budou i dnes vynikající. Nadřízeným nedáte jediný důvod, aby si vás povolali na kobereček. Právě naopak, budou si vás a vašich výsledků mimořádně považovat. Uvědomují si, jaké s vámi udělali terno, a ocení vás ústně i finančně.",
        "love": "Je ideální den pro partnerské vztahy, proto si vyhraďte dostatek času pro svůj protějšek. Užijete si vzrušující večer.",
        "work": "Daří se tvořivým jedincům, pro něž není klíčový výdělek ani kariérní postavení. Většině se to ale poštěstí až po práci.",
        "relationships": "Večeře u jednoho stolu umožní, abyste si promluvili o všem, co vám leží na srdci. Někdo z rodiny si rád nechá poradit.",
        "health": "Vyšší hladinu energie využijte ke sportování všeho druhu. Možná že si na víkend zajistíte i lyžařský zájezd na hory.",
        "tips": "Zodpovědné pracovní činnosti, pohodová procházka v přírodě, návštěva příbuzných, výstava, domácí aromaterapie, meditace."
    },
    "virgo": {
        "main": "V práci máte sklon být na sebe příliš tvrdí. Opatrně, hrozí vám přepracování a následná podrážděnost, kterou by nejvíce odnesli vaši nejbližší. Když pojedete na doraz, síly vás brzy opustí. Efekt pak bude zcela opačný, než byste si představovali.",
        "love": "Venuše bude mít na vás blahodárný vliv. Na druhé pohlaví působíte mocnou přitažlivostí a v sexu jste ohnivě vášniví.",
        "work": "Nadřízení na vás mohou mít požadavky, které by znamenaly hodiny práce navíc. Než kývnete, posuďte své reálné možnosti.",
        "relationships": "Volnější pracovní tempo vám umožňuje věnovat maximum času rodině. Nadšeně to uvítají zejména její nejmenší členové.",
        "health": "Křehčí osobnostní typy Pannen by si měly dobře rozvrhnout síly. Nechcete přece pod silným pracovním tlakem zkolabovat.",
        "tips": "Seznamování se sympatickými lidmi, nákup drobných dárků, hravé odpoledne s dětmi, návštěvy milých příbuzných, relaxace."
    },
    "libra": {
        "main": "Je příhodný čas vypustit trochu horké páry. Mnoho jedinců bude bublat jako Papinův hrnec, který už už hrozí výbuchem. Když zmírníte svůj vnitřní přetlak, ochráníte sebe i okolí před hysterickou scénou. Ulevilo by se vám, ale vůbec byste si nepomohli.",
        "love": "Můžete se spolehnout na své osobní kouzlo, které vám bude všude otevírat dveře. Pozornost okolí si získáte velmi snadno.",
        "work": "Neodmítejte jen z hrdosti kolegy, kteří se nabídnou, že vám vypomůžou s vašimi úkoly. Přesčas vám za to určitě nestojí.",
        "relationships": "Než se pustíte do budování vlastní rodiny, připravíte si ty nejvhodnější podmínky. Nechcete do toho skočit bezhlavě.",
        "health": "Sport na čerstvém vzduchu na vás bude mít okamžitý pozitivní dopad. Jen pasivně nečekejte, až se vám nálada zvedne sama.",
        "tips": "Návštěva divadla nebo kina, flirtování s neznámými protějšky, pozvání nového kolegy na rande, výlet do města, pilates."
    },
    "scorpio": {
        "main": "Bude dobré věnovat se zaměstnání s velkou pozorností a vážností. Měli byste na sobě stále pracovat, aby vás nezaskočily žádné náročné výzvy. Alespoň se o to pokuste. I pouhou snahu nadřízení zaregistrují a mohou ji brát v potaz při ohodnocování.",
        "love": "Partnera se dnes můžete něčím dotknout, takže začne trucovat. Nezbude vám asi nic jiného než přijít za ním s omluvou.",
        "work": "Nové pracovní úkoly pro vás budou velkou výzvou. Nebojte se je přijmout a dělat to, co vás baví nejvíce. Půjde to!",
        "relationships": "Zrozence znamení Štíra, kteří dostanou chuť předvádět se ve společnosti, nic nezastaví. Dnes toužíte být za všech okolností jedničky.",
        "health": "Něco vás trápí, což se může odrazit na vašem trávicím ústrojí. Budete se cítit podle rčení, že vám něco leží v žaludku.",
        "tips": "Oběd s nadřízeným a kolegy, dokončení pracovních restů, brzký odchod domů, nákupy, úklid kuchyně, pečení pro kolegy, jóga."
    },
    "sagittarius": {
        "main": "Během dne se vrátíte k úkolům, které jste delší dobu odsouvali. Díky tomu budete mít šanci stihnout veškeré resty a zbavit se starých dluhů. Čistý štít v práci i domácnosti vám umožní pustit se do nových projektů s klidnou hlavou. Nic vás nestresuje.",
        "love": "Možná stále hledáte toho pravého. Přitom ve vašem okolí může být člověk, který by si zasloužil vaši bližší pozornost.",
        "work": "Všechno se daří, máte výtečnou náladu a okolí bavíte různými žerty. Některé mrzouty ve vaší blízkosti to může otrávit.",
        "relationships": "Někdo z rodiny vás zaskočí svou sloní pamětí. Předhodí vám vaše dávné chování či slova, která byste nejraději zapomněli.",
        "health": "Dnes budete potřebovat více času, abyste se patřičně zklidnili a mohli se soustředit na práci. Budete silně neposední.",
        "tips": "Upřímný rozhovor s partnerem, večeře v klidné restauraci, společné plánování budoucnosti, hry s dětmi, večerní relaxace."
    },
    "capricorn": {
        "main": "Jste trochu na vážkách, zda se nemáte pustit do milostného dobrodružství. Přepadají vás nebývale hříšné myšlenky. Je ale pravděpodobné, že u těchto vzrušujících představ také zůstane. Budete mít zábrany udělat rozhodující krok a nevěru zrealizovat.",
        "love": "Láskyplná Venuše nastolila zásadní otázky. Je třeba, abyste si uvědomili, co pro vás znamená láska a co sex.",
        "work": "Kvalitní odborné či jazykové kurzy nebývají levné. Vzhledem k vaší práci či podnikání ale mohou být skvělou investici.",
        "relationships": "Kontrolu domácích úkolů ratolestí přenechte partnerovi. Dnes nemáte dost trpělivosti na to, abyste potomky poučovali.",
        "health": "Neuvážené vztahy na jednu noc by vás mohly stát nejenom dobrou pověst, ale hlavně dobré zdraví. Buďte proto opatrní.",
        "tips": "Odvážné pracovní kroky, náročné sportovní aktivity, jednání s klienty, firemní večírek, zábava ve společnosti, tanec."
    },
    "aquarius": {
        "main": "Po pracovní stránce vám bude vyhovovat spíše rodinné klima. Pokud pracujete v malé firmě, kde se osobně zná každý s každým, budete ve svém živlu. Vše by mělo plynout zcela hladce. Vedete-li rodinný podnik, budete se cítit jako člověk na svém místě.",
        "love": "S partnerem si promluvíte o věcech, na které jindy nemáte čas. Oba jste velmi vstřícně naladění, takže hádky nehrozí.",
        "work": "V zaměstnání nedáte dopustit na týmovou práci, mezi kolegy vám bude nejlépe. Jako nadřízení budete vstřícní a shovívaví.",
        "relationships": "V mezilidských vztazích bude všechno plynout hladce a v poklidu. S kýmkoliv teď budete schopní se přátelsky domluvit.",
        "health": "Nezapomeňte pravidelně doplňovat tekutiny. Dehydratace by měla za následek nepříjemné bolesti hlavy a nesoustředěnost.",
        "tips": "Preventivní prohlídka u lékaře, týmová práce, oběd s kolegy, vyzvednutí dětí ze školy, karetní hry s rodinou, kino."
    },
    "pisces": {
        "main": "Je ideální čas pro tvůrčí rozlet. Budete mít přebytek nápadů pro kreativní pracovní činnosti. Pokud vám vaše profese může nabídnout jen rutinu, budete se realizovat třeba v nápadité úpravě svého pracovního prostoru či při jarní výzdobě příbytku.",
        "love": "Přátelství se daří, ale partnerství pro vás bude spíše neznámou půdou. Chování protějšku dnes nebude moc průhledné.",
        "work": "Mnozí zrozenci Ryb se dnes ujistí, že jsou v mnohých tvůrčích oborech nadprůměrně talentovaní. Zvýší jim to sebevědomí.",
        "relationships": "Uděláte vše pro to, aby vaše domácí prostředí bylo na jaro útulné a harmonické. Zapojíte svou fantazii i tvořivost.",
        "health": "Od rána vás bude honit mlsná. Oběd v práci vás neuspokojí. Cestou domů nakoupíte a překvapíte rodinu labužnickou večeří.",
        "tips": "Kreativní pracovní činnosti a koníčky, vylepšování pracoviště, vytřídění složek v počítači, malování, tvůrčí psaní."
    }
}