{
    "aries": {
        "main": "Budete se moci těšit z práce, která pro vás bude zcela nová. Můžete si sice připadat jako nezkušený nováček, ale místo trémy budete plni zájmu a příjemných očekávání. Nová činnost bude totiž náročná, ale také obsahově tvůrčí a vnitřně vás obohatí.",
        "love": "Hvězdy přejí erotice. Na partnera pohlédnete očima plnýma nového zájmu. Zamilované páry zatouží naplnit svůj vztah.",
        "work": "Nechali jste se ukolébat nedávnými úspěchy. Nic ale netrvá věčně, měli byste na sobě zase zapracovat. Hleďte dopředu.",
        "relationships": "Změna bydlení se dotkne fungování celé rodiny. Pokud uvažujete o dalekém stěhování, zeptejte se také na názor svých dětí.",
        "health": "Fyzické vypětí je pro vás každodenním chlebem. Dnes se k tomu připojí i psychická únava. To už si vyžádá důkladný relax.",
        "tips": "Dotahování dlouhodobých pracovních projektů, uspořádání důležitých písemností, společenské aktivity všeho druhu, sport."
    },
    "taurus": {
        "main": "V práci se teď nazlobíte více než jindy. Bude potřeba si opakovat, že se neděje žádná tragédie. Aby vás pracovní starosti nepřeválcovaly, měli byste si od nich udržet odstup. Co takhle vzít si dovolenou a zmizet na chvíli za hranice všedních dnů?",
        "love": "Cestování možná nebude váš nápad, necháte se nadchnout přítelem nebo známým. Nakonec za tento impulz budete vděční.",
        "work": "Vyhradíte-li si čas a vyměníte pracovní prostředí za atraktivnější místa, nebudete litovat. Udělejte si jarní prázdniny.",
        "relationships": "Rodina na vás vidí pouze klady. Dnes vás podporuje všemi možnými a dostupnými způsoby. Příliš si toho však nevážíte.",
        "health": "Sice nemáte chuť na nějaké sportovní aktivity, ale pak si řeknete, že zdravý pohyb ještě nikoho nezabil. Dodá vám to energii.",
        "tips": "Den volna, dovolená, zájezd, kolektivní cvičení, sestavení osobního tréninkového plánu, kontrola u lékaře, odpočinek."
    },
    "gemini": {
        "main": "Úterý přináší nutnost řešit domácí spory otevřeným rozhovorem. Pokud jste jen zarytě mlčeli či naopak usilovně oponovali, už to takhle dál nepůjde. Proberete záležitosti, které mezi vámi dělají zlou krev, a najdete řešení, které uspokojí obě strany.",
        "love": "Kamarádi vám pomohou vymotat se ze složité situace. Dobré známé máte ve všech odvětvích, stačí jen zvednout telefon.",
        "work": "Investice a různé nabídky fondů vám zamotaly hlavu. Reálně si spočítejte, kolik můžete investovat, abyste neohrozili svůj rozpočet.",
        "relationships": "Přerozdělíte finance a dětem o nějakou korunku přilepšíte. Chcete, aby se naučily s penězi hospodařit už v útlém věku.",
        "health": "Než byste se potili ve fitku, raději uděláte něco pořádného doma. Protáhnete si svaly a ještě ušetříte za drahou posilovnu.",
        "tips": "Sportovní aktivity, návštěva veterinární ordinace s domácím mazlíčkem, domácí úkoly dětí, kurz cizího jazyka, vaření a pečení."
    },
    "cancer": {
        "main": "Nacházíte se v období, kdy dokončujete nějakou větší práci. Stálo vás to mnoho úsilí, ale teď už si můžete začít užívat sladkou chuť úspěchu. Chce to ovšem ještě doladit poslední detaily, tak nepolevujte těsně před cílem, ať je výsledek dokonalý.",
        "love": "Oslavy a setkávání se s přáteli si nenecháváte pouze na víkend. Dnes si společně užijete pohodový večer plný zábavy.",
        "work": "Jste nasměrovaní k tomu správnému kariérnímu cíli. V práci se vám mimořádně daří a jste nenahraditelnou součástí firmy.",
        "relationships": "Chod rodiny se bez vaší přítomnosti nezastaví. Nikdo však vaše časté pozdní příchody ze zaměstnání nevítá s nadšením.",
        "health": "V zaměstnání si najdete chvilku k odpočinku a vydatnému obědu. Pozitivní změna životosprávy vaše tělo krapet rozmazlila.",
        "tips": "Změny zaměstnání, povýšení, školení, služební cesty, oběd s obchodními partnery, večerní zábavné aktivity s rodinou."
    },
    "leo": {
        "main": "Protějšek vám bude připadat neprůhledný a záhadný. Nebudete vědět, jakou taktiku na něj zvolit. Pravděpodobně se budete muset spokojit s metodou pokus - omyl. Na vztahy žádné manuály nejsou, můžete se spolehnout jenom na svou intuici a zkušenost.",
        "love": "Rodina je pro vás synonymem stability, lásky a zázemí. Dnes si s nimi přijdete otevřeně promluvit o svém skomírajícím vztahu.",
        "work": "Pokud ještě hledáte práci svých snů, otevřete dnes internetové stránky. Právě tam můžete objevit nabídku, po které dlouho toužíte.",
        "relationships": "Všímejte si chování svých blízkých. Můžete v něm postřehnout náznaky starostí, se kterými se vám zatím váhají svěřit.",
        "health": "Nějaké starosti má každý. Když se k nim ale budete točit zády, samy se nevyřeší. Zato budete žít v permanentním stresu.",
        "tips": "Opravy a mytí auta, vylepšování vašeho plechového miláčka, nákup moderní techniky do domácnosti, malé úpravy interiéru."
    },
    "virgo": {
        "main": "V rodině budete celkem kritičtí. Doma nesnesete ani stopu chaosu či nepořádku a hlavně potomci vás mohou vnímat jako pedanta. I když to v zásadě myslíte dobře, bude zapotřebí slevit z vašich náročných požadavků. Nakonec tím posloužíte také sami sobě.",
        "love": "Milostný život skřípe a potřeboval by krapet napravit. Protějšek chce vás, nikoliv tučné, ale neosobní bankovní konto.",
        "work": "Práce je dnes na první příčce vašich hodnot. Materiální zajištění je nezbytné, abyste se mohli zabývat ostatními věcmi.",
        "relationships": "Od rána si vymýšlíte jednu pracovní aktivitu za druhou a nejste k zastavení. Nenuťte ale ostatní, aby se k vám přidali.",
        "health": "Nevhodně zvolená obuv může na vašich nohou napáchat značné škody. Nešetřete na kvalitě a vybírejte správnou velikost.",
        "tips": "Meditace, ajurvédská masáž, návštěva sauny, kreativní práce v domácnosti, kontrola faktur, omalovánky pro dospělé."
    },
    "libra": {
        "main": "Můžete se těšit z dobrých konstelací. V zaměstnání si budete užívat svého místa na výsluní. Úspěchů jste se domohli výhradně vlastními silami. Úterý vám přinese přízeň nadřízených, obdiv kolegů a poklidný průběh pracovního dne. Co víc si ještě přát.",
        "love": "Vyvarujte se jakýchkoliv zbytečných konfliktů. Zkazili byste si pohodovou náladu, která se vás bude držet už od rána.",
        "work": "Konečně se vám podařilo dokončit velkou dílčí práci. Nesnažte se hned vrhat do dalších aktivit a vychutnejte si úspěch.",
        "relationships": "K vašemu dobrému naladění přispějí i potomci. Pochlubí se školním prospěchem nebo jinými úspěchy z oblasti jejich zájmů.",
        "health": "Udělejte si pauzu. Než zahájíte další lopotné období, chvíli žijte bezstarostně. Užívejte si zaslouženě plodů své práce.",
        "tips": "Důležitý rodinný rozhovor, návštěva psychologa, čtení knih a časopisů, společenské hry, kreslení s dětmi, jóga."
    },
    "scorpio": {
        "main": "Buďte opatrní při hodnocení členů vaší rodiny, máte sklon dělat unáhlené a emotivní soudy. Mohli byste se dopustit nespravedlnosti. Na každém raději hledejte to dobré, i když to může stát námahu. Za několik dnů navíc situaci uvidíte mnohem pravdivěji.",
        "love": "V komunikaci s partnerem budete potřebovat trpělivost a rozvahu. V opačném případě si raději zamkněte ústa na zámek.",
        "work": "Budete se velice těšit do zaměstnání. Práce vás baví a jste přesvědčeni, že se s novými výzvami popasujete úspěšně.",
        "relationships": "Možná zažíváte hněv k někomu v rodině. O příčině svého rozladění byste teď neměli mluvit. Zkuste předem vychladnout.",
        "health": "Vaše tělo má zvýšenou tendenci vytvářet si zásoby, takže nyní snáze přiberete na váze. Volte vhodnou skladbu potravin.",
        "tips": "Plánování letní dovolené s partnerem, nákup nových sezonních svršků, pořízení čerstvých bylinek a květin do domácnosti."
    },
    "sagittarius": {
        "main": "Dnes se snadno necháte ovlivnit názory milované osoby. Hlavně zamilovaní Střelci, kteří pro někoho ztratili hlavu, budou mít problém ji používat. Půjde-li o banality, nic se neděje. V zásadních věcech by vás ale pak mohlo mrzet, že jste ustoupili.",
        "love": "Hlavu vám může zamotat záhadný cizinec - přesně jak to stojí v románech. Naštěstí vás neopustí ani střízlivý rozum.",
        "work": "Dnes se vám moc nedaří soustředit se delší dobu na jednu věc. Nakonec vzdáte marnou snahu a uděláte jen to nejnutnější.",
        "relationships": "Domácnost a rodina pro vás představuje pocit zázemí a jistoty. Dnes se budete těšit, až za sebou zavřete dveře domova.",
        "health": "Vaše schopnost koncentrovat se na jeden úkol dnes nebude příliš valná. Střídání činností a pravidelné pauzy vám pomůžou.",
        "tips": "Umělecké aktivity (fotografování, malování, ubrousková technika), návštěva jazzové kavárny či vinárny, asijská večeře."
    },
    "capricorn": {
        "main": "Jarní generální úklid podniknete nejen doma, ale i ve svém životě. Budete se snažit o odstraňování všech zbytečností. Zbrklejší jedinci by si měli uvědomit, že jde o dlouhodobý proces - každý den zrušíte, ukončíte či vyhodíte jen jednu dílčí část.",
        "love": "S nejbližšími přáteli si popovídáte o minulé etapě svého života. Získáte potřebný nadhled a nové impulzy do budoucna.",
        "work": "Firemní úspěchy vás upřímně těší a dodávají vám sebevědomí. Je to přece i vaše zásluha, že se firmě daří prosadit.",
        "relationships": "Na paškál si vezmete i vztahy. Možná zjistíte, že některé vás jenom zatěžují a berou vám energii. Chcete si je ponechat?",
        "health": "Pokud jste propadli schraňovací mánii ve stylu - jednou se to může hodit, bude úklid krušný. Výsledek ale stojí za to.",
        "tips": "Brzký odchod ze zaměstnání, partnerské něžnosti, romantická večeře, večerní procházka městem, dlouhý a vydatný spánek."
    },
    "aquarius": {
        "main": "Pokud se dnes budete nějak veřejně projevovat, vyplatí se alespoň rámcová příprava. Čistá improvizace teď nebude vaší silnou stránkou. Můžete pocítit nejistotu při volbě nejvhodnějších slovních obratů. Také profese pracující s textem se více zapotí.",
        "love": "Pokoušíte se svého partnera zkoumat ze všech úhlů, ale to je možná chyba. Snažte se spíše posilovat domácí harmonii.",
        "work": "Pokud by to bylo možné, z práce byste kvapem utekli. Čím více povinností se na vás sype, tím méně chuti pracovat cítíte.",
        "relationships": "Sebekriticky uznáte, že jste něco pokazili, a pustíte se neprodleně do nápravy. Váš zodpovědný přístup přinese ocenění.",
        "health": "V posilovně dnes nepřeceňujte svoje síly. Namožené svaly na celém těle vás mohou naprosto vyřadit z fyzické činnosti.",
        "tips": "Lechtivé telefonáty partnerovi, příprava lahodné večeře plné afrodiziakálních potravin, postelové hrátky, učení se na zkoušku."
    },
    "pisces": {
        "main": "Můžete být plačtiví a dojímat se sami nad sebou. Nyní potřebujete citovou podporu od empatických lidí. Měli byste vyhledat osobu, která pro vás bude mít pochopení. Neduste v sobě své starosti. Když se někomu svěříte, scvrknou se nejméně na polovinu.",
        "love": "Své naděje možná vkládáte do osob, které si to nezaslouží. Třeba si s vámi jenom hrají a zkoušejí, kam až můžou zajít.",
        "work": "V zaměstnání se držíte při zdi a netroufáte si na větší pracovní výzvy. Sbíráte síly pro profesní růst na lepší období.",
        "relationships": "Najdete člověka ochotného vyslechnout si vaše osobní potíže. Jen pozor, abyste ho příliš nevyčerpali svým negativismem.",
        "health": "Při rekapitulaci své minulosti uvidíte hlavně to, co se nepovedlo. Pokuste se o větší objektivitu a najděte světlé body!",
        "tips": "Návštěva příbuzných či přátel, konzultace s psychologem, uvolňující masáž lávovými kameny, thajská masáž, lekce jógy."
    }
}