{
    "aries": {
        "main": "Měli byste se pokusit najít si více času pro sebe a trochu si od práce odpočinout. Neváhejte odložit méně důležité povinnosti na jiný termín. V zaměstnání vám nic neuteče, ale život utíká a vy ho nevnímáte. Všimli jste si vůbec, že jaro už je tu?",
        "love": "Věnujete se své drahé polovičce. Co se škádlívá, rádo se mívá, takže si nenecháte ujít příležitost k aprílovému žertíku.",
        "work": "Raději vynechte náročné činnosti, nebo se je alespoň nesnažte nijak odbýt. Dnešek prověří váš smysl pro detailní práci.",
        "relationships": "Rozhodně vás nikdo nemůže nazvat nudným patronem. Naopak budete hlavním strůjcem zábavy, jak se na aprílový den patří.",
        "health": "Pokud uvažujete o jarní dovolené, je to velice dobrý nápad. Jinak si povolte otěže alespoň doma po příchodu z práce.",
        "tips": "Brzký odchod ze zaměstnání, nákupy na víkend, večer s vašimi nejmilejšími, společná večeře a procházka, sledování filmů."
    },
    "taurus": {
        "main": "V zaměstnání po vás budou nadřízení žádat hlavně drobné úkony, což je v rozporu s vaším současným elánem. Nakonec jim ale spíše poděkujete, protože vám umožní odejít domů včas. Přesto nepolevujte v pozornosti, i na malém prostoru se dá mnoho pokazit.",
        "love": "Na novou lásku to dnes nevypadá. Museli byste slevit ze svých nároků a zalovit ve vodách, do nichž se jindy nevydáváte.",
        "work": "Vychutnáváte si přízeň nadřízených a snažíte se z ní vyzískat něco pro sebe. Pozor, aby vaše snahy nebyly příliš okaté.",
        "relationships": "Klima nahrává méně ambiciózním Býkům, kteří před přesčasy upřednostňují volné chvíle s rodinou. Užívejte si spolu jara.",
        "health": "Jaro má na vás blahodárný vliv. Daří se vám udržovat pozitivní myšlení a tím si držet stres daleko od těla. Jen tak dál.",
        "tips": "Online navazování nových kontaktů, hovory s partnerem či blízkými přáteli, společný večer, relaxační techniky."
    },
    "gemini": {
        "main": "Můžete se těšit z báječně rozvinuté fantazie, která dnes opravdu nezná hranic. Vzhledem k dnešnímu datu ji můžete využít třeba při vymýšlení aprílového žertíku pro někoho z blízkých. Určitě bude originální a ani trochu škodolibý. Nebo přece jen ano?",
        "love": "V oblasti lásky budete spíš odtažití. Hodně záleží na přístupu vašeho protějšku, zda vás z vaší ulity vytáhne na světlo.",
        "work": "Dnes se raději spolehněte na kamenné obchody a odvraťte zrak od výhodných akcí a velkých slev z internetu. Riskujete zklamání!",
        "relationships": "Blíženci se u rodinného krbu moc dlouho neohřejí. Vadí vám výčitky někoho z rodiny, a tak se raději vytratíte do společnosti.",
        "health": "Hlavu si provětráte na kole či inline bruslích. Sportujte ale jenom rekreačně, namožené svaly by vám zítra vadily i při chůzi.",
        "tips": "Dřívější odchod z práce, porovnávání cen spotřebičů do domácnosti, masáž z rukou partnera, koupel, večeře z donáškové služby."
    },
    "cancer": {
        "main": "Luna podpoří vaši poztrácenou psychickou stabilitu. Vaše nová duševní vyrovnanost se projeví i v práci. Budete ke všem milejší a začnete se více usmívat i na klienty. Prožijete den plný příjemných mezilidských kontaktů a utužíte pracovní vztahy.",
        "love": "Mnohé jedince poznamenal minulý vztah. Je možné, že teď díky sympatickému protějšku na prožité strasti rychle zapomenou.",
        "work": "Ke své práci potřebujete klidnou pracovní atmosféru. Pokud někdo vyvolává konflikty, jste nekompromisní a hned zjednáte nápravu.",
        "relationships": "Zavřete se doma před celým světem a uděláte si večer jenom sami pro sebe. K absolutní pohodě vám schází už jenom dobré jídlo.",
        "health": "Ve zdravém těle zdravý duch, ale platí to i obráceně. Uklidňujte svou duši všemi způsoby, život hned bude jednodušší.",
        "tips": "Kulinářské aktivity, online návštěva rychlokurzu vaření, brouzdání po internetu, telefonování s rodiči a vzdálenou rodinou."
    },
    "leo": {
        "main": "V první den nového měsíce se začnou objevovat větší pracovní možnosti. Jedinci, kteří už dlouho čekají na vhodnou příležitost, se mohou konečně dočkat. Je možné, že najednou nebudete vědět, které nabídce dát přednost. Bude užitečné to s někým probrat.",
        "love": "Setkání s partnerovými rodiči proběhne překvapivě na výbornou. Nemusíte ze sebe dělat někoho, kým se sami necítíte být.",
        "work": "Již delší dobu vás trápí výše rodinného rozpočtu a otázka: Kde ušetřit? Nespoléhejte se hlavně na rychlé půjčky za vysoké úroky.",
        "relationships": "Rodině jste slíbili drobné nákupy a dnes svůj slib dodržíte. Neodpustíte si ani malý žertík, vzhledem k dnešnímu dni.",
        "health": "Dopřejte si vydatnou snídani. Hrozí, že budete po zbytek dne odkázáni jen na to, co se vám podaří v rychlosti slupnout.",
        "tips": "Resty v zaměstnání, práce s moderní technologií, nákupy přes internet, kontrola domácí kasy, večerní rozmazlování partnera."
    },
    "virgo": {
        "main": "Po pracovní stránce se bude dařit spíše méně citovým jedincům. Úspěšné budou osoby s analytickou profesí a i ostatní budou muset nažhavit své mozkové závity. Ale pozor, ve vztazích se naopak přílišné analyzování nedoporučuje! Tam uspějete s empatií.",
        "love": "Nenecháte se dnes vyvést z míry nepředpokládanými záležitostmi. Ani protějšek vás se svým překvapením nijak nezaskočí.",
        "work": "Doženou vás resty, které jste nechali nahromadit. Termíny už hoří a nedovolí vám utéct z práce dřív, ba právě naopak.",
        "relationships": "Společné témata k rozhovoru si najdete vždy. Nedělá vám problém seznámit se ani s úplně cizími lidmi a započít tak nové přátelství.",
        "health": "Mnozí z vás se budou cítit nadupaní energií a plní adrenalinu. Hlídejte si krevní tlak a snažte se předcházet úrazům.",
        "tips": "Posezení s přáteli, netradiční ochutnávky vín nebo piv, kouzlení v kuchyni, aerobní cvičení a protahování těla, jarní detox."
    },
    "libra": {
        "main": "Vaše milostné touhy budou podporovány jak hvězdami, tak dnešním datem. Protějšek by se měl připravit na to, že budete smyslní a dovádiví nejen v lásce. Na své poměry se slušně odvážete a vyvedete ho mimořádně povedeným aprílem. Kdo by to do vás řekl!",
        "love": "Věrnost není vaší dnešní silnou stránkou. Aspoň v říši fantazie se oddáváte tajným schůzkám a milostnému dobrodružství.",
        "work": "Většina Vah v současnosti hraje v práci prim. Budete hodnoceni jako velmi výrazná osobnost, kterou je třeba brát vážně.",
        "relationships": "Vaše obvyklá společenská nálada je dnes pryč. Vstávali jste asi nesprávnou nohou, a tak budete po celou středu uzavření.",
        "health": "Energie máte víc, než potřebujete. Ve výsledku to pak může vypadat, že nevíte, co s ní. Šetřete si ji i pro partnera.",
        "tips": "Překonání konkurence v práci, rozmazlování protějšku, žhavé sms nebo e-maily, překvapivé zaslání květin nebo vynikajícího obědu."
    },
    "scorpio": {
        "main": "Hvězdy vám to v milostných vztazích neulehčují. Budete hůře projevovat vášeň, i když třeba uvnitř vřete jako sopka. Nyní obtížněji vyjadřujete své city, takže se nemusejí dostat k adresátovi. Ještě že existují způsoby, ke kterým slova nepotřebujete.",
        "love": "Jakmile si na vás partner neudělá tolik času, kolik očekáváte, bude oheň na střeše. Dnes ho chcete mít sobecky pro sebe.",
        "work": "Chystáte-li se vrhnout do plamenné pracovní debaty, mějte předem připravené aspoň základní argumenty. Budete ve výhodě.",
        "relationships": "Protějšek i rodina mají pocit, že sdílí domácnost s netopýrem nebo duchem. V poslední době vás před setměním nevídají.",
        "health": "Díky starostem s váhou se vám podaří srovnat jídelníček do vyvážené podoby. Můžete si občas s klidným svědomím zahřešit.",
        "tips": "Práce v domácnosti, čtení knih a časopisů, nákup dekorace do domácnosti, narozeninová párty v kruhu rodiny, brouzdání jarní přírodou."
    },
    "sagittarius": {
        "main": "Na pracovišti budete v novém měsíci vyčnívat z davu. Opačné pohlaví vás bude považovat za jedince, kteří si jdou pevně za svým cílem. Vaše rozhodné jednání bude imponovat hlavně osobám, které obdivují dominantní protějšky. Dnešním šarmem jim zamotáte hlavu.",
        "love": "Středa přináší v lásce samá příjemná zjištění. Nový přírůstek do rodiny nebo společné bydlení jsou pouze krátkým výčtem.",
        "work": "V práci budete udávat krok ostatním, a to krok velice svižný. Pod vaším vedením v sobě začnou objevovat netušené síly.",
        "relationships": "Okolnosti na domácí půdě vás budou nutit všechno komentovat. Než však cokoli řeknete, ujistěte se, že děláte dobře.",
        "health": "Nelákal by vás svůdný flirt dance či orientální břišní tance? Rozhýbáte se, uvolníte, pobavíte a doma ohromíte partnera.",
        "tips": "Online pracovní prezentace, naplánování úprav interiéru nebo zahrady, milostné schůzky a vyznání se z citů."
    },
    "capricorn": {
        "main": "Středa může být náročnější pro domácí pohodu. Mnozí Kozorozi se budou cítit plní neklidu. Obvyklé chování vašich blízkých vás dnes může popuzovat. Pro klid v rodině bude lepší, když se zdržíte kritických komentářů a zaměříte svou pozornost jinam.",
        "love": "Dnes nemáte náladu na přítomnost přátel ani svého miláčka. Toužíte být jenom sami se sebou a chcete si uspořádat své myšlenky.",
        "work": "V práci dnes zažijete zklamání. Lidé, kteří se doposud tvářili jako přátelé, ukázali svoji pravou tvář. Nepouštějte si k tělu každého!",
        "relationships": "V oblasti vztahů budete poněkud mrzutí. Není divu, když se vám v hlavě rojí myšlenky na nepříjemné pracovní záležitosti.",
        "health": "Nezatracujte relaxační hudbu, existuje mnoho jejích variant. Kromě hudby či zpěvu můžete poslouchat také zvuky přírody.",
        "tips": "Plánování rozjezdu podnikání, setkání s příbuznými, malá rodinná oslava, kolektivní slevy, plánování víkendového programu."
    },
    "aquarius": {
        "main": "Uprostřed pracovního týdne zjistíte, že jste mnohem oblíbenější, než jste si dosud mysleli. Přátelská atmosféra na pracovišti a pohodové vztahy se sousedy nejsou dílem náhody. Procházíte spokojeným obdobím, a tak se k blízkým chováte lépe než dříve.",
        "love": "Oslava narozenin někoho z přátel si vyžádá, abyste pořídili dárek. Chcete dotyčnému udělat radost, a tak ho budete hledat dlouho.",
        "work": "S partnerem prožíváte velkou krizi ohledně rodinného rozpočtu. Vaše žebříčky hodnot jsou evidentně někde jinde. Vsaďte na kompromis.",
        "relationships": "I v rámci rodinných vztahů se musíte víc snažit, aby komunikace probíhala bez problémů. Kritizování si nechte na jindy.",
        "health": "Středeční odpoledne věnujete relaxu. Potřebujete se dostat do psychické pohody, což se vám zatím nedaří kvůli potížím v práci.",
        "tips": "Důsledná pracovní příprava, procházka cestou domů, posezení s rodinou u dobrého filmu, rozmazlování protějšku, četba."
    },
    "pisces": {
        "main": "Jste vystaveni vysokému pracovnímu tempu, které zvládáte také díky milým chvílím s vaší rodinou. Jste teď hodně upovídaní a komunikativní schopnosti se snažíte rozvíjet i u svých dětí. Víte, že kdo dokáže zaujmout druhé, ten se v životě neztratí.",
        "love": "Lásku dnes berete jako hru, ale nepředpokládáte, že byste mohli prohrát či být vyřazeni pro podvod. Jaká máte pravidla?",
        "work": "Středa přeje hledání nové práce i změnám v současném zaměstnání. Nebojte se udělat první krok, hvězdy vám nyní přejí!",
        "relationships": "Starostlivá péče rodiny vás po příchodu z práce dostane z nejhoršího. Možná se nakonec zmůžete i na společný program.",
        "health": "Pouštíte se do věcí, které by vám měly být zapovězeny. Oprava elektroinstalace a práce ve výškách neslibují nic příjemného.",
        "tips": "Povídání s dětmi, vypravování historek a vtipů, společné čtení, zevrubný úklid, kolektivní i individuální druhy sportů."
    }
}