{
    "aries": {
        "main": "Váš partner zřejmě dnes není v takové formě jako vždy. Zkuste ho dnes zbytečně nedráždit svým humorem, protože by to také nemusel vzít v pohodě a konflikt by byl na světě. Raději vyhledejte společnost přátel, kteří si z vašich vtípků nic nedělají.",
        "love": "Máte tendence se škodolibě trefovat do svého partnera, ale to není nejlepší taktika pro dnešní den. Můžete překročit hranice.",
        "work": "Pozorně si v práci všímejte změn, je možné, že i na vás čeká vaše vytoužené povýšení nebo přesunutí na lépe placenou pozici.",
        "relationships": "Místo toho, abyste se na své milé doma zlobili, zkuste přijmout také jejich odlišné názory. Je možné, že jsou opravdu dobré.",
        "health": "Při venčení pejska nezapomeňte na kvalitní obuv. Především tehdy, máte-li v plánu delší procházku v přírodním terénu.",
        "tips": "Kempování, karetní hry, cvičení jógy v parku, četba nové knihy, koupání v rybníce, plážový volejbal, ping-pong."
    },
    "taurus": {
        "main": "Hodně energie, která se nyní kolem vás nahromadila, vám nedělá dobře. Navíc není pozitivní a věci se díky tomu začínají komplikovat. Dejte si pozor na slovní projevy, které by vás mohly stát dokonce i pracovní místo nebo doposud fungující vztah.",
        "love": "Dnes se mohou přihodit věci, které byste zatím v lásce neočekávali. Musíte ale zachovat především klid a pevné nervy.",
        "work": "Dejte si dnes pozor na nahromaděnou negativní energii. Ta vás může strhnout a v práci se se šéfem můžete hodně pohádat.",
        "relationships": "Bude fajn, když se doma vyčistí vzduch. Dlouhodobé spory všechny zúčastněné jen vyčerpávají a rozvracejí rodinu.",
        "health": "Pokud vás trápí nadváha, léto je fajn, že můžete upravit jídelníček a ještě vám bude chutnat. Konzumujte ovoce a zeleninu.",
        "tips": "Generální úklid domácnosti, nákup menšího nábytku z bazaru, lakýrnické a čalounické práce, podvečerní grilování s přáteli."
    },
    "gemini": {
        "main": "Rozruší vás uvědomění, že váš plat není takový, jak byste si představovali. Navíc za vaše výkony. Bude dobré, když si rozmyslíte, jak o tom budete hovořit s nadřízeným. Určitě to ale nedělejte hned dnes. Dejte si čas na přípravu a také na sebrání odvahy.",
        "love": "Ve vztazích se tedy nenudíte. Pozvánky do společnosti musíte skoro odmítat, i když velmi neradi. Jste pro každou legraci.",
        "work": "Považujete své pracovní výkony za nadstandardní, ale plat tomu neodpovídá. Vaše nespokojenost s výplatou bude pomalu narůstat.",
        "relationships": "I když se vám to tentokrát nezdá, tak se vše opět doma dá brzy do pořádku. Jen dnes neztrácejte nervy a dobrou náladu.",
        "health": "Při čtení dbejte na dobré a především správné osvětlení. Jinak budete svůj zrak zbytečně namáhat a unavené oči budou bolet.",
        "tips": "Založení spořicího účtu pro děti, kontrola soukromé korespondence, vyhledávání nových kontaktů na sociálních sítích, seznamka."
    },
    "cancer": {
        "main": "Vaši noví kamarádi mají zajímavé koníčky a jistě vás rádi do nich zasvětí. Jste zvídaví, ale určitě nebudete riskovat. Tudíž se nemusíte ničeho obávat. Stojí za to, abyste se zamysleli nad nějakými úpravami vašeho domova. Do konce léta je stihnete.",
        "love": "Noví přátelé vám mohou otevřít brány k novým možnostem. Těší vás, že můžete poznat něco nového, především neobvyklého.",
        "work": "Váš šéf si nemůže nyní vynachválit vaše tempo a minimální chybovost. Máte díky tomu našlápnuto k lepšímu místu.",
        "relationships": "Popřemýšlejte o tom, jestli nějaká část vašeho domu nestojí za rekonstrukci. Máte do konce prázdnin ještě spoustu času.",
        "health": "Sportování dnes zvolte podle počasí. Pokud bude na vás velké horko, vhodné bude plavání nebo cvičení ve fitness centru.",
        "tips": "Profesionální péče o pokožku těla, ájurvédské masáže, kardio cvičení v přírodě, odpočinek, poslech oblíbené hudby."
    },
    "leo": {
        "main": "Prospělo by vám ještě pár dní volna. Poraďte se doma o tom, zda vyrazit ještě na kratší dovolenou a odpočinout si. Máte za sebou náročné dny a také vás ještě nějaké čekají. Uvidíte, že vaši blízcí budou z tohoto nápadu nadšení a začnou hned hledat zájezd.",
        "love": "Někteří z vás mají pocit, že jim v lásce není moc přáno. Bohužel budete muset ještě chvilku vydržet, než se láska objeví.",
        "work": "Pokud se dnes někomu z kolegů svěříte, že přemýšlíte o výpovědi, buďte si jistí, že se to váš nadřízený dozví obratem.",
        "relationships": "Vymyslete si ještě nějakou krátkou dovolenou, kam můžete vyrazit s rodinou a finančně vás to nezruinuje. Šance ještě jsou.",
        "health": "Průmyslové sladkosti byste si měli odpustit, pokud je na trhu čerstvé ovoce. To vám dodá ten správný cukr bez obav.",
        "tips": "Výroba domácích dekorací ze sušených květin, práce na sociálních sítích, nákup letního oblečení a obuvi na dovolenou."
    },
    "virgo": {
        "main": "Dávejte si dobrý pozor na jistého kolegu v práci. Může na vás mít pifku, aniž byste vůbec tušili proč. Své nápady si schovávejte pro sebe a nedávejte před ním najevo své názory. Velice snadno by vše zneužil proti vám v té nejméně vhodné chvíli.",
        "love": "Společenský život vás stále baví, a tak se i dnes vydáte mezi lidi, se kterými je vám fajn. Jistě se budete bavit.",
        "work": "Kdosi v kolektivu má na vás spadeno. Bude třeba si krýt záda a být obezřetní. Mohla by se vám značně zkomplikovat práce.",
        "relationships": "Pokud máte možnost, vyrazte si s rodinkou někam do společnosti. Nabízí se letní kino, oblíbená restaurace nebo koncert.",
        "health": "Psychické rozpoložení bude nic moc. Snažte se tedy alespoň chvilku meditovat, třeba poslechem své oblíbené hudby.",
        "tips": "Kosmetické a kadeřnické procedury, odpoledne ve wellness centru, finská sauna, rehabilitace zad, registrace v seznamce."
    },
    "libra": {
        "main": "Potěšit by vás dnes mohla slova šéfa. Může dojít k posunu v řešení vyššího platu. S dobrou náladou byste proto mohli dorazit domů a snažit se pokračovat v pozitivních krocích k vyřešení soukromých starostí. Milenecké vztahy jsou bohužel v ohrožení.",
        "love": "Situace v mezilidských vztazích se posune směrem k radikálním krokům. Budete se muset rozhodnout, jak vlastně dál.",
        "work": "Konečně může dojít k zásadnímu průlomu, co se vašeho platu týká. Nadřízený zřejmě uzná, že máte nárok na lepší ohodnocení.",
        "relationships": "Přemýšlejte o tom, jak získat nad jistými okolnostmi doma větší nadhled. Jistě to dobře umíte. Chce si to jen uvědomit.",
        "health": "Jakékoliv kreativní techniky pro vás dnes budou značně uvolňující. Nechte ležet domácí práce a raději se věnujte umění.",
        "tips": "Výtvarné práce s dětmi, nákupy v hobbymarketu, zahradnické práce, sběr pozdního ovoce, rybaření, zavařování zeleniny a ovoce."
    },
    "scorpio": {
        "main": "V práci může nastat opravdová krize a dusno, protože váš šéf si na vás opravdu smlsne. Nutno říct, že má v mnoha věcech pravdu, ale vám to není i tak příjemné. Bude fajn, pokud si z jeho slov vezmete alespoň jednu věc jako příklad pro zlepšení.",
        "love": "Bavit vás budou všechny aktivity, které dnes s vaším novým partnerem podniknete. Těšíte se z každé společné minuty.",
        "work": "Nadřízený to už dnes nevydrží a snese na vaši hlavu hodně kritiky. Sice vás to bude mrzet, ale víte, že má v něčem pravdu.",
        "relationships": "Dnes vás může dost rychle přejít trpělivost s chováním vašich potomků. Dojde i na silná slova a pohrůžky o volném čase.",
        "health": "Jízda na kole může být dnes lepší přírodou, trochu nerovným terénem. Dáte si totiž do těla a také zaměstnáte srdce a plíce.",
        "tips": "Nákupy pro starší příbuzné, ruční čištění automobilu, návštěva stomatologa, nákup zdravotnických pomůcek a přípravků."
    },
    "sagittarius": {
        "main": "Milostný život se jako mávnutím kouzelného proutku může dostat do krásné fáze. Pokud vám již delší dobu chyběl spolehlivý partner, nebojte se, že by se k vám nakonec nedostal. Planeta Venuše nad vámi nyní bdí a posílá vám novou lásku do života.",
        "love": "Planeta Venuše otřese vaším milostným životem. Posílá vám příležitost k seznámení, ze které se vám doslova podlomí nohy.",
        "work": "Potrápí vás nedostatek nápadů, které byste potřebovali pro své projekty a úkoly. Musíte si vystačit s rutinními zvyklostmi.",
        "relationships": "Pokud vás dnes někdo výslovně požádá o radu, dejte mu ji. Jinak byste se neměli tolik angažovat. Počkejte, co bude dál.",
        "health": "Letní cachtání v bazénu s přidanými chemikáliemi není nic moc. Musíte dodržovat také správnou hygienu celého těla.",
        "tips": "Příprava pracovní prezentace na schůzku, spolupráce s kolegy, plánování last minute dovolené, venčení a výcvik psa."
    },
    "capricorn": {
        "main": "Budete si doslova blahořečit, že jste za uplynulé dny zachovali klid a nervy na uzdě. Hlavně při řešení milostných záležitostí se vám vaše trpělivost vyplatila. Všechno, co se událo, nyní vidíte v naprosto jiném světle. A tak dramatické to není.",
        "love": "Hodně věcí se dnes může vysvětlit a uklidnit. Uleví se vám, že jste zatím udrželi své nervy na uzdě. Vše budete vidět v jiném světle.",
        "work": "Svou snahou o dobré výsledky v práci budete motivovat i své kolegy. Je to pro vás pocta, ale zároveň i jisté zadostiučinění.",
        "relationships": "S blízkými si dnes udělejte příjemný odpolední výlet do okolí. Uvidíte, že změna prostředí pomůže vám i vašim milým.",
        "health": "Bolestem hlavy předejdete pravidelným pitným režimem. Nemusíte ale být jen na vodě, zkuste smoothie a fresh džusy.",
        "tips": "Nákup oblečení a obuvi ve slevách, poslech nového podcastu, hledání kratší letní brigády, práce se sociálními sítěmi."
    },
    "aquarius": {
        "main": "Nové známosti vám nyní nejdou pod nos. Raději jste sami, obklopeni svou rodinou nebo přáteli. Zkrátka lidmi, kterým můžete věřit a znáte je dlouho. Těm se také můžete bez obav svěřit s vašimi problémy v zaměstnání nebo s nadřízenými.",
        "love": "Než abyste navazovali nové známosti, dáváte v těchto dnech přednost samotě. Je to pro vás bezpečnější a jistější.",
        "work": "Šéf může dnes nabýt dojmu, že své povinnosti nezvládáte, a bude vám chtít nějaké odebrat. Pokud o to nestojíte, řekněte to.",
        "relationships": "Ostrá slova z vás mohou padat dnes bez rozmyslu a můžete jimi někomu z vašich blízkých dost ublížit. Pozor na to.",
        "health": "Při sedavém zaměstnání je vhodné, abyste se občas během práce protáhli. Především krční páteř trpí a může vás bolet.",
        "tips": "Návštěva oblíbeného wellness centra, aromaterapie, výroba bylinného sirupu, úklid domácí knihovny, odpočinek s hudbou."
    },
    "pisces": {
        "main": "Rande s novým protějškem vás dnes láká natolik, že se doslova budete klepat nadšením, dokud svůj idol neuvidíte. Je jasné, že mezi vámi funguje naprostá přitažlivost a vy se nemůžete dočkat, až se budete ještě více sbližovat třeba za dveřmi ložnice.",
        "love": "Nový idol chcete poznat co nejvíce, proto vyrazíte na rande také dnes. Není to vůbec nic špatného, protějšek se také těší.",
        "work": "Uprostřed týdne vám v práci bude moc fajn. Vztahy s kolegy se dostávají na tu správnou úroveň a můžete se těšit na spolupráci.",
        "relationships": "Protože to doma v dlouhodobém vztahu může trochu zaskřípat, raději se vydáte za svými koníčky a zájmy. Oběma vám to prospěje.",
        "health": "Aromatická koupel je něco, co byste si měli dopřávat pravidelně. Můžete obměňovat bylinné a vonné esence.",
        "tips": "Cvičení jógy s přáteli v parku, nové dechové techniky, pečení ovocných koláčů, tvorba koláží z rodinných fotografií."
    }
}