{
    "aries": {
        "main": "Můžete se těšit na krásné chvilky v lásce. Mohou skončit opravdu žhavým flirtem, kdy si splníte své tajné fantazie. V profesní oblasti se schyluje k zajímavému okamžiku. Zajímavou nabídku, která přijde, byste neměli odmítat. Naopak o ní přemýšlejte.",
        "love": "Na dnešní romantické schůzce můžete s uspokojením zjistit, že jste s protějškem oba naladěni stejně. O vášeň nebude nouze.",
        "work": "Pokud dostanete novou, zajímavou pracovní nabídku, neváhejte dlouho s odpovědí. Může jít také o posun ve vaší firmě.",
        "relationships": "Překvapte své blízké tím, že koupíte lístky do kina na nový film. Jistě je potěšíte a všichni si to užijete.",
        "health": "Pozor na to, abyste se dnes příliš nerozčilovali. Nedělá to dobře vašemu srdci. Mohlo by se vám udělat špatně.",
        "tips": "Pečení slaných koláčů, sbírání pozdního ovoce, home office, výlet do zoologické zahrady, nákupy nové elektroniky."
    },
    "taurus": {
        "main": "Doma byste si dnes mohli spravit náladu i chuť po těžkém dni v práci. Připravte si oblíbené pochoutky na gril, poseďte s rodinou a hezky si popovídejte. Možná vás ještě čeká nějaká dovolená a bude třeba se na ni nějak připravit. Máte šanci.",
        "love": "Rozhodnete si dát od svého současného partnera na pár dní pauzu, protože si potřebujete srovnat pár myšlenek v hlavě.",
        "work": "Dokončete vše tak, jak máte, ale především se nepouštějte do žádných konfliktních hovorů a debat. Ať už jsou o čemkoliv.",
        "relationships": "Dnes večer si dopřejte nějaké dobré jídlo z domácího grilu. Nezapomeňte na hudbu a dobré pití. Bude vám s rodinou fajn.",
        "health": "Při jízdě na kole dbejte na to, abyste nejen vy, ale i vaše děti měli cyklistické přilby a ostatní ochranné prostředky.",
        "tips": "Třídění pracovních dokumentů a e-mailů, obnova cestovních dokladů, úklid pracovního stolu, prodej obnošených šatů."
    },
    "gemini": {
        "main": "Váš protějšek dnes projeví takové množství citů vůči vám, až se vám mohou podlomit kolena. Važte si toho, je před vámi vážný vztah, který by si nezasloužil, abyste ho pokazili. Každý svůj krok i každé slovo važte, je to ještě všechno křehké.",
        "love": "Překvapit vás může síla citů vašeho partnera. Sice jste měli tušení, že je to vážné, ale až dnes to bude potvrzeno.",
        "work": "Cloumat s vámi bude vztek a nedivte se, že vaše chování bude bedlivě sledovat i nadřízený. Ten se s vámi ale moc párat nebude.",
        "relationships": "Rodina uzná, že si zasloužíte více zábavy a uvolnění. Nebude vás dnes nutit do žádných prací a únavných povinností.",
        "health": "Trápit vás mohou křečové žíly, proto bude třeba se o ně postarat. Namažte si je vhodným krémem a snažte se dnes nezatěžovat.",
        "tips": "Příprava na letní dovolenou, oslavy s rodinou, míchání nealkoholických drinků, psaní food blogu, meditační a dechová cvičení."
    },
    "cancer": {
        "main": "Potřeba změnit svůj vzhled je oprávněná. Máte chuť znovu žít a starat se o to, jak vypadáte. Bude se vám hodit dobrá rada zkušeného přítele nebo příbuzného. Také se můžete inspirovat v módních časopisech. Věřte ale především své intuici, ta vás nezklame.",
        "love": "Můžete se poohlédnout ve vašem okolí po lidech, kteří mají stejné nebo podobné zájmy jako vy. Možná najdete novou partu.",
        "work": "Aniž byste to tušili, šéf si pro vás připravuje příjemnou letní prémii. Odměnu byste mohli očekávat již na konci měsíce.",
        "relationships": "Máte-li touhu změnit svůj vzhled, nejdříve si vše dobře rozmyslete. Můžete se poradit nebo se nechat někým inspirovat.",
        "health": "Jestliže potřebujete uvolnit přebytečnou energii, najděte si zajímavou fyzickou aktivitu. Může vás bavit cvičení ve fitness.",
        "tips": "Kreativní psaní, četba milostné poezie, procvičování cizího jazyka, poslech motivačního podcastu, kruhové cvičení s trenérem."
    },
    "leo": {
        "main": "V práci i v lásce se blíží hodně pozitivní změny, které vás rozhodně potěší. Buďte tedy otevření všemu, co v následujících dnech přijde, a vnímejte všechny signály. Někteří z vás mohou ještě plánovat víkend mimo domov, a tak je třeba si zabalit dnes.",
        "love": "I když si to nemyslíte, již dnes se můžete těšit na pozitivní změny, které vás čekají v lásce během několika dní.",
        "work": "Přestože je pátek a máte pocit, že vás už nic nemůže překvapit, opak je pravdou. Dostanou se k vám dost motivující informace.",
        "relationships": "Rozmyslete si dobře, co budete o víkendu dělat. Pokud se chystáte vyjet mimo domov, zabalte si zavazadla již dnes.",
        "health": "Zuby si zachráníte tím, že budete pravidelně chodit na preventivní prohlídky. Dnes se znovu objednejte ke svému zubaři.",
        "tips": "Preventivní stomatologická prohlídka, vyřizování soukromých úředních záležitostí, schůzka v bance, nákup exotických bylinek."
    },
    "virgo": {
        "main": "Emoce s vámi budou mávat už od rána a bude tak dost těžké je usměrnit v jakékoliv situaci. Snažte se tedy nejprve počítat do deseti, než něco řeknete nebo uděláte. To by vám mohlo zachránit to nejhorší. Pokud už ale propadnete vzteku, nekřičte.",
        "love": "Zkuste dnes ovládat své emoce. Lomcuje s vámi vztek, ale musíte to ustát se ctí. Na vulgarity vůči partnerovi zapomeňte.",
        "work": "Ani dnes to v práci nebude lehké, ale díky vaší povaze zůstanete jen u svých povinností a ostatní půjde kolem vás.",
        "relationships": "Pokud se chystáte udělat ještě nějaké plány na zbytek prázdnin, zatím to berte s rezervou. Vše se může změnit z rázu na ráz.",
        "health": "Pokud budete pracovat s laky, ředidly a barvami, dobře větrejte a také mějte ochranné rukavice a samozřejmě ochranné brýle.",
        "tips": "Renovace staršího nábytku z bazaru, malování dětského pokoje, telefonát s bývalým spolužákem, nákup nových dekorací."
    },
    "libra": {
        "main": "Dávejte si pozor na to, že vám ubývá energii, aniž byste si to uvědomovali. Můžete se najednou ocitnout naprosto bez sil a vyčerpaní, aniž byste tušili proč. Jakmile si dnes nastavíte volnější tempo, nejenže vám nic neuteče, ale také budete docela fit.",
        "love": "Místo toho, abyste se opět ihned dali do lovení nového partnera, zkuste si na pár dní od milostných záležitostí odpočinout.",
        "work": "Dnes byste to již neměli s prací přehánět. Jde o to, aby vám rapidně neubývaly síly. Budete je potřebovat opět příští týden.",
        "relationships": "Máte doma od své rodiny pevnou oporu téměř ve všem. Radost jim udělá i to, že dnes odložíte pracovní starosti včas.",
        "health": "Ovocný likér, který si připravíte, vám může v zimním období spravit chuť. Udělejte ho z ovoce, které máte nejraději.",
        "tips": "Výroba ovocného likéru, úklid pracovního stolu v kanceláři, ruční čištění automobilu, odpoledne v plaveckém bazénu."
    },
    "scorpio": {
        "main": "Nastala vhodná doba na to, abyste si dali svůj osobní život do pořádku. Jedná se o to, že můžete mít totální zmatek ve svých citech, rodinných záležitostech i ve vztahu k některým přátelům. Prospěje vám tedy klid a čas převážně strávený o samotě.",
        "love": "Nyní je možná vhodný čas, abyste si dali pauzu od randění a zkusili si sami v sobě udělat pořádek. Jste stále zmatení.",
        "work": "Motivovat vás budou pochvaly od šéfa. Je to pro vás jako živá voda. Díky tomu se vám v zaměstnání opět bude dařit.",
        "relationships": "Energie dnes budete mít na rozdávání, ale nebudete chtít někoho organizovat. Program necháte naprosto v klidu na rodině.",
        "health": "Pozor na projížďky na horském kole v přírodě. Mohli byste si při riskování přivodit úraz nebo si značně namoct svaly.",
        "tips": "Nákup čerstvého ovoce na trhu, výroba nepečených dezertů, procházka v městské botanické zahradě, jízda na horském kole."
    },
    "sagittarius": {
        "main": "Váš důvěrný přítel pro vás dnes může být vrba. Máte pravděpodobně starosti s láskou a nemáte se přímo komu svěřit. Ale tato osůbka pro vás může být dnes dobrým zpovědníkem. Navíc vám může velmi dobře poradit, díky svým zkušenostem ze života.",
        "love": "Jestliže si nevíte rady s partnerskými problémy, bude dobré poprosit o radu důvěrného kamaráda. Je tu pro vás.",
        "work": "Ponaučit by vás dnes mohl incident, za který v zaměstnání ponesete odpovědnost. Jako výstraha to pro vás bude dostatečné.",
        "relationships": "Budete rádi, když za vámi dnes zapadnou dveře domova a vy nikam nebudete muset. Je jasné, že jste unavení a potřebujte klid.",
        "health": "Pokud to dnes budete vy, kdo bude vařit večeři, jistě sáhnete po zdravějších variantách jídla. Dobrý bude zeleninový salát.",
        "tips": "Nové kariérní cíle, rozhovor s nadřízeným, úprava životopisu, sledování hudební soutěže, vaření večeře pro rodinu."
    },
    "capricorn": {
        "main": "Veškeré plány, které jste měli s kamarády, zkuste posunout nebo odložit na neurčito. Máte totiž co napravovat doma se svou láskou. Chybí vám romantika a něžnosti, ale tím, že půjdete opět na večírek, je jistě nedoženete. Nakonec budete oba hodně spokojení.",
        "love": "Zkuste zapracovat na svém vztahu třeba tím, že odložíte veškerou práci a plány s přáteli, a budete dnes jen s miláčkem.",
        "work": "To, že je konec pracovního týdne, vás vůbec nebude zajímat. Máte v plánu dotáhnout mnoho věcí a nebudete se ohlížet na čas.",
        "relationships": "Domluvte se s kamarády na nějakém zajímavém plánu na víkend. Můžete vyrazit na koncert pod širým nebem nebo na pouť.",
        "health": "Vyrazte si dnes s dětmi za sportovními aktivitami. Nejbližší sportovní park s opičí dráhou bude velmi dobrá zábava.",
        "tips": "Firemní porada o novém projektu, romantické hrátky s partnerem, odpoledne s dětmi ve sportovním parku, nákup hraček na zahradu."
    },
    "aquarius": {
        "main": "Mohou vás, naprosto nepřipravené, zaskočit nové city. Je v nich tolik síly, že nebudete mít stání nikde. Jedinou pomocí dnes bude společnost přátel, kteří vás spolehlivě přivedou na jiné myšlenky. Nepřehánějte to ale s konzumací tvrdého alkoholu.",
        "love": "Pokud jste momentálně rozhození z nových citů, nejlepší lék na to bude společnost dobrých přátel. Potřebujete se odreagovat.",
        "work": "Aniž byste si to uvědomili, pracovní týden vám utekl jako voda. Vy jste se sice vzpamatovali, ale je před vámi víkend.",
        "relationships": "Chystáte-li se na víkend mimo domov, dnes neponocujte, ale vše si připravte, zabalte zavazadla a všechno překontrolujte.",
        "health": "Jestliže si dnes vyrazíte koupit plavky, vybírejte z kvalitních materiálů, které vám rychle uschnou a nedovolí nastydnout.",
        "tips": "Týmová spolupráce s kolegy, příprava obchodní prezentace, nákup plavek a oblečení na dovolenou, nákup last minute dovolené."
    },
    "pisces": {
        "main": "Možná vám konečně dojde, že vás někteří kolegové docela dost využívají. V podstatě pracujete za ně a oni se svezou na vlně vašeho úspěchu. Bude třeba jim to rázně vysvětlit a případně to vyřešit i s nadřízenými. Nesmíte se nechat nikým ošidit a zneužít.",
        "love": "Dobrým nápadem dnes bude vyměnit společnost partnera za společnost kamarádů. Budou vám útěchou v těžké situaci.",
        "work": "Zdá se vám, že někteří z kolegů se jen vezou, ale pracovat musíte vy. Dejte jim to najevo a zamezte tomu, aby vás využívali.",
        "relationships": "Ponocovat byste neměli, ale možná se vám to navzdory tomu povede. Pozor však na nadměrné pití alkoholu, ať nemáte kocovinu.",
        "health": "Zkuste si dnes najít nový fitness program, kterému byste se mohli věnovat. Potřebujete se totiž pořádně hýbat.",
        "tips": "Nové profesní cíle, úprava stávajícího životopisu, registrace v rekvalifikačním kurzu, kontrola soukromých dokumentů."
    }
}