{
    "aries": {
        "main": "Dnešní srpnová sobota by měla být pohodová. Nesnažte se tedy do ní vnést jakoukoliv aktivitu, se kterou by ostatní kolem vás nesouhlasili. Dnešek bude vyžadovat respekt, toleranci a velké kompromisy. Teprve pak bude vše sluncem zalité.",
        "love": "Výlet na nová místa může vás i vašeho nového partnera dobře naladit. Můžete spolu poznávat a objevovat nové věci.",
        "work": "Víkend vám přijde k duhu. Je třeba načerpat energii před dalšími projekty. Proto dnes na zaměstnání vůbec nemyslete.",
        "relationships": "Výlet vlakem by se mohl líbit nejen vašim dětem, ale i vám. Budete překvapení, jak výborný nápad někdo v rodině měl.",
        "health": "Jestliže vám otékají nohy, bude třeba se co nejdříve objednat ke specialistovi. Je možné, že trpíte problémem křečových žil.",
        "tips": "Pozdní snídaně s rodinou, odpolední výlet vlakem, nákupy na rukodělném trhu, fotografování památek, letní kino s kamarády."
    },
    "taurus": {
        "main": "Využijte sobotu k tomu, abyste si udělali jasno v mezilidských vztazích kolem vás. Máte z prázdnin spoustu nových známých a kontaktů, ale zřejmě ne všechny si chcete nechat blízko sebe. Zkuste se zamyslet nad tím, kdo má ve vašem životě opravdu své místo.",
        "love": "Také dnes si začnete rovnat priority v mezilidských vztazích. Musíte si uklidit kolem sebe a vytřídit toxické lidi.",
        "work": "I přes jisté překážky si dokážete poradit s finančním problémem, který vás v poslední době trápil. Řešení je blízko.",
        "relationships": "Hezký den můžete prožít ještě někde u vody. Sbalte si s sebou jídlo, deku, knížku a hry. To by mělo úplně stačit.",
        "health": "Dávejte si záležet na tom, jakou obuv si dnes zvolíte na sportovní aktivity. Nepodceňujte to, jinak to odnesou kolena.",
        "tips": "Výcvik pejska v klubu, odpolední piknik s kamarády v lesoparku, koupání v rybníce, tvorba fotokoláží, poslech hudby."
    },
    "gemini": {
        "main": "Pokud jste nezaháleli a vymysleli si zajímavý program pro dnešní den, váš protějšek bude nadšený. Vaše nápady jsou totiž vždy originální a nevšední. Můžete se tak těšit na to, že se vám partner odvděčí velmi příjemně. To za tu snahu stojí, že ano?",
        "love": "Partnera můžete příjemně překvapit tím, jaký program máte připravený pro vás oba. Sobotní den tak bude plný lásky.",
        "work": "Pokud se vám nezadařilo v srpnu vyhrát nějakou hezkou sumu v loterii, ještě to nevzdávejte. Dnes své štěstí zkuste znovu.",
        "relationships": "Zasloužíte si také nějakou potravu pro duši. Ať už vyrazíte do kina, divadla nebo na koncert, bude to bezvadná zábava.",
        "health": "Rehabilitace namoženého svalstva nebo bolavých kloubů je sice nepříjemná, ale její účinky se mohou projevit brzy.",
        "tips": "Setkání se staršími příbuznými, zavařování sezonního ovoce a zeleniny, posezení se sousedy, poslech vinylových desek."
    },
    "cancer": {
        "main": "Ti z vás, kteří jsou nezadaní, budou dnes ve velkém pokušení k flirtování a románkům na jednu noc. Ovšem pokud chcete trávit večer ve společnosti svých kamarádů, také to není špatná volba. Budete se bavit tak i tak. Jen pozor na velké množství alkoholu.",
        "love": "Jestliže ani dnes single jedinci nepodlehnou choutkám a raději budou čas trávit ve společnosti kamarádů, je to v pořádku.",
        "work": "Do oka vám mohou padnout dnes zajímavé interiérové doplňky nebo malé kusy nábytku. Pokud na ně máte peníze, neváhejte.",
        "relationships": "Pohodový podvečer vám dnes zajistí táborák nebo grilování. Nezapomeňte na dobré míchané nápoje a oblíbenou hudbu.",
        "health": "Nenechte zahálet svou mysl a kreativní sklony. Nové hobby se vám bude líbit a zklidní vás. Vybírejte podle intuice.",
        "tips": "Pétanque s přáteli, dopoledne na farmářském trhu, degustace exotických pokrmů a nápojů, podvečerní návštěva kina."
    },
    "leo": {
        "main": "Dnes by vám do oka mohla padnout zajímavá věc v obchodě nebo na internetu. Jestliže máte pocit, že se vám doma neztratí několik dalších let, neváhejte a investujte do tohoto předmětu. Je to zřejmě něco velmi originálního a sklidíte za to pochvalu.",
        "love": "Cokoliv dnes budete dělat se svými přáteli, bude ohromná zábava. Důvěřujte jejich plánům, mají je promyšlené do puntíku.",
        "work": "I když se vám to bude zdát jako příliš, klidně si něco nadčasového kupte a nelitujte. Taková investice se vyplatí.",
        "relationships": "Postarejte se o své domácí mazlíky. Budou potřebovat nové pelíšky a možná i hračky. Nešetřete na tom, mají to nadlouho.",
        "health": "Dobré a kvalitní oblečení bude vyžadovat dnešní sportovní program. Špatným oblečením nebo obutím si můžete ublížit.",
        "tips": "Rukodělné práce s dětmi, registrace na online seznamce, plánování podzimní relaxace v lázních, příprava lehké večeře."
    },
    "virgo": {
        "main": "Místo toho, abyste vysedávali doma u televize, snažte se vytáhnout partnera na procházku nebo za kulturou. Je to totiž jediný lék proti tomu, abyste se doma nudili a pak se možná i pohádali. Měli byste si možná z toho také udělat tradici pro vás dva.",
        "love": "Jakákoliv společná aktivita mimo domov je pro vás a vašeho partnera žádoucí. Jděte na procházku, do muzea nebo do kina.",
        "work": "Dávejte si dobrý pozor na to, jak a komu platíte přes internet díky své platební kartě. Některé údaje nesmíte dávat nikomu.",
        "relationships": "Pobavte se se svými dětmi o tom, jaké kurzy a koníčky by je bavily, až přijde nový školní rok. Budete dobře připraveni.",
        "health": "Máte-li problémy s pletí, nevzdávejte hledání nových přípravků. Zkuste si také zajít do sauny a pít hodně vody.",
        "tips": "Den na rodinné farmě, projížďka na koni lesem, odpoledne u vody, pečení slaného koláče, hraní vědomostních her."
    },
    "libra": {
        "main": "Váš nový protějšek bude pro vaše kamarády velké téma. Hned si totiž získá jejich sympatie a náklonnost. Máte velké štěstí, pokud se vám vaše nejbližší podaří takto hezky propojit. Také můžete mít dnes pokušení k hazardním hrám. Buďte opatrní.",
        "love": "Klidně můžete dnes svého nového partnera ukázat svým přátelům. Ihned se stane centrem jejich pozornosti a zájmu.",
        "work": "Jste dost soutěživí a to vás dnes doslova nažene do náruče hazardu. Jen dobře přemýšlejte, kam a kolik vsadíte.",
        "relationships": "Pokud dnes budete doma pořádat tematický večírek, spolehněte se na to, že vše klapne, tak jak má. Neúspěchy nehrozí.",
        "health": "Na posezení s přáteli se připravte také na to, že někteří mají zdravotní problémy. Podle toho jim přizpůsobte lahůdky a pití.",
        "tips": "Romantické dopoledne s novým partnerem, úklid terasy, odpoledne u vody, setkání s příbuznými, ruční čištění auta."
    },
    "scorpio": {
        "main": "Sobota bez velké společnosti vám docela prospěje. Budete mít čas si srovnat v hlavě vše, co vám tam dosud dělalo chaos. I znamení, jako jste vy, potřebuje klid a jistotu. Nebojte se větší sebereflexe, můžete jen získat pozitivní myšlení a klid na duši.",
        "love": "Také dnes vám prospěje den bez partnera nebo hledání protějšku. Chce to chvíli klid, aby se vám urovnaly myšlenky.",
        "work": "Budete si moct vydechnout a zapomenout na pracovní povinnosti Dokážete to ale? Naučte se relaxovat a vypnout.",
        "relationships": "Máte-li dnes chuť a možnost, připravte si na večer táborák, špekáčky a dobré pití. Je to poslední prázdninové posezení.",
        "health": "Dnešní sportovní aktivity by mohly být soutěžního charakteru. Zkuste jízdu na koni, která vás může nadchnout.",
        "tips": "Den ve sportovním parku s dětmi, hraní na hudební nástroje, skládání písniček, nákup knížek v antikvariátu, meditace."
    },
    "sagittarius": {
        "main": "Dnešní návštěva u někoho v rodině nemusí být vůbec tak špatná. Naopak, pokud jedete ke starším příbuzným, čeká vás něco dobrého na zub a příjemné povídání. Využijte toho, že máte volný den, a nikam nespěcháte. Vaši příbuzní vás zdrží a potěší se s vámi.",
        "love": "Jestliže chcete předejít sporům a konfliktů, bude třeba dnes zatnout zuby a nereflektovat na nic z toho, co partner provede.",
        "work": "Ti z vás, kteří zvažují půjčku, by se měli ještě přesvědčit o tom, zda je to pro ně výhodné. Je možné, že naletíte lichvářům.",
        "relationships": "Máte-li před sebou návštěvu příbuzných, měli byste si dát záležet na tom, jakou pozornost hostiteli přinesete.",
        "health": "Dodávejte mozku také nějaké vitaminy, které ho pomohou udržet v dobré kondici. Nejlepší budou z ořechů a semínek.",
        "tips": "Kosmetické a wellness procedury, výroba vonných svíček, poslech jazzové hudby, četba humorného románu, meditace."
    },
    "capricorn": {
        "main": "Bylo by fajn, kdybyste se dnes probrali svým domácím účetnictvím. Některé vaše výdaje byly totiž zcela zbytečné a udělali vám pravděpodobně paseku na účtě. Vy si však i s takovou situací poradíte celkem bez problémů. Chvilkové spoření to spraví.",
        "love": "Sobotu si nechte čistě jako odpočinkový den. Nenuťte jeden druhého do zbytečně náročných aktivit a rizikových sportů.",
        "work": "Podívejte se na všechny výdaje z rodinné kasy, které jste uskutečnili v létě. Je možné, že jste si nedali žádnou hranici.",
        "relationships": "Dopoledne na farmářském trhu vás bude bavit. Nakupte si domů, co se každému bude líbit. Jsou to dobré investice.",
        "health": "Velmi příjemně vás dnes unaví veselé hrátky v bazénu nebo aquaparku. Usnete dřív, než se nadějete. Vaše děti taktéž.",
        "tips": "Pořízení nového sportovního oblečení pro děti, nákupy školních pomůcek, hraní na hudební nástroje s kamarády, zpěv."
    },
    "aquarius": {
        "main": "S dětmi se někteří z vás mohou vydat na poslední prázdninový výlet. Cesta vlakem za památkami nebo do zoo v jiném městě, může být pro ně opravdový zážitek. Naplánujte vše tak, abyste se nikde nezdržovali a užili si sobotní den se vším všudy.",
        "love": "S přáteli si dnes dejte odpočinkový program. Můžete si udělat grilování a posezení u dobrého jídla. Navíc můžete ponocovat.",
        "work": "Ve finanční krizi vás dnes může podpořit zcela nezištně vaše rodina. Díky tomu si nemusíte shánět nevýhodnou půjčku.",
        "relationships": "Pokud dnes plánujete výlet vlakem nebo na kole, dobře se na něj vybavte. Nezapomeňte doma lehkou proteinovou svačinku.",
        "health": "Při rukodělných a řemeslných pracích používejte ochranné brýle a rukavice. Hrozí vám nepříjemné poranění či úraz.",
        "tips": "Výroba domácího sýru, šachy s kamarádem, renovace zahradního nábytku, návštěva umělecké galerie, sportovní aktivity."
    },
    "pisces": {
        "main": "Dnes není vhodný den k tomu, abyste se zabývali financemi, půjčkami nebo hypotékami. Nemáte dobrý úsudek a těžko byste byli objektivní. Nechte tyto záležitosti na den v týdnu a dnes raději pusťte všechny starosti z hlavy. Užívejte si ještě léto.",
        "love": "Dopřejte si den o samotě, abyste si v sobě mohli urovnat své pocity. Je pro vás nesmírně důležité se v tom orientovat.",
        "work": "Vyhněte se dnes jakémukoliv rozhodování o úvěrech, hypotékách nebo půjčkách. Není na to vůbec vhodný den. Potřebujete odstup.",
        "relationships": "Je před vámi poslední prázdninový víkend. Bude dobré si ho užít se vším všudy. Nebraňte se večírkům, grilování a tanci.",
        "health": "Máte-li chuť na nějakou svačinku během dne, připravte si ořechy a semínka. Ty vás mohou spolehlivě a zdravě zasytit.",
        "tips": "Oslava s rodinou, nákupy dárků a řezaných květin, hledání podzimní dovolené v lázních, práce na zahradě nebo terase."
    }
}