{
    "aries": {
        "main": "Vstupujete do prvního prosincového dne s nadějí, že se vám povede lépe, než v uplynulých dnech nebo týdnech. Pokud vedle sebe nemáte ten správný protějšek, neházejte flintu do žita. Postačí vám totiž dobří přátelé, na které se můžete obrátit s prosbou.",
        "love": "Nezoufejte z toho, že stále nemáte vedle sebe takového partnera, který by vám byl oporou. Není však všem dnům konec.",
        "work": "Z rukávu vysypete hned první prosincový den tolik nápadů, že z nich půjde nadřízenému hlava kolem. Ovšem zabodujete, Berani.",
        "relationships": "Navalí se na vás spousta povinností, které se snažíte zvládnout sami. To je chyba. Řekněte si o pomoc svým blízkým.",
        "health": "Pomohly by vám zřejmě masáže ramen a krční páteře. Zatuhnutí může být i znamením napětí a stresu, který prožíváte.",
        "tips": "Masáže, nákup bylinných a chladivých gelů, úklid domácí pracovny, praní ložního prádla, třídění oblečení a obuvi."
    },
    "taurus": {
        "main": "Máte stále sílu a dostatek energie se poprat s nástrahami dnešního dne. Nebyli byste to vy, kdybyste se jen tak vzdali. I když k vám dnes mnoho dobrých zpráv nedorazí, oceníte každou pozitivní informaci. Věříte v heslo, že naděje umírá poslední.",
        "love": "Ti z vás, Býci, kteří neleníte a hledáte aktivně partnera, to nemáte lehké. Dohání vás únava z nevhodných protějšků.",
        "work": "Kýžený úspěch vám dnes přinesou vaše nápady, jak zlepšit efektivitu práce. Nadřízený si jen bude mnout ruce nadšením.",
        "relationships": "V rodině se dnes kupodivu dokážete všichni dohodnout na jednom a tom samém. I když jste skeptičtí, náladu vám to zlepší.",
        "health": "Den je vhodný na úpravu jídelníčku. Hlavně když chcete před Vánocemi nějaké to kilo shodit. Zbavíte se i toxinů v těle.",
        "tips": "Úprava jídelníčku, nákup čerstvých potravin, detoxikační dieta, seznam vánočních dárků, četba odborných časopisů."
    },
    "gemini": {
        "main": "Měsíc přechází do znamení Berana a vám to dodává potřebu být více nezávislí než kdykoliv jindy. Uvědomíte si, že se současnou situací má starosti celé vaše okolí. Zaměřte se na sebe a na to, jak z toho všeho vybruslit bez velké újmy. Půjde to.",
        "love": "Neradi byste se jakkoliv ve vztazích omezovali. Takže pokud nemáte partnera, nového dnes hledat rozhodně nebudete.",
        "work": "Láká vás si přivydělat před Vánocemi nějakou tu korunu navíc. Zřejmě tedy v práci trávíte více času, než je zdrávo.",
        "relationships": "Rádi byste zvládli všechny úkoly, které jste si pro dnešní den stanovili. Ovšem měli byste se také věnovat svým blízkým.",
        "health": "Na namožené svaly by vám prospěly masáže. Jestliže nebudete mít možnost vyhledat odborníky, poproste třeba partnera.",
        "tips": "Videohovor s kolegy, home office, úklid pracovny, třídění pracovních e-mailů, založení pojistky na domácnost."
    },
    "cancer": {
        "main": "Starosti s vaší kariérou vás zaměstnávají víc, než byste si přáli. Máte chuť se ponořit do vánoční atmosféry, ale nejde se v klidu na nic soustředit. Můžete se velmi rychle dostat do stresu a být naštvaní. Nepřenášejte to dál na své nejbližší.",
        "love": "Kdosi se nápadně často pohybuje ve vašem okolí a vás začíná ta osůbka zajímat. Oťukněte si ji, abyste nebyli zklamaní.",
        "work": "V práci nějak nemůžete najít dostatek času na všechny pracovní povinnosti. Takže se vám nedaří odcházet z kanceláře včas.",
        "relationships": "Předvánoční atmosféra vás zcela pohltí a vás popadne chuť si z domova udělat kouzelnou vánoční vesničku. Nápadů máte dost.",
        "health": "Jste rodinné typy, takže vám ke štěstí dnes postačí mít všechny své milé pohromadě. To vám zajistí dobrou náladu.",
        "tips": "Odpoledne s rodinou, volnočasové aktivity, nákup čerstvého ovoce a zeleniny, příprava ovocného poháru, sportovní aktivity."
    },
    "leo": {
        "main": "Prosinec pro vás nezačíná příliš šťastně v oblasti mezilidských vztahů, milí Lvi. Hlavně co se týká navazování nových kontaktů. Jste nedůvěřiví a hledáte na lidech chyby, které možná ani nemají. Snažte se být více otevření a respektovat druhé.",
        "love": "Dostane se vám pochvaly od vašeho protějšku. Uvidíte, že má oči jen pro vás. Dejte průchod vášním a otevřete srdce.",
        "work": "Nemusíte se jako jedni z mála před Vánocemi namáhat a dřít. Máte splněno a dobrý pocit z dosud odvedené práce.",
        "relationships": "Rodina s vámi nebude úplně ve všem souhlasit, co se úprav domácnosti týká. Mají také své plány a program na dnešek.",
        "health": "Vyrazte si dnes ostrou chůzí na procházku, abyste také svým plicím pomohli s okysličováním. V přírodě vám bude nejlépe.",
        "tips": "Vycházka do přírody, nákup krokoměru, rozhovor s rodiči, filatelie, sledování dokumentárních pořadů, nákup vánočních dárků."
    },
    "virgo": {
        "main": "Jakkoliv se budete snažit, pocítíte úbytek energie. Projeví se to nejen v práci, ale také doma se to nejeví zatím nadějně. Zvolte takovou odpočinkovou aktivitu, kde si uklidníte mysl. Ovšem berličku v podobě alkoholu si dnes raději odpusťte.",
        "love": "Zkuste se více uvolnit a nemyslet na nepříjemné věci. Stres by se mohl nehezky projevit především při milostných hrátkách.",
        "work": "Tak trochu se vám dnes do ničeho nebude chtít. Sice jste pracovití a pečliví, ale jako by vás pohltily Vánoce.",
        "relationships": "Snažte se eliminovat konflikty v rodině, které by ohrozily celý následující týden. Mohly by zkazit předvánoční atmosféru.",
        "health": "Pleť máte citlivou, na vině jsou také povinné roušky. Zvolte vhodné přípravky podle vašeho typu. Nejlépe z lékárny.",
        "tips": "Péče o pleť, nákup kosmetických přípravků v lékárně, výtvarné práce, modelářství, venčení pejska v parku, mytí auta."
    },
    "libra": {
        "main": "Máte díky své povaze pochopení pro výkyvy nálad svého okolí a snažíte se k nim přistupovat nezaujatě. Navíc si uvědomujete, že rodinu trápí současný stav nejistoty do budoucna. Přesto však není nutné ustupovat absolutně ze všech svých hodnot.",
        "love": "Prosinec nezačínáte v milostných vztazích dobře. Vaše potřeby partner nebere v potaz, má dost starostí s těmi svými.",
        "work": "Snažíte se v zaměstnání přejít náročné situace s nadhledem a pochopením. Klidné jednání vám zaručí ochranu před hněvem nadřízeného.",
        "relationships": "Snažíte se doma stále udržet přátelskou atmosféru. Naštěstí máte u svých blízkých respekt, takže s tím nemáte problém.",
        "health": "Musíte doplňovat pravidelné dávky vitaminů a minerálních doplňků. Jen ze stravy jsou jejich dávky nedostačující.",
        "tips": "Nákup vitaminů a potravinových doplňků, péče o domácí mazlíčky, praní ložního prádla, týmová spolupráce s kolegy."
    },
    "scorpio": {
        "main": "Dnešní den se začnete rozhlížet kolem sebe, co se týká nové práce. Myšlenky na posun v kariéře vás donutí hledat další způsob vzdělávání se nebo rekvalifikace. Inspiraci najdete na vzdělávacích portálech. Podívejte se na nabídky ve vašem okolí.",
        "love": "Není škoda, že se se svými hlubokými city k jisté osobě stále tajíte, milí Štíři? Seberte odvahu a dejte jí to najevo.",
        "work": "Vysoké pracovní tempo si s sebou nesete i v prosinci. Dnes zapřemýšlejte o dalším kariérním posunu, a co pro to musíte udělat.",
        "relationships": "Poraďte se s rodinou, jaké vánoční svátky si letos připravíte. Možná najdete nějakou novinku, která by se vám líbila.",
        "health": "Vás naštěstí nic moc netrápí. Jste ve výborné fyzické i psychické kondici. Snažte se to udržet co nejdéle, Štíři.",
        "tips": "Sebevzdělávání, poslech motivačních podcastů, studium cizího jazyka on-line, nákup nových vánočních ozdob a dekorací."
    },
    "sagittarius": {
        "main": "Zkraje měsíce vám těžko půjde zaměřit svou pozornost na práci. Zvlášť proto, že se blíží Vánoce a vám v hlavě běhají myšlenky, jak vlastně budou letos vypadat. Zkuste se více soustředit na všechny povinnosti, protože hrozí, že něco důležitého opomenete.",
        "love": "Nízké sebevědomí dnes tedy rozhodně mít nebudete. A to je dobře, zvlášť pokud jste nezadaní a hledáte nový vztah.",
        "work": "Koncentraci na práci vám dnes spolehlivě překazí myšlenky na nadcházející Vánoce. Zabýváte se pouze tím, co zařídit.",
        "relationships": "Tak trochu necháváte běh domácnosti na ostatních členech rodiny. Zkuste se dnes optat, kde máte přiložit ruku k dílu.",
        "health": "Přepadne vás odpoledne větší únava a donutí vás ke kratšímu spánku. Zřejmě ho tělo opravdu potřebuje, tak se nebraňte.",
        "tips": "Příprava s dětmi do školy, četba odborné literatury, vánoční výzdoba, procházka se psem, odpolední spánek, vaření."
    },
    "capricorn": {
        "main": "Do prvního prosincového dne skočíte rovnýma nohama a s nadějí, že se vám vše bude dařit podle vašich představ. Nenechte se odradit negativními myšlenkami ohledně vaší profese. Berte to spíše jako výzvu do budoucna, přece teď nechcete pochybit.",
        "love": "Prosinec s sebou nese jakési uvolnění v oblasti milostných vztahů. Partnera to nabudí k intimnostem a svádění.",
        "work": "Uvažujete o tom, zda vás současné povolání ještě vůbec naplňuje. Pokud ne, zkuste se zamyslet nad budoucností.",
        "relationships": "Poraďte se s přáteli o tom, co oni budou kupovat pod stromeček svým nejbližším. Potřebujete nějakou inspiraci, že, Kozorozi?",
        "health": "Pečujte lépe o pleť. Důležité jsou vhodné a kvalitní přípravky. Ty dnes pořídíte velmi snadno a za opravdu dobré ceny.",
        "tips": "Telefonát se spolužákem, nákupy vánočních dekorací a ozdob, pečení cukroví, běh v přírodě, aromatická koupel, péče o pleť."
    },
    "aquarius": {
        "main": "První prosincový den se snažte více zaměřit na oblast mezilidských vztahů a komunikace. Zamyslete se nad tím, zda vám vyhovuje společnost, ve které se pohybujete. Zřejmě má vaše okolí dost negativní mysl, a to kvůli existenčním problémům. Vás to ale ubíjí.",
        "love": "Vstupujete do fáze, kdy se vám tolik nedaří v partnerském životě. Nevěšte hlavu, je to pouze přechodné období.",
        "work": "Nejste zrovna spokojeni se stavem bankovního konta a rozhodně to nechcete nechat být. Drobná brigáda by vám přišla k duhu.",
        "relationships": "Upřednostníte kontakt s přáteli nebo sousedy. Sice to není na posezení, ale rozhovor a drby rozhodně neodmítnete.",
        "health": "Dodržujte vhodný pitný režim a nepřehánějte to ani s kávou, ani s alkoholem. Tělo by se velmi rychle mohlo dehydratovat.",
        "tips": "Pečení cukroví, úklid šatny, třídění oblečení a obuvi, kontrola plateb za domácnost, hledání brigády, navazování kontaktů."
    },
    "pisces": {
        "main": "Jako by vám v této těžké době covidu scházela odvaha. Ale je to také o tom, že jste vyčerpaní. Bylo by fajn si před nadcházejícím svátečním časem trochu odpočinout. Jestliže máte to štěstí, že můžete chodit do práce, snažte se více relaxovat doma. Nemusíte mít vše vyladěné.",
        "love": "Jste dnes velmi ostýchavé, milé Rybky. Není to zrovna dobře, pokud jste nezadaní a někdo se vám docela dost líbí.",
        "work": "Doléhá na vás velká únava a jste přepracovaní. Pokud to půjde, požádejte si o pár dní volna v zaměstnání nebo práci z domova.",
        "relationships": "Fantazie vám pracuje na plné obrátky a máte doslova mraky nápadů na vánoční výzdobu domova. Tak na co čekáte, Rybičky?",
        "health": "Únava a přepracování se mohou podepsat na stavu vaší psychiky. Nepřenášejte to na své blízké a snažte se odpočívat.",
        "tips": "Home office, nové pracovní úkoly, hledání přivýdělku ve formě brigády, sebevzdělávání se, příprava rodinné večeře."
    }
}