{
    "aries": {
        "main": "Dnes je zimní slunovrat. Vstupujete do významné životní fáze. Zamyslete se nad tím, co vás tíží a co byste rádi na sobě změnili. Možná to bude vaše náročná povaha, co vás zlobí. Máte velkou šanci zbavit se špatných návyků a udělat si v životě pořádek.",
        "love": "V partnerských vztazích může dnes zavládnout nervozita a napětí. Jednat se bude zřejmě o plány na společnou budoucnost.",
        "work": "Jestliže ještě musíte do zaměstnání, nenechte se strhnout nervozitou a raději si s kolegy dejte kávu a cukroví.",
        "relationships": "Rodina se ještě dnes bez vás celkem dobře obejde. Přípravám se zatím věnují sami a po vás toho moc chtít nebudou.",
        "health": "Chcete-li si dopřát před Vánocemi úpravu účesu, zapomeňte dnes na stříhání. Raději věnujte pozornost výživě vlasů.",
        "tips": "Péče o vlasy, telefonát s přáteli, nákup balicích potřeb na dárky, dokončení pracovních povinností, sledování televize.,"
    },
    "taurus": {
        "main": "Slunce vstupuje do znamení Kozoroha a nastává zimní slunovrat. Na pořadu dne bude dokončení pracovních povinností a plánování nadcházejících svátků. Snažte se svou práci odevzdat včas, ať se můžete věnovat svým nejbližším, kteří na vás čekají.",
        "love": "S velkým nadšením vstoupí do týdne nezadaní Býci. Sváteční nálada vás nutí seznamovat se a vyhledávat vážné kontakty.",
        "work": "Dnešku vládne logika. Tudíž nebudete mít problémy s pracovními úkoly, které vás dnes ještě čekají a které chcete dokončit.",
        "relationships": "Ještě na poslední chvíli budete hledat inspiraci na nákup dárků pro někoho z rodiny. Zřejmě má náročnější vkus.",
        "health": "Dnes převládnou emoce a empatie. Budete ke svému okolí přistupovat s láskyplnou náladou, což i vám udělá dobře na srdci.",
        "tips": "Shánění vánočních dárků, posezení s kolegy, dokončení pracovních úkolů, zdobení vánočního stromečku, poslech oblíbené hudby.,"
    },
    "gemini": {
        "main": "V pondělí se odehraje zimní slunovrat. Důležité pro vás je to, že vám do života přinese spoustu změn a velké dávky energie. Musíte si však uvědomit, co je pro vás dobré a čeho byste se rádi v budoucnu zbavili. Není to tak těžká úvaha, že, Blíženci?",
        "love": "Zcela nečekaně můžete narazit na dávného přítele nebo kamaráda z dětství. Posezení u kávy nebo sklenky vína vás potěší.",
        "work": "S utrácením za vánoční nákupy je pomalu, ale jistě konec. Pokud vám tedy ještě nechybí nějaký ten dárek pro přítele.",
        "relationships": "Donutíte členy domácnosti, aby vám pomohli s vánočními přípravami. Na oplátku jim připravíte oblíbené pochoutky.",
        "health": "V zimním období a především v předvánočním čase musíte tělu dopřát hodně odpočinku. Včasné uléhání do postele prospěje.",
        "tips": "Rozesílání vánočních přání e-mailem, vánoční posezení s přáteli, nákup vánočního stromečku, večeře v restauraci.,"
    },
    "cancer": {
        "main": "Přednost dáte hlavně mezilidským vztahům. Rádi byste dnes věnovali čas každému, kdo má ve vašem životě důležité místo. Někteří z vás se budou věnovat více rodině, ostatní zase mohou vyrazit na posezení s dobrými kamarády. Předvánoční čas přeje setkáním.",
        "love": "Nezadaní Raci budou mít dnes nutkání vyrazit někam na lov. Raději si vyjděte s přáteli na skleničku a proberte své šance.",
        "work": "Při pořizování posledních dárků se rozhodně nespoléhejte na doručovací služby. Raději vyjeďte do obchodu osobně.",
        "relationships": "Bude nutné, abyste se optali starších příbuzných, s čím potřebují před svátky pomoci. Budou vás jistě potřebovat.",
        "health": "Při úklidu domácnosti dejte pozor na práci s chemikáliemi a dezinfekcí. Vezměte si také ochranné pomůcky a prostředky.",
        "tips": "Úklid domácnosti, návštěva přátel, dokončení úředních záležitostí, konzultace s lékaři, nákup čerstvého ovoce.,"
    },
    "leo": {
        "main": "Při pondělku se rozhodnete vyřídit všechny potřebné úřední nebo pracovní záležitostí. Je vám jasné, že více času tento týden mít nebudete. Nezadaní Lvi se začnou více rozhlížet kolem sebe. Láká vás představa nové známostmi v tuto romantickou roční dobu.",
        "love": "Předvánoční atmosféra přinutí single jedince k oslovení svého idola. Neztrácejte čas, protože máte jedinečnou šanci.",
        "work": "Dokončete všechny resty, které do příštího týdne nevydrží, ať máte klid na duši a čas na poslední vánoční přípravy.",
        "relationships": "Nenechte své děti, aby šmejdili po bytě a hledali ukryté vánoční dárky. Raději je zaměstnejte sportovní aktivitou.",
        "health": "Máte-li sedavé zaměstnání, měli byste se během dne párkrát protáhnout nebo projít. Jinak trpí krční a bederní páteř.",
        "tips": "Seznam plánovaných aktivit na příští dny, pořízení vánočního stromečku, úklid domácnosti, rozeslání vánočních přání.,"
    },
    "virgo": {
        "main": "Nenechte si veškeré přípravy Vánoc na svých bedrech. Je třeba se také o jisté záležitosti podělit. Nebojte se oslovit rodinu, aby vám v náročných situacích pomohla. Nebojte, že na vše zůstanete sami. V rodině máte totiž stoprocentní oporu, Raci.",
        "love": "Pokud na letošní svátky snad nemáte partnera, nevěšte hlavu. Máte totiž kolem sebe spoustu dobrých přátel a milující rodinu.",
        "work": "Čeká vás příjemná pracovní nálada. I přes komplikace z poslední doby se nenecháte odradit od myšlenek na nadcházející svátky.",
        "relationships": "Začněte si dnes odškrtávat seznam povinností před vánočními svátky. Jejich plnění si doma spravedlivě rozdělte.",
        "health": "Pitný režim je pro vás nesmírně důležitý. Obyčejnou vodu můžete nahradit bylinnými nebo kvalitními ovocnými čaji.",
        "tips": "Nákup potravin na vánoční svátky, zdobení cukroví, návštěva lékaře, relaxační masáže, cvičení jógy podle internetu.,"
    },
    "libra": {
        "main": "Náročné období zimního slunovratu se může podepsat na vaší náladě. Možná si některé věci dnes berete příliš osobně a neumíte se na ně podívat s odstupem. Dopřejte svému tělu dostatek odpočinku, vynechte alkohol a jiné neřesti. Zítra bude lépe.",
        "love": "S miláčkem se vám nedaří sladit se v názorech. Nedejte se strhnout k hádkám. Na vině je totiž náročný zimní slunovrat.",
        "work": "S kolegy si dnes na pracoviště můžete nechat dovézt oběd nebo malé pohoštění a na kratší dobu si posedět a popovídat.",
        "relationships": "Nenechte se otrávit kýmsi z příbuzných, který na vás neustále hledá jen samé chyby. Nemusíte se mu s ničím svěřovat.",
        "health": "Dejte si dnes odlehčenou stravu a připravte své zažívání na nadcházející sváteční hody. Trochu detoxu vám vůbec neublíží.",
        "tips": "Péče o domácí květiny a rostliny, pořízení vánočního stromečku, telefonát s rodiči, péče o starší příbuzné, čtení dětem.,"
    },
    "scorpio": {
        "main": "Pracovní záležitosti si vyřídíte raz dva. Díky tomu budete mít dostatek času na vaše oblíbené denní snění. Hlavou vám ale navzdory předvánočnímu shonu budou běhat jen erotické myšlenky a představy. Máte šanci prožít s drahou polovičkou romantický den.",
        "love": "Jako byste doslova ožili. Hlavu máte plnou romantických nápadů, které byste nejraději zrealizovali hned. Partner bude nadšený.",
        "work": "Vaše disciplinovanost vám nedovolí vynechat jakoukoliv nutnou pracovní nebo úřední povinnost. Snažte se nechybovat.",
        "relationships": "Rodina je pro vás na prvním místě, proto chcete aby vše klapalo podle vašich představ. Vaši blízcí ocení komfort a pohodu.",
        "health": "Procházka zimní krajinou vás dokáže naladit na tu správnou atmosféru. Navíc si krásně pročistíte plíce a hlavu.",
        "tips": "Rozhovor s nadřízeným, předvánoční posezení s přáteli, nákup posledních vánočních dárků, kontrola výdajů za domácnost.,"
    },
    "sagittarius": {
        "main": "Zrovna se vám moc nehodí, že těsně před Vánocemi ještě doháníte náročné pracovní povinnosti nebo dotahujete jisté úřední záležitosti. Radost vám neudělá ani milostný život, pokud jste zrovna nezadaní. Jako by neexistoval vhodný partner zrovna pro vás.",
        "love": "Nemáte nouzi o nápadníky, ale nikdo není zřejmě podle vašich představ. Hledání odložíte až na období mezi svátky.",
        "work": "Jestliže jste se nedávno vrátili znovu do práce, máte možná pocit, že musíte pracovat na maximum. Udělejte si správný rozvrh.",
        "relationships": "Přepadnou vás výčitky svědomí, že se dostatečně nevěnujete svým ratolestem. Zkuste se jich nenápadně optat, co jim chybí.",
        "health": "Potřebujete se trochu zrelaxovat, protože je toho na vás v poslední době příliš. Zvolte podle momentálních možností.",
        "tips": "Dieta, detoxikace organismu, sledování zábavných pořadů, poslech motivačních podcastů, dodržování pitného režimu.,"
    },
    "capricorn": {
        "main": "Snažíte se soustředit na práci, ale veškeré myšlenky směřují již k nadcházejícím svátkům. Neustále si v hlavě přebíráte, zda máte vše nakoupené a kolik vám zůstalo na kontě. Uvědomte si, že máte na přípravy ještě dost času. Raději se něčím zabavte.",
        "love": "Vánoční období prožíváte velmi emotivně a pocity si někdy projektujete do druhých. Zkuste tuto metodu opustit.",
        "work": "Vy jste sice velcí pracanti, ale pomyšlení na nadcházející svátky vás nutí soustředit veškerou pozornost na rodinu.",
        "relationships": "Rodiče vás budou nabádat k větší zodpovědnosti s financemi. Nemají úplnou představu o vašem rozpočtu a výdajích.",
        "health": "Oblíbená hudba vám dokáže natolik zlepšit náladu, že se vaše okolí bude divit. Možná si společně s partnerem zatančíte.",
        "tips": "Pořízení posledních vánočních dárků, mytí auta, rozeslání vánočních přání e-mailem, práce se sociálními sítěmi.,"
    },
    "aquarius": {
        "main": "Opět ve vás budou hlodat myšlenky na změnu práce nebo profesní postup. Pokud to jde a máte chuť, požádejte si v práci o pár dní volna. Uvidíte, že vám prospěje více času s vaší rodinou nebo dobrými přáteli. Nezadaným do cesty hvězdy posílají lásku.",
        "love": "Kdosi z okolí má o vás evidentní zájem. Single Vodnářům nebrání nic v romantické schůzce. Předvánoční atmosféra umocní vášně.",
        "work": "Kratší volno a oddech od náročných záležitostí ohledně vaší kariéry se vám opravdu hodí. Vánoce nechte proběhnout v klidu.",
        "relationships": "Při předvánočních přípravách se budete muset zatím spolehnout sami na sebe. Rodina má dost starostí v zaměstnání nebo škole.",
        "health": "Na romantické hrátky s partnerem si najdete náladu vždy. Dnes si udělejte alespoň večer o samotě, jen pro vás dva.",
        "tips": "Vánoční výzdoba domu, úklid ložnice, nové recepty, návštěva obchodního centra, oběd s přáteli v oblíbené restauraci.,"
    },
    "pisces": {
        "main": "Rodina vás bude tlačit k odpočinku nebo delší dovolené. Záleží na vás, kolik toho dnes zvládnete. Ovšem ani vaše energie není nevyčerpatelná. Dávejte si proto pozor, protože budete sílu potřebovat minimálně do pátku. V kontaktu budete se svými příbuznými.",
        "love": "Překvapí vás, kolik nových přátel jste si za poslední dobu udělali. Telefonní seznam máte plný jmen a kontaktů.",
        "work": "Jako by pro vás neexistoval čas. Máte rozděláno tolik věcí, že byste potřebovali, aby měl den 25 hodin. Brzděte, hrozí kolaps.",
        "relationships": "Oporou vám dnes budou vaši sourozenci nebo mladší příbuzní. Potřebujete od nich poradit s dárkem pro prarodiče.",
        "health": "Náladu vám pomohou zvednout vaši domácí mazlíci. Mají na vás vyloženě antidepresivní účinky, což se vám dnes hodí.",
        "tips": "Návštěva kadeřnictví, kontrola pracovních e-mailů, domácí péče o pleť, úklid komory, balení vánočních dárků, nákup lahůdek.,"
    }
}