{
    "aries": {
        "main": "Přípravy na Štědrý den vrcholí i ve vaší domácnosti. Na řadu možná přijde zdobení stromečku, možná příprava bramborového salátu. Každopádně i vás zasáhne konečně sváteční nálada. Myšlení vám negativně neovlivní ani televizní zpravodajství nebo internet.",
        "love": "S miláčkem si vychutnáte přípravy na zítřejší Štědrý den. Při zdobení stromečku si užijete legraci a vrátíte se do dětských let.",
        "work": "Naštěstí jsou otevřené i menší obchody, kde dnes koupíte oblíbené lahůdky nebo potřebné potraviny na zítřejší den.",
        "relationships": "V předvečer Štědrého dne si společně se svými blízkými můžete udělat procházku na nejbližší náměstí k rozsvícenému stromečku.",
        "health": "Dobře vám udělá hustá zeleninová polévka. Když přidáte koření jako zázvor nebo chilli, prohřejete se a nastartujete organismus.",
        "tips": "Procházka po nejbližším okolí, nákup řezaných květin, venčení psa, domácí lázně, čtení dětem, posezení s kolegy nebo přáteli.,"
    },
    "taurus": {
        "main": "Pokud ještě dnes musíte do zaměstnání, připravte se na příjemné posezení s kolegy u kávy a cukroví. Sváteční nálada přes veškeré starosti a povinnosti vstoupí i do vaší firmy. Nezapomeňte na starší příbuzné a zjistěte, zda něco nepotřebují.",
        "love": "Se svou drahou polovičkou se vydáte na obhlídku nazdobeného stromečku ve vašem městě. Neodoláte nákupu vánočních suvenýrů.",
        "work": "Odložíte všechny pracovní a úřední povinnosti stranou. Myšlenkami směřujete jen k domovu a rodině a na nic jiného nemyslíte.",
        "relationships": "Rádi byste, aby se vaše ratolesti probudily další den k nazdobenému vánočnímu stromečku. Budete si muset ale počkat, než usnou.",
        "health": "Navečer vám udělá dobře teplá koupel s aromatickými oleji. Pomůže vám zrelaxovat a připravit na příjemný spánek.",
        "tips": "Zdobení vánočního stromečku, výzdoba domácnosti, venčení pejska, setkání s přáteli na vánočních trzích, relax u televize.,"
    },
    "gemini": {
        "main": "Naposledy se před Štědrým dnem někteří z vás sejdou s kolegy a spolupracovníky. Malé vánoční posezení není nic proti ničemu, pokud budete dodržovat jistá hygienická opatření. Koronavirové nebezpečí totiž stále není za námi. Vy si však náladu zkazit nedáte.",
        "love": "Kdosi z vašeho okolí vás doslova okouzlí svým přístupem k vám. Zamyslíte se nad tím, zda by to nebyl váš vhodný nový protějšek.",
        "work": "Pracovní povinnosti byste měli mít dávno hotové, takže se v zaměstnání můžete sejít s kolegy na menší vánoční posezení.",
        "relationships": "Ti z vás, kteří stále řeší pracovní záležitosti, se dnes mohou dočkat tiché domácnosti. Je třeba také přiložit ruku k dílu.",
        "health": "Příprava jídla na zítřejší slavnostní den vás může lákat k ochutnávání všeho možného. Buďte opatrní, hrozí potíže s trávením.",
        "tips": "Vánoční dekorování domova, sledování pohádek s dětmi, úklid ložnice, praní prádla, příprava bramborového salátu.,"
    },
    "cancer": {
        "main": "Budete se muset rozhodnout, čemu dnes dáte přednost. Zda zůstanete s partnerem doma v rodinném prostředí, nebo zda se připojíte ke svým přátelům na setkání. Vybírejte dobře, záleží především na tom, jestli mezi vámi a partnerem panuje vzájemná důvěra.",
        "love": "Táhne vás to do společnosti. Partner vás doslova bude muset umluvit, abyste zůstali doma a užili si také trochu romantiky.",
        "work": "Poslední pracovní povinnosti dokončete nejlépe do oběda. Pak už budete myšlenkami u vánočního stromečku a hlavně na něco nezapomeňte.",
        "relationships": "Okolnosti vás přinutí ještě před zítřejším dnem navštívit rodiče nebo starší příbuzné. Zřejmě se neobejdou bez vaší pomoci.",
        "health": "Jestliže cítíte slabší bolesti v krku, raději než na prášky vsaďte na bylinky. Kloktání šalvějovým odvarem vám pomůže.",
        "tips": "Balení vánočních dárků, manikúra, péče o účes, návštěva vánočních trhů, výlet do zoo s dětmi, aromatická koupel.,"
    },
    "leo": {
        "main": "Vrásky na čele vám stále přidělávají vánoční dárky pro vaše nejmilejší. Máte pocit, že nejsou dostatečné nebo že jich je málo. Brzděte, Lvi! Vánoce nejsou přece jen o dárcích, ale především jsou o času s rodinou a blízkými. To se cení nejvíce.",
        "love": "Pokud se dnes vydáte mimo domov, myslete na to, že je zítra Štědrý den a neponocujte. S miláčkem se včas vraťte domů.",
        "work": "Na poslední chvíli se někteří z vás vřítí do obchodního centra pro vánoční dárečky. Vybírejte však s chladnou hlavou.",
        "relationships": "Nálada ve vaší domácnosti se změnila jako mávnutím kouzelného proutku. Všichni s nadšením budou očekávat zítřejší den.",
        "health": "Vitaminy do těla doplňte jak v tabletkách, tak v čerstvém ovoci. Například čerstvá citrusová šťáva je dobrým zdrojem.",
        "tips": "Vydatný spánek, návštěva obchodního centra, nákup lahůdek na Štědrý den, zdobení vánočního stromečku, balení dárků.,"
    },
    "virgo": {
        "main": "Najděte si během náročného dne čas na vydatný odpočinek. Nemusí to být jen polehávání na gauči nebo spánek. Vyrazit můžete ven, s dětmi nebo partnerem. Nabízí se procházka zimní krajinou, výlet k řece nebo bruslení na veřejném kluzišti. Stačí si vybrat.",
        "love": "Příprava letošních svátků vám dala zabrat. Takže se s partnerem zmůžete jen na včasné ulehnutí do postele a spánek.",
        "work": "Může vám dorazit na poslední chvíli dárek objednaný přes internet. Doslova vám spadne kámen ze srdce, milé Panny.",
        "relationships": "Vymyslíte si s rodinou nějakou outdoorovou aktivitu v přírodě. Změna prostředí vám všem na chvíli jen prospěje.",
        "health": "Za velkou únavu, kterou pociťujete, může velké pracovní nasazení. Dovolte si více odpočívat, jinak hrozí kolaps.",
        "tips": "Návštěva rodičů nebo prarodičů, venčení pejsků s kamarády, bruslení s dětmi, výlet do centra města, návštěva kostela.,"
    },
    "libra": {
        "main": "Díky rozvolnění opatření se ještě dnes vydáte do obchodního centra dokoupit poslední dárky nebo jídlo, co vám doma schází. Snažte se ale vyrazit co nejdříve, protože jinak strávíte dlouhou dobu nejen ve frontách. Uvíznout můžete i na parkovišti.",
        "love": "Partner je podle vás málo pružný a pomalý, takže se do spoustu povinností dáte raději sami. Pak mu ale nesmíte nic vyčítat.",
        "work": "Nemáte-li stále vánoční stromeček, vydejte se pro něj. Stále bude z čeho vybírat, navíc si ho rovnou čerstvý ozdobíte.",
        "relationships": "Vaše děti si domů pozvou kamarády ze školy. Díky tomu se budete moct věnovat přípravám na zítřejší den v klidu.",
        "health": "Omezte pití kávy a alkoholu. Tělo je potom hodně dehydratované a musíte doplnit daleko více tekutin a vody přes celý den.",
        "tips": "Rozesílání vánočních přání e-mailem, posezení se sousedy, sledování oblíbeného pořadu, výzdoba domácnosti, úklid.,"
    },
    "scorpio": {
        "main": "Čekají vás poslední úpravy domácnosti před očekávaným Štědrým dnem. Dobře si rozmyslete, do čeho se dnes vrhnete. Některé věci už nechte tak, jak jsou, jinak se s nimi budete zabývat zbytečně dlouho. Raději si jděte dříve lehnout, ať jste druhý den fit.",
        "love": "Dárky pro svého partnera budete muset dobře schovat. Je zvědavý a navíc vynalézavý. Na vás si ale nepřijde, viďte?",
        "work": "Možná se vám nebude líbit původní vánoční výzdoba a rozhodnete se ji trochu upravit. Zbytečně si však přiděláte práci.",
        "relationships": "Odpoledne nebo navečer si vyjděte na krátkou procházku po okolí. Budete potřebovat čerstvý vzduch a změnu prostředí.",
        "health": "Za bolesti zad může pravděpodobně nesprávně zvolená matrace v posteli. Zkuste se podívat po jiném výrobku na internetu.",
        "tips": "Vydatná snídaně, návštěva starších příbuzných, kontrola pracovních úkolů, posezení s kolegy u kávy a cukroví.,"
    },
    "sagittarius": {
        "main": "Všechno dnes budete dohánět doslova na poslední chvíli. Ve skluzu jste už ale docela dlouhou dobu, takže vám to už ani nepřijde stresující. Naopak si den ještě zpříjemníte hezkou chvilkou s partnerem nebo veselým telefonátem s dobrým kamarádem.",
        "love": "Mezi přípravami na zítřejší Štědrý den si s partnerem udělejte čas na příjemný rozhovor a rozjímání o tom, co vás čeká.",
        "work": "Při zdobení vánočního stromečku se snažte nenervovat. Taková zamotaná světýlka vás doslova mohou dohnat k šílenství.",
        "relationships": "V nočních hodinách budete muset ozdobit vánoční stromeček a zabalit dárečky, aby vaše dítka měla zítra radost.",
        "health": "Oči máte unavené z neustálého dívání se do mobilu nebo počítače. Je nutné vašemu zraku dopřát odpočinek a nějaké ty vitaminy.",
        "tips": "Nákup vánočního stromečku, úklid domácnosti, romantická procházka s partnerem, setkání s kamarádem, balení vánočních dárků.,"
    },
    "capricorn": {
        "main": "Rodina bude mít pocit, že je pro vás důležitější bramborový salát než oni. Dejte pozor na to, zda je v zápalu příprav na Štědrý den nepřehlížíte. Mohla by z toho vzniknout zbytečná nedorozumění, která by se těžko do druhého dne napravovala.",
        "love": "Rádi byste měli na zítra vše dokonalé. Takže budete věnovat více času přípravám než partnerovi, který to špatně ponese.",
        "work": "Při kontrole surovin pro nadcházející svátky zjistíte, že vám něco chybí. Dokoupit to můžete ještě zítra, Kozorozi.",
        "relationships": "Najdete kompromis, jak vyvážit čas pro vaše děti a čas pro úklid domácnosti. Povede se vám to skloubit bez problémů.",
        "health": "Padne-li na vás únava během dne, s klidem si dopřejte odpoledního šlofíka, pokud máte možnost. Tělo je evidentně unavené.",
        "tips": "Oběd s kolegy, úklid pracovny nebo kanceláře, poslech vánočních koled, romantický večer s protějškem, mytí auta.,"
    },
    "aquarius": {
        "main": "V předvečer Štědrého dne si překontrolujte výzdobu domácnosti. Zítra totiž budete mít už jiné starosti. Na malou chvilku se připojíte ke svým kolegům nebo kamarádům, kteří si vyrazí popovídat do oblíbené kavárny nebo na procházku odpoledním městem.",
        "love": "Přátelé a kamarádi vás dnes vytáhnou na svařené víno nebo punč. Partner to sice vidí nerad, ale nechá si to pro sebe.",
        "work": "Přípravy na Vánoce vás letos doslova vyčerpaly z peněz. Víte, že si brzy budete muset hledat nějaký přivýdělek.",
        "relationships": "Nejbližší rodina bude nadšená, jakmile dnes vypnete počítač a práci odložíte. Hlavně děti se doma mohou opět nudit.",
        "health": "Do péče o zuby se vyplatí investovat. Nakupte si profesionální přípravky a pomůcky pro snadnější a důkladnější péči.",
        "tips": "Nové recepty, příprava smoothie, návštěva wellness centra, sportování s kamarádem, zábavné aktivity s dětmi nebo vnoučaty.,"
    },
    "pisces": {
        "main": "Single Ryby by se měly stále rozhlížet kolem sebe. Umíte výborně komunikovat a přátelství navazujete naprosto přirozeně. Možná se ale kolem vás pohybuje osoba, která by s vámi do budoucna mohla tvořit pár. Sundejte si klapky z očí, jinak minete příležitost.",
        "love": "Mezi přáteli se může skrývat potenciální nový protějšek. Mějte oči otevřené a neodmítejte pozvání na schůzky nebo procházky.",
        "work": "Překontrolujte si všechny odešlé platby z účtu, ať něco nepromeškáte. Mezi svátky nic včas nezaplatíte. Ani přes internet.",
        "relationships": "Bude vás trápit, že jste nestihli všechny potřebné přípravy na zítřejší den. Nevadí, milé Rybky, času budete mít dost.",
        "health": "Na počáteční kašel zvolte mimo jiné bylinné masti na hruď a záda. Uvidíte, že vám báječně uleví bez zbytečných prášků.",
        "tips": "Kontrola soukromé korespondence, nákup vitaminů a potřebných léků, mytí oken, oběd s dovážkou do domu, zdobení stromečku.,"
    }
}