{
    "aries": {
        "main": "Jako mávnutím proutku se může změnit nálada na pracovišti. Někdo z kolegů rozpoutá nepříjemné konflikty, které mohou zasáhnout i vás. Nenechte se strhnout k příliš expresivním slovním výrazům, které by vás mohly stát místo nebo dobrou pověst.",
        "love": "Někteří z vás si dnes budou chtít dát od milostného řádění pokoj. Možná vám docházej síly, protože jste se nezastavili.",
        "work": "V kolektivu si i dnes dávejte pozor na neshody s kolegy. Panují jistá nedorozumění a také nepochopení dané situace.",
        "relationships": "Zapojte dnes své ratolesti a dejte se do pečení velikonočních jidášů. Také jim řekněte něco o pověrách a zvycích.",
        "health": "Sladkosti si odpírat nemusíte, jen si hlídejte jejich množství. Budete si je moct dopřávat častěji a bez výčitek.",
        "tips": "Příprava na pomlázku, hledání letní brigády, setkání s rodinou, nákup jarních bylinek a květin, četba sci-fi literatury."
    },
    "taurus": {
        "main": "Ve svém okolí začínáte nacházet nové a zajímavé lidi, se kterými by vás mohlo přátelství pojit na dlouhou dobu. Bude to pro vás příjemná změna, po období, kdy jste si prošli očistou. Zatím ale ke všemu přistupujte opatrně a nevyprávějte o sobě vše.",
        "love": "Kolem vás se začínají rodit nové vztahy a možná jsou i daleko čistější a upřímnější. Je to pro vás obrovská vzpruha.",
        "work": "Dnešek by mohl být o mnoho klidnější než začátek týdne. Je to tím, že z vás pomalu spadla špatná nálada z mezilidských vztahů.",
        "relationships": "Možná byste se dnes měli věnovat svým dětem a zeptat se, jaké znají velikonoční tradice nebo zvyky. Bude je to zajímat.",
        "health": "Zkuste si doma vyrobit vlastní čisticí prostředky ze surovin, které najdete ve spíži. Čistit tím můžete nábytek i keramiku.",
        "tips": "Dokončení pracovní prezentace, rozhovor s nadřízeným, hledání letní brigády, studium historie, vaření rodinné večeře."
    },
    "gemini": {
        "main": "Ve své práci jste bohužel dost puntičkáři, takže vlastně tak trochu trápíte sami sebe. Vaše výsledky jsou dokonalé, ale pro vás stále nedostatečné. Jediné štěstí je v tom, že se nebudete ohlížet na to, zda vás ostatní pozorují či kritizují. To vás nezajímá.",
        "love": "Kdosi vás může dnes celkem jednoduše vyprovokovat. Je ale možné, že si za to můžete sami, svým dosavadním chováním.",
        "work": "Záleží vám na dobrých výsledcích, především kvůli vám samým. Jestli se ostatní dívají a zírají, to vás ani tak nezajímá.",
        "relationships": "Dejte se do příprav na velikonoční čas. Pečením sladkých jidášů nebo mazance byste dnes mohli začít. Dětem dovolte pomáhat.",
        "health": "Práce s rostlinami na zahradě nebo i jen na balkoně vám udělá dobře. Je třeba propojení s přírodou, které dodá energii.",
        "tips": "Účast na společenské akci s protějškem, návštěva městské knihovny, psaní fejetonů, romantická procházka po městě, vaření."
    },
    "cancer": {
        "main": "Dostali jste chuť na sobě více pracovat a to vás chválí. Zaměřte se ale na to, v čem jste dobří, a to podporujte. Slabé stránky občas není nutné stále pilovat, tam můžete selhat. Také vám úspěchy zvednou konečně tolik zkoušené sebevědomí.",
        "love": "Týden se blíží ke konci, a tak si můžete plánovat něco velmi příjemného na následující velikonoční dny. Vyberte si jen s kým.",
        "work": "Neschází vám naštěstí chuť na sobě pracovat. Je to moc dobře, žene vás to kupředu a práce nebude tak problematická oblast.",
        "relationships": "Dnes byste měli doma začít s přípravami na důležité dny Velikonoc. Upečte si jidášky a pořiďte hezkou pomlázku.",
        "health": "Vyvarujte se dnes dlouhého vysedávání u počítače. Nejenže se hrbíte, ale také si velice přetěžujete zrak. Raději relaxujte.",
        "tips": "Pečení velikonočních jidášů, pletení pomlázky, plánování víkendu s rodinou, hledání letní dovolené, nákup potravin."
    },
    "leo": {
        "main": "Uvědomíte si, že nedostáváte ve vztahu to, co byste si opravdu zasloužili. Bude vás to trápit, ale se stížnostmi u partnera neuspějete. Budete se muset dnes opravdu vážně zamyslet nad tím, kam vlastně váš vztah směřuje a zda je to to, co od života chcete.",
        "love": "Potřebujete o dost více pozornosti ve vztahu, než je vám momentálně od partnera dáváno. Výčitky budou k ničemu.",
        "work": "Byli byste velmi neradi, kdybyste v současné době přišli o práci. Proto si dnes budete dávat pozor na každý svůj krok a slovo.",
        "relationships": "Místo toho, abyste se dnes zaobírali něčím nepodstatným, začněte se pomalu připravovat na závěr týden. Jsou Velikonoce.",
        "health": "Nějaké výtvarné aktivity by se dnes hodily. Může to být ale také zvelebování domova dekoracemi nebo novou výmalbou.",
        "tips": "Oprava domácího spotřebiče, sledování hudebního pořadu, taneční lekce s partnerem, nákup společenského oblečení."
    },
    "virgo": {
        "main": "Plánujte letní dovolenou co nejdříve. Bude třeba sladit požadavky a představy všech zúčastněných a také si prověřit, co vše bude k cestování třeba. Pokud jste s partnerem, bude všechno mnohem jednodušší. A to i po finanční stránce.",
        "love": "Zkuste si dnes představit, jak by měla vypadat vaše letní společná dovolená. Zřejmě bude třeba plánovat rychle.",
        "work": "Do jistých plánů v práci se najednou vmísí problémy. Chce to chladné uvažování a chvilku přemýšlení, než opět pokročíte dál.",
        "relationships": "Doma se sejděte u jednoho stolu a proberte jak vaši finanční stránku, tak představy rodiny o letní dovolené v zahraničí.",
        "health": "Zasaďte si co nejvíce bylinek, ať máte čím kořenit a zdobit jídlo. V kuchyni je budete potřebovat celou sezonu, jako vždy.",
        "tips": "Plánování letní dovolené v lázních, úřední pochůzky, nákup krmiva pro domácí mazlíčky, projížďka na elektrokole."
    },
    "libra": {
        "main": "Nedávejte slovům jiný význam, než skutečně mají. Můžete se tak ušetřit zbytečným nedorozuměním a rozbrojům, které zbytečně sbírají energii. Pokud se vám něco nebude zdát, či nebudete něčemu rozumět, raději se ještě jednou a bez obav zeptejte.",
        "love": "Zadaní z vás mohou nyní ve vztahu trpět. Nedorozumění jsou na pořadu dne. Vykládáte si vše jinak, než je míněno.",
        "work": "Díky své píli můžete dosáhnout opravdu zajímavých kariérních cílů. Nesmíte ale usnout na vavřínech. Pracujte na sobě.",
        "relationships": "Vyrazte si ven na procházku a přiberte s sebou děti i čtyřnohé přátele. Relax v přírodě prospěje vám všem nabrat síly.",
        "health": "Nakupte si novou literaturu a studujte. Nenechte mozek zahálet zbytečnými aktivitami, jako je vysedávání u počítače.",
        "tips": "Příprava bezmasého oběda, psaní povídek pro děti, hledání letní brigády, úprava životopisu, návštěva stomatologa."
    },
    "scorpio": {
        "main": "Velikonoční prodloužený víkend může být zajímavý, ale chce to, abyste si vše dobře naplánovali a promysleli. Bude se vám nabízet mnoho setkání s přáteli, rodinné posezení nebo i choutky vyrazit za kulturou či do klubu. Vybírejte opravdu pečlivě.",
        "love": "Naplánujte si dnes již program na velikonoční víkend. Určitě máte s přáteli dobré nápady, jak si připomenout tradice.",
        "work": "Naštěstí se vám podaří nepodlehnout dnešní krátkodobé panice a absenci nových nápadů prostě svedete na únavu, což je pravda.",
        "relationships": "Doma byste se měli zajímat také o to, zda vaše ratolesti znají tradice a zvyky našeho národa. Možná mají mezery.",
        "health": "I když máte pocit, že dnes na internetu najdete vše, přece jen je to slabá náhražka opravdových knížek. Myslete na to.",
        "tips": "Hraní deskových her s kamarády, turnaj v šipkách, čtení fantasy literatury, sledování sportovního utkání, grilování."
    },
    "sagittarius": {
        "main": "K novým známým, kamarádům nebo milencům, buďte zatím skoupější na slovo. Je možné, že ne všichni jsou takoví, za které se vydávají, a mohou mít divné úmysly. Informace o soukromí, vaše politické názory a zdravotní stav si opravdu raději nechte pro sebe.",
        "love": "Velmi obezřetní byste měli být ve vztahu k novým přátelům nebo nápadníkům. Nemají zrovna čisté úmysly, tak pozor.",
        "work": "Pozor dnes na sníženou koncentraci. Zřejmě jste myšlenkami na prodlouženém víkendu a práce jde tak trochu mimo vás.",
        "relationships": "Jestliže se vám ani dnes nebude chtít zůstávat doma, podívejte se po zajímavém filmu v kině. Pobavit byste se mohli všichni.",
        "health": "Poslechněte si dnes oblíbenou hudbu. Ta by vás mohla přivést na jiné myšlenky a také vás skvěle zrelaxovat. Jen do toho.",
        "tips": "Nákupy květin a rostlin na sezonu, rodinná oslava, pečení sladkých dezertů, fyzické aktivity s dětmi, dokončení úklidu."
    },
    "capricorn": {
        "main": "Do života se vám může vrátit dávná láska či přítel z dětství a s tím spojené zvláštní vzpomínky. Pokud pro vás nejsou zrovna příjemné, snažte se vše raději utnout dřív, než si opět naběhnete. V opačném případě si ale setkání užijte na maximum.",
        "love": "Dávná láska z dětských nebo školních let se vám může připlést do života zničehonic. Záleží na tom, kam až to necháte dojít.",
        "work": "Je velmi pravděpodobné, že se váš nadřízený zalekne vašeho odchodu, a tak vám přislíbí takřka nemožné. Zamyslete se nad tím.",
        "relationships": "Pečení velikonočních jidášů je zvyk, který byste si mohli doma osvojit. Díky tomu budete mít společný koníček s rodinou.",
        "health": "Venčení pejska je skvělá šance, jak ujít delší trasu na čerstvém vzduchu. Vyberte si dobře oblečení a obutí na špacír.",
        "tips": "Výroba velikonočních dekorací, kardio cvičení ve fitness centru, nákup sportovního vybavení, plánování wellness pobytu."
    },
    "aquarius": {
        "main": "Nebude se vám dnes dobře vyjadřovat ani komunikovat v podstatě s nikým. Raději si půjdete po svých, a to v práci i v osobním životě. Díky tomu ale vše bude jednodušší a nezaděláte si na zbytečné problémy. Držte se osvědčených kroků a postupů.",
        "love": "Potíže ve vztahu k ostatním se můžou projevit především v oblasti komunikace. Rádi byste si své názory nechali pro sebe.",
        "work": "Moc dobře víte, že se v práci nemůžete zastavit a nesmíte zdržovat. Jenže přesně to vás stresuje, takže jste v bludném kruhu.",
        "relationships": "Dnes také budete těžko hledat chuť k tomu, abyste na sobě jakkoliv pracovali. Raději se budete flákat bez cíle.",
        "health": "Nepřeceňujte ještě počasí. Může se velmi rychle změnit. Na procházce buďte dobře vybavení i do deště či větru.",
        "tips": "Vaření rodinné večeře, poslech vinylových desek, hraní šachů, venčení a výcvik pejska, nákup nové elektroniky."
    },
    "pisces": {
        "main": "Jestliže jste už nějaký vztah pokládali pouze za platonický, osud vás dnes může velmi zaskočit. A příjemně! Vztah se totiž může sám od sebe vyvinout v milostný a dlouhodobý. Zřejmě jste jeden druhého dostatečně poznali a konečně se sblížili.",
        "love": "Zničehonic se váš dosavadní romantický či platonický vztah může přehoupnout do něčeho velmi vážného a trvalého.",
        "work": "Vašeho nadřízeného můžete dnes celkem snadno přesvědčit o tom, že jste na jistou pozici ti nejvhodnější kandidáti.",
        "relationships": "Nebaví vás neustálý stereotyp, a tak se necháte zlákat k novým zálibám. Zapsat do nového kurzu se půjdete s přáteli.",
        "health": "Nezapomínejte na svůj chrup. Do vaší domácí výbavy by měly patřit dentální nitě i spršky či kvalitní zubní pasty.",
        "tips": "Servis automobilu, luštění křížovek, hraní žolíků, poslech jazzové hudby, návštěva klubu s kamarády, relaxace."
    }
}