{
    "aries": {
        "main": "Jestliže se dnes nechcete vzdát svých společenských aktivit, ale na velké veselení se necítíte, nevadí. Vyjít si můžete i do kina s někým, kdo je vám opravdu milý a blízký. Uvidíte, že i klidnější program vám udělá fajn a budete se dobře bavit.",
        "love": "Na dnešní den byste si mohli naplánovat volnější program. Večer je vhodný k návštěvě kina nebo divadelního představení.",
        "work": "Protože je pracovní týden kratší než obvykle, můžete se opět těšit na volné dny. Své úkoly si ale udělejte bez odmlouvání.",
        "relationships": "Naplánujte si nějaký zajímavý víkendový program. Bude fajn, když budete myslet na svou pohodu, fyzickou i psychickou.",
        "health": "Promyslete si dnes, jaké wellness procedury by vám mohly prospět. Podívejte se po příjemném centru nebo hotýlku.",
        "tips": "Dokončení pracovního projektu, příprava nové obchodní prezentace, sledování dokumentárního pořadu, četba zahraničních knih."
    },
    "taurus": {
        "main": "Jen tak byste neměli lámat hůl nad svou kariérou. Je jasné, že pro postup budete muset ale něco udělat. Máte osud ve svých rukou, tak se toho odpovědně chopte, protože nikdo jiný to za vás neudělá. Zkuste si nejprve sepsat svůj nový životopis.",
        "love": "Plány, které máte dnes se svými nejbližšími a milovanými, neměňte. Určitě byste si to pak vyčítali. Vyrazte a bavte se.",
        "work": "I přes dílčí úspěchy nevzdávejte hledání lepšího místa, než máte dosud. Stále existuje šance na kariérní postup.",
        "relationships": "Jestliže budete chtít doma pro přátele uspořádat večírek, jistě se vám podaří. Máte talent na to být báječným hostitelem.",
        "health": "Jestliže si dnes chcete dopřát alkohol, mělo by to být v menší míře a především nemíchejte druhy. Zítra byste měli kocovinu.",
        "tips": "Bikram jóga, rekreační běh v přírodě, nákup vstupenek do divadla, úklid domácnosti, pořízení plážového a letního oblečení."
    },
    "gemini": {
        "main": "Závěr pracovního týdne vás potěší. Vy si prostě v těchto dnech v zaměstnání nelibujete a nejraději byste veškerý čas trávili doma. Vymyslet bude třeba ale vhodný víkendový program, který bude bavit všechny, ne jenom vás. Hledejte kompromis.",
        "love": "V mezilidských vztazích si s ničím nemusíte lámat hlavu. Vše půjde jak po drátkách a bez zbytečně velkých příprav.",
        "work": "Budete rádi, že je konec pracovního týdne. V zaměstnání se vám nedaří podle představ a jistější jste přece jen doma.",
        "relationships": "Popřemýšlejte nad pátečním programem i z hlediska ostatních doma. Musíte hledat vhodný kompromis pro každého z vás.",
        "health": "Pro dobrou pohodu si dnes naordinujte zábavný večer, plný vědomostních her nebo vyplňování kvízů či luštění křížovek.",
        "tips": "Poslech motivačního podcastu, nákup nových e-knih, servis domácí elektroniky, kontrola cestovních dokladů, plánování víkendu."
    },
    "cancer": {
        "main": "Vy si v práci dnes povedete velmi dobře, ale domů se vám moc chtít nebude. Zbytečně byste však své milé nechali doma čekat. Snažte se tedy svou práci co nejdříve dokončit, abyste si mohli doma udělat pěkný společný večer. Uvidíte, že bude nakonec fajn.",
        "love": "Vyrazte si s novým objevem do společnosti. Ukáže se vlastně, jak se oba mezi cizími lidmi budete k sobě chovat.",
        "work": "Páteční den mají ostatní více volnější, ale vy ne. Vy se i dnes vrhnete do náročnějších úkolů, které chcete ještě rozpracovat.",
        "relationships": "Večer je vhodný k tomu, abyste se věnovali svým milovaným v pohodlí domova. Vydatná večeře a domácí kino jsou vděčný nápad.",
        "health": "Nepřehánějte to dnes s alkoholem. Sice byste to ustáli, ale zítra ráno by to bylo i na vás kruté. Hlavně zažívání.",
        "tips": "Příprava rodinného oběda, studium cizího jazyka online, kontrola pracovního harmonogramu, pochůzky po úřadech, nákup potravin."
    },
    "leo": {
        "main": "Jestliže to jen trochu půjde, vyrazte si po práci do kina na nový film. Přijdete tak na jiné myšlenky a nebudete se stresovat tím, co bylo. Pokud ale zůstanete doma, ani tak se nemusíte do ničeho hnát. Vaši blízcí vás budou s radostí opečovávat.",
        "love": "Páteční podvečer přímo vybízí k návštěvě kina nebo k večeři s přáteli. Nezůstávejte doma jen proto, že nemáte dobrou náladu.",
        "work": "Páteční den přivítáte s nadšením a do nových věcí se v práci jen tak pouštět raději nebudete. Myšlenkami jste už na víkendu.",
        "relationships": "Doma se do ničeho nepleťte a nechte vaše milé, aby se o vás také konečně postarali. Zřejmě na vás čeká dobrá večeře.",
        "health": "Vám bude svědčit spíše odpočinek, a to jak psychický, tak fyzický. Nikam nespěchejte a zkrátka si jen užívejte života.",
        "tips": "Kontrola pracovních e-mailů, setkání s kolegy u kávy, pracovní pohovor, sestavení rodinného rozpočtu, hraní deskových her."
    },
    "virgo": {
        "main": "Kdosi z rodiny se na vás může obrátit se žádostí o pomoc či radu. Ať už mu poskytnete jedno nebo druhé, jisté je, že mu pomůžete. Máte pravděpodobně dobrý nadhled a také potřebné zkušenosti. Budete sami rádi, že jste mohli alespoň trochu moci.",
        "love": "Dnes si neodpírejte večeři v oblíbené hospůdce nebo restauraci. Určitě máte chuť na něco dobrého v klidném prostředí.",
        "work": "Zřejmě se již těšíte na víkend, a tak se možná málo koncentrujete na všechny své povinnosti. Pozor, ať něco nepromeškáte.",
        "relationships": "Dnes bude zřejmě třeba podat pomocnou ruku někomu z rodiny. Vyznáte se totiž dobře v něčem, v čem ostatní tápou.",
        "health": "Možná vás k večeru přepadne únava, a tak se nebraňte včasnému spánku nebo menší relaxaci. Tělu nic neodpírejte.",
        "tips": "Telefonát se sourozencem, plánování třídního srazu, filatelie, bowlingový turnaj s kamarády, procházka k nejbližší řece."
    },
    "libra": {
        "main": "Budete se těšit z toho, že práce vám jde jedna báseň, ale nebudete mít stání. Proto se nedivte, když doma budete pochodovat jako tygr v kleci. Bude nutné, abyste si udělali nějaký příjemný program na víkend a využili volné dny nejen k regeneraci.",
        "love": "Změna prostředí by prospěla vám i vašemu miláčkovi. Máte-li příležitost, vyjděte si alespoň do kina na nový film.",
        "work": "Budete nadšení z toho, že na pracovišti nehrozí žádné rozbroje a hádky. V takovém prostředí jde pak práce vám i kolegům těžko.",
        "relationships": "Jestliže i dnes budete nervózní z toho, že máte opět být doma, zkuste si na víkend naplánovat nějaké změny programu.",
        "health": "Zkuste uklidnit své nervy něčím, co vám dělá radost. Také se zaměřte na své tělo a dopřejte si nějaký oblíbený druh masáže.",
        "tips": "Filatelie, pěstování bonsají, fotografování jídla, úklid domácí pracovny, psaní povídek a fejetonů, úprava účesu."
    },
    "scorpio": {
        "main": "Máte štěstí na nového partnera. Je to pravděpodobně velmi citově založený člověk, který si potrpí na romantiku a něžnůstky. Vy se ale budete muset trošku brzdit, abyste ho návalem svých emocí neumořili. I tak vám to bude ale dnes báječně klapat.",
        "love": "Váš nový miláček se projeví jako velmi citlivá osůbka. Musíte tedy své emoce a romantická gesta dobře dávkovat.",
        "work": "Nemusíte si dělat obavy, když dnes v práci nezůstanete přesčas, ale naopak vyrazíte brzy domů. Nikdo vám to vyčítat nebude.",
        "relationships": "Dnešní den bude pro vás ve znamení rodiny. Určitě si neplánujte žádné vysedávání v barech nebo restauracích s přáteli.",
        "health": "Pravidelné dávky vitaminů byste neměli omezovat ani na jaře. Stále se u vás může vyskytnout nárazově únava a ztráta energie.",
        "tips": "Nákup plážového oblečení, plánování lázeňského pobytu, pěstování orchidejí, příprava ovocného smoothie, návštěva zoo."
    },
    "sagittarius": {
        "main": "Možná jste už vážně unavení večírky nebo ponocováním. Pokud ale nechcete přijít o posezení s přáteli, můžete uspořádat večírek u vás doma. Možná jste dobrými hráči pokeru, takže si můžete s kamarády udělat menší pokerový turnaj a pobavit se i tak.",
        "love": "Páteční večer prožitý doma vám jen prospěje. Dejte vale večírkům po barech, snažte se uklidnit a věnovat se sobě.",
        "work": "Mohli byste svým neopatrným jednáním přijít o to, co jste si dlouho budovali. Opět i dnes tedy buďte rozvážní a pomalejší.",
        "relationships": "Páteční podvečer nebo večer věnujte vědomostním nebo karetním hrám. Pokerový turnaj se bude líbit i vašim přátelům.",
        "health": "Pečujte dobře o své vlasy. Dopřejte si kvalitní přípravky, které jsou vhodné výhradně pro váš typ vlasů a účes.",
        "tips": "Cvičení jógy, meditace, rehabilitační cviky na záda, taneční lekce s partnerem, nákup vstupenek do divadla, rekreační sporty."
    },
    "capricorn": {
        "main": "Jestliže si dnes vyjdete do společnosti s novou láskou, bude vám moc fajn. Nebude vás totiž zajímat vaše okolí, ale svět bude existovat jen pro vás dva. I tak si večer užijete na maximum a rande může být velmi žhavé. Dovolit si můžete dokonce i ponocovat.",
        "love": "Nebojte se dnes vyrazit do společnosti s novým idolem. Budete mít stejně oči jen jeden pro druhého a nic jiného vás nezajímá.",
        "work": "Budete si dnes potřebovat odpočinout od vážných rozhodnutí. Dnešek věnujte jen těm povinnostem, které je nutné dokončit.",
        "relationships": "Domácí kino, popcorn a nealkoholické koktejly i pro děti, to by pro vás mohla být ta správná varianta pro páteční večer.",
        "health": "Vaše zuby zasluhují více péče. Nakupte si kvalitní přípravky i pomůcky, abyste se mohli o svůj chrup starat v pohodlí domova.",
        "tips": "Fotografování v botanické zahradě, pořizování nové elektroniky, bowling, pétanque v parku, projížďka na elektrokole."
    },
    "aquarius": {
        "main": "Bude dobré, když si dnes v práci splníte vše, co je nutné, ale včas se odeberete domů, abyste si páteční podvečer a večer užili ve společnosti svých nejbližších. Po cestě domů se zastavte v oblíbeném obchodě pro lahůdky, na kterých si společně pochutnáte.",
        "love": "Možná jste se rozhodli ukončit neperspektivní vztah, který vám dělal spíše vrásky na čele. Poučení z toho si ponesete dál.",
        "work": "Snažte se před víkendem dodělat vše, co vám leží na stole. Bude se vám totiž daleko lépe odcházet domů s čistým svědomím.",
        "relationships": "Dopřejte si dnes něco dobrého k večeři. Zajít si s rodinkou můžete i do vaší oblíbené restaurace a společně si to užít.",
        "health": "Procvičte si dnes krční páteř, můžete ji mít zablokovanou ze sedavého zaměstnání. Naučte se pár rehabilitačních cviků.",
        "tips": "Nové pracovní projekty, vyhledávání obchodních kontaktů, práce na zahradě, nákupy výtvarných potřeb, poslech audiotéky."
    },
    "pisces": {
        "main": "Pracovní povinnosti vás dnes mohou zdržet v zaměstnání o něco déle, než jste plánovali. Bohužel se to ale nedá nijak obejít. Místo toho, abyste si dnes plánovali večer ve společnosti kamarádů, dáte logicky přednost večeru ve dvou, s vaší novou známostí.",
        "love": "Rozhodně nemáte v úmyslu si dnes vyjít do společnosti s někým jiným, než je vaše nová láska. Kamarádi vás nepřemluví.",
        "work": "Pokud vám nic jiného nezbývá, budete se muset dnes zdržet v práci o něco déle. Dodělejte si své resty, ať máte o víkendu klid.",
        "relationships": "Jestliže se chystáte odjet z domova na víkend, měli byste si dnes připravit zavazadla, doklady a vše, co budete potřebovat.",
        "health": "Snažte se chodit vzpřímení, díky tomu působíte na své okolí sebevědoměji. Také uvolníte hrudní koš pro dostatek vzduchu.",
        "tips": "Úklid pracovního stolu, dokončení úředních záležitostí, kontrola domácího účetnictví, setkání s přáteli v baru."
    }
}