{
    "aries": {
        "main": "Nebojte se neděli prožít aktivně. Ať už vyrazíte za sportem nebo za kulturou, doprovázet vás mohou přátelé či rodina. Rozhodně si ale užívejte vše, do čeho se dnes pustíte. Pokud dnešní den jen proležíte na gauči, zbytečně by vás to pak mrzelo.",
        "love": "Ani dnes nemusíte zůstávat sami doma. Uvidíte, že program pro single jedince se najde určitě. Co třeba návštěva výstavy?",
        "work": "Ani dnes se nedávejte všanc podezřelým transakcím. Jinak byste unáhlených rozhodnutí mohli v budoucnu litovat.",
        "relationships": "Odpočívat můžete i aktivně. Pokud ještě nemáte svůj oblíbený sport, najděte si nějaký. Dobře vám poradí přátelé.",
        "health": "Sportovním aktivitám je dnes přáno. Vyberte si ale takové, které vyhovují vaší fyzické kondici a také aktuálnímu počasí.",
        "tips": "Návštěva jarní pouti, procházka po okolí, vyjížďka vlakem za město, fotografování v přírodě, příprava na nový pracovní týden."
    },
    "taurus": {
        "main": "Využijte volného nedělního dne a udělejte si hezký program na odpoledne. Rozhodně byste neměli vysedávat doma. Pokud vám to počasí alespoň trochu dovolí, vyjděte ven a bavte se. Jistě potěšíte děti návštěvou jarní pouti. I vy se vrátíte do dětských let.",
        "love": "Odpočívejte, jděte na romantickou procházku do přírody, užívejte si jarního počasí. Vše vám dodá energii do nového týdne.",
        "work": "Ani dnes vás neopustí snaha zabezpečit rodinné finance. Udělejte si doma přehled o tom, jak byste chtěli s penězi naložit.",
        "relationships": "Jestliže se někde ve vašem okolí koná jarní pouť, vyrazte si na ni. Je to báječný nápad, jak si užít odpoledne.",
        "health": "Pozor byste si měli dát na přechlazené nápoje a velké množství zmrzliny nebo ledové tříště. Hrozí nepříjemné nachlazení.",
        "tips": "Příprava rodinného oběda, telefonát se spolužákem, plánování třídního srazu, hraní na hudební nástroje, procházka k řece."
    },
    "gemini": {
        "main": "Neděle by měla být zaměřená na odpočinek, nikoliv na tvrdou práci, především tu manuální. Potřebujete si dát oraz od náročných činností, které by vám akorát tělo unavily a vyčerpaly. Myslete na zítřejší pracovní den a poctivě dnes relaxujte.",
        "love": "I kdyby počasí dnes nebylo extra teplé, vydejte se s přáteli za sportem nebo alespoň na příjemnou delší procházku.",
        "work": "Neutrácejte za něco, co vám vlastně žádnou službu a radost nepřinese. O nákupech či investicích více přemýšlejte.",
        "relationships": "Neordinujte si nic náročného na nedělní den. Spíše se snažte konečně také odpočívat. Jen s knížkou a dobrým nápojem.",
        "health": "K relaxaci si dnes dopřejte sklenku dobrého vína nebo oblíbeného destilátu. Ale musí být jen jedna, ať nemáte zítra kocovinu.",
        "tips": "Zahradnické práce, nákupy v hobby marketu, psaní básniček, hraní vědomostních her s přáteli, servis domácího spotřebiče."
    },
    "cancer": {
        "main": "Nedělní den prožijete spíše v kruhu rodiny, bez náročnějších povinností. Jestliže je před vámi rodinná sešlost či obyčejná návštěva příbuzných, nezapomeňte přinést malou pozornost, květiny nebo oblíbené zákusky. Hostitelům tak uděláte radost.",
        "love": "Den si naplánujte jako méně zátěžový a zkuste se věnovat spíše romantickým prožitkům a milostným hrátkám s partnerem.",
        "work": "Víte, že kdosi z blízkých touží po něčem pěkném, až luxusním. Nebudete dlouho uvažovat nad koupí takového dárku.",
        "relationships": "Jestliže vás čeká návštěva příbuzných, dobře se na ni připravte a také přijeďte včas. Neměli byste je nechat čekat.",
        "health": "Dopřejte si doma menší lázeňskou proceduru. Ať už to bude aroma koupel, masáž dolních končetin nebo pedikúra. Prospěje vám.",
        "tips": "Sledování sportovního přenosu, setkání se staršími příbuznými, badminton, bowling, projížďka na kole v přírodě, hraní karet."
    },
    "leo": {
        "main": "Popřemýšlejte o tom, co byste mohli udělat dnes pro svou pohodu. Možná to bude nějaký oblíbený sport, možná výtvarná aktivita. Každopádně byste vše měli dělat s radostí, nikoliv z donucení. Především ale nemyslete na povinnosti, které máte před sebou.",
        "love": "Den byste měli směřovat spíše k pohodovým aktivitám. Co třeba příjemná procházka po oblíbených místech ve městě?",
        "work": "Sice byste rádi našli řešení současné finanční situace u vás v rodině, ale není to tak jednoduché. Prověřte si více trh.",
        "relationships": "Fyzický pohyb by vám prospěl. Zkuste si nějaké kolektivní sporty v přírodě s vašimi dětmi nebo kamarády. Vybavení na to máte.",
        "health": "Nemusíte dnes tradičně obědvat něco těžkého a masitého. Klidně se zařiďte podle potřeb svého těla a dejte si salát.",
        "tips": "Sázení kuchyňských bylinek, hraní na hudební nástroje, lekce společenského tance, rehabilitační cvičení na záda."
    },
    "virgo": {
        "main": "I když je víkendový den, vy máte dnes co dělat. Je třeba zřejmě připravit děti na nový týden ve škole. Neberte to tak vážně, ať sebe nebo své potomky příliš nestresujete. S partnerem je třeba také upevnit váš milostný život, tak si na to najděte čas.",
        "love": "Také dnes se raději věnujte partnerovi než novým známým. Zasloužíte si oba zapracovat na vašem milostném vztahu.",
        "work": "Tím, že budete pokoušet hazard, ničemu nepomůžete. Naopak z kapsy vytáhnete další peníze a nic se vám nevrátí.",
        "relationships": "Nedělní den byste si rádi užili v klidu. Bude ale třeba se připravit na nový pracovní a školní týden. Věnujte tomu pozornost.",
        "health": "Nedělní oběd si připravte rychlý a jednoduchý. Místo těžkých omáček s masem postačí barevný salát s kvalitním olejem.",
        "tips": "Posezení se sousedy, návštěva umělecké galerie, ruční mytí auta, úklid domácnosti, setkání s přáteli, sportovní aktivity."
    },
    "libra": {
        "main": "Jestliže to vaše podmínky dovolují, vrhněte se do zvelebování zahrádky nebo terasy. Určitě máte mnoho dobrých nápadů a plánů, jak si tyto kousky přírody zkrášlit a dobře je využít. Pomoci vám mohou i členové rodiny. Nebo sousedi dobrou radou.",
        "love": "Ani dnes se nevyhýbejte milostným projevům a vášnivým hrátkám s vaším protějškem. Dodá vám to energii a sebevědomí.",
        "work": "Můžete dnes dostat velmi cennou radu ohledně investování. To vám naprosto změní pohled na vaši současnou situaci.",
        "relationships": "Máte-li možnost, věnujte se své zahrádce nebo rostlinkám na balkoně. Potřebujete nutně kontakt s půdou a přírodou.",
        "health": "Jako zdravou svačinku si dopřejte více druhů ovoce. Vybírejte to, které znáte a máte rádi. Zkusit ale můžete i exotické.",
        "tips": "Kardio cvičení v přírodě, návštěva aquaparku, plánování letní dovolené, hraní na hudební nástroje, poslech vinylových desek."
    },
    "scorpio": {
        "main": "Máte-li někde u někoho nějaké dluhy, bude dobře, když se dnes na to zaměříte, a pokud možno alespoň část jich splatíte. Díky tomu tak nebudete působit nespolehlivě a také vám vaši příbuzní či přátelé neodmítnou potenciální pomoc v budoucnu.",
        "love": "Společný oběd si s partnerem užijete ať už budete doma, nebo si vyrazíte do restaurace. Oči budete mít jen pro toho druhého.",
        "work": "Pokud jste si někde u rodiny půjčili peníze, bude fajn, když jim je vrátíte. Jedině tak si u nich nepokazíte pověst.",
        "relationships": "Nezapomínejte také na sázení rostlinek a květinek, které vám v letní sezoně udělají radost. Do prací zapojte i zbytek rodiny.",
        "health": "Jestliže se dnes budete pohybovat na sluníčku, nezapomeňte si oči chránit kvalitními slunečními brýlemi. Zrak to ocení.",
        "tips": "Nákupy potravin pro starší příbuzné, péče o domácí mazlíčky, výtvarné a kreativní práce, tvorba interiérových dekorací."
    },
    "sagittarius": {
        "main": "Pozor si dejte na všechny obchody a investice, které vás zavazují k něčemu vážnému či drahému. Bude třeba, abyste se tomuto absolutně vyhnuli, protože by vás z toho čekaly v budoucnu jen problémy. Pokud vás trápí finance, řešit se to dá jinou cestou.",
        "love": "Ať už se dnes budete věnovat na sociálních sítích jen seznamování, nebo hledání nových informací, pořád buďte obezřetní.",
        "work": "Ani dnes nepodnikejte nějaké riskantní kroky, které by vás v budoucnu mohly mrzet. Nic závazného nepodepisujte a neschvalujte.",
        "relationships": "Odreagovat byste se mohli na jarní pouti nebo v nějakém zábavním či sportovním parku. Hledejte ve vašem blízkém okolí.",
        "health": "Dnes si můžete neopatrným jednáním způsobit menší úraz. Dávejte tedy pozor na každý svůj krok či pohyb, ale nepanikařte.",
        "tips": "Poslech oblíbené hudby, plánování pracovních aktivit, sledování sportovního utkání, nákup plavek a plážového vybavení."
    },
    "capricorn": {
        "main": "Možná uvažujete o nějakém způsobu investování financí nebo spoření pro děti. Porozhlédněte se na trhu, ale rozhodně budete potřebovat odbornou radu. Pomoci by vám mohl někdo z přátel nebo rodiny, který tyto zkušenosti má a mohl by dobře poradit.",
        "love": "Neděli si nechte jen pro sebe a svého nového partnera. Nikdo jiný by mezi vás neměl vstupovat. Chraňte si své cenné soukromí.",
        "work": "Bude třeba naplánovat pravidelné ukládání peněz na zajímavý spořicí účet nebo fond, kde se vám budou korunky množit.",
        "relationships": "Aquapark či wellness by mohly být dobrou variantou, jak si v neděli dopřát relax a odpočinek mimo domov. Zvlášť pro děti.",
        "health": "Dejte si dnes trochu do těla nějakým oblíbeným pohybem. Určitě vám prospěje i procházka ostrým tempem na čerstvém vzduchu.",
        "tips": "Ruční čištění auta, nákup nové elektroniky do domácnosti, grilování, péče o balkonové rostliny, příprava s dětmi do školy."
    },
    "aquarius": {
        "main": "Dnes byste měli dělat jen to, co vám je příjemné, bez zbytečné námahy. Nevyčítejte si něco, co se nepovedlo, ale zamyslete se nad tím, jak se tomu příště vyvarovat. Den byste měli věnovat také přípravě na další náročný pracovní či školní týden.",
        "love": "Nepovedený vztah vás sice může mrzet, ale víte, že zřejmě jiná cesta než rozchod nebyla možná. Zkuste relaxovat.",
        "work": "Protože si zatím hledáte možnosti, jak vylepšit rodinný rozpočet, dnes zbytečně neutrácejte. Raději peníze držte na kontě.",
        "relationships": "Neděli byste měli pojmout více relaxačně a bez námahy. Věnujte se svým hobby aktivitám a stejnou volnost dopřejte i ostatním.",
        "health": "Myslete hlavně na to, že potřebujete také pravidelnou procházku na čerstvém vzduchu. Máte-li pejska, jste ve výhodě.",
        "tips": "Návštěva kostela, plánování nového pracovního týdne, psaní romantických básní, úklid domácí pracovny, zpívání s dětmi."
    },
    "pisces": {
        "main": "Klidně si dnes dovolte vyjít do restaurace na oběd, místo toho abyste vysedávali doma nebo oběd sami připravovali. Čas, který tímto uspoříte, můžete využít k příjemným rozhovorům a posezení s rodinou. Odpoledne doplníte příjemnou procházkou po okolí.",
        "love": "Dobrý oběd v nové restauraci by vám mohl přijít k duhu. Je to žádaná změna prostředí a také nové kulinářské zážitky.",
        "work": "Zkuste si dnes vaše štěstí ve hře a vsaďte si svá oblíbená čísla v loterii. Co kdyby na vás přece jen sedla štěstěna?",
        "relationships": "Neděle, kterou prožijete v luxusním wellness centru nebo hotýlku, vás i rodinu nabije energií na celý další týden.",
        "health": "Vířivka, saunování či tepidarium udělá vašemu zdraví opravdu dobře. Vyberte si zrovna to, na co máte dnes náladu.",
        "tips": "Procházka k nejbližší řece, příprava na nový pracovní týden, nákup sportovního vybavení pro děti, vaření rodinného oběda."
    }
}