{
    "aries": {
        "main": "Neděle je od slova nedělat. Tak si dopřejte pořádný odpočinek. Nejlépe tak, že se budete věnovat oblíbeným činnostem. Ať už sami, nebo se svými blízkými. Určitě dnes vynechte náročnější sporty, kde hrozí úrazy. Raději se připravte do nového týdne.",
        "love": "Nedělní den vás láká k lenošení. I když jste s protějškem akční osoby, dopřejte si odpočinek. Relaxovat se dá různě, že?",
        "work": "Stále buďte ostražití, co se nečekaných výdajů týká. Pokud nebudete uvažovat racionálně, hrozí nerozumné útraty.",
        "relationships": "Neděli byste měli prožít více v klidu. Snažte se dnes vynechat náročnější práce a raději si den vychutnejte s knihou v ruce.",
        "health": "Bude pro vás důležitá pohoda a klid. Potřebujete si srovnat myšlenky v hlavě a také se zrelaxovat před začátkem týdne.",
        "tips": "Vydatný spánek, společenské posezení se sousedy, četba humorného románu, péče o domácího mazlíčka, servis automobilu."
    },
    "taurus": {
        "main": "Na pořadu dne by měly být činnosti, spojené s kontrolou domácího účetnictví a všech úředních dokumentů. Pokud vše budete mít v pořádku, máte na dlouhou dobu klid. Najděte si doma klidné místo, kde se budete moct na práci pořádně soustředit.",
        "love": "Vztahové záležitosti vám tento týden daly zabrat. Je třeba, abyste si dnes od toho všeho odpočinuli a byli chvíli o samotě.",
        "work": "Směřujte své myšlenky ohledně peněz tam, kde máte nějaké resty. Snažte se vše zaplatit včas. Jinak budete mít starosti.",
        "relationships": "Víte, že se umíte ozvat, když je třeba. V neděli si ale dáte nakonec pokoj a své rodině se budete věnovat s láskou.",
        "health": "Domácí lázně nejsou nic složitého. Postačí do teplé koupele přidat pár kapek esenciálního oleje. Oblíbená hudba také pomůže.",
        "tips": "Návštěva příbuzných, nákup řezaných květin, psaní humorných povídek, romantická procházka s partnerem v přírodě."
    },
    "gemini": {
        "main": "Budete mít příležitost, abyste srovnali v rodině rozbroje, které nějakou dobu již trvají. Stanete se na chvíli prostředníkem a dáte rozhádané strany dohromady. Sice to zabere čas a bude vás to stát energii, nakonec na sebe ale budete pyšní. Jen tak dál!",
        "love": "Mezi přáteli je kdosi, kdo je přesně vaše krevní skupina. Dnes si spolu můžete udělat program, který vás oba bude bavit.",
        "work": "Hodně věcí vám dnes dojde. Hlavně těch, o kterých jste měli v minulosti pochyby. Vyplatila se vám jistá opatrnost.",
        "relationships": "Usmíření napříč rodinou je dnes na pořadu dne. Můžete hrát roli úspěšného mediátora mezi znesvářenými stranami.",
        "health": "Při přípravě oběda či večeře nezapomínejte na správnou porci zeleniny nebo ovoce. Obsahují vitaminy a vlákninu.",
        "tips": "Vaření rodinného oběda, hledání letní brigády, poslech motivačních podcastů, kolektivní míčové hry s dětmi, wellness."
    },
    "cancer": {
        "main": "Vědomostí máte opravdu hodně. Proč nezkusíte štěstí v nějaké televizní soutěži? Možná se obáváte neúspěchu, ale vězte, že tomu tak vůbec nemusí být. Nebo si alespoň dnes zakupte výherní los, čeká na vás menší, ale příjemná výhra, která vám zpříjemní den.",
        "love": "Zažívat můžete celkem šokující obraty ve svém milostném životě. Není ale třeba se obávat, čekají na vás lepší zítřky.",
        "work": "Máte velké šance stát se výhercem pěkné ceny. Ať už si koupíte los, nebo pošlete správnou odpověď na televizní otázku.",
        "relationships": "Vyslechněte pozorně své potomky. Mezi řádky vám zřejmě naznačí, co je trápí. Budou potřebovat vaši pomocnou ruku.",
        "health": "Bolesti krční páteře jsou důsledkem sedavého zaměstnání a špatného protahování nebo nedostatku rehabilitace zad.",
        "tips": "Návštěva kulturních památek, odpolední grilování, posezení se sousedy, malování, výtvarné techniky, úklid terasy."
    },
    "leo": {
        "main": "V současné době je již otevřeno mnoho zajímavých míst, která můžete navštívit. Ať už se dnes vydáte za památkami nebo do botanické zahrady, užijete si to. Musíte si s sebou vybrat vhodnou společnost. Ti, co již mají rodinu, ani nemusí váhat.",
        "love": "Výlet se skupinkou dobrých přátel vás dnes příjemně rozptýlí. Myšlenky budou rázem veselejší a neděle pohodová.",
        "work": "Udělejte si čas na to, abyste si prošli všechny soukromé e-maily a dokumenty. Dejte si vše do pořádku, ať máte klid na duši.",
        "relationships": "Výlet za památkami se dnes bude líbit celé vaší rodince. Vybavte se do každého počasí a užijte si společně prožitý den.",
        "health": "Při manuální práci s nářadím rozhodně dbejte na bezpečnost. Používejte správné ochranné prvky, jinak se ohrozíte na zdraví.",
        "tips": "Renovace zahradního nábytku, houbaření, procházka se psem k vodě, ruční čištění automobilu, deskové hry s dětmi."
    },
    "virgo": {
        "main": "Je třeba, abyste si utříbili myšlenky. Proto jistou část dne věnujte pobytu v přírodě. Také se snažte meditovat. To je opravdu dobrá metoda, jak svou mysl uklidnit. Uvidíte, že vám takové techniky pomohou dnes a možná si je ponecháte i do budoucna.",
        "love": "Nechte v neděli stranou vše, co by mohlo vést ke konfliktům. Raději si udělejte něco dobrého k jídlu a odpočívejte.",
        "work": "I dnes se zaměřte na všechny úřední dokumenty. Není to sice příjemná zábava na neděli, ale ušetříte si problémy do budoucna.",
        "relationships": "Pobytem v přírodě se zbavíte toxických myšlenek a stresu. Dnes si vyjděte do lesa a přiberte košík na houbařské úlovky.",
        "health": "Pravidelným cvičením jógy nejen zklidníte svou mysl, ale protáhnete tělo a zeštíhlíte svaly. Je to také dobrá forma meditace.",
        "tips": "Pěstování bonsají, úklid ložnice, malování, drobné řemeslné práce, studium astrologie, sekání trávníku, procházka."
    },
    "libra": {
        "main": "Neděli nechte probíhat v příjemné atmosféře. A toho dosáhnete tím, že nebudete zbytečně tlačit na pilu a věcem necháte volný průběh. Čeká vás další pracovní týden, do kterého byste měli vstoupit odpočatí, plní energie. Večerní procházka po okolí udělá své.",
        "love": "Pro zadané bude dnešní den příjemný a nálada se ponese v klidném duchu. Optimisticky vás to naladí do nového týdne.",
        "work": "Objevíte v sobě obchodní talent. Ať už při prodeji, nebo při nákupu. Rozhodně vám to přinese radost nebo penízky navíc.",
        "relationships": "Příprava na nový pracovní týden vyžaduje jednoznačně odpočinek a relax. Odpusťte si náročné činnosti, které by vás vyčerpaly.",
        "health": "Barvení vlasů zvládnete s přehledem i v prostředí domova. Jen si musíte vybrat tu správnou barvu a pozorně si přečíst návod.",
        "tips": "Romantické hrátky s partnerem, sledování televizního seriálu, omezení alkoholu a kouření, četba cizojazyčné literatury."
    },
    "scorpio": {
        "main": "Jakýkoliv výlet do přírody vás spolehlivě občerství a dodá energii do nového týdne. Jestliže nejste zrovna aktivní sportovci, nemusíte se mučit. Stačí, když ostrou chůzí ujdete několik kilometrů. Také venčení pejska se počítá jako pohyb. Tak hurá ven!",
        "love": "Ani dnes nemusíte vysedávat doma. Vydejte se na kratší túru po okolí a cestou se zastavte na něco dobrého v oblíbené hospůdce.",
        "work": "Dnes se vám podaří se ovládnout a nedat šanci nákupům ve slevách. Zboží by bylo sice kvalitní, ale vy ho nepotřebujete.",
        "relationships": "Sportovní vybití potřebujete, ale nemusí to být zásadně bojová umění či něco náročnějšího. Postačí běh v přírodě.",
        "health": "Meditační a dechová cvičení vám pomohou si odpočinout od ruchu dne. Naučte se pár technik, které vám budou vyhovovat.",
        "tips": "Příprava domácího kompotu, třídění dětského oblečení, nákup potravin, venčení pejska s přáteli, odpolední siesta s knihou."
    },
    "sagittarius": {
        "main": "Rádi byste se ponořili do nákupů dražší elektroniky či jiného zboží. Měli byste se ale dobře připravit, sehnat si všechny informace a také si načíst recenze ostatních zákazníků. Dejte si načas, abyste nekupovali zajíce v pytli, ale opravdu kvalitní věc.",
        "love": "Snažte se porozumět svému partnerovi. Nakonec to nebude tak složité. Stačí mu jen pečlivě naslouchat a budete v obraze.",
        "work": "Předtím než se rozhodnete pro větší investice do nějakého předmětu, zkuste si najít recenze, které vám usnadní rozhodování.",
        "relationships": "Prospějí vám klidnější aktivity, jako jsou společenské hry nebo domácí kino. Ať už zvolíte cokoliv, bude vám doma fajn.",
        "health": "Správnou a důkladnou péčí o ústní dutinu a zuby předejdete zbytečným potížím a bolestem. Péče vyžaduje jen více času.",
        "tips": "Milostné hrátky s partnerem, ruční mytí automobilu, samostudium cizího jazyka, kreativní práce, úklid domácí dílny."
    },
    "capricorn": {
        "main": "Dovolte si také vy v neděli delší spánek a nic si nevyčítejte. Protože nikam nespěcháte, zas takový problém to pro vás nebude. Ti z vás, kteří jste v partnerském vztahu, si navíc mohou užít něžné chvilky již po ránu, což vám absolutně zlepší celý den.",
        "love": "Ti Kozorozi, kteří mají spokojený vztah, si dnes užijí romantiku a něhu. S partnerem budete mít čas jen sami pro sebe.",
        "work": "Možná nevěříte na zázraky, ale zkuste si dnes zakoupit výherní los. Štěstěna může stát i při vás. Malý hazard stojí za to.",
        "relationships": "Klidně si můžete dnes přispat. Ostatní členové domácnosti pro to budou mít pochopení. Vidí na vás, že potřebujete odpočívat.",
        "health": "Omezte přes den přílišnou konzumaci alkoholu. Raději si dopřejte dostatečné množství kvalitních minerálních vod.",
        "tips": "Příprava rodinného oběda, odpolední návštěva příbuzných, venčení pejska v lesoparku, houbaření, nákup potravin s dovážkou."
    },
    "aquarius": {
        "main": "Přepadne vás touha většinu dne strávit zahradnickými pracemi. Cítíte, že byste se uprostřed svých pěstitelských pokusů mohli báječně zrelaxovat. Máte-li tedy možnost, zahradničením se zaměstnejte na celou neděli. Nikdo vám to nebude vyčítat.",
        "love": "Nenechte se omezovat výkyvy nálad svého protějšku a přejděte je s nadhledem. Vaše velkorysost ho překvapí a uklidní se.",
        "work": "Peníze nerostou na stromech, a tak se ani dnes nenechejte zviklat slevami, které jsou nyní v obchodech na každém kroku.",
        "relationships": "Pokud je zahradničení vaší oblíbenou činností, neodoláte ani v neděli. Péče o zahradu nebo kvetoucí terasu vám udělá radost.",
        "health": "Mozek v pohotovosti vám pomohou udržet nejrůznější vědomostní hry a soutěže. Doma k tomu máte nejlepší možnost.",
        "tips": "Zábavné a vědomostní hry s dětmi, zahradnické práce, pěstování balkonových rostlin, kreativní a výtvarné techniky."
    },
    "pisces": {
        "main": "Pocítíte, že tělo potřebuje více odpočinku. Takže se nemusíte hrnout z postele příliš brzy, ale naopak si přispěte. Procházkou v přírodě také nic nepokazíte. Zkrátka si vybírejte jen nenáročné aktivity. Ani ostatním doma to nebude proti srsti.",
        "love": "Romantická procházka v přírodě vám dokonale zlepší nedělní odpoledne či podvečer. Ruku v ruce si užijete jeden druhého.",
        "work": "Hlídejte si své cennosti, pokud vyrazíte mezi lidi. Roztržitost vás může připravit o doklady, peněženku nebo mobilní telefon.",
        "relationships": "Pokud si dnes přispíte, nic se neděje, nikam nespěcháte. I ostatní členové domácnosti pod peřinou rádi zůstanou o něco déle.",
        "health": "Při přípravě snídaně neopomínejte čerstvou zeleninu, ale také vejce nebo celozrnné pečivo. Kvalitní káva je samozřejmostí.",
        "tips": "Vydatná rodinná snídaně, rozhovor s kamarádem, telefonát se sourozenci, turnaj v šipkách s rodinkou, žhavé rande."
    }
}