{
    "aries": {
        "main": "Angažovat se budete především doma. Partnerský vztah nebo rodina si vyžádají sofistikovanější program na odpoledne. Vám to ale naštěstí žádný problém nedělá. Sami se neradi nudíte a stále zkoušíte nové věci. Dnes můžete ostatní jen překvapit.",
        "love": "Ve vztahu se tedy opravdu nenudíte. Letní počasí vás láká ke spoustě nových zážitků. Ať už s partnerem, nebo s kamarády.",
        "work": "Máte dost rozumu, abyste si svým chováním neuškodili před nadřízeným. Raději se dnes opět věnujte práci více než klábosení.",
        "relationships": "Na programu dne by měly být mnohem prospěšnější činnosti než sledování televize. Vymyslete pro sebe i rodinu lepší program.",
        "health": "Pozor na dolní končetiny, především oblast stehen. Může vás pobolívat natažený sval. Zkuste pár protahovacích cviků.",
        "tips": "Online porada s vedením firmy, manikúra, pedikúra, olejová rehabilitační masáž, nákup domácích spotřebičů, kardio cvičení."
    },
    "taurus": {
        "main": "Jste silné a hodně originální osobnosti, které mají okolnímu světu co nabídnout. Zůstaňte sami sebou a na nic si nehrajte. Obzvlášť před novými lidmi. Dojem na ně uděláte jen tím, jací doopravdy jste. Ostatně, brzy by vaše přehánění poznali.",
        "love": "Rádi byste udělali dojem na novou známost. Nejlepší však bude, pokud zůstanete sami sebou a nebudete přehánět.",
        "work": "Šéf ocení, že jste schopní pracovní záležitosti řešit s ledovým klidem. Je rád, že má v týmu psychicky odolného člověka.",
        "relationships": "Bude třeba zajistit péči někomu z příbuzných. Přestože to nebude nic vážného, může to být pro vás vyčerpávající.",
        "health": "Trénink nohou nemusíte provozovat jen ve fitku. Pokud bydlíte ve vyšším patře, vynechte po cestě domů výtah a jděte pěšky.",
        "tips": "Nákup odborné literatury, studium cizího jazyka, třídění rodinných fotografií, plánování víkendu, nákup hygienických potřeb."
    },
    "gemini": {
        "main": "Příjemnou náladu vám spolehlivě pokazí události v rodině. I když zprvu nebudete chtít, budete se muset podílet na jejich řešení. Snažte se být spíše mediátorem než soudcem. Také si pečlivě vyslechněte všechny podrobnosti, ať se neukvapíte v úsudku.",
        "love": "Umíte být středem pozornosti a jste pro každou legraci. Není divu, že si dnes vaší společnosti budou chtít užít přátelé.",
        "work": "Blýská se na lepší časy, máte se na co těšit. Buďte aktivnější a v zaměstnání se snažte. Na dosah jsou lepší peníze.",
        "relationships": "Jistá osoba z blízkých příbuzných se chová vůči rodině nezodpovědně. Bohužel je to situace, kdy už budete muset promluvit.",
        "health": "Rychlým pohybem prokrvíte plíce, tonizujete svaly a také si do těla uvolňujete potřebnou dávku hormonů štěstí.",
        "tips": "Kreativní psaní, návštěva městské knihovny, fotografování zvířat v zoo, domácí práce, příprava ovocného smoothie."
    },
    "cancer": {
        "main": "Cosi vám ubírá hodně energie. Je třeba zjistit, o co se ve skutečnosti jedná. Možná si něco děláte sami, možná máte kolem sebe toxické osoby. Během dne byste však o tom měli mít definitivně jasno. Bohužel to nemusí být vůbec příjemná zkušenost.",
        "love": "To, co vám bere energii a síly, není to pravé. Musíte si rozmyslet, zda to stojí za námahu nebo půjdete dál svou cestou.",
        "work": "Dočkat se můžete vytoužené finanční odměny. Vyplatila se vám vaše snaha a také velká trpělivost. Víte, že vše má svůj čas.",
        "relationships": "Vše, co dnes budete doma podnikat, mějte pod kontrolou. Hrozí úrazy, které by vám znepříjemnily následujících pár dní.",
        "health": "Kyselina listová působí pozitivně na mozek. Vhodnou denní dávku vám pomohou udržet tabletky v kombinaci s potravinami.",
        "tips": "Praní a čištění ložního prádla, příprava rodinného oběda, bezmasá strava, péče o zahrádku, sledování sportovního přenosu."
    },
    "leo": {
        "main": "Pokud vám docházejí síly, nečekejte dlouho a požádejte si v zaměstnání o pár dní volna. I teď, před prázdninami. Jde totiž o to, že kvůli únavě můžete nadělat mnoho zbytečných chyb, z nichž některé by mohly mít fatální následky pro vaši další kariéru.",
        "love": "Ve společnosti dlouhodobých přátel se budete cítit skvěle. Víte, že před nimi jste sami sebou a nemusíte si na nic hrát.",
        "work": "Pár dní dovolené by se vám hodilo, a hlavně by vám to prospělo. Neváhejte se zeptat svého šéfa, zda-li by se bez vás obešel.",
        "relationships": "Místo adrenalinových sportů, které jsou pro vás rizikem, zvolte napínavé deskové hry. Adrenalin to bude také velký.",
        "health": "Bederní páteř může být přetížená ze sedavého způsobu zaměstnání. Je třeba se naučit pár rehabilitačních cviků.",
        "tips": "Ruční čištění automobilu, kreativní psaní, hra na hudební nástroje, opalování, rybaření, turnaj v šipkách s dětmi."
    },
    "virgo": {
        "main": "Soucit s vámi budou mít kolegové v práci. Rádi by vám pomohli, pokud vás něco trápí, ale musíte se jim svěřit. Naštěstí vám to dojde a o pomoc požádáte někoho dřív, než bude moc pozdě. Můžete být klidní. Odmítnuti nebudete v žádném případě.",
        "love": "Protějšek je stále jako vyměněný. Ani dnes se na jeho náladu nelze spoléhat. Bude to chtít více trpělivosti z vaší strany.",
        "work": "Kolegové můžou být posmutnělí z toho, že se v práci trápíte a nic vám nejde od ruky. Kdosi z nich vám ale podá pomocnou ruku.",
        "relationships": "Víte, že musíte občas změnit prostředí, aby na vás doma nepadla ponorková nemoc. Naštěstí nápadů máte přehršel.",
        "health": "Meruňky jsou oblíbeným letním ovocem. Konzumujte je čerstvé, dodají tělu vitalitu a sníží riziko vysokého tlaku.",
        "tips": "Práce se dřevem, návštěva muzea, společenské hry s dětmi, příprava domácí limonády, večeře v restauraci, spánek."
    },
    "libra": {
        "main": "Pozor na to, s jakou náladou dnes předstupujete před ostatní. Sice máte nárok na to, abyste byli naštvaní, ale nemusíte to hned každému na potkání dát najevo. Překvapit vás může kolega, který má o vás zřejmě obavy, a tak se rozhodne vás poučit.",
        "love": "Asi vám vůbec nevadí, že životem zatím jdete sami. Když vám chybí sociální kontakt, víte že se můžete obrátit na přátele.",
        "work": "Zkušenější kolega vám bude chtít promluvit do duše. Zřejmě i jeho překvapí vaše výbojná nálada. S tou ale daleko nedojdete.",
        "relationships": "Menší sportovní klání vám odpoledne dokonale zvedne náladu. Především si ale vybijete přebytečnou negativní energii.",
        "health": "Bolesti hlavy mohou být způsobeny zatuhlou krční páteří. Pokud na rehabilitaci nestačíte sami, vyzkoušejte masáže.",
        "tips": "Výcvik pejska, návštěva botanické zahrady, opalování, práce na zahradě, poslech motivačního podcastu, studium nového oboru."
    },
    "scorpio": {
        "main": "Chystáte se na jistá prohlášení, která mohou mít negativní ohlas. Vám to ale nepřijde nic tak zásadního. Navíc chcete otevřít témata, která jsou mezi vámi a vaším partnerem nevyjasněná. Díky takovému přístupu alespoň uvidíte partnerovu reakci ihned.",
        "love": "Názory, které se chystáte dnes říct nahlas, nejsou vůbec pozitivní. Je velká otázka, jak je váš partner přijme.",
        "work": "Budete se muset přizpůsobit jistým požadavkům nadřízených. Získáváte více povinností, ale také větší zodpovědnost.",
        "relationships": "Blízký příbuzný se vás bude pokoušet získat jako společníka pro svůj podnik. Dobře si tak riskantní aktivitu rozmyslete.",
        "health": "Beta karoten vám v letních měsících pomůže udržet krásný vzhled pleti, nehtů i vlasů. Najdeme ho v mrkvi a meruňkách.",
        "tips": "Registrace do prázdninového kurzu, plánování víkendových aktivit, nákup obuvi na léto, návštěva kosmetického centra."
    },
    "sagittarius": {
        "main": "Doma vás neudrží vůbec nic. Hlavně tehdy, bude-li šance na schůzku či setkání s někým novým. Pokud tedy vyrazíte na rande, dejte si záležet na svém vzhledu. Je možné, že nová známost na vás nechá oči a další schůzka na sebe nenechá dlouho čekat.",
        "love": "Za zdmi domova se vám dnes nebude chtít zůstat. Zábavu vám poskytne nezávazné rande s novou známostí. Bude to žhavé.",
        "work": "Nejste schopni se od rána koncentrovat na práci. Zkuste to alespoň nedávat tak okatě najevo a zavřete se ve své kanceláři.",
        "relationships": "Dáte se do praktických úprav domácnosti. Některé nedostatky vám již dlouho ležely v hlavě a znervózňovaly vás.",
        "health": "Omezte pití alkoholických nápojů, a to především přes den. Teplé počasí v kombinaci s alkoholem mohou udělat velké škody.",
        "tips": "Rybaření s kamarádem, poslech oblíbené hudby, tanec, hra na hudební nástroje, úklid domácnosti, mytí oken, odpolední spánek."
    },
    "capricorn": {
        "main": "Mezilidské vztahy dnes opět budou v popředí zájmu ve všech oblastech vašeho života. Stále mezi něčím oscilujete a musíte se rozhodovat. Nebojte se, takové období nebude již dlouho trvat. Alespoň malou útěchu vám poskytnou přátelé a plány na večer.",
        "love": "Dobrá parta přátel je vám přána. Tudíž ani dnes se nemusíte nudit sami doma. Program se nabídne sám a zcela spontánně.",
        "work": "Někteří kolegové mohou na vás být nazlobení. Mají dojem, že jste odtažití a jejich pracovní potíže se vás netýkají.",
        "relationships": "O pomoc při řešení náročných rodinných vztahů požádejte dobrého přítele. Můžete se uvolnit a plně mu důvěřovat.",
        "health": "Máte-li možnost, připravte si doma osvěžující ovocnou zmrzlinu. Příprava není složitá, vyžadují se jen čerstvé suroviny.",
        "tips": "Nové pracovní projekty, týmová spolupráce s kolegy, třídění dokumentace pro banku, zpěv a hra na hudební nástroje, psaní."
    },
    "aquarius": {
        "main": "Protějšek působí dojmem, že jste ho přestali zajímat. Možná je to jen takový postoj, možná to je pravda. Budete se muset rovnou zeptat, co se vlastně děje. Tak přijdete na to, zda připadá v úvahu náprava mezi vámi, nebo je nejvyšší čas na rozchod.",
        "love": "Jako by opadl zájem partnera o vaši osobu. Není nač čekat. Raději si o událostech mezi vámi promluvte rovnou, mezi čtyřma očima.",
        "work": "Zbytečně na sebe opět nakládáte mnoho povinností a zodpovědnosti. S tím jde ruku v ruce stres. To není opravdu nic pro vás.",
        "relationships": "Vyřaďte ze svého programu i z plánů ostatních doma riskantní sporty. Není nutné před prázdninami riskovat zdraví.",
        "health": "Pozor na přetížení pohybového aparátu, především dolních končetin. Zvláště pokud sportujete, hrozí riziko úrazů.",
        "tips": "Příprava rodinné snídaně, výlet do nejbližšího muzea, fotografování památek, posezení s kolegy u kávy v parku."
    },
    "pisces": {
        "main": "Svou daň v podobě únavy si vybere vaše vysoké pracovní nasazení a také ochota být každému nápomocní. Je třeba, abyste okamžitě zvolnili tempo a dostatečně odpočívali. Jinak můžete skončit v nemocnici s nepříjemnými vyhlídkami na letní prázdniny.",
        "love": "S partnerem se před večeří vydejte na příjemnou procházku po okolí. Krásně vás naladí na romantický zbytek dne.",
        "work": "Uprostřed týdne vám začne stávkovat myšlení. To je známka únavy. Začněte plánovat dovolenou na co nejbližší dobu.",
        "relationships": "I přestože není víkend, můžete si odpoledne zpříjemnit krátkým rodinným výletem na kolech. Jistě máte oblíbenou trasu.",
        "health": "Pokud dnes držíte půst, snažte se konzumovat potraviny s obsahem kyseliny pantotenové. Ta povzbuzuje v těle vitalitu.",
        "tips": "Generální úklid domácnosti, venčení psa s kamarádem, sportovní aktivity v přírodě, houbaření, opalování, návštěva wellness."
    }
}