{
    "aries": {
        "main": "První neděli v novém roce máte dostatek energie, takže vám půjde zrealizovat téměř vše, co jste si naplánovali. Pozor v milostných či přátelských vztazích, jste dost otevření a upřímní. Chce to odstup. Jinak se můžete pěkně spálit, nebo dokonce ztrapnit.",
        "love": "Za každou cenu dnes dosáhnete svého. Váš partner může dělat, co chce, ale vaše rozhodnutí nezmění. Je to ale dobře?",
        "work": "Máte štěstí, že nemusíte měnit žádný nevhodný vánoční dárek. Prostě se vám vaši milí trefili do vkusu a vy si ho můžete užít.",
        "relationships": "Nedělní den je druhý v letošním roce a vy se budete snažit vrátit zpátky do sedla. Věci byste asi měli ale dělat s klidem.",
        "health": "Vyzkoušejte svou pevnou vůli a pokuste se dnes dodržet nová předsevzetí, která jste si dali. Půjde zřejmě o sport.",
        "tips": "Pobyt na chalupě, čtení nových knížek, povánoční úklid domácnosti, kreativní činnosti, plánování nových profesních cílů."
    },
    "taurus": {
        "main": "Na pořad dne dnes přijde úklid a třídění odpadu. Když členové rodiny přiloží ruku k dílu, tak vám to jistě nezabere celý den. V opačném případě k večeru padnete únavou. Nezadaní z vás silně zatouží po novém vztahu a parťákovi do života. Směle na seznamku!",
        "love": "Vy, kteří stále nemáte svou spřízněnou duši, budete brát letošní rok jako báječnou příležitost k novým výzvám.",
        "work": "Dejte si do pořádku své bankovní konto po náročných svátcích. Musíte mít přehled, abyste věděli s čím vlastně hospodaříte.",
        "relationships": "Dali jste si s rodinou nějaká nová předsevzetí do letošního roku? Tak opatrně, aby to nebylo hodně náročné i na vás.",
        "health": "Změna stravovacích návyků bude po vánočním hodování opravdu nutná. Napadne vás samo od sebe, že to chce dietu.",
        "tips": "Práce se sociálními sítěmi, hledání si nového zaměstnání, úprava životopisu, registrace na online seznamce, poslech hudby."
    },
    "gemini": {
        "main": "Máte-li v plánu dnes odjet na zimní dovolenou mimo domov, dostatek pozornosti byste měli věnovat kontrole bytu nebo domu. Je možné, že něco opomenete zavřít nebo vypnout. Také si překontrolujte doklady, ať máte vše v pořádku. Hrozí, že se odjezd zdrží.",
        "love": "Jedinci, kteří delší dobu procházejí životem bez vztahu, po seznamování nezatouží ani nyní. Čekáte na vhodnou dobu.",
        "work": "Zatoužíte znovu po věcech, které zrovna příliš nepotřebujete. Ovšem zapomínáte na to, že před pár dny byl Štědrý den.",
        "relationships": "Rodinu byste neměli nutit k úklidu nebo jiným podobným aktivitám. Snažte se prožít den v klidu při zábavných činnostech.",
        "health": "Věnujte větší pozornost svému vzhledu a jeho úpravě. Možná máte vyhlédnutý nový účes nebo barvu vlasů. Najděte si svůj styl.",
        "tips": "Venčení a výcvik pejska, bruslení ve městě, pobyt na chalupě, horská túra, cvičení pilates v prostředí domova."
    },
    "cancer": {
        "main": "Uložte si na horší časy všechny korunky, které jste našly pod stromečkem. Budou se vám velmi hodit na nečekané nákupy nebo jiné výdaje. Dnes zatoužíte po novém oblečení nebo doplňcích, ale zkuste se raději ovládat. Hvězdy příliš nákupům nepřejí.",
        "love": "Také neděle se ponese v příjemném rozpoložení, co se vztahů týká. Stačí si vyjít s miláčkem na romantickou procházku.",
        "work": "Nepropadejte dnes lákavým loteriím. Zatím se na vás štěstí v této podobě neusměje. Raději šetřete korunky normálně.",
        "relationships": "Děti vás dnes nenechají ani chvilku vydechnout. Pravděpodobně jste jim slíbili nějakou společnou zábavu. Co takhle bruslení?",
        "health": "Mezi vaše oblíbené zimní sporty patří také běh na lyžích. Jestli to zkoušíte dnes poprvé, nechte si poradit, ať se to naučíte.",
        "tips": "Nová předsevzetí, povánoční úklid domácnosti, výlet do zimní přírody, výtvarné aktivity, romantické rande s partnerem."
    },
    "leo": {
        "main": "Pobyt na chalupě mimo město vám opravdu udělá dobrou službu. Máte-li možnost, vyjeďte alespoň dnes mimo domov. Některé z vás ale opět přepadají myšlenky na práci nebo na školní povinnosti vašich dětí a myšlenkami budou mimo. Snažte se to nedávat tak najevo.",
        "love": "Zaměřte se na společné aktivity se svým protějškem a užijte si je hlavně v soukromí. Cizích lidí kolem sebe máte přes rok dost.",
        "work": "Myšlenky se vám pomalu stáčí zpět k práci. Máte zřejmě v hledáčku nový projekt nebo něco musíte ještě dodělat.",
        "relationships": "Přes svátky se vám v domácnosti nahromadilo více věcí, než potřebujete. Dnes se zaměřte na pečlivý úklid a třídění odpadu.",
        "health": "Ostřejší koření, jako je chilli, kurkuma nebo zázvor, dodá velmi zajímavou chuť vašim pokrmům. Navíc prospěje v zimě tělu.",
        "tips": "Péče o pokojové rostliny, manikúra, pedikúra, péče o pokožku těla, krmení lesních zvířat, romantická procházka s partnerem."
    },
    "virgo": {
        "main": "Rodinné prostředí je pro vás dnes ta nejlepší volba. Máte pocit, že potřebujete bezpečí a klid, tudíž vás ani nikdo nedostane ven. To může umět jedině váš čtyřnohý kamarád, který bude chtít na procházku. Ale nic si nevyčítejte, potřebujete relaxovat.",
        "love": "Kontakty na sociálních sítích dnes rozhodně vyhledávat nebudete. Spíše se spolehnete na své zájmové činnosti a hobby.",
        "work": "V duchu se obáváte velké krize ve finanční oblasti. Hvězdy vám zatím do duše moc klidu nepřidávají. Vydržte to.",
        "relationships": "Nezapomínejte na své starší příbuzné. Budou si chtít jistě popovídat a možná vás také vidět. Naplánujte si návštěvu.",
        "health": "Na poruchy trávení a zažívání velice dobře působí kvašená zelenina. Samozřejmě nejvíc vitaminů má nakládané zelí.",
        "tips": "Outdoorové aktivity, dietní úprava jídelníčku, posilování zádového svalstva, hledání nové brigády přes internet."
    },
    "libra": {
        "main": "Budete si muset nastavit nové limity ve finanční oblasti. Vánoční svátky vás letos stály hodně peněz a vy už dnes musíte hledat, kde si moct přivydělat nějaké peníze navíc. I přesto se ale nemusíte tolik obávat. Hvězdy vám půjdou na pomoc.",
        "love": "Máte stejně dobrou náladu jako v předešlých dnech. Zavládne pocit, že veškeré štěstí ve vztazích držíte pevně v rukou.",
        "work": "V myšlenkách se stále zabýváte tím, jak se vám bude letos dařit v práci i ve finančních otázkách. Chce to více klidu.",
        "relationships": "Využijte první lednovou neděli k urovnání domácnosti po vánočních svátcích. Zapojte i ostatní, ať máte brzy hotovo.",
        "health": "Oteklé dolní končetiny jsou známkou toho, že tělo zadržuje vodu. Zbavit toho vás mohou lymfatické masáže. Objednejte se na ně.",
        "tips": "Výlet do přírody, příprava bezmasého oběda, dodržování pitného režimu, povánoční úklid domácnosti, ruční mytí a čištění auta."
    },
    "scorpio": {
        "main": "I když si dnes budete chtít s partnerem užít více o samotě, jen o sexu to nebude. Máte zřejmě společné některé koníčky, a tak se jim budete chtít věnovat. Jestli je to sport, nebo deskové hry, to už záleží jen na vás. Můžete si také hledat něco nového.",
        "love": "Užívejte si dnes pohody v partnerském vztahu. Společné zájmové aktivity vám den rozhodně vylepší. Tak směle do toho!",
        "work": "Rozhodně se dnes nepouštějte do reklamací nevhodných vánočních dárků. Bude na to dost času v pracovních dnech.",
        "relationships": "Doma si sedněte a společně proberte, jaké jsou vaše plány na zimní dovolenou. V kurzu mohou být i jarní prázdniny.",
        "health": "Křečové žíly se u vás mohou objevit i v zimě. Bude to chtít více péče. Masírujte si nohy kaštanovým gelem, který vám uleví.",
        "tips": "Pobyt na chalupě, outdoorové sporty, hraní karetních her s dětmi, četba nových knih, příprava rodinného oběda."
    },
    "sagittarius": {
        "main": "Ve slevách dnes můžete pořídit zboží za super ceny. Půjde to ale zřejmě jen přes internet. Tato varianta je pro vás stejně nejlepší. Jste líní vytáhnout paty z domu a jít mezi lidi. Buďte v klidu, z pohodlí a tepla domova si stejně vyberete nejlépe.",
        "love": "Zkuste se na svět dívat více optimisticky, to pomůže. Na druhou stranu si neidealizujte osoby, které za to nestojí.",
        "work": "Prohlédněte si nabídky na internetu. Jsou totiž plné slev, kde byste rádi utratili peníze, které jste našli pod stromečkem.",
        "relationships": "Pokud se chystáte vyjet někam na hory, zjistěte si podmínky, za kterých to jde. A to nejen v Čechách, ale i do zahraničí.",
        "health": "Pozitivní přístup k životu je lepší než chmury. Negativním jednáním toho moc nedosáhnete, tak na to dnes pamatujte.",
        "tips": "Zdravotní procházka v přírodě, fotografování zimní krajiny, rekreační běh lesem, úprava účesu, odpolední spánek."
    },
    "capricorn": {
        "main": "Nezadaní Kozorozi se dnes do velkých akcí hrnout nebudou. Dopřejte si spíše víc času na své záliby nebo si hledejte nějaké nové. Až nadejde vhodný čas, chuť k seznamování se jistě ozve sama. I tak přemýšlejte o tom, jak má nový partner vypadat.",
        "love": "Nové známosti ze sociálních sítí nejsou úplně podle vašeho stylu. Nechte si je zatím jako známé a nic vážného nezačínejte.",
        "work": "Patříte sice mezi spořivější znamení, ale i tak vám finance chybí a výdaje se stále množí. Chce to klidnější rozhodnutí.",
        "relationships": "Úklid by vám dnes mohl zabrat celý víkendový den. Přizvěte si pomocníky, půjde to od ruky a ještě zbude čas na zábavu.",
        "health": "Omezte konzumaci alkoholu na naprosté minimum nebo ho vynechte úplně. Nahraďte ho kvalitními minerálními vodami nebo čaji.",
        "tips": "Zábavné aktivity s přáteli, návštěva starších příbuzných, velký úklid domácnosti, příprava na nový pracovní týden."
    },
    "aquarius": {
        "main": "Nedělní den budete věnovat úvahám o nové kariéře nebo o zásadních změnách v životě. Je třeba také zvážit, zda se budete pro novou práci muset ještě naučit něco jiného, či jakým směrem se vydáte. Zatím nespěchejte, chce to pečlivě uvážit a nechat uzrát.",
        "love": "Váš nový partner vás doslova zahltí nejrůznějšími nápady na dnešní společný čas. Nebudete se stačit divit, ale bude zábava.",
        "work": "Zamyslete se nad tím, zda vážně v současném zaměstnání chcete zůstat. Nebo zda si máte začít budovat ještě nějakou novou kariéru.",
        "relationships": "Začněte se konečně také zajímat o to, jaké máte v současnosti možnosti vycestování do zahraničí. Rádi byste na dovolenou.",
        "health": "Esenciální oleje jsou známé pro své příznivé účinky na psychiku. Velmi dobře působí pomerančový květ, jasmín nebo bergamot.",
        "tips": "Pobyt na chalupě, zimní outdoorové sporty, třídění vánočních fotografií, sledování hudební soutěže, četba knížek s dětmi."
    },
    "pisces": {
        "main": "Pokud vás hned po víkendu čeká návrat do zaměstnání, tak dnes rozhodně nešetřete síly a snažte se dostatečně odpočívat. Jestliže strávíte odpoledne na gauči s dobrou knihou, nic se vlastně nestane. I na internetu se dnes můžete dozvědět spoustu informací.",
        "love": "Máte sklony vidět vše v růžových barvách. Mějte ale oči otevřené, skutečnost je totiž zcela jiná. Zatím buďte ostražití.",
        "work": "Druhý den letošního roku budete přemýšlet o změnách, které byste rádi ve svém životě uskutečnili. Musíte si nastavit priority.",
        "relationships": "Mnozí z vás se chystají zítra opět do zaměstnání. Využijte na maximum dnešní den k pořádnému odpočinku a relaxaci.",
        "health": "Svou mysl musíte dnes zabavit kreativními aktivitami. Víte dobře, že takové činnosti občas pro zklidnění mysli potřebujete.",
        "tips": "Příprava lehkého oběda pro rodinu, plánování zimní dovolené, bruslení ve městě, outdoorové aktivity, setkání s přáteli."
    }
}