{
    "aries": {
        "main": "Již od pondělí se vám bude dařit hlavně v pracovní oblasti. Máte před sebou plodné období, tudíž se nemusíte krčit v rohu, ale dejte průchod svým nápadům. Nadřízeného tím velmi překvapíte a ukážete tak, že jste schopní se ujmout své kariéry.",
        "love": "Novoroční týden v oblasti lásky nezačíná zrovna dobře. Nový idol není zřejmě vaše krevní skupina a to se projeví.",
        "work": "Velmi úrodné období vás čeká především v práci. Nebojte se chopit nových příležitostí, které vás mohou posunout dále v kariéře.",
        "relationships": "Zimní dny si chcete s rodinou užívat naplno. Rádi byste podnikali nejrůznější aktivity, jen musíte dodržovat opatření.",
        "health": "Myslete na to, jak si zvyšovat v tomto chladném období imunitu. Přidejte si vitaminy do stravy a choďte na procházky.",
        "tips": "Zimní sportovní aktivity, třídění pracovních e-mailů, tvorba prezentace, nákup oblečení, příprava vegetariánského oběda."
    },
    "taurus": {
        "main": "Nový týden v novém roce začínáte v podivném rozpoložení. Asi se vám nahromadily starosti, které se vám ale vůbec nechce řešit. Bohužel jsou neodkladné, ale i přesto zatím nevíte, jak je uchopit. Sepište si vše na papír. Pomůže vám to s řešením situace.",
        "love": "Provází vás pochybnosti, jak na tom jste se vztahy. Zbytečně si však podkopáváte sebevědomí. Chce to realistický pohled.",
        "work": "Pokuste se něco udělat se svou finanční situací, která není stabilní. Možná bude nutné, abyste hledali také nový přivýdělek.",
        "relationships": "Nemáte daleko k tomu, že se rozčílíte, pokud dnes něco doma nebude podle vašich představ. Pozor na to, hrozí hádky.",
        "health": "Úprava jídelníčku po náročné zátěži z vánočních svátků bude nutná. Chce to méně laskomin a více zeleniny, ovoce a vlákniny.",
        "tips": "Péče o starší příbuzné, telefonát se spolužákem, vycházka do přírody, sledování sportovního pořadu, velký úklid domácnosti."
    },
    "gemini": {
        "main": "Od počátku tohoto týdne jste ve svém živlu. Vaše excelentní komunikační schopnosti vám otevřou dveře k mnoha novým příležitostem. Půjde jak o práci, tak o nové kontakty mezi lidmi. Nebraňte se jim, mohou být do budoucna opravdu zajímavé a přínosné.",
        "love": "Vztah, pokud nějaký máte, si užíváte naplno. Nemáte zábrany a s partnerem si vycházíte vstříc v těch nejintimnějších chvílích.",
        "work": "Pevně stanovené nové cíle do letošního roku jsou pro vás důležité. Díky tomu se budete stále posouvat. Držte se toho.",
        "relationships": "Názory ostatních z rodiny na plánovanou dovolenou vám nebudou jedno. Mají totiž také velmi dobré postřehy k tématu.",
        "health": "U vás je dnes důležité citové vyžití. Potřebujete dostatek lásky od ostatních a také vášeň od partnera. Ničemu se nebraňte.",
        "tips": "Renovace staršího nábytku, nákup nových dekorací do interiéru, rozhovor s rodinou o dovolené, lehká detoxikace organismu."
    },
    "cancer": {
        "main": "Měli byste začít využívat všechny své skryté talenty. Jistě najdete ve svém oboru pro některé z nich uplatnění. Pokud nejste spokojení, zkuste se podívat po zaměstnání, kde byste je mohli využít naplno. Je to velmi důležité pro vaše vnitřní rozpoložení.",
        "love": "Do života vám tento týden přináší nejedno vzrušení v lásce. O něco lépe na tom budou ti, kteří jsou stále single.",
        "work": "Máte mnoho talentů a je potřeba je konečně začít využívat. Najděte si takovou pracovní oblast, kde se budete realizovat.",
        "relationships": "Máte v plánu jisté úpravy domova. Trochu omezené možnosti máte v oblasti financí, takže budete muset uvažovat opatrně.",
        "health": "Omezené popíjení alkoholu by mělo dnes být samozřejmostí. Dost si oddychnou vaše ledviny, játra, ale i slinivka.",
        "tips": "Nový dietní jídelníček, posilování vlastní vahou těla, četba, luštění křížovek a rébusů, pochůzky po úřadech, nákupy potravin."
    },
    "leo": {
        "main": "Ve vypjatých a náročných situacích si dnes musíte zachovat chladnou hlavu. Pokud ale ztratíte nervy, problémy budete mít nejen doma, ale i na pracovišti a mezi přáteli. Myslete na to, že vše není takové, jak se zpočátku jeví. Chce to čas a klid.",
        "love": "V náročných krizových situacích je pro vás jedinou útěchou klid. Nenechte se tedy dnes vtáhnout do předem připravených hádek.",
        "work": "Radost vám dnes přinesou především finanční záležitosti. Máte mnoho možností, jak s penězi dobře a zodpovědně pracovat.",
        "relationships": "Plánování dovolené na jaro se vám zřejmě nyní moc nepovede, ale i tak se doma sesednete ke stolu a proberete možnosti.",
        "health": "Zdravá strava může být chutná a rozmanitá. Stačí si jen najít ten svůj oblíbený recept a máte hned něco nového k večeři.",
        "tips": "Vydatný spánek, outdoorové sporty, venčení a výcvik pejska, drobný úklid domova, četba nových knih, studium cizího jazyka."
    },
    "virgo": {
        "main": "Stále asi hledáte správný protějšek pro cestu životem. Můžete se spolehnout v této záležitosti dokonce i na pomoc přátel. Mají pro vás nějaký tajný tip a nového ctitele vám mohou dohodit již brzy. Budete se jim ale muset přiznat, že jste již osamělí.",
        "love": "Nezadaní zrozenci vašeho znamení se znovu budou snažit o navazování nových vztahů. Na pomoc jim mohou být přátelé.",
        "work": "Našli jste konečně ve své profesi potěšení? Víte, že není jednoduché si dnes cokoliv naplánovat dál, držte se toho, co umíte.",
        "relationships": "Doma se vám všem po vánočních svátcích dýchá daleko lépe. Víte, že společná pohoda vás přenese přes všechny potíže.",
        "health": "Užívejte vhodné vitaminové doplňky s obsahem luteinu pro správné fungování vašeho zraku. Oči potřebujete celý život.",
        "tips": "Týmová spolupráce s kolegy, nové pracovní projekty, pochůzky po úřadech, exotický oběd z restaurace, úkoly s dětmi."
    },
    "libra": {
        "main": "Smíšené pocity budete zažívat od samého rána. Ve vztazích je to zatím fajn, vše je jako na růžovém obláčku. Zato v pracovních záležitostech to není moc dobré. Máte pocit, že jste na vše sami, a tak začínáte naplno podléhat panice. To je cesta do pekel.",
        "love": "Co se týká mezilidských vztahů, vidíte vše v optimistických barvách. V uplynulých dnech a týdnech to bylo jinak.",
        "work": "V práci to tedy není žádná sláva. Jako byste se nemohli znovu dostat do tempa. Zkuste na to jít pomaleji a lépe plánujte.",
        "relationships": "Budete muset některé povinnosti předat také jiným členům domácnosti. Mají spoustu volného času a vy se dřete sami.",
        "health": "Cviky na zablokovaná záda jsou sice účinné, ale někdy nestačí. Poraďte se s lékařem o dalších možnostech terapie.",
        "tips": "Třídění staršího oblečení, venčení a výcvik pejska, bruslení ve městě, úklid domácí pracovny, běžkování na horách."
    },
    "scorpio": {
        "main": "Podepíše se na vás znatelně napětí z posledních dní. Doma si kvůli tomu můžete začít pěknou hádku s ostatními. Ovládejte se a stále myslete na svou rétoriku. Velmi snadno totiž můžete ublížit svým milovaným jedním jedovatým slovem. To by byla škoda.",
        "love": "V dlouhodobém vztahu můžete dnes překročit pomyslnou hranici a váš protějšek nevydrží déle vaše neúnosné výkyvy nálad.",
        "work": "Vy si rozhodně na množství práce stěžovat nemůžete. Naopak jí máte tolik, že byste se o ní potřebovali s někým podělit.",
        "relationships": "Doma dnes může být o něco dusnější atmosféra než v předešlých dnech. Vyžadovat to od vás bude hodně sebeovládání.",
        "health": "Neměli byste opomíjet dostatečné množství kolagenu, který přijímáte ve stravě. Pomůže k lepším vlasům, nehtům, pleti.",
        "tips": "Práce se sociálními sítěmi, online registrace do seznamky, hledání nového partnera, telefonát se staršími příbuznými."
    },
    "sagittarius": {
        "main": "Protože máte spoustu dobrých nápadů, ale málo je využíváte, může vás to frustrovat. Vyberte si dnes nějaký a pokuste se ho přetavit do reality. Ostatní si raději zapište do diáře, kdyby vám náhodou vypadly z hlavy. Začas se vám budou hodit.",
        "love": "Přátelské a kamarádské vztahy jsou pro vás dnes velmi důležité. Pokud nemáte trvalý vztah, jste na nich závislí.",
        "work": "S vaší kariérou to nyní vypadá dost slibně. Máte tolik nápadů, že byste je mohli rozdávat. Zatím si je ale nechte pro sebe.",
        "relationships": "Čas, který dnes máte k dispozici, bystě měli využít ke studiu něčeho nového a především prospěšného pro rodinu.",
        "health": "Bylinné čaje by rozhodně neměly chybět. Jistě najdete takové, které vám budou nejen prospěšné, ale také budou chutné.",
        "tips": "Studium cizích jazyků, zápis do online kurzu, výtvarné techniky, karetní hry s přáteli, domácí karaoke, outdoorové aktivity."
    },
    "capricorn": {
        "main": "V milostných záležitostech se vám začíná blýskat na lepší časy. Tak se vám na tváři opět může rozhostit blažený úsměv a v hlavě budou běhat jen ty nejromantičtější nápady pro vás i váš protějšek. Užívejte si tyto chvíle, jste díky nim šťastní.",
        "love": "Konečně se po loňském roce daly do pohybu vaše mezilidské vztahy. Máte mnohem více příležitostí k setkáním a rozhovorům.",
        "work": "V zaměstnání to rozhodně nejde podle vašich představ. Věci se mohou komplikovat kvůli vládním opatřením. Vydržte!",
        "relationships": "Poraďte se doma o tom, jak uchopit renovaci domácnosti. Máte mnoho nápadů, ale nejste na to sami. Chce to kompromis.",
        "health": "Pokud jste to ještě neudělali, osvojte si nějaké kreativní techniky. Budou vám pomáhat při odbourávání stresu.",
        "tips": "Týmová spolupráce na projektu, úklid sklepa nebo půdy, renovace domácnosti, četba literatury faktu, procházka."
    },
    "aquarius": {
        "main": "Vaše práce si zaslouží, abyste jí věnovali více energie než doposud. Máte potom velkou šanci prolomit ledy a uspět tam, kde se vám to zatím nedařilo. Ohromit tak můžete svého šéfa a tým kolegů. Zůstaňte ale skromní, jinak to bude působit trapně.",
        "love": "Ovládejte lépe své emoce. Mohou vám povolit nervy a vy si s partnerem vjedete do vlasů tak, že to bude opravdu drsné.",
        "work": "Nadřízený ocení vaše dnešní nasazení. Finanční odměna vás potěší a zároveň bude motivovat do dalších zajímavých aktivit.",
        "relationships": "Někdo z příbuzných si nebere servítky a pouští si pusu na špacír. Bude třeba si s tou dotyčnou osobou promluvit napřímo.",
        "health": "Se zimními sporty se nemůžete zmýlit. Bruslení, běžky, sáňkování, snowboard. Vše je zábavné. Přidat se může rodina.",
        "tips": "Péče o pokojové rostliny, příprava ovocného smoothie, bruslení na přírodní ploše, výlet po okolí s pejskem, četba."
    },
    "pisces": {
        "main": "Uznáte, že je zřejmě čas, přihlásit se na seriózní seznamku a začít hledat partnera. Postupujte pomalu a raději o sobě informace prozrazujte postupně. Také si potenciální protějšky dobře prohlédněte. Není důvod spěchat, jde přece o hodně.",
        "love": "Osamělí z vás budou hledat někoho nového, stabilního. Jen se místo seznamování na sociálních sítí poptejte mezi kamarády.",
        "work": "Mnoho zajímavých a kreativních nápadů vám přináší do vaší rozjeté kariéry letošní leden. Jen jestli je budete umět využít.",
        "relationships": "Pravděpodobně vám chybí přátelé, které jste neviděli delší dobu, kvůli omezením. Zkuste se domluvit na společné procházce.",
        "health": "Sportovní oblečení by mělo být nejen pěkné, ale především funkční. Vybírejte podle typu sportu a také toho, kde cvičíte.",
        "tips": "Sportovní aktivity v prostředí domova, meditační a dechové techniky, studium cizího jazyka, fotografování jídla."
    }
}