{
    "aries": {
        "main": "Váš partner dnes nebude vůbec v dobrém rozpoložení. Pokuste se mu zlepšit náladu něčím pěkným, co můžete dnes třeba pořídit ve slevách a o čem víte, že po tom touží. Dobrým nápadem také bude připravit mu jeho oblíbené lahůdky a sklenku vína k večeři.",
        "love": "Nesmíte se nechat odradit nepříjemnou náladou vašeho partnera. Bude mít jen jednodenní splín, který ho brzy přejde.",
        "work": "Na výhodné nákupy máte čich a neunikne vám žádná zásadní slevová akce. I tak si dávejte pozor na neuvážené utrácení.",
        "relationships": "Neděle je pro pohybové aktivity jako dělaná. Jste-li protřelými sportovci, nezaskočí vás ani lehčí túra po horách.",
        "health": "Ručička na váze ukazuje o něco víc, než byste si zrovna přáli. Vše se dá napravit, vy zas kila shodíte bez problémů.",
        "tips": "Domácí lázně, studium aromaterapie, doplnění domácí lékárny, kontrola povinného vybavení automobilu, nákup dálniční známky."
    },
    "taurus": {
        "main": "V lásce se vám začíná opět velmi dařit. Po delší době jste si se svým miláčkem našli čas na vášnivé hry v ložnici. Nechte se unést fantaziemi vás obou a nenastavujte si hranice. Takové žhavé řádění má něco do sebe a měli byste to dělat častěji.",
        "love": "Pro vašeho miláčka jste doslova poklad. Tolik tolerance, jako máte vy, má málokdo. Oplatí vám to hodně příjemně, nebojte.",
        "work": "Tento rok byste měli brát o něco pozitivněji a nevnímat ho hned jako krizový. Uspořádejte si rodinné finance, ať máte klid.",
        "relationships": "Dnešní den odpočívejte a rozjímejte. Jedinou aktivitou, kterou si dovolte, je procházka v zimní přírodě. Jděte celá rodina.",
        "health": "Dnes přistupte k odbourávání všech zlozvyků, které vadí už i vám samotným. Kterých se zbavíte jako prvních? To je na vás.",
        "tips": "Zimní sporty s dětmi, fotografování dětí a rodiny, četba cestopisů, úklid kuchyně a spíže, kontrola soukromé pošty a e-mailů."
    },
    "gemini": {
        "main": "Mezi svými přáteli a kamarády jste hodně oblíbení pro svou bezstarostnou povahu a originální smysl pro humor. Dnes se před nimi blýsknete brilantním myšlením a perfektním slovním uměním. Pokud s vámi do společnosti půjde i partner, bude na vás pyšný.",
        "love": "Budete donuceni zamyslet se nad tím, proč se váš protějšek chová jinak. Budete z toho mít vrásky na čele po celý den.",
        "work": "Hlavu si s penězi tedy dnes rozhodně nelámete. Je fakt, že dnes nemáte ani žádné velké výdaje, které by vás zamrzely.",
        "relationships": "Zítra na vás čeká nový pracovní týden. Proto si dnes dopřejte relax. Ostatním také nechte čas na jejich záliby.",
        "health": "Dodržujte správně pitný režim, ale také si hlídejte to, co budete konzumovat. Nejlepší je čistá voda nebo kvalitní minerálka.",
        "tips": "Příprava ovocného nebo zeleninového smoothie, romantika s novým partnerem, deskové hry, procházka s přáteli ve městě."
    },
    "cancer": {
        "main": "Konto v bance sice nemáte bůhvíjak vysoké, ale nemusíte se obávat, že byste trpěli nouzí. Vyhněte se však riskantním finančním operacím na trhu, kterým vůbec nerozumíte. Tam byste mohli o své úspory rychle přijít. Spíše si zjistěte možnosti spoření.",
        "love": "Vše s partnerem společně dělat nemusíte. Jestliže máte každý své hobby, potřebujete na to dostatek času a klid.",
        "work": "Hvězdy mají naštěstí nad vašimi penězi dozor, takže vás velké problémy ve financích nečekají. Můžete být v klidu.",
        "relationships": "Se staršími ročníky příbuzenstva se nepouštějte do vážných debat. Hrozí generační rozpory a mohlo by vás to mrzet.",
        "health": "Alergii na kůži na rukou mohla způsobit dezinfekční mýdla či gely, které všichni běžně používáme. Možná pomůže změna výrobku.",
        "tips": "Péče o pokožku těla. Inhalování bylinných odvarů, odpočinek s knihou, hra na hudební nástroje s přáteli, cvičení pilates."
    },
    "leo": {
        "main": "V neděli se do vašich mezilidských vztahů vloudí pohodová atmosféra. Ať už to jsou vztahy milostné, nebo přátelské, bude to skoro ukázkové. Velkou zásluhu na tom samozřejmě máte vy. Ale také nepodceňujte reakce druhé strany, která se také snaží.",
        "love": "Neděle by vám do života měla vnést klid, především v mezilidských vztazích. Dost se vám uleví, už bylo načase.",
        "work": "Záležitosti, které se týkají rodinných výdajů, bude třeba probrat v klidu a bez stresu. Jinak si doma můžete vjet do vlasů.",
        "relationships": "Při vycházce do zimního počasí nezapomeňte na vhodné oblečení, především pro malé děti. Ty mohou prochladnout velice rychle.",
        "health": "Alergie se může udělat z mnoha důvodů. Pokud na něco takového máte podezření, řešte to ihned, za pomoci svého lékaře.",
        "tips": "Kreativní psaní, nákup exotických potravin, rodinná večeře, telefonát s příbuzným, hledání spořicího účtu pro děti, úklid."
    },
    "virgo": {
        "main": "Měli byste se konečně naučit dodržet správnou spánkovou hygienu. Vy, kteří zítra vstáváte do práce nebo do školy, budete muset včas zalehnout. Přestože se vám chtít nebude, musíte to zkusit. Pomoci by mohla oblíbená kniha nebo audiotéka.",
        "love": "V neděli odpoledne si vyjdete s miláčkem na romantickou procházku a užijete si jeden druhého. Domů se vrátíte nadšení.",
        "work": "Jako dozorce nad rodinnými financemi půjdete dnes ostatním doma na nervy. Zkuste se mírnit, jinak budete trapní.",
        "relationships": "Výkyvy nálad budou mít mladší děti. Nenechte je dlouho se trápit, a poskytněte jim potřebnou podporu, jako správný rodič.",
        "health": "Dbejte o pokožku těla i pleti na obličeji. Do koupele přidejte aromatické esence. O pleť se postarají bio oleje.",
        "tips": "Ruční mytí automobilu, nové výtvarné techniky, protahovací cviky na krční páteř, třídění obnošeného oblečení pro charitu."
    },
    "libra": {
        "main": "Dnes byste si měli s kamarády vyjít do přírody na procházku. Pokud vy nebo někdo z přátel má pejska, jistě vám udělá dobrou společnost i takový mazlík. Dokonale pročistíte hlavu, dobře si popovídáte a evidentně proberete nejnovější drby ze společnosti.",
        "love": "Společné sportovní aktivity s přáteli vám dnes zaplní zimní odpoledne. Pokud se vydáte bruslit, užijete si hodně legrace.",
        "work": "Očekávejte finančně náročné opravy domácího spotřebiče a s tím spojené výdaje. Bude třeba vybrat autorizovaný servis.",
        "relationships": "Občas jste také rádi sami se svými koníčky. Jakmile to tedy dnes půjde, najděte si na ně čas a klid. Budete spokojení.",
        "health": "Své problémy konzultujte s lékařem hned, jak to půjde. Není důvod odkládat potíže, které vás pronásledují delší dobu.",
        "tips": "Příprava rodinné snídaně, péče o starší příbuzné, posilování břišních svalů, milostné hrátky s partnerem, sledování seriálu."
    },
    "scorpio": {
        "main": "Váš miláček vás zřejmě dnes vytočí doběla. Dokonce se zamyslíte nad nějakou formou trestu pro něj. Ovšem hvězdy radí, abyste na to okamžitě zapomněli. Okaté odmítání sexu nebo tichá domácnost jsou jen staré triky, které jsou zbytečně a nefungují dlouho.",
        "love": "Jakékoliv myšlenky na vytrestání partnera jsou liché. Jen byste si zadělali na velké problémy ve vztahu do budoucna.",
        "work": "Slevové akce v obchodech nebo na internetu vás stále lákají. Asi tam ale najdete něco, po čem jste dlouho prahli.",
        "relationships": "Padne na vás tak velká únava, že si hodně rádi odpočinete v klidu. Ostatní doma v podstatě může postihnout to samé.",
        "health": "Chcete se věnovat svému vzhledu? Zaměřte svou pozornost také na váš chrup. Bělení zubů může probíhat v prostředí domova.",
        "tips": "Výroba domácího bylinného likéru, nákup potravin s dovážkou do domu, výroba interiérových dekorací, příprava do školy."
    },
    "sagittarius": {
        "main": "Sníte o velkém bohatství? Bohužel výhrou v loterii se k tomu nedopracujete. Hlavně proto, že vás zatím žádná nečeká. O vše se budete muset zasadit vlastní pílí. Plány si musíte udělat takové, abyste je vůbec mohli splnit. V opačném případě přijde zklamání.",
        "love": "Na pořadu dne je změna prostředí. Delší procházka vám udělá dobře. S partnerem můžete také probrat, co vás čeká v týdnu.",
        "work": "Máte růžové brýle, co se týká úspor. Proto dobře zvažte, jaké si dnes uděláte finanční plány. Jinak budete zklamaní.",
        "relationships": "Před novým pracovním týdnem budete potřebovat opravdu pořádný relax. Nejlepší bude četba knížky či horká aromatická koupel.",
        "health": "Preventivní prohlídka není nic, co byste měli odkládat na příhodnější dobu. V týdnu se objednejte ke svému lékaři bez otálení.",
        "tips": "Pečení slaných koláčů, zkoušení nových receptů podle internetu, výtvarné práce, péče o domácí květiny, plánování dovolené."
    },
    "capricorn": {
        "main": "Jsou vaše letošní předsevzetí vůbec realizovatelná, nebo jste si dali nesmyslné cíle? Bude to chtít možná některé utopistické plány pozměnit. Jste na sebe přísní více než na jiné. To by mohla být ta změna, kterou projdete. Mějte se sebou soucit.",
        "love": "Milostné hrátky s partnerem si rozhodně neodpustíte, i kdybyste padali únavou. Máte na sex prostě chuť a půjdete si za svým.",
        "work": "Zvládnete zajistit rodinu, protože jste pracovití a umíte vydělat slušné peníze. Pokud by ale váš příjem vypadl, bude problém.",
        "relationships": "S malými ratolestmi bude dnešek vyžadovat hodnou dávku trpělivosti. Logicky mají problém pochopit současnou dobu pandemie.",
        "health": "Dost železa obsahuje kyselina listová. Do těla ji dostanete jak ve stravě, tak v tabletách z lékárny. Je to potřeba.",
        "tips": "Studium aromaterapie, příprava s dětmi na školní povinnosti, outdoorové zimní sporty, bruslení, plánování zimní dovolené."
    },
    "aquarius": {
        "main": "Nadstandardní péči a pozornost budete dnes muset věnovat staršímu příbuzenstvu. Zřejmě potřebují nákupy nebo vysvětlit některá ze zmatených vládních opatření. Věnujte jim dnes alespoň odpoledne a udělejte si na ně dost času. Budou vám vděční.",
        "love": "Sejděte se s kamarády, na které jste přes svátky neměli čas, a popovídejte si. Odpoledne bude klidné a pohodové.",
        "work": "Přestože vám v současných dnech nehrozí krize, myslete na to, že jste na začátku roku a může vás potkat cokoliv.",
        "relationships": "Neděle je vhodná pro společnou přípravu dobrého rodinného oběda. Pomoci vám můžou členové domácnosti a hlavně děti.",
        "health": "Pokud máte potíže s hlasivkami, chce to kloktat přírodními bylinnými odvary. Nejlepší je šalvěj, která má dezinfekční účinky.",
        "tips": "Příprava na nový pracovní týden, romantická procházka s partnerem, setkání se sousedy, venčení pejska v lesoparku."
    },
    "pisces": {
        "main": "Ve vaší domácností po celý dnešní den bude vládnout pohodová atmosféra. Velkou měrou k tomu pomůže vynikající nedělní oběd, který si připravíte společnými silami. Pokud jste zvědaví, vyzkoušejte nějaké nové exotické recepty. Co třeba asijská kuchyně?",
        "love": "Váš nový objev vám dnes vyčaruje spokojený úsměv na tváři. Zřejmě jste našli velmi kvalitního partnera do života.",
        "work": "Buďte zvlášť opatrní, pokud budete dnes platit přes internet novým obchodům. Mohou být podvodné. Vše si ověřte.",
        "relationships": "Promyslete si, jak bude vaše rodina fungovat dál, v této nejisté době. Ostatní doma potřebují dodat odvahu a podporu.",
        "health": "Práce s čisticími prostředky může ovlivnit dýchací cesty. Chce to dobře větranou místnost a opatrnost na zasažení očí.",
        "tips": "Telefonát s dobrým přítelem, příprava obchodní prezentace pro klienta, výroba bylinného likéru, pečení domácího dezertu."
    }
}