{
    "aries": {
        "main": "Červnová neděle svádí k letním zážitkům. Můžete si vyrazit na koupaliště, zahrát si plážový volejbal, golf nebo se vydat za památkami. Také si můžete s rodinkou dát v cukrárně dobrý dortík nebo zmrzlinový pohár. Zkrátka se bavte a odpočívejte.",
        "love": "S kamarády si můžete užít báječné posezení na zahradě, koupání nebo sportovní aktivity. Záleží na vás, co si dopřejete.",
        "work": "Vy byste se neměli pouštět do velkých finančních transakcí s rodinnými úsporami. Máte dost zkreslené představy o obchodování.",
        "relationships": "Odpolední procházku můžete zakončit zmrzlinou nebo dortíkem z oblíbené cukrárny. Počasí vás k tomu může svádět.",
        "health": "Klid a pohoda jsou pro vás dnes stěžejní. Chcete prožít poklidný závěr týdne a nic vám v tom bránit určitě nebude.",
        "tips": "Vydatný spánek, posezení se sousedy na zahradě, četba detektivního románu, péče o domácí mazlíčky, čištění automobilu."
    },
    "taurus": {
        "main": "Jestliže se chystáte připravovat nedělní oběd, nemusíte si dělat starosti. Pravděpodobně ovládáte kuchařské umění a i kdyby vaše lednička nebyla plná k prasknutí, umíte vyčarovat kouzelné lahůdky i z mála. Dejte se do toho, vaše blízké zajisté potěšíte.",
        "love": "Nemusíte se dnes hrnout ven nebo do společnosti. Možná potřebujete být také o samotě a promyslet si další kroky v lásce.",
        "work": "Nenechte se odradit a stále se dívejte na internetu nebo v okolí po dobré letní brigádě. Můžete si pak docela hezky vydělat.",
        "relationships": "Možná máte doma nějaké suroviny, ze kterých byste dokázali vyčarovat doslova lahůdky pro vaše blízké. Tak se do toho dejte.",
        "health": "Jestliže toužíte po rozmazlování těla, zajděte si do svého oblíbeného wellness centra. Tam najdete vše, co vám udělá dobře.",
        "tips": "Návštěva u starších příbuzných, nákupy okrasných květin, psaní fejetonů na internet, romantické hrátky s partnerem."
    },
    "gemini": {
        "main": "S partnerem máte stejný vkus na literaturu, hudbu nebo volnočasové aktivity. Proto pokud se dnes do něčeho chcete dát, buďte si jistí, že se k vám velmi rád přidá. Díky těmto zálibám si máte spolu o čem povídat a váš vztah je plný zábavy.",
        "love": "Mezi vámi a vaším protějškem panuje dnes krásná shoda téměř ve všem. Cokoliv si naplánujete, nebudete dělat sami.",
        "work": "Neodmítejte nějaké doporučení k obchodu nebo nákupu jen proto, že jste paličatí. Nabídku si nejprve dobře prostudujte.",
        "relationships": "I když je neděle, nemusíte odpoledne vysedávat doma. Vyjděte si do galerie, na kávu nebo do kina na dobrý film.",
        "health": "Naučte se během dne konzumovat adekvátní porce zeleniny a ovoce. Mělo by to být pravidlem, zkuste se to naučit.",
        "tips": "Příprava slavnostního oběda, hledání brigády na léto, poslech nové audioknihy, kolektivní sporty s přáteli v přírodě."
    },
    "cancer": {
        "main": "Váš partner si vás může dnes uzurpovat jen pro sebe. To vám sice nevadí, ale nesmí to překročit určitě hranice. Také si dávejte dobrý pozor na to, jak budete řešit své finanční záležitosti. Kvůli menšímu dluhu není potřeba se zadlužit ještě více.",
        "love": "Sice máte od partnera veškerou pozornost, ale také si na vás dělá až příliš velké nároky. Chce to rozumnou míru ve všem.",
        "work": "Nedělejte si zbytečné dluhy, pokud nemusíte. Byla by škoda se upsat neseriózní společnosti jen kvůli pár tisícům.",
        "relationships": "Pokud si ostatní doma udělají svůj nedělní program, vy se rozhodně nudit nebudete. Taky máte své oblíbené koníčky.",
        "health": "Zablokovaná krční páteř vás může stále bolet. Měli byste se naučit pár uvolňovacích cvikům nebo si zajít na rehabilitaci.",
        "tips": "Plážový volejbal, odpolední posezení na zahradě, malování akvarelem, nové kreativní aktivity, renovace zahradního nábytku."
    },
    "leo": {
        "main": "Pokud máte děti, dbejte na jejich všeobecné vzdělání. Třeba tím, že jim také nějaké vědomosti a zkušenosti předáte sami od sebe. Školní výuka není všemocná a děti potřebují dobrý příklad také ve svých rodičích. Vy jim máte vážně co nabídnout.",
        "love": "Upřednostníte dnes klidný den bez velkého dobrodružství. I tak akční znamení, jako jste vy, si potřebuje odpočinout.",
        "work": "Peníze se vám jen tak vydávat nechce, ale i přesto dopřejete něco hezkého dětem. Nakonec z toho budete mít radost i vy.",
        "relationships": "Předávejte svým dětem vědomosti, jak to jen půjde. Jsou jako houby a dokážou vše vstřebat bez větších problémů.",
        "health": "Pozor na domácí práce, při kterých budete používat nářadí. Koledujete si, kvůli své nepozornosti, o bolestivé poranění.",
        "tips": "Renovace balkonového nábytku, procházka k nejbližší řece, fotografování architektury, ruční mytí automobilu, odpočinek."
    },
    "virgo": {
        "main": "Nechcete-li mít vážný vztah, nevadí. Jistě máte kolem sebe hodně přátel. Ale také se vám do cesty dnes může připlést atraktivní osoba, se kterou byste si rádi užili pár žhavých chvilek. Jestli nemáte ani jeden závazky, nic vám nestojí v cestě.",
        "love": "Nenechte se přemlouvat ke schůzce s někým, kdo je vám velmi blízký. Nemusí z toho být vztah, ale krásný flirt určitě ano.",
        "work": "Máte velmi blízko k tomu, abyste si pořídili konečně to, na co jste dlouho šetřili. Ještě chvíli musíte být zodpovědní.",
        "relationships": "Sportovní aktivity mohou být i jiné než jen turistika. Už jste vyzkoušeli golf nebo pétanque? Pokud ne, nebojte se toho.",
        "health": "Některé sporty mohou být prospěšné i duši. Jóga patří mezi ně. Nejenže si protáhnete tělo, ale také ulevíte duši.",
        "tips": "Pěstování orchidejí, malování akvarelem, menší opravy v domácnosti, studium astrologie, sekání trávníku, meditace."
    },
    "libra": {
        "main": "Místo toho, abyste poslouchali doma nářky protějšku, vyhledáte společnost přátel nebo se budete věnovat svým koníčkům. Negativní nálada vás obtěžuje a vy se nechcete nechat stáhnout dolů. Měli byste se však ujistit, že váš partner nemá vážné starosti.",
        "love": "Protože se váš partner stále lituje a stěžuje si, budete vyhledávat společnost pozitivně naladěných kamarádů. Není divu.",
        "work": "Nemusíte se stále stresovat se zaměstnáním. Alespoň dnes se od toho odpoutejte a myslete na pořádný odpočinek.",
        "relationships": "Dobře si doma zorganizujte hlavně ty práce, při kterých stěhujete nábytek nebo něco předěláváte. Vyhnete se chaosu.",
        "health": "Pokud si budete barvit vlasy dnes doma, pozorně si přečtěte návod. Mohli byste přehlédnout důležité detaily a problém je tu.",
        "tips": "Romantická procházka s partnerem, sledování hudební soutěže, poslech nového podcastu, studium cizího jazyka online."
    },
    "scorpio": {
        "main": "Místo toho, abyste se na partnera urazili a dělali doma mrtvého brouka, zkuste se dnes vyhnout konfliktům. Seberte rodinu a vyjděte si na výlet nebo za kulturou. Dobrou službu vám prokáže i návštěva kina. Pobavit se můžete u rodinného filmu.",
        "love": "Urážení a tichá domácnost je sice metoda, jak dát najevo své názory, ale ve vašem případě to dnes může mít špatný efekt.",
        "work": "Nebojte se dnes jít do obchodu vrátit vadný nebo nekvalitní předmět. Vše hraje ve váš prospěch, stačí být neoblomný.",
        "relationships": "Ať už budou vaše dnešní aktivity jakéhokoliv druhu, určitě stojí za to podniknout je s rodinou. Přátelé či kamarádi počkají.",
        "health": "Bude dobré, pokud se naučíte odpočívat nejen poleháváním na gauči. Dobré meditační techniky vaši mysl vzpruží hned.",
        "tips": "Příprava ovocného poháru pro děti, venčení pejsků s kamarády, odpoledne s knihou, rehabilitační procedury ve wellness centru."
    },
    "sagittarius": {
        "main": "Nedělní odpoledne může svádět k vysedávání v oblíbené hospůdce, ale dnes to nedělejte. Raději si jděte protáhnout tělo do fitness centra nebo se s přáteli věnujte kolektivním sportům. Nakonec budete rádi, že jste odolali lenošení a šli se hýbat.",
        "love": "Sejděte se dnes s těmi přáteli, se kterými se vydáte za pohybem. Vysedávání po hospůdkách už máte beztak dost.",
        "work": "Nevzdávejte se nákupu nějakého předmětu jen proto, že byste na něj museli spořit dlouho. Chce to výdrž a zodpovědnost.",
        "relationships": "Jestliže se vám naskytne možnost letní brigády, neváhejte. Rodina ocení, když budou díky tomu nějaké korunky navíc.",
        "health": "Pečujte o ústní dutinu a také o čistotu a zdraví zubů. Myslete na správné přípravky a pomůcky, které vám pomohou.",
        "tips": "Romantické rande s partnerem, ruční mytí a čištění automobilu, studium cizího jazyka na internetu, úklid pracovny."
    },
    "capricorn": {
        "main": "Nebude se vám sice příliš chtít, ale doma na vás čeká úklid pracovny, řazení dokumentů nebo vyřizování soukromých e-mailů. Najděte si na to odpoledne chvilku a dejte vše do pořádku. Do nového týdne tak vstoupíte s čistým štítem a klidem na duši.",
        "love": "Vaše vrozená nedůvěra vás docela dost limituje. Především tehdy, hledáte-li nový milostný vztah. Jděte na to jinak.",
        "work": "Udělejte si pořádek v dokumentech. Možná vám někde leží nezaplacené složenky či upomínky. To by se mohlo vymstít.",
        "relationships": "Budete se muset pustit do uklízení nebo rovnání dokumentů. Sice vás to nebaví, ale je třeba si v tom udělat pořádek.",
        "health": "Dnes byste si měli odpustit větší dávky alkoholu. Není nutné si zadělat na zítřejší kocovinu a pokažený žaludek.",
        "tips": "Příprava nedělního oběda, odpolední setkání s příbuznými, venčení pejska s kamarády, rybaření, četba nové knížky."
    },
    "aquarius": {
        "main": "Vyzvou-li vás dnes vaši potomci na nějaký sportovní souboj nebo turnaj v deskové či karetní hře, neodmítejte je. Přijdete díky tomu na jiné myšlenky a nutno říct, že vám to jednoznačně zlepší náladu. Bude to na vás mít vyloženě léčivé účinky.",
        "love": "To, že si po svém boku představujete určitý typ člověka, není nic špatného. Naopak, přesně víte, koho byste si přáli.",
        "work": "K tomu, abyste byli zodpovědní při spoření, vám může pomoci nějaká mobilní aplikace. Zkuste si vést domácí účetnictví.",
        "relationships": "Mladší potomci vás mohou svým bezprostředním přístupem k životu vytáhnout z depresí a špatné nálady. Dovolte jim to.",
        "health": "Deskové hry a soutěže vám i vašim dětem pomohou udržet hlavu v pohotovosti, a ještě se všichni dobře pobavíte.",
        "tips": "Vědomostní a deskové hry s dětmi, práce na zahradě, péče o balkonové rostliny, nové kreativní hobby, relax s knihou."
    },
    "pisces": {
        "main": "Podaří se vám husarský kousek při nákupech. Můžete totiž domů dorazit s velmi zajímavým a hodnotným předmětem, který jste ulovili za zlomek původní ceny. Budete mít z toho opravdu velkou radost a rádi se doma pochlubíte ostatním. Ti vám to budou přát.",
        "love": "Vy si rozhodně můžete jen vybírat, s kým si dnes vyjdete na rande. Nebuďte ale příliš přísní a poslouchejte hlavně své srdce.",
        "work": "Den přeje výhodným nákupům. Nedivte se, když dnes domů dorazíte s nějakým velmi zajímavým předmětem za zlomek původní ceny.",
        "relationships": "Ač se vám chtít nebude, připravte si oblečení na zítřejší pracovní den. Ráno může být totiž chaotické a ve spěchu.",
        "health": "Čerstvou zeleninu nebo ovoce si dopřávejte během dne, buď jako přílohy nebo jen svačinky. Složení volte podle chuti.",
        "tips": "Příprava rodinné snídaně, telefonát s bývalým spolužákem, setkání s rodinou, pokerový turnaj s kamarády, romantické rande."
    }
}