{
    "aries": {
        "main": "Nové vztahy, které dnes navážete, jsou naprosto v pořádku. Je jedno, jakého budou druhu. Důležité je, že s těmito lidmi můžete zůstat velmi dlouho v přátelském kontaktu a také vás mohou obohatit svými zkušenostmi a vědomostmi. A to vy máte moc rádi.",
        "love": "Neváhejte navazovat nové vztahy, i když to budou jen obchodní nebo kamarádské vazby. Mnoho těchto lidí bude fajn.",
        "work": "Nebojte se být opravdu aktivní a snažte se prosadit jemně i své nápady. Budou vám i kolegům jistě prospěšné. Šéfa to potěší.",
        "relationships": "Vaši energii, se kterou se vkládáte do řešení nejrůznějších domácích záležitostí, nelze přehlédnout. Máte na to.",
        "health": "Správný pitný režim je to, co zabrání bolestem hlavy a znatelné únavě. Dopřejte si čistou vodu nebo ledový čaj bez cukru.",
        "tips": "Úklid domácí pracovny, home office, online komunikace s kolegy, příprava prezentace, studium odborných publikací."
    },
    "taurus": {
        "main": "Plánovali jste si pravděpodobně váš nový vztah jinak, než se momentálně vyvíjí, a také jinak než váš současný protějšek. Nebojte se, není pozdě vše dát do pořádku. Stačí si jen otevřeně promluvit. Vypadá to totiž, že se mezi vámi zatím neprolomily ledy.",
        "love": "Možná si představujete svůj nový vztah o něco romantičtěji než váš nový protějšek. Bude třeba se shodnout na ideálech.",
        "work": "Pokud nadřízeného nepřesvědčíte o své pracovitosti, bude si i dnes myslet, že jste pouze líní a bez entuziasmu.",
        "relationships": "Pokud máte stále chuť vrhnout se do nových aktivit, musí to odpovídat vašim představám. Nenechte se ovlivňovat.",
        "health": "Pozor na to, abyste bolesti hlavy zbytečně nepřisuzovali něčemu jinému. Mohou být způsobeny blokovanou krční páteří.",
        "tips": "Nákup čerstvého ovoce a zeleniny na trhu, káva v oblíbené kavárně, luštění rébusů, procházka k nejbližší řece, meditace."
    },
    "gemini": {
        "main": "Pořád byste si měli umět vybojovat své místo na slunci, tedy v zaměstnání. Máte na to dost originálních nápadů a stále vás napadají nové a nové. Také jste výborným článkem týmu a nemáte problém se přesně vcítit do potřeb ostatních vašich kolegů.",
        "love": "Vyzařuje z vás velká dávka energie a také sebevědomí. To k vám zákonitě stahuje pozornost, tak si to pořádně užijte.",
        "work": "Stále máte šanci na větší úspěchy v pracovní oblasti. Zásluhu na tom má vaše pracovitost a také přístup k ostatním.",
        "relationships": "Plánování letní dovolené je na spadnutí a máte nejvyšší čas na rezervaci letenek nebo hotelu v hezké destinaci.",
        "health": "Podporujte konzumací vápníku zdravé nehty, vlasy, zuby i kosti. Nejúčinnější bude ve formě rozpustných tabletek.",
        "tips": "Péče o domácí mazlíky, nákup krmiva a veterinárních přípravků, plánování třídního srazu, volnočasové aktivity s dětmi."
    },
    "cancer": {
        "main": "Jste sami proti sobě, pokud si stále namlouváte, že vám někdo škodí a je k vám nespravedlivý. Doma to máte o to horší, že každé slovo partnera berete vážně a nemáte tušení, že si z vás mnohokrát jen dělá škodolibou legraci. Buďte vnímavější.",
        "love": "Každé partnerovo slovo berete vážně a to není dobře. Váš protějšek si z vás také trochu utahuje a čeká na vaše reakce.",
        "work": "Pocit, že se vše spiklo proti vám, je přehnaný. Zatím se jen ukazují nepříznivé konstelace, se kterými můžete něco dělat.",
        "relationships": "Dávejte si pozor na svá ústa. Máte sklony používat dost expresivní výrazy a rétoriku. Ostatním to může připadat jako agrese.",
        "health": "Dobře se starejte o svůj úsměv, hlavně tedy o zuby. Zářivý lesk jim vrátí ty správné přípravky a pomůcky z lékárny.",
        "tips": "Sepisování motivačních citátů, hra na hudební nástroje s přáteli, studium hudební nauky, romantická schůzka s partnerem."
    },
    "leo": {
        "main": "Mohli byste si oddychnout v pracovní oblasti, kde se nepodařené dny nachýlily ke konci. Bude se vám pomalu vracet s každým úspěšným krokem energie a pozitivní nálada. Snažte se tedy na svou práci soustředit více než na milostný život. Tam to neklape.",
        "love": "Jakmile se vás váš protějšek snaží omezovat a diktovat vám, okamžitě se sbalíte a jdete o dům dál. Není to nic pro vás.",
        "work": "Nebojte se, špatné období máte za sebou. Takže jakýkoliv váš nápad by dnes měl sklidit opravdu nadšení a uznání.",
        "relationships": "Prospějí vám jednodušší činnosti a relaxační sporty. Nepodléhejte dojmu, že si můžete dovolit něco adrenalinového.",
        "health": "Pokud vás trápí oteklé kotníky či lýtka, je to tím, že vaše tělo zadržuje příliš mnoho vody. Snažte se omezit konzumaci soli.",
        "tips": "Konzultace u právního zástupce, nákup nových e-knih, zařizování domácí pracovny, výroba bylinného sirupu, procházka v parku."
    },
    "virgo": {
        "main": "Bude třeba, abyste si udělali detailní plán celého týdne. Díky tomu zvládnete všechny své povinnosti bez problémů. Také se přestaňte zabývat starostmi ostatních příbuzných a nechte je jejich osudu. Vy si jen zbytečně přiděláváte vrásky na čele.",
        "love": "Jakmile si začnete opět věřit, bude to na vás okamžitě vidět. Zdravé sebevědomí není ve vztazích žádná hanba.",
        "work": "Určitě byste neměli skládat zbraně. Postavte se problémům v práci čelem. Pokud vám docházejí síly, požádejte o výpomoc kolegy.",
        "relationships": "Naplánujte si celý tento týden tak, abyste měli co nejvíce času pro sebe a vaše nejbližší. Starosti ostatních nechte být.",
        "health": "Vhodné opalovací krémy mohou vaši pokožku uchránit před žhavými slunečními paprsky. Vybírejte je podle svého fototypu.",
        "tips": "Mytí a čištění automobilu v ruční myčce, pořízení sportovního vybavení, nákup letního oblečení a plavek, čtení."
    },
    "libra": {
        "main": "Jestliže máte před sebou zajímavého člověka, který vás přitahuje, seznamte se s ním. Je možné, že si opravdu budete mít co říct a také se podělit o nějaké zajímavé zážitky či zkušenosti. Dodejte si tedy odvahu a oslovte tuto osůbku jako první.",
        "love": "Štěstí přeje odvážným a ve vašem případě se to může týkat seznámení se s novou osůbkou. Je to totiž přesně váš typ.",
        "work": "Také dnes si musíte dát pozor na zbytečné výpady vůči kolegům. Za vším totiž stojí váš stres, nikoliv jejich neschopnost.",
        "relationships": "Měli byste se také dnes snažit najít společné nápady na úpravu domácnosti. Není to tak těžké, pokud překonáte své ego.",
        "health": "Jestliže máte doma místo na cvičení, nakupte si nové cvičební pomůcky a dejte se do pravidelného pohybu. Prospěje vám.",
        "tips": "Ranní cvičení jógy, otužování ve studené vodě, příprava grilované zeleniny k obědu, setkání se staršími příbuznými."
    },
    "scorpio": {
        "main": "Uvědomte si, že se nemusíte podřizovat ostatním příbuzným jen proto, že jsou starší. Máte svůj život, za který jste zodpovědní jen vy. Dejte tedy ostatním najevo, kde jsou mantinely slušného chování, a snažte se to udržet, co nejdéle to půjde.",
        "love": "Nenechte se zatím svést k tomu, že budete pronášet nějaká radikální rozhodnutí a soudy. Mohlo by vás to mrzet.",
        "work": "Pokud nejste schopní se s kolegy dohodnout na stejném postupu, bude to dnes problém. Hvězdy radí, abyste o kousek ustoupili.",
        "relationships": "S některými příbuznými nejste schopni se shodnout na vašem stylu života. Není to nutné. Jste zodpovědní sami za sebe.",
        "health": "Rekreační běh v přírodě vám nejen udělá dobře po těle, ale také na duši. Pusťte si k tomu do sluchátek oblíbenou hudbu.",
        "tips": "Nové sběratelské aktivity, návštěva odborného lékaře, návštěva kadeřnického studia, nákup přípravků v drogerii."
    },
    "sagittarius": {
        "main": "Vaše nápady na renovace domácnosti jsou docela dobré, ale neměli byste opomíjet zbylé členy rodiny, kteří do toho mají také co mluvit. Pokud si jejich názory vyslechnete a dáte jim prostor, dokážete tak, že jejich nápady jsou platné a mají váhu.",
        "love": "Skřípat to mezi vámi a partnerem bude i dnes. Váš protějšek může ze stresu již rezignovat na vše. Buďte opatrní na slova.",
        "work": "Dávejte si dobrý pozor na svého šéfa. Kdosi z kolegů mu dal podnět a on bedlivě sleduje vaše chování vůči ostatním.",
        "relationships": "O úpravách domova se musíte doma dobře poradit. Nelze připustit, abyste nebrali ohled na své blízké, kteří mají také nápady.",
        "health": "Pokud trpíte alergiemi, dobře víte, že domácnost musí být bez prachu a roztočů. Pomoci může také čistička vzduchu.",
        "tips": "Nákup nábytku do domácí pracovny, plánování estetických zákroků, studium cizího jazyka, pěstování bonsají, fotografování."
    },
    "capricorn": {
        "main": "Pokud vám partner dnes bude lichotit, nehledejte za tím žádné nekalé věci. Když naopak budete jeho chválu brát upřímně, uvidíte, že to myslí vážně a má oči opravdu jen pro vás. Pracujte na posilování důvěry ve vašem vztahu, půjde to velmi dobře.",
        "love": "Užívejte si přízně partnera, berte s upřímným zájmem jeho lichotky a nenechte se ničím zbytečně rozhodit nebo znervóznit.",
        "work": "Dejte si dnes do pořádku váš pracovní harmonogram, ať máte přehled o všech svých pracovních i soukromých povinnostech.",
        "relationships": "Ani dnes odpoledne nevysedávejte doma. Vyrazte opět mezi lidi a hledejte další inspirace do života nebo nové hobby.",
        "health": "Přirozenou formou pohybu je také plavání. V těchto dnech je to výborný způsob jak spojit příjemné s užitečným.",
        "tips": "Cvičení bikram jógy, vegetariánský oběd, deskové a karetní hry, setkání se staršími příbuznými, zpěv ve sboru."
    },
    "aquarius": {
        "main": "Máte-li svou představu o tom, jak má fungovat milostný vztah, bude fajn, když to s někým proberete. Z vašeho pohledu je to sice správně, ale možná máte opravdu až příliš vysoké nároky na svého partnera. A ty nejsou splnitelné v podstatě nikým.",
        "love": "Dejte si pozor na to, abyste na své nápadníky neměli až příliš vysoké nároky. Nemohou je naplnit podle vašich představ.",
        "work": "Mění se vše v lepší a vy hrajete hlavní roli. Nebojte se být více průbojní a snažte se být vpředu. Můžete zapůsobit na šéfa.",
        "relationships": "Sami sobě jste největším nepřítelem, pokud nedáte ostatním jasně najevo, kde jsou mantinely. Bojujte za svá práva.",
        "health": "Pozor na práce s chemickými látkami, mohly by vám poleptat kůži na rukou. Chraňte si ruce gumovými rukavicemi.",
        "tips": "Pracovní porada, psaní životopisu, psaní romantické poezie, hledání letního přivýdělku, konzultace s lékařem, tanec."
    },
    "pisces": {
        "main": "Pokud na vás dnes přijde nostalgická chvilka a budete chtít zavzpomínat na členy rodiny či hezké chvilky, vytáhněte stará fotoalba a proberte se jimi. Díky tomu si tak můžete náladu spíše zlepšit. Je jisté, že vzpomínky mají být především hezké.",
        "love": "Seznamování se pro vás není žádnou velkou vědou. Jste od přírody velmi komunikativní a bezprostřední, což ostatní láká.",
        "work": "I když se budete snažit, bohužel příliš pozitivní výsledky vám dnes práce nepřinese. Je třeba přestat zmatkovat.",
        "relationships": "Dnes vás může přepadnout nostalgie a rádi se budete probírat rodinnými alby a fotografiemi. Mohou být i velmi staré.",
        "health": "Relaxujte oblíbenými činnostmi. Jestli to dnes bude poslech hudby, čtení knížky nebo malování, záleží už jen na vás.",
        "tips": "Nákup léků a vitaminů, schůzka v bance, vyřizování cestovních dokladů, nové kontakty na sociálních sítích, meditace."
    }
}