{
    "aries": {
        "main": "Máte oči pro určité typy lidí a k těm se upírá vaše snaha o seznámení. Naopak ti, kteří by se zase chtěli seznámit s vámi, vás až tolik nezajímají. Děláte ale velkou chybu. Právě mezi těmito jedinci je dost zajímavých lidí a může vám s nimi být fajn.",
        "love": "Váš sex appeal je opravdu obrovský a tím k sobě přitahujete čím dál více zajímavých lidí. Otázka je, zda i oni zajímají vás.",
        "work": "Dnešním dnem počínaje budete mít štěstí na nějakou tu výhru nebo finanční přilepšení z práce. Očekávat můžete zajímavé věci.",
        "relationships": "Nebojte se toho, že byste neměli vkus. Naopak, využijte svého uměleckého cítění a vyzdobte si hezky byt nebo dům.",
        "health": "Detoxikace organismu bude mít skvělé účinky na vaši pleť i váhu. Zkuste upravit jídelníček tak, abyste byli spokojení.",
        "tips": "Rehabilitační cvičení pod dohledem terapeuta, bikram jóga, nákup nových cestovních zavazadel, badminton s dětmi."
    },
    "taurus": {
        "main": "Vaše emoce s vámi dnes cloumají a vy máte sklony pronášet dramatická prohlášení. Není to nic, co by bylo vhodné. Raději se snažte mírnit všechny vjemy a opakujte si, že je to jen pro dnešek. Zítra bude lépe. Některým kolegům se ale stejně nezavděčíte.",
        "love": "Nenechte se strhnout okolnostmi k nějakým extrémním vyjádřením. Zatím pozorujte situaci a také své city či emoce.",
        "work": "Působíte na ostatní až příliš skromně. Pozor na to, někteří kolegové vás mohou podezírat, že je to od vás pouze přetvářka.",
        "relationships": "Už máte alespoň zarezervovanou letní dovolenou? Pokud ne, musíte si pospíšit. Později nebude vůbec snadné cokoliv najít.",
        "health": "Ořechy a semínka v přírodní formě jsou výtečná, pokud potřebujete prevenci proti řídnutí kostí. Také vám nahradí svačinku.",
        "tips": "Nákup vitaminů a potravinových doplňků na internetu, výroba aromatických esencí, sbírání léčivých bylinek, třídění fotek."
    },
    "gemini": {
        "main": "Osůbka, která vás k sobě přitahuje magickou silou, nevstoupila do vašeho života jen tak, pro nic za nic. Naopak je to člověk, se kterým vás spojuje mnoho věcí. Zjistíte to, jakmile se spolu dáte do řeči. Ovšem předtím mezi vámi přeskočí silná jiskra.",
        "love": "Dejte se do řeči s někým, kdo je vám extra sympatický. Přeskočit může jiskra, která vás dva spojí dohromady na dlouhou dobu.",
        "work": "Dnes si můžete napravit reputaci a zlepšit své postavení ve firmě. Vysvětlí se nedorozumění z posledních náročných dní.",
        "relationships": "Jestliže si chcete dopřát tento týden nějaké dobrodružství, můžete se vydat na víkend na rodinnou farmu a něco se naučit.",
        "health": "Jestliže si chcete dnes trochu dát do těla, ale nemáte chuť běhat na páse, vyrazte si ostrou chůzí do přírody na delší túru.",
        "tips": "Pořízení nového domácího mazlíčka, rámování rodinných fotografií, nové výtvarné aktivity, dobrovolnické práce, karetní hry."
    },
    "cancer": {
        "main": "Nesmíte stále vše vidět tak pesimisticky. Tím sami sobě vlastně přiděláváte starosti. Zkuste dnes zahnat černé myšlenky na budoucnost a žijte přítomným okamžikem. To jediné vás může totiž rozveselit a zachránit před splínem. Uvidíte, že to pomůže.",
        "love": "Zjistíte, že ve vztazích jakéhokoliv typu není vůbec marná rozvaha a pomalejší reakce. Díky tomu nenaděláte takové chyby.",
        "work": "I když máte černé myšlenky a všechno je pro vás komplikované, zkuste se na vše podívat s odstupem. Brzy to přejde.",
        "relationships": "Určitě jste manuálně zruční, takže se nebojte přiložit ruku k dílu a hezky zrenovovat část domu nebo upravit zahrádku.",
        "health": "Mnoho železa a hořčíku najdete v dýňových semínkách. Postačí menší dávky, několikrát během dne. Buďte důslední.",
        "tips": "Vydatná snídaně, ranní jóga v prostředí domova, pořízení cestovních zavazadel pro děti, odpoledne ve sportovním parku."
    },
    "leo": {
        "main": "Zapomeňte pro dnešek na vaše nové pracovní nápady či vize. Věnovat byste se totiž doma měli vašim blízkým. Partnerovi i dětem zřejmě dost chybíte. Fyzicky s nimi sice jste, ale myšlenkami bloudíte někde v práci. Nemyslete si, že to na vás nepoznají.",
        "love": "Vydejte se na společenskou akci, kde můžete narazit na nové lidi. Doprovod vám jistě rád udělá někdo z dobrých přátel.",
        "work": "V kolektivu panuje super atmosféra, takže se vám i daleko lépe přemýšlí a pracuje. Dnes budete opravdu spokojení.",
        "relationships": "Dneska byste měli ubrat z pracovních povinností a věnovat se více vašim blízkým. Potřebují vědět, že jste tu pro ně.",
        "health": "Zákeřný cholesterol vyžaduje, abyste tělo před ním chránili. Zkuste ořechy a semínka, která obsahují nenasycené tuky.",
        "tips": "Úprava jídelníčku, psaní zábavného blogu, fotografování v botanické zahradě, houbaření, konzultace u stomatologa."
    },
    "virgo": {
        "main": "Váš nový protějšek vám dnes docela srozumitelně dá najevo, že jakékoliv omezování a manipulování z vaší strany tolerovat nebude. Máte naštěstí tolik rozumu a tak svého partnera máte rádi, že se okamžitě zamyslíte nad svým jednáním a omluvíte se mu.",
        "love": "Pokud chcete mít někoho jen pro sebe, je to chyba. Tento člověk má rád svou vlastní volnost a možnost rozhodování.",
        "work": "Nedejte se strhnout k neuvážené konverzaci se šéfem nebo kolegy. Můžete dát průchod emocím velmi razantním způsobem.",
        "relationships": "Naplánujte si již nyní nějaké zajímavé výlety na prázdninové období. Zakoupit si můžete také přednostně vstupenky.",
        "health": "Posilování zádového svalstva je velmi důležité pro celou vaši figuru a také prevencí proti bolesti těla. Cvičíte pro sebe.",
        "tips": "Návštěva praktického lékaře, studium nového cizího jazyka, nákupy pro starší příbuzné, nákup vinylových desek, pečení koláčů."
    },
    "libra": {
        "main": "Dejte si dnes opravdu záležet na tom, jak budete ve společnosti působit především po té vizuální stránce. Jste velmi šarmantní znamení, s vytříbeným vkusem. Stačí vaši osobnost jen podtrhnout správným oblečením, parfémem a vše doplnit skvělými doplňky.",
        "love": "Až půjdete do společnosti, dbejte na skvělý vzhled. Roli budou hrát i vhodné doplňky a nesmí chybět parfém. Umocní to dojem.",
        "work": "Druhá polovina pracovního týdne bude také náročná, protože si na vás může posvítit váš nadřízený a udělit vám výtku.",
        "relationships": "Momentálně stanovené plány na letní prázdniny jsou velmi reálné a může se vám je podařit naplnit. Stačí se jen připravit.",
        "health": "Vyzkoušejte si někde na čerstvém vzduchu a klidném místě pár kardio cviků nebo posilování. Uvidíte, jak dobře se budete cítit.",
        "tips": "Studium aromaterapie, nákup odborné literatury, zařizování domácí dílny, pěstování bylinek, piknik v parku s kamarády."
    },
    "scorpio": {
        "main": "Možná v práci chcete mít přede všemi náskok, a tak sprintujete za výsledky. Ale pozor byste si měli dát také na kvalitu odvedené práce. Ta je možná dost sporná. Zaměřte se na to, kde chybujete, a snažte se tomu přizpůsobit. Zatím to jde napravit.",
        "love": "Pokud se vám dnes váš miláček přijde omluvit a bude pro vás mít překvapení, nepodezírejte ho z nekalostí. Chce se omluvit.",
        "work": "Bude třeba si upravit váš systém práce. Asi moc na vše spěcháte a nemáte klid na aktuální úkoly. Tam může být příčina chyb.",
        "relationships": "Pokud hledáte letošní letní dovolenou, zaměřte se na takové destinace, které jsou ve vašich finančních možnostech.",
        "health": "Pěší chůze není nic, co byste nemohli zvládnout, pokud vám to tedy dovoluje vaše zdraví. Pomůžete tělu k prokrvení.",
        "tips": "Nákup potravin v nové tržnici, třídění oblečení pro charitu, oprava domácí elektroniky, nákup kancelářských potřeb."
    },
    "sagittarius": {
        "main": "Dnes můžete opět zápasit s provokativní a bojovnou náladou. Stále vám není nic vhod a vašeho partnera skoro až terorizujete připomínkami. Dobrým způsobem, jak se takových nálad zbavit, je fyzický pohyb. Vyrazte do fitness centra a dejte si do těla.",
        "love": "Místo toho, abyste stále doráželi na partnera a provokovali, jděte si svou bojovou náladu vybít třeba do posilovny.",
        "work": "Jestliže se pokusíte dát do pořádku vaše vztahy s kolegy, všimne si toho i váš nadřízený a dá vám ještě šanci.",
        "relationships": "Budete se muset velmi dobře vyptat vašich potomků, jaké mají na léto plány. Je jedno, kolik jim je let. Chcete mít přehled.",
        "health": "Pedikúra není jen o tom, že vám odborník upraví nehty, ale také vám uleví masážemi chodidel. Zajděte si do nejbližšího salonu.",
        "tips": "Dopoledne s přáteli v galerii, pořízení vstupenek na muzikál, nákupy lahůdek, objednání se k lékaři, plážový volejbal."
    },
    "capricorn": {
        "main": "Neunáhlujte se v tom, že dnes uděláte krátký proces s vaším novým vztahem. Není vhodný den, abyste to partnerovi naservírovali zčistajasna. Bude to chtít totiž vymyslet způsob, jakým mu to oznámíte. Jinak se s tím bude velmi těžko vyrovnávat.",
        "love": "Pokud máte tendence dnes nový vztah poslat k ledu, nedělejte to. Váš protějšek by to opravdu nemusel rozdýchat.",
        "work": "Není fér, abyste vydírali zaměstnavatele odchodem z práce, ale své si přece jen vydobýt musíte. Nebojte se obhájit své výkony.",
        "relationships": "Uvidíte, že poklidná debata o tom, jak předělat či upravit rodinné plány, přinese své ovoce. Je dobré zachovat chladnou hlavu.",
        "health": "Zdravé zuby i ústní dutina by měly být samozřejmostí. Předejdete bolestem, zánětům a je to navíc vaše vizitka při úsměvu.",
        "tips": "Plánování víkendových výletů do přírody, servis jízdního kola, kontrola cestovních dokladů, psaní cestovatelského blogu."
    },
    "aquarius": {
        "main": "Pravděpodobně nosíte velmi dlouho v hlavě nějaký zajímavý podnikatelský nápad. Dnes asi přijde znovu na přetřes při rozhovorech s přáteli nebo rodinou. Zaměřte se znovu na to, proč se bojíte své podnikání rozjet. Možná najdete konečně řešení.",
        "love": "Nezadaní z vás by se měli poučit ze svých minulých chyb ve vztazích a stavět se k milostným záležitostem jinak.",
        "work": "Jestliže je vhodná doba na založení vlastní živnosti, dejte se do toho. Jen nepřeskakujte důležité a povinné kroky v začátku.",
        "relationships": "Protistrana bude překvapená z toho, že jste si nenechali nedávné obvinění na krku a bránili jste se. Bude k vám mít respekt.",
        "health": "Pokud celý den v práci sedíte u počítače, zkuste se několikrát protáhnout .Především krční páteř, hrudník a také bedra.",
        "tips": "Wellness procedury, servis automobilu, venčení a výcvik pejska, úklid domu, odpolední poslech jazzové hudby, spánek."
    },
    "pisces": {
        "main": "Jestliže se brzy vydáváte na dovolenou, bude to chtít, abyste si prošli všechny své povinnosti v práci i doma. Musíte se totiž připravit a opravdu se ujistit o tom, že je vše v pořádku. Nebojte se požádat kolegy o výpomoc v době vaší nepřítomnosti.",
        "love": "Užívejte si pozornosti svého partnera co nejvíce to půjde. Uvidíte, že spolu dnes můžete prožít opravdu krásný den.",
        "work": "Udělejte si přehled o tom, co je před vámi za povinnosti, a také o tom, kdy máte dovolenou. Ať víte, co vše máte stihnout.",
        "relationships": "Víkend bude pro vás možná náročný, co se oslav týká. Dnes byste si měli zjistit potřebné informace o času a místě konání.",
        "health": "Místo přílišné konzumace kávy si dopřejte i jiné povzbuzující nápoje. Jedním z nic je japonský zelený čaj matcha.",
        "tips": "Nové obchodní projekty, konzultace na úřadech, rezervace letní dovolené v zahraničí, pokerový turnaj s přáteli, lekce samby."
    }
}