{
    "aries": {
        "main": "Máte zřejmě skluz v plánech na letní prázdniny. Především děti vám vaši nepřipravenost mohou vyčíst. Čekaly od vás víc. Snažte se tedy dnes ještě dohnat, co se dá. Uvidíte, že při troše ochoty můžete připravit celkem obstojný program na první týdny.",
        "love": "Vášnivé flirty se vám budou nabízet i dnes. Pokud nejste zadaní, tak je berte jako zpestření pátečního podvečera.",
        "work": "Daří se vám celkem dobře dokončit vše, co jste si na tento týden zadali. To je hezký výsledek. Domů půjdete spokojení.",
        "relationships": "Plánování letních aktivit je skoro na poslední chvíli, ale i tak se na to zaměřte a snažte se udělat co nejvíc různých plánů.",
        "health": "Pokud vás často berou křeče, máte špatnou náladu a cítíte se unavení, bude vám zřejmě chybět hořčík. Doplňujte ho denně.",
        "tips": "Hledání brigády na léto, kontrola domácího účetnictví, zápis do vzdělávacího workshopu, četba odborných časopisů, rande."
    },
    "taurus": {
        "main": "S partnerem si dnes popovídáte opět natolik upřímně, až se sami budete divit. Není to ale nic, čeho byste se měli obávat. Naopak si spolu můžete v mnoha věcech notovat. Mezi vás dva to vnese více důvěry a sounáležitosti. Tak se toho nebojte.",
        "love": "Dnes můžete díky dalšímu otevřenému rozhovoru mezi vámi a partnerem dojít k zajímavým zjištěním. Ta vás mohou potěšit.",
        "work": "Konec pracovního týdne vás potěší. I když se vám daří, přece jen si potřebujete také pořádně odpočinout. Nezůstávejte přesčas.",
        "relationships": "Baví vás vyhledávat nové zájmy a zkoušíte nová hobby? Najděte si něco na prázdniny, budete mít hodně času na zaučení.",
        "health": "Bylinky, které jste si vypěstovali nebo najdete na čistých místech v přírodě, můžete zpracovat do formy sirupů.",
        "tips": "Práce se sociálními sítěmi, dopolední procházka s pejskem, fotografování jídla, nákup ovoce na zavařování, odpočinek."
    },
    "gemini": {
        "main": "V navazování nových kamarádsky a přátelských vztahů jste mistři. Máte otevřenou a upřímnou povahu a velmi specifický smysl pro humor, takže se lidé k vám stahují s nadšením. Vy si ovšem dnes dejte dobrý pozor na to, koho si k sobě pustíte.",
        "love": "Jste otevření novým přátelstvím a známostem. Dejte přednost ale těm lidem, u kterých jste si jistí a nevaruje vás intuice.",
        "work": "Nebojte se ukázat v zaměstnání ochotu a snahu. Není to nic špatného být nápomocný ostatním a také nadřízenému v povinnostech.",
        "relationships": "Blíží se prázdniny a vám energie rozhodně neubývá. Měli byste si ji ale šetřit, ať na rodinné dovolené nejste vyčerpaní.",
        "health": "Denní stravu si můžete rozdělit do menších pravidelných porcí a postupně je konzumovat. Nebudete se potom tolik přejídat.",
        "tips": "Dokončení pracovního projektu, úklid domácí pracovny, nákup kancelářských potřeb, odpolední káva s kamarády ve městě."
    },
    "cancer": {
        "main": "Díky tomu, že jste se opět začali více bavit s ostatními kolem vás, nemračíte se a pohlížíte na svět optimisticky, máte znovu otevřené dveře k mnoha akcím. Lidé vás opět rádi uvítají ve své společnosti. Je zřejmé, že jste opustili temné myšlenky.",
        "love": "Protože jste si vylepšili komunikační dovednosti s ostatními kolem vás, nepřicházíte o spoustu akcí, na které vás nyní zvou.",
        "work": "Dnes budete hodně rádi, že je konec pracovního týdne. Těšíte se, až si odpočinete od kolegů, nadřízeného i pracovních úkolů.",
        "relationships": "Kdosi z příbuzných vás může zasvětit do svého hobby nebo sportu. Mezi novými lidmi můžete najít spoustu přátel.",
        "health": "Úklidové přípravky si doma můžete připravit i z obyčejných surovin, které máte ve spíží. Jsou to jedlá soda a kvasný ocet.",
        "tips": "Zápis s pejskem na výcvik, nákupy odborných publikací, plánování romantického víkendu s partnerem, odpočinek na terase."
    },
    "leo": {
        "main": "Dobrou zábavu vám může přinést nečekaně večer s kamarády někde ve městě. Rozhodně se nevyhýbejte tanci, karaoke, kulečníku nebo bowlingu. Všude tam se můžete skvěle bavit a třeba si i zasoutěžit. Doma by vám samotným dnes bylo opravdu smutno.",
        "love": "Místo toho, abyste zůstávali dnes doma a nudili se, vyrazte si do společnosti. Bavte se tancem nebo karaoke s přáteli.",
        "work": "Čeká vás pohodová konverzace s vaším nadřízeným, která vám osvětlí mnohé do budoucna. Nebojte se být upřímní a zvídaví.",
        "relationships": "Připravte si na dnes s rodinou hezký program na víkend. Můžete začít tím, že si vyjdete do kina na nový film.",
        "health": "Malé, ale zdravé svačinky si na den připravíte ze sezonního ovoce. Volte smoothie, salát nebo jen kousky různých druhů.",
        "tips": "Nákup nového hudebního nástroje, úklid terasy nebo balkonu, třídění staršího oblečení, fotografování města, návštěva kina."
    },
    "virgo": {
        "main": "Dobře že vás dnes čeká poslední pracovní den. Potřebujete si nutně odpočinout a také vám docházejí dobré nápady, kterými jste perlili v minulých dnech. Nebojte se toho, jistě si přes víkend najdete vyhovující relax. Dnešek se snažte přežít bez úhony.",
        "love": "Pokud do milostného vztahu začnete vnášet ultimáta, může se vám to okamžitě vymstít. Buďte více tolerantní k ostatním.",
        "work": "Začínají vám docházet nápady, a tak jste šťastní, že je konec pracovního týdne. Nutně potřebujete zvolnit a nabrat síly.",
        "relationships": "Zajímejte se o to, co by rády o prázdninách dělaly vaše děti. Zřejmě mají nějaká nová přání a je dobré na ně brát ohled.",
        "health": "V letních měsících byste měli používat jiné přípravky na vlasy než běžně. Především ti z vás, kteří si vlasy barví.",
        "tips": "Pořízení výtvarných potřeb pro děti, masáže krční páteře, procházka po okolí, odpoledne s dětmi v aquaparku, plavání."
    },
    "libra": {
        "main": "To, že je konec pracovního týdne a blíží se víkend, z vás udělá ty nejmilejší kolegy na světě. Je jasné, že se po náročných dnech těšíte, až si odpočinete. Jen se dnes na své okolí nesmíte nuceně usmívat a přetvařovat se. Poznají to na vás velmi dobře.",
        "love": "Také dnes byste mohli vyrazit do společnosti a poznat nové lidi. O samotě doma nezadaným z vás nebude zrovna příjemně.",
        "work": "Vidina blížícího se víkendu u vás vyvolá jednoznačně pozitivní pocity. Budete i vcelku milejší na své kolegy nebo klienty.",
        "relationships": "Letní podvečer využijte k posezení u grilu nebo táboráku. Povídejte si, vyprávějte strašidelné historky a poslouchejte hudbu.",
        "health": "Plavání je báječná forma pohybu. Ulevuje od bolestí, pomáhá hubnout nebo rehabilitovat. Dnes si odpoledne plavat zajděte.",
        "tips": "Plánování třídního srazu, malování akvarelem, ruční práce, hledání kontaktů na sociálních sítích, nákup exotických potravin."
    },
    "scorpio": {
        "main": "Doma by se vám dnes odpoledne nebo navečer mělo dařit dobře. Jistě na tom má zásluhu nadcházející víkend. Dávejte si proto pozor, abyste zbytečně dobrou atmosféru něčím zlomyslným nepokazili. Hlavně nevhodným stylem humoru. Rodinu by to mrzelo.",
        "love": "Dejte vašemu vztahu šanci. Dosavadní problémy nestojí za to, abyste činili nějaká radikální rozhodnutí. Vše se zlepší.",
        "work": "Pomalu, ale jistě se začínáte lépe orientovat v tom, jakou prioritu mají momentálně všechny vaše povinnosti. Už bylo načase!",
        "relationships": "Dnešní odpolední či podvečerní atmosféra doma bude poklidnější než přes týden. Přesto nepokoušejte ostatní svými názory.",
        "health": "Můžete trpět na křečové žíly a v letních měsících je to horší. Nezapomínejte proto na kompresní punčochy a chladivé gely.",
        "tips": "Hledání letní brigády, pěstování kuchyňských bylinek, hra na hudební nástroje s dětmi, lekce moderního tance ve studiu."
    },
    "sagittarius": {
        "main": "I když jste před svými přáteli velmi upřímní a otevření, některé záležitosti z vašeho milostného vztahu by jim měly zůstat utajeny. Určitě není vhodné, abyste se svěřovali ostatním dnes se svými sexuálními zážitky s partnerem. Udržte si jisté dekórum.",
        "love": "S přáteli můžete sice rozebrat situaci ve vztahu, ale není dobré se jim svěřovat s intimnostmi. Ty by měly zůstat tajné.",
        "work": "Ani dnes nepodceňujte sílu kolektivu. Dejte si s kolegy pauzu na kávu a poptejte se na jejich víkendové či prázdninové plány.",
        "relationships": "Domů dorazíte vyčerpaní, ale o něco víc v pohodě, než v uplynulých dnech. Rodina to také uvítá, už měli o vás strach.",
        "health": "Pokud dnes budete trávit celý den na sluníčku, musíte si dobře chránit hlavu správnou pokrývkou a také dostatečně pít.",
        "tips": "Online pracovní porada, úklid domácí pracovny, oběd s klientem, odpoledne na koupališti, plánování renovace domova."
    },
    "capricorn": {
        "main": "Mluvení dnes rozhodně není vaše silná stránka. Můžete být celkem ostří a volit expresivní výrazy. Proto se nepouštějte do vážných debat, především těch, které se týkají vašeho milostného vztahu a jeho řešení. Tam byste mohli napáchat dost škody.",
        "love": "Také dnes se raději vyhněte debatám o budoucnosti nebo ukončení nového vztahu. Nemáte dnes svůj den v komunikaci.",
        "work": "Pravděpodobně půjdete dnes z práce domů s vítěznou náladou. Podaří se vám uchránit svou pozici a dostanete další šanci.",
        "relationships": "I když se ostatní doma mohou poflakovat nebo vyrazí za zábavou, vy nelitujete energie vydané na jisté úkoly a povinnosti.",
        "health": "Pokud rádi běháte v přírodě, v letních dnech vyrazte běhat již po ránu. Oblíbená hudba ve sluchátkách pomůže držet tempo.",
        "tips": "Zařizování dětských pokojíků, rezervace zahraniční dovolené u moře, výroba domácího bylinného sirupu, houbaření."
    },
    "aquarius": {
        "main": "Pokud potřebujete radu v jisté pracovní či úřední záležitosti, bude fajn, když o ni požádáte odborníky. Ty ale možná máte mezi svými přáteli. Nebojte se tedy požádat o pomoc. Uvidíte, že obdržíte opravdu cenné a potřebné informace k dalším krokům.",
        "love": "Pokud stále hledáte partnera na inzerát, měli byste si ho znovu přečíst a možná trochu přepracovat. Něco již neplatí.",
        "work": "S novými nápady se budete potřebovat někomu svěřit. Zajímá vás především profesionální pohled na věc od někoho zkušeného.",
        "relationships": "Jakmile se vyčistí vzduch v rodinných záležitostech, i doma je vám lépe. Konečně můžete říct, že vše dobře dopadlo.",
        "health": "Nesmíte se tolik přejídat. Máte tendence kombinovat nejrůznější potraviny a pak se divíte, že je vám těžko od žaludku.",
        "tips": "Péče o domácí mazlíčky, úklid domácnosti, nákupy starožitností, založení spořicího účtu pro děti, návštěva divadla."
    },
    "pisces": {
        "main": "Do hlavy se vám vkrádá postupně myšlenka, zda vůbec nyní máte chuť být ve vážném vztahu. Pravděpodobně tomu tak není, pokud už o něčem takovém přemýšlíte. Zatím si ale nechte ještě čas na rozmyšlenou, než to začnete řešit se současným partnerem.",
        "love": "Zaskočit vás může váš vlastní pocit, zda momentálně chcete vůbec vážný vztah se současným partnerem. Uvažujte reálně.",
        "work": "Zdržovat byste se dnes v zaměstnání nemuseli, pokud to nebude vyžadovat naléhavá situace. Snažte se mít vše hotové včas.",
        "relationships": "Pokud vás zítra čeká rodinné setkání, dnes neponocujte. A rozhodně si zakažte pití alkoholických nápojů, jestli máte řídit.",
        "health": "Pokud řídíte auto, pozor na ostré sluneční paprsky. Měli byste rozhodně používat při jízdě správné sluneční brýle.",
        "tips": "Rekreační běh v lese, meditace a dechová cvičení, zápis do nového kurzu jógy, rodinná večeře v oblíbené restauraci."
    }
}