{
    "aries": {
        "main": "Poslední červnové dny jsou zatím ještě sem tam netrpělivé a nesou s sebou nervozitu. V práci se snažte pracovat stále na svém kariérním postupu nebo upevnění pozic. V určitých záležitostech postupujte pomaleji, než jste zvyklí. Vyhnete se omylům a chybám.",
        "love": "Románky na jednu noc nejsou nic pro vás. Přesto se připravte na to, že se jich vám několik naskytne. Je to jen na vás.",
        "work": "Nesmíte se nechat unést pocity uspokojení nad nedávnými úspěchy v pracovní oblasti. Jinak zaspíte další postup v kariéře.",
        "relationships": "Když se začnete více soustředit na každou svou dnešní činnost, výsledky budou hned lepší. Myslete na to celý den.",
        "health": "Pitný režim musíte mít pravidelný a velmi důsledný. Jestliže ho zanedbáte, mohou to odskákat vaše ledviny a pokožka.",
        "tips": "Nákup kancelářských potřeb, home office, odpoledne na městském koupališti, pomoc starším příbuzným, meditování."
    },
    "taurus": {
        "main": "S vaším novým partnerem dnes budete objevovat další věci, které vás pojí dohromady. Máte toho společného celkem dost, ale zatím jste neměli čas o tom více hovořit. Čekají vás hezké rozhovory a příjemné chvilky. Nebojte se být otevření a upřímní.",
        "love": "Mezi vámi a vaším novým partnerem dojde k zajímavému zjištění. Máte toho společného mnohem více, než jste si mysleli.",
        "work": "Jestliže vás dnes bude kdosi kritizovat, vám to tak vadit nebude. Příliš osobně se spolu neznáte a nemáte nic společného.",
        "relationships": "Neberte si příliš k tělu řeči ostatních v rodině, že jsou vaše nápady příliš riskantní a odvážné. Nemají tolik fantazie.",
        "health": "Nezapomínejte na pravidelné denní dávky železa a kyseliny listové. Udrží vám červené krvinky ve velmi dobré kondici.",
        "tips": "Péče o okrasné rostliny, úklid balkonu nebo terasy, samosběr jahod, veterinární péče o domácí mazlíčky, čištění auta."
    },
    "gemini": {
        "main": "Budete zvídaví, tak jak je ostatně vaším zvykem, a bavit se budete téměř s každým, kdo vám vejde do života. V práci si dávejte pozor na to, abyste na ostatní nebyli příliš rychlí. Nemuselo by se jim to líbit. Raději se kroťte a jděte na vše pomaleji.",
        "love": "Rádi se dnes seznámíte s každým, kdo se vám přimotá do cesty. Jako kdybyste tušili, že se vám budou nové kontakty hodit.",
        "work": "Nespěchejte. Máte totiž šanci, že budete příliš rychlí i na ostatní kolem vás a ti s tím nebudou vůbec v pohodě.",
        "relationships": "Pokud si nevíte rady s přebytkem energie, můžete se zapojit do domácích povinností. Určitě se nějaké důležité najdou.",
        "health": "Pokud máte rádi průmyslové cukrovinky, měli byste se jich alespoň na chvíli vzdát. Raději zkuste zajímavý druh ovoce.",
        "tips": "Oprava drobného nábytku, vycházka s pejskem do lesa, odpoledne v rodinné minizoo, cvičení ve fitness, psaní poezie."
    },
    "cancer": {
        "main": "Divíte se tomu, že vše je nyní komplikované a těžké? Spoustu z toho si ale děláte sami. Nesoustředíte se na podstatné věci a unikají vám souvislosti. Dnes můžete být navíc rádi, že si váš partner tolik nebere vaše řečičky a nestálou náladu.",
        "love": "Nemusíte se bát toho, že by si váš partner bral výkyvy vašich emocí nějak zvlášť osobně. Tuší, že máte starosti.",
        "work": "Nesoustředíte se na zásadní věci, a tak se nedivte, že si sami sobě komplikujete život. Zpomalte a buďte při smyslech.",
        "relationships": "Můžete si jen nadělat problémy, pokud si nebudete dávat pozor na to, co vašim příbuzným dnes říkáte. Volte pečlivě slova.",
        "health": "Bylinný sirup vyrobíte celkem snadno z bezových květů a bylinek. Chutnat bude namíchaný s perlivou vychlazenou minerálkou.",
        "tips": "Pochůzky po úřadech, úklid domácí pracovny, konzultace na estetické klinice, pořízení nové vlasové kosmetiky, péče o pleť."
    },
    "leo": {
        "main": "Drobné konflikty se vyskytnou v milostných záležitostech. Nedělejte z komára velblouda a zkuste se přes to přenést. Uvidíte, že když tomu nebude přikládat velký význam, samo to odejde. V práci buďte v klidu a nikam nespěchejte. Ničeho tím nedosáhnete.",
        "love": "V partnerském vztahu vás mohou zase trápit malá nedorozumění. Není třeba z toho ale dělat drama, brzy to přejde.",
        "work": "Máte chuť ostatním vytřít zrak tím, že jste dokonalí a své povinnosti plníte bez chyb. Bohužel se můžete s něčím unáhlit.",
        "relationships": "Nebojte se toho, že by vám rodina zazlívala, když si také uděláte jen čas pro sebe a své zájmy. Dopřejte sami sobě čas.",
        "health": "Vitamin A vaše tělo potřebuje. Místo toho, abyste se ládovali prášky, vyzkoušejte ho získat z čerstvých potravin.",
        "tips": "Vyřizování v bance, tvorba nových webových stránek, úklid domácí knihovny, výtvarné techniky, fotografování, samosběr jahod."
    },
    "virgo": {
        "main": "Jestliže hledáte nového partnera, nevyhýbejte se příležitostem a neopovrhujte nějakými nabídkami k seznámení. Mohli byste později dost litovat. V práci bude třeba dělat věci pomaleji, i když se vám průtahy nebudou vůbec líbit. Nic zkrátka neuspěcháte.",
        "love": "Pokud děláte, že vás nové milostné zážitky nepřitahují a nestojíte o ně, děláte chybu. Možná byste našli parťáka do života.",
        "work": "Musíte mít více trpělivosti s nečekanými průtahy v práci. Sice budete naštvaní, ale vaše okolí se to zatím naštěstí nedozví.",
        "relationships": "Měli byste pamatovat na to, že vy také potřebujete čas sami pro sebe. Nemáte ho tolik, abyste ho mohli obětovat ostatním.",
        "health": "Přijdete dnes na to, že základem zdraví je mít se rádi, ostatní věci vždy dovedete zajistit nebo se o ně více zajímat.",
        "tips": "Poslech jazzové hudby, oprava domácího spotřebiče, nákup pleťové kosmetiky, zahradnické práce, setkání s přáteli."
    },
    "libra": {
        "main": "Jamile si dnes dovolíte liknavost a flákání v práci, hned se to otočí proti vám. Klidně si s kolegy dejte kávičku, ale nevysedávejte u ní příliš dlouho. Chyběl by vám čas na důležité úkoly, které je nutné ještě dnes dotáhnout do úspěšného konce.",
        "love": "S lidmi kolem vás si dnes nebudete příliš rozumět. Dejte si tedy pozor na to, abyste se příliš nenechali unést emocemi.",
        "work": "Pokud si dnes dopřejete delší pauzu po obědě u kávy s kolegy, může vám pak ale chybět čas na důležité povinnosti.",
        "relationships": "Musíte se s ostatními doma domluvit na tom, jak budou probíhat renovace vaší domácnosti. Jejich názor je také platný.",
        "health": "Vitamin C je nepostradatelný pro vaše tělo. Výrazně vám pomůže v boji proti stárnutí buněk, jako správný antioxidant.",
        "tips": "Pracovní pohovor, registrace v rekvalifikačním kurzu, péče o starší příbuzné, práce se sociálními sítěmi, meditování."
    },
    "scorpio": {
        "main": "Zřejmě si dnes v práci budete počínat trochu pomaleji a váhavěji. Váš nadřízený to ale může považovat za úmysl či dokonce poflakování. A také vám to dá patřičně najevo. Tak se snažte, co to půjde, ať si neuděláte hned zkraje týdne na pracovišti zle.",
        "love": "Nevhodné a jízlivé poznámky vašeho partnera jsou vám nepříjemné. Zkuste ale nyní nereagovat, zbytečně byste se rozčílili.",
        "work": "Nechtějte vaší liknavostí rozčílit nadřízeného. Tomu s vámi dojde trpělivost a může vám dokonce sáhnout na plat či odměny.",
        "relationships": "Nedejte tolik na to, co je moderní, pokud budete zařizovat domácnost. Raději si vyberte komfortní nábytek či vybavení.",
        "health": "Pokud nepatříte mezi fanoušky běhání, nic se neděje. V přírodě vám jako správné kardio postačí ostrá chůze náročným terénem.",
        "tips": "Příprava rodinné snídaně, ranní rozcvička na čerstvém vzduchu, milostné sms s partnerem, nákup hraček do vody pro děti."
    },
    "sagittarius": {
        "main": "Komunikace s ostatními kolem vás vám bude dnes přidělávat vrásky na čele. Nedohodnete se téměř na žádném společném kompromisu. Měli byste proto odložit důležitá rozhodnutí na lepší den, kdy vše půjde jednodušeji. Dnes se věnujte rutinním činnostem.",
        "love": "Zadaní jedinci to dnes nebudou mít ve vztahu vůbec jednoduché. Špatně na tom budete především v komunikaci a kompromisech.",
        "work": "Pozor si musíte dát na chování vůči ostatním kolegům. Máte tendence je příliš poučovat, což není vůbec vhodné.",
        "relationships": "Doma se ke svým milým chovejte dnes pozorně a jemně. Jinak se můžete dostat do konfliktu a budou vás považovat za náfuku.",
        "health": "Ve wellness centru si dopřejte nějaké nové procedury, které jste toužili dlouho vyzkoušet. Mohou vás začít okamžitě bavit.",
        "tips": "Psaní vlastního životopisu, hledání letní brigády, konzultace u odborného lékaře, založení internetového obchodu."
    },
    "capricorn": {
        "main": "Pustíte-li se do ostřejšího hovoru s nadřízeným, neuspějete. Komunikačně bude mít navrch a ještě ke všemu bude mít pravdu. Pro vás to nebude vůbec příjemná chvíle. Chraňte se tedy toho a jděte mu raději z cesty. Beztak toho máte dost na práci.",
        "love": "Nebojte se toho, že vám nyní váš miláček nadbíhá a lichotí. Zřejmě jste mu totálně učarovali vzhledem i chováním.",
        "work": "Nesmíte se dnes pouštět do vážnějších debat se svým šéfem o vašich povinnostech a způsobem, jak je plníte. Měl by navrch.",
        "relationships": "Potomci od vás očekávají, že se jim budete více věnovat. Musíte si dobře rozmyslet, kolik času jim budete dnes věnovat.",
        "health": "Dopřejte si dnes konzumaci čistě vegetariánských jídel, bez masa a uzenin. Budete se cítit lehounce jako vánek.",
        "tips": "Pořízení nového sportovního vybavení, badminton, plážový volejbal, samosběr jahod, pořízení letenek na dovolenou, mytí auta."
    },
    "aquarius": {
        "main": "Pokud budete dobře naslouchat svému vnitřnímu hlasu, uvidíte, že děláte dobře. V jisté záležitosti vám totiž zatím zůstává něco utajeno, ale vy přesto tušíte, že není vše v pořádku. Zatím si ale nechte dostatek času na to, abyste pravdu odhalili.",
        "love": "Pozor na to, jaké si kladete ve vztahu požadavky a nároky na partnera. Začíná toho mít celkem dost a hrozí velký konflikt.",
        "work": "Váš kariérní postup je na spadnutí. Nesmíte ale usnout na vavřínech, dokud nebudete mít jistotu, že vás povýší.",
        "relationships": "Důvěřujte své intuici, pokud se vám nebude dnes něco líbit, a zachovejte se podle toho. Rozhodně na tom bude trocha pravdy.",
        "health": "Čistá, vyvětraná a uklizená ložnice by dnes měla být základ. Najděte si čas, abyste si ji takto před spaním připravili.",
        "tips": "Pomoc starším příbuzným, nákup odborné literatury, malování pokojů v domě, výroba ovocného sirupu, houbaření, rybaření."
    },
    "pisces": {
        "main": "Nenechte se dvakrát přemlouvat k tomu, abyste se dali do hovoru s někým velmi přitažlivým. Sice máte trochu divný pocit, že si tato osůbka vybrala právě vás, ale nemáte se čeho bát. Pravděpodobně si moc nevěříte v seznamování, což je vlastně velká škoda.",
        "love": "Kdosi velmi atraktivní vás překvapí tím, jak velký zájem o vás projeví. Zřejmě ho přitahujete a chce se s vámi seznámit.",
        "work": "Místo toho, abyste se zlobili na svého šéfa, protože vás kritizuje za chyby, soustřeďte se na to, jak přešlapy odstranit.",
        "relationships": "Nyní mají zelenou nejrůznější rodinná setkání a dýchánky. I vy se do nich vrhnete po hlavě a budete si je užívat. Právem.",
        "health": "Jako meditace vám dnes skvěle poslouží hudba, tanec nebo nějaké jiné umělecké aktivity. Záleží jen na vás, co si vyberete.",
        "tips": "Čtení horoskopů, povídání s blízkými, mytí vlasů, bylinkové kúry, zkoušení nových věcí, sledování tv, pokec s přáteli."
    }
}