{
    "aries": {
        "main": "Vaši příbuzní vědí, co se ve vás skrývá, a tak nejsou překvapení tím, jaká slova dnes volíte. Ovšem jedné osoby by se to přece jen dotknout mohlo. Buďte opatrní na to, co říkáte, protože opravdu můžete někomu ublížit, aniž byste takový záměr vůbec měli.",
        "love": "S rodinou se setkáváte rádi, ale i tady buďte nyní opatrní na svá slova. Dotknout se někoho mohou vaše nevhodné vtipy.",
        "work": "Dneškem počínaje se vám nebude tolik dařit ulovit nějaké krásné a cenově výhodné dárky pod stromeček. Nebojte, ještě je čas.",
        "relationships": "Nenechte si pokazit sobotní den tím, že se budete angažovat v rodinných konfliktech. Raději si jděte po svém programu.",
        "health": "Procházka na čerstvém vzduchu vám udělá určitě dobře. Uleví se i vaší přetížené mysli, která potřebuje nutně odpočívat.",
        "tips": "Nákupy exotického koření a bylinek, hraní karetních her, poslech oblíbeného podcastu, sledování sportovního utkání."
    },
    "taurus": {
        "main": "Začínají se hýbat ledy v milostné oblasti a vy se opět začínáte dívat na svět s úsměvem a nadějí do budoucna. Smutné pocity tedy mohou konečně odejít. Dost se vám dnes uleví. Také penízky k vám tečou hezkým tempem, takže si můžete dovolit pěkné dárečky.",
        "love": "Uvědomíte si, že se začínají dít hezké věci a smutek může odejít. Bude se vám hned lépe dívat na svět kolem sebe.",
        "work": "Díky vyššímu přísunu peněz, si můžete dovolit luxusnější věci. Dárky pod stromeček mohou být opravdu dokonalé.",
        "relationships": "Vrhněte se do pečení posledních druhů vánočního cukroví. Potřebujete ho nechat už rozležet do Vánoc. Tak se snažte.",
        "health": "Už máte nějaké své oblíbené cvičení? Pokud ne, můžete pomalu začít s něčím jednodušším doma a dostat se do formy.",
        "tips": "setkání s bývalými spolužáky v novém bistru, nákupy vánočních pohlednic a známek, venčení pejska s přáteli v lese."
    },
    "gemini": {
        "main": "Měli byste si dnes nechat volno jen pro sebe a své pocity. Je třeba si srovnat v hlavě to, co vlastně od milostného života do budoucna chcete. Ale zároveň také to, co druhým nabízíte vy. Možná máte přehnané nároky, které nemůže nikdo běžný splnit.",
        "love": "Dopřejte si dnes čas, abyste byli o samotě a promysleli si, jak by měl vypadat váš další milostný život. Chce to sebereflexi.",
        "work": "Vyhýbejte se nákupům zboží z druhé ruky, ať už je to cokoliv. Byli byste hodně zklamaní kvalitou a vzhledem předmětu.",
        "relationships": "Kritika z rodiny vůči vaší osobě bude opět zaznívat i dnes a vám nezbývá nic jiného než se začít bránit. Nenechte se osočovat.",
        "health": "Jídla, která si dnes dáte, nemusí být smažená nebo grilovaná. Hledejte i jiné recepty, které vám zachutnají a budou zdravé.",
        "tips": "Dopolední pracovní aktivity, pochůzky po úřadech, třídění soukromých e-mailů, hledání nového partnera na sociálních sítích."
    },
    "cancer": {
        "main": "S kamarády vám dnes bude moc fajn na vánočních trzích, kde si dáte dobrý grog nebo punč a pečené kaštany. Poslechněte si koledy a pomalu se v duchu připravujte na nejkrásnější svátky v roce. Domů půjdete s naprosto skvělou, vánoční náladou.",
        "love": "Vyrazte si s kamarády na předvánoční trhy a dejte si něco dobrého k jídlu a pití. Uvidíte, že zapomenete na nepříjemnosti.",
        "work": "Dochází vám inspirace při nákupu vánočních dárků? Ptejte se přátel, co budou pod stromeček dávat oni svým blízkým.",
        "relationships": "Těžko dnes budete ovládat své emoce, když se do vás opět někdo z rodiny naváží. Může z toho vzniknout velká hádka.",
        "health": "Upravte svou stravu tak, abyste se po jídle necítili přejedení a plní. Dnes jezte menší porce, lehčí stravu a dobře žvýkejte.",
        "tips": "Balení vánočních dárků, výklad tarotových karet, aktivity s dětmi, příprava ovocného smoothie, nákupy vinylových desek."
    },
    "leo": {
        "main": "Nová známost stojí za to, abyste jí pozvali na opravdu romantické rande. Dejte si na tom záležet. A také si dejte záležet na svém vzhledu. Zřejmě máte totiž vedle sebe osůbku, která si potrpí na upravenou vizáž, parfémy a naprosto vzorné chování.",
        "love": "Pozvěte na rande svou novou známost. Vyberte romantické místo a jděte na to opatrně. Nesmíte protějšek vyplašit.",
        "work": "Nebojte se finanční nouze. Klidně si vsaďte nějaká oblíbená čísla nebo to zkuste jen na náhodu. Můžete vyhrát.",
        "relationships": "Máte opravdu již všechno, co jste chtěli svým blízkým darovat pod stromeček? Dnes si dárky projděte a zabalte.",
        "health": "Odpočívejte a relaxujte. Tělo si zaslouží prohřát dobrým bylinným čajem, který vás zároveň vyčistí. Musíte se zbavit toxinů.",
        "tips": "Četba romantického románu, psaní milostné poezie, hraní vědomostních her na pc, sledování detektivního seriálu, poslech hudby."
    },
    "virgo": {
        "main": "Máte tendence plýtvat penězi za naprosto zbytečné nesmysly. Pokud se nebudete ovládat, brzy přijdete na mizinu. Pamatujete na to hlavně nyní, kdy se kupují vánoční dárky. Není nutný jejich počet, ale především to, že jsou darované od srdce.",
        "love": "Mezi vámi a novým idolem to krásně jiskří a tato osůbka vás nenechá na pochybách, že jí nejste vůbec lhostejní.",
        "work": "Neumíte si odříct drahé, ale zcela zbytečné předměty. Nakupujete, ale vaše bankovní konto se vám povážlivě tenčí.",
        "relationships": "Dnes je čas na nákupy dalších dárků. Dobře si spočítejte, kolik můžete utratit, a toho se pečlivě a zodpovědně držte.",
        "health": "Den je vhodný k návštěvě wellness centra, kde si můžete příjemně odpočinout. Vyberte si svou oblíbenou proceduru.",
        "tips": "Zpívání vánočních koled, dopoledne na adventním trhu, nákup dovolené u moře, hledání bývalých spolužáků na sociálních sítích."
    },
    "libra": {
        "main": "Máte-li možnost, zavřete se dnes s partnerem doma a užívejte si milostného řádění. Nezapomeňte se zásobovat lahůdkami a dobrým pitím, aby nálada byla pořád skvělá. Nic jiného už potřebovat nebudete. Na tento den můžete oba dlouho vzpomínat.",
        "love": "Dopřejte si se svou láskou odpoledne plné romantických hrátek. Prožít můžete chvíle plné nových vášní.",
        "work": "Vy si s penězi dnes hlavu dělat nebudete, protože jste neutráceli tolik, abyste se ocitli v problémech. Umíte hospodařit.",
        "relationships": "Adventní trhy jsou výbornou příležitostí k setkávání se s přáteli, které jste dlouho neviděli. Dnes takovou šanci mít budete.",
        "health": "Bude třeba, abyste si do těla doplňovali pravidelně vitaminy. Především by to měl být vitamin C, D a také zinek.",
        "tips": "Hraní postřehových her na tabletu, odpolední sportovní aktivity s dětmi, poslech klasické hudby, péče o domácí mazlíčky."
    },
    "scorpio": {
        "main": "Dobře vám dnes bude v kruhu rodiny. A mohou to být sourozenci, rodiče nebo prarodiče. Užívejte si předvánoční atmosféry, plné klidu a pohody. Vaše vztahy jsou nyní báječné a plné pochopení a tolerance. Víc jste si snad už přát dnes nemohli.",
        "love": "Dobře se můžete cítit ve společnosti vašich nejbližších. Vztahy v rodině jsou krásné a naplňují vás spokojeností.",
        "work": "Pokud jste v posledních dnech rozjeli nějakou obchodní transakci, dokončete ji. Byla by chyba ji odkládat na neurčito.",
        "relationships": "Vaši domácnost dnes mohou rozvonět poslední kousky vánočního cukroví a také vonné svíčky. K tomu si pusťte oblíbené koledy.",
        "health": "Nezanedbávejte pitný režim. Ale dávejte si dobrý pozor na to, jaké nápoje to budou. Rozhodně neprospějí ty přechlazené.",
        "tips": "Pečení cukroví s dětmi, sportovní aktivity ve fitness centru, venčení pejska v lese, bruslení, sledování hudební soutěže."
    },
    "sagittarius": {
        "main": "S novým známým zjistíte, kolik toho máte společného. Dokončovat za sebe můžete věty, doplňovat slova, ve stejnou chvíli sdílet stejné myšlenky. Budete v úžasu, že jste pravděpodobně našli svou spřízněnou duši, i když je mezi vámi pouhé přátelství.",
        "love": "Podezřele shodné názory máte s někým novým. Bude vás bavit jakákoliv konverzace na nejrůznější témata. Budete žasnout.",
        "work": "Máte silný pocit, že by to chtělo pohnout s nějakým rodinnými finančními záležitostmi. Můžete na tom jen vydělat.",
        "relationships": "Velký předvánoční úklid vám zabere celý den. Ale jen v případě, že se do něj pustíte celá rodina. Sami byste se nadřeli.",
        "health": "Dobrá nálada udělá své a je nakažlivá pro všechny kolem vás. Úsměv na tváři vás navíc dělá přitažlivými osůbkami.",
        "tips": "Nákupy vstupenek na nový muzikál, hledání nového životního partnera, psaní milostných básní, sbírání poštovních známek."
    },
    "capricorn": {
        "main": "Dnes si ještě dojděte pro pár posledních vánočních dárečků a pak už se věnujte jen sobě a svým blízkým. Nezapomeňte ale dárky dobře schovat, protože vaše ratolesti jsou zvědavé a velmi chytré. Mohou překvapení objevit dřív, než se nadějete.",
        "love": "Jste naprosto spokojení s tím, jak váš nový milostný vztah probíhá. Máte vedle sebe někoho, kdo chce vážný vztah.",
        "work": "Krkolomné výkyvy ve finanční oblasti se vás kupodivu nebudou nyní týkat. Máte štěstí na výhodné nákupy vánočních dárečků.",
        "relationships": "Dnešní den budete věnovat dokupování posledních vánočních dárků pro své milé. Nejste rádi zaskočeni a nepřipraveni.",
        "health": "Dobrou službu udělají dnes vašemu tělu nápoje s probiotickou kulturou. Zklidní žaludek, posílí imunitu a podpoří hojení kůže.",
        "tips": "Rozesílání vánočních pohlednic, sestavování štědrovečerního menu, setkání s kamarády v novém bistru, procházka městem."
    },
    "aquarius": {
        "main": "Spořte si peníze tak, jak je to jen možné. Sice budete muset ještě něco pořídit, ale snažte se alespoň nějakou částku dát bokem. Brzy se vám korunky můžou hodit. Dnes si s miláčkem udělejte procházku na romantické a vámi oblíbené místo v okolí.",
        "love": "Vycházka na romantické místo by měla dnes odpoledne určitě být jen ve dvou. Vy a partner si chcete užívat spolu.",
        "work": "Výrazná finanční přilepšení sice přišlo v minulých dnech, ale vy z toho samozřejmě těžíte i nadále. Ale korunky také spořte.",
        "relationships": "Dnes můžete klidně trochu ponocovat a bavit se u pěkného filmu, poslechu oblíbené hudby či hraní deskových her s kamarády.",
        "health": "Dobré bude dnes zůstat v teple doma, připravit si hutnou zeleninou polévku, která vás nejen zasytí, ale také zahřeje.",
        "tips": "Renovace interiéru, pečení vánočního cukroví, příprava na sváteční dny s rodinou, kontrola domácího účetnictví."
    },
    "pisces": {
        "main": "Pokud vám chybí ještě nějaké vánoční dárky, skočte si na adventní trhy pro inspiraci. A dokonce tam i nějaký dáreček můžete dokoupit. Stačí jen zapojit fantazii, co by se komu mohlo ještě líbit. Odmítněte zdvořile pozvání na kávu někým z nové práce.",
        "love": "Nezačínejte si nic s někým, koho znáte ze zaměstnání. Nemuselo by se vám to povést a bylo by vám oběma nepříjemně.",
        "work": "Nemusíte se nyní obávat, že byste trpěli finanční nouzí. Jen si stále hlídejte stav konta. Je třeba ještě počítat s výdaji.",
        "relationships": "Probíhající adventní trhy jsou zásobárnou nápadů na vánoční dárky. Můžete opravdu něco pěkného pořídit. Stačí si vybrat.",
        "health": "Pokud to zvládnete, vynechte dnes kávu nebo alespoň její velké množství. Nemusí vám dělat dobře na žaludek. Pijte čaje a vodu.",
        "tips": "Hot jóga, venčení pejska v přírodě, sbírání známek, hraní na hudební nástroje, telefonát s bývalým spolužákem."
    }
}