{
    "aries": {
        "main": "V zaměstnání se kupodivu dnes proměníte do osoby, která má na ostatní kolem velký vliv a dokáže usmířit i velké soupeře. Těžit z toho můžete ještě dlouho, záleží jen na vás. Vy se ale věnujte tomu, aby doma vše před svátky fungovalo tak, jak má.",
        "love": "Program na vánoční svátky byste měli mít již vyřešený. Pokud nad něčím ještě váháte, dnes to s partnerem dotáhnete.",
        "work": "Dnes můžete dokonce v zaměstnání fungovat jako mediátor. Mezi kolegy se budete snažit vnést klid a rozumné uvažování.",
        "relationships": "Poslední dny před svátky máte nabité. Při nákupech potravin budete potřebovat pomocníky. Něco si můžete nechat doručit domů.",
        "health": "Pracujete-li v kanceláři a většinu dne sedíte, musíte si naordinovat kratší pauzy, při kterých si protáhnete nohy a záda.",
        "tips": "Pořízení posledních vánočních dárků pro kamarády, balení dárků pod stromeček, hraní na hudební nástroje s dětmi."
    },
    "taurus": {
        "main": "Dnes byste se měli soustředit raději na osobní život než na ten pracovní. Tam si poctivě s kolegy rozdělte povinnosti tak, abyste nedřeli jen vy. Vaši kolegové mohou zneužívat vaší dobroty a hází vám na krk své úkoly. Na vás dnes čeká něco lepšího. Láska.",
        "love": "Ženy se dnes mohou dočkat od svého nového nápadníka krásné kytice růží. Jeho úmysly vůči vám jsou naprosto čisté.",
        "work": "Pamatujte na to, že ne všechno musíte v práci stihnout sami. Nechte také nějakou práci svým línějším kolegům.",
        "relationships": "Podáte zřejmě i dnes pomocnou ruku někomu z rodiny. Tentokrát to může být dobrá rada, kterou dotyčný dost ocení.",
        "health": "Drastické diety vaše tělo zbytečně v zimním období vyčerpávají. Raději si jídelníček upravte tak, aby byl vyrovnaný.",
        "tips": "Ranní cvičení ve fitness, výroba vonných svíček, nákup esenciálních olejů, péče o starší příbuzné, dietní oběd."
    },
    "gemini": {
        "main": "V minulých dnech jste si ujasnili, jak to v zaměstnání bude dál fungovat. Tím pádem vám zbývá více času na rodinu a také na nové milostné dobrodružství. Pokud máte možnost, věnujte se svému osobnímu životu s velkou pozorností. Zasloužíte si to.",
        "love": "Na všechny kolem se dnes budete opět usmívat a ze života máte radost. Nemusíte se bát důvěřovat novému idolu.",
        "work": "Nedovolíte si žádné výstřelky nebo jízlivé poznámky na pracovišti. Stále máte ještě v hlavě výhrůžky vyhazovem.",
        "relationships": "Z práce dnes pravděpodobně dorazíte domů s dobrou náladou, takže se žádné drama konat naštěstí nebude.",
        "health": "Nealkoholické varianty míchaných koktejlů budou chutnat nejen vám, ale také možná vašim starším dětem. Naučte se nějaké.",
        "tips": "Výroba raw vánočního cukroví, výlet na zahraniční adventní trhy, příprava na sváteční období, nákup trvanlivých potravin."
    },
    "cancer": {
        "main": "Plány na další dny před Vánocemi vás mohou trošku pohltit, ale stačí si udělat jasný plán, a hlavně s čistou hlavou. Na všeho partnera byste neměli tolik tlačit, ale naopak ho nechat dýchat. Se svými starostmi se vám následně svěří sám a ještě rád.",
        "love": "Snažte se jemně přesvědčit partnera k tomu, abyste si naplánovali další dny do konce týdne. Určitě vás neodmítne.",
        "work": "Uděláte si dobrou službu tím, že se alespoň v něčem dnes budete více snažit a angažovat. Nadřízeného to potěší stejně tak.",
        "relationships": "Možná někteří z vás ještě shánějí dárky na poslední chvíli. Musíte ale do obchodu, s dovozem na čas už nepočítejte.",
        "health": "Na vašem stole by neměly chybět kvalitní minerální vody. Jsou zdravé a jejich občasná konzumace ničemu neškodí.",
        "tips": "Plánování rodinných setkání s rodinou během svátků, výroba vonných svíček, zdobení vánočního stromečku s dětmi, balení dárků."
    },
    "leo": {
        "main": "V zaměstnání budete dnes bojovat o každý centimetr svého postavení. Nebude to jednoduché, ale máte velkou šanci na to, abyste si své obhájili. Náhradou za tyto nepříjemné chvilky ale můžete dostat pohodu doma a krásné chvíle s vaší novou láskou.",
        "love": "Dopřejte si s novou láskou nějaký zajímavý kratší výlet, kde se budete dále více poznávat. Zjistíte, že máte dost společného.",
        "work": "Odmítáte se jen tak smířit s prohrou, a tak budete bojovat o každou píď úspěchu. Vaše povaha vám nedovolí se vzdát.",
        "relationships": "Doma si sedněte k jednomu stolu a bavte se o tom, zda je všechno na svátky připraveno tak, jak má být. Ať máte klid na duši.",
        "health": "Profesionální ošetřování rukou a nohou by mělo být pravidelnou součástí vaší péče o tělo. Objednejte se ještě před svátky.",
        "tips": "Ranní dechová a meditační cvičení, rozesílání elektronických vánočních blahopřání, fotografování adventních trhů."
    },
    "virgo": {
        "main": "Nemáte se čeho bát. Dnešek pro vás bude jako malovaný ve všech oblastech. Ať už se to bude týkat lásky, domova nebo práce. Jste pečliví a všechny povinnosti zvládáte s přehledem. Ale také jste konečně otevřeli srdce lásce. A ta má velkou moc.",
        "love": "Díky svému partnerovi se na svět díváte z té lepší stránky a usmíváte se. Je jasné, že tento člověk má na vás dobrý vliv.",
        "work": "Díky své systematičnosti si můžete bez starostí z vašeho seznamu povinností odškrtávat jednou položku za druhou.",
        "relationships": "S předstihem byste si měli udělat zásoby lahůdek a nápojů, které si chcete během vánočních svátků s rodinou dopřát.",
        "health": "Delší procházka v přírodě se určitě vyplatí, ale jít musíte trochu ostřejším tempem, abyste se pořádně prohřáli.",
        "tips": "Nákupy vánočních dárků pro kolegy, výroba raw cukroví, registrace v novém zájmovém kurzu, odpoledne s přáteli v kavárně."
    },
    "libra": {
        "main": "Máte už ozdobený vánoční stromeček? Pokud ne, dejte se do toho. Navodí vám krásnou pohodu a vy se tak můžete na další dny jen těšit. Užijte si také chvíle, které dnes prožijete se svou láskou. Romantiky není nikdy dost pro takové duše, jako jste vy.",
        "love": "Všechny signály lásky, které k vám okolí vysílá, vnímáte velmi dobře. Jste naladěni na romantickou vlnu a ještě chvíli budete.",
        "work": "Ti z vás, kteří jsou zodpovědní za nějaké vynálezy nebo vylepšení, by si měli umět své nápady legálně zabezpečit.",
        "relationships": "Uprostřed týdne si ještě můžete dozdobit stromeček, pokud jste to nezvládli napoprvé. Možná si také dokoupíte nové ozdoby.",
        "health": "Pravidelné otužování patří k dnešním trendům. Má pozitivní účinky na organismus. Začínat ale musíte pomalu a opatrně.",
        "tips": "Odpoledne v umělecké galerii, předvánoční posezení s bývalými kolegy, kontrola výdajů za vánoční svátky, zdobení stromečku."
    },
    "scorpio": {
        "main": "S někým zajímavým se cítíte propojení jak na duchovní, tak na fyzické úrovni. Společnost této osoby vám dělá neskutečně dobře. Užívejte si společných chvil tak, jak jen to půjde. V zaměstnání využijte výhody, že jste progresivní a aktivní.",
        "love": "Dobře se pravděpodobně cítíte ve společnosti jedné osůbky, se kterou cítíte doslova magické propojení mysli a srdce.",
        "work": "Díky svému tahu na branku aspirujete na vedoucího týmu. Pokud vám to dnes bude nabízeno, rozhodně to neodmítejte.",
        "relationships": "Z práce domů přijdete s dobrou náladou a vaši nejbližší to ocení. Budete si spolu užívat pohodový večer s dobrým jídlem.",
        "health": "Správný a důsledný pitný režim vám pomáhá udržovat ledviny v tom správném chodu. Jen z toho neslevujte předčasně.",
        "tips": "Výroba domácího vánočního punče, zdobení vánočního stromečku na zahradě, péče o starší příbuzné, bruslení s dětmi."
    },
    "sagittarius": {
        "main": "Dnes byste měli doma odpočívat, a ne se stresovat s tím, zda máte již všechno na svátky připravené. Pokud se vydáte na místa, kde jste nikdy nebyli, spolehněte se na to, že zrovna tam můžete natrefit na spřízněnou duši. Může ve vašem životě zůstat dlouho.",
        "love": "Novou lásku můžete potkat tam, kde byste to opravdu nečekali. Zřejmě se vydáte na nová místa, kam vás vezmou přátelé.",
        "work": "Nové příležitosti se mohou naskytnou těm z vás, kteří pracují v cestovním ruchu, obchodních oborech či ve vzdělávání.",
        "relationships": "Využijte v půlce týdne alespoň dnešní den k odpočinku. Jistě máte vše připravené. Jedině vám může chybět vánoční hudba.",
        "health": "Chraňte své tělo před vyčerpáním a oslabením. Pomohou vám v tom vitaminy a potravinové doplňky, které koupíte v lékárně.",
        "tips": "Reklamace nevhodného zboží, nákupy trvanlivých potravin na vánoční svátky, sestavení hudebního playlistu do auta."
    },
    "capricorn": {
        "main": "Umělecké prostředí, ve kterém se pohybujete, vás inspiruje k dalšímu rozvoji. Soustřeďte se na estetiku, výtvarnou a intelektuální sféru. Jste naladění na všechny tyto obory a potřebujete si k sobě najít podobně zaměřené jedince. Zkuste sociální sítě.",
        "love": "Blahodárné slunce má výrazný vliv na váš vztah. To se stará o to, že začnete přemýšlet o společném soužití či bydlení.",
        "work": "Dobře se bude dařit dnes těm, kteří pracují v uměleckém prostředí, estetických oborech nebo v intelektuální sféře.",
        "relationships": "Naplánujte si vánoční svátky, především návštěvy příbuzných tak, aby vám vyhovovaly z časového hlediska. Neradi se stresujete.",
        "health": "Dávat pozor si musíte na malé ranky, ze kterých by se vám mohl udělat ošklivý zánět. Vše si pečlivě dezinfikujte.",
        "tips": "Ranní dechová cvičení, hodina tai chi, výroba vonných svíček jako dárků pro kamarády, zdobení vánočního stromečku."
    },
    "aquarius": {
        "main": "Vaše rozpracované úkoly a projekty potřebujete opět dát do pohybu. Najděte si svůj styl, jak se prosadit mezi velkou společností lidí. Uvidíte, že to není tak složité. Snažte se zaměřit na svou intuici. Ta vám vždy dobře poradí, co je momentálně in.",
        "love": "Z mnoha lidí, kteří se kolem vás momentálně pohybují, se může vyklubávat jedna osůbka, se kterou vám bude moc fajn.",
        "work": "Věnujte svou energii všemu, co může vaše rozjeté projekty posunout značně kupředu. Především v oblasti řemeslné výroby.",
        "relationships": "S nejbližšími si umíte vánoční atmosféru užít, i když ještě nemáte vše hotovo. Taková atmosféra baví každého z vás.",
        "health": "Sice vás může škrábat v krku, ale věřte, že na antibiotika to rozhodně není. Zakupte si pastilky s islandským lišejníkem.",
        "tips": "Výroba nepečeného vánočního cukroví, plánování rodinných setkání mezi svátky, výroba slaměných ozdob na stromeček, wellness."
    },
    "pisces": {
        "main": "Musíte si v sobě vypěstovat zdravé sebevědomí. Není na místě, abyste se podceňovali. Pokud chcete něčeho v životě dosáhnout, bude potřeba odvaha a jistá rozhodnutí. Jestliže toužíte po klidu a pohodě, spolehnout se můžete na rodinu a své blízké.",
        "love": "Osoby se zvýšeným sebevědomím, to není nic pro vás. Dejte si dnes pozor, abyste se jim včas vyhnuli. Jsou destruktivní.",
        "work": "Nesmíte při rozvíjení nových projektů ztrácet odvahu. Ta bude hodně potřeba, pokud něčeho chcete opravdu dosáhnout.",
        "relationships": "Jasně dnes pochopíte, že momentálně je vám nejlépe v kruhu rodiny. Divoké večírky s kamarády nechte na jinou chvíli.",
        "health": "Ovocné smoothie ze zmraženého nebo čerstvého ovoce jsou dnes skvělým jídlem. Vynechte sladké a energetické nápoje, které vám škodí.",
        "tips": "Naplánování rodinných setkání mezi svátky, výroba nepečeného vánočního cukroví, fotografování na adventních trzích."
    }
}