{
    "aries": {
        "main": "Doma si udělejte pohodový sváteční den. Čeká vás slavnostní oběd s rodinou a návštěvy příbuzných. Tak jak to patří k druhému svátku vánočnímu. Odpoledne si doma můžete opět pustit nějakou pěknou pohádku a zobat u toho své oblíbené cukroví.",
        "love": "Poslední letošní pondělí si s partnerem pokuste naplánovat tento týden tak, abyste měli co nejvíce pohody a méně sporů.",
        "work": "Doma vládne stále sváteční atmosféra, kterou můžete podpořit svou dobrou náladou. Slavnostní oběd a procházka udělají své.",
        "relationships": "Dnešní poslední sváteční den si užijte a nenechte si nikým pokazit náladu. Bude vám dobře ve společnosti vaší rodiny.",
        "health": "Záda vás mohou citelně bolet, protože jste za poslední dny neměli čas na cvičení, odpočinek nebo rehabilitaci.",
        "tips": "Návštěva příbuzných, slavnostní oběd s rodinou, odpočinek, procházka na čerstvém vzduchu, hraní na hudební nástroje."
    },
    "taurus": {
        "main": "Vánoční svátky jsou v plném proudu, ale vy byste se již měli dívat na konec tohoto týdne, kdy vás čeká další slavnostní den, a to Silvestr. Jestliže ještě nemáte žádné plány, nyní je vhodný čas, abyste s tím začali. Určitě tak nic neopomenete.",
        "love": "S novým protějškem si můžete užívat další hezký den a pomalu plánovat, jak bude vypadat vaše silvestrovská oslava.",
        "work": "Nemáte nouzi o nápady, jak prožít dnešní sváteční den. Stačí se jen dohodnout s partnerem, po čem oba toužíte.",
        "relationships": "V tento den neřešte nic, co se týká práce. Zbytečně byste si kazili sváteční den. Raději se soustřeďte na rodinu.",
        "health": "Máte výbornou imunitu, kterou pečlivě podporujete správnými vitaminy a potravinovými doplňky. Strava dělá také své.",
        "tips": "Plánování jarní dovolené v lázních, slavnostní oběd s rodinou, setkání s přáteli, procházka po městě, bruslení na stadionu."
    },
    "gemini": {
        "main": "Dnes se v rodině nepouštějte do žádných debat ohledně financí. Zatím jsou ještě stále svátky, a tak sem takové debaty vůbec nepatří. Naopak byste se měli věnovat starším příbuzným, dětem a také tomu, co máte naplánováno na další zajímavý rok.",
        "love": "Vy můžete být v milostné oblasti opravdu spokojení, pokud potlačíte své choutky být občas jen tak jízliví. Zkuste to.",
        "work": "Domluvte se dnes doma na tom, že nebudete mluvit o finančních záležitostech a práci. To by vám mohlo náladu zbytečně pokazit.",
        "relationships": "Máte před sebou krásný sváteční den, kdy se nemusíte snažit, jen si ho užívejte. Vaše snaha pro nejbližší se vyplatí.",
        "health": "Dnes si ještě odpočiňte, ale večer si naplánujte aktivity na celý týden, abyste věděli, jak na tom budete s energií.",
        "tips": "Romantické setkání s novým partnerem, sváteční oběd u příbuzných, hraní si s dětmi, odpočinek s knihou, venčení pejska."
    },
    "cancer": {
        "main": "Může na vás dopadnout stres z končícího roku 2022, ale není to vůbec nutné. Především dnes, kdy jsou stále vánoční svátky a náladu byste měli mít slavnostní a pohodovou. Snažte se tedy nemyslet na další přípravy, vaření, nákup a užívejte si s rodinou.",
        "love": "Dobře uděláte, pokud se pokusíte mírnit nervozitu, která přichází před koncem roku. Vy i partner toho máte momentálně hodně.",
        "work": "Vaše dnešní úvahy by neměly směřovat k práci. Naopak se naučte relaxovat a zapomenout na pracovní záležitosti.",
        "relationships": "Nenechte si líbit, že se v rodině objevují snahy o rozbroje. Pokuste se je uklidnit dříve, než bude pozdě pro všechny.",
        "health": "Sváteční den si budete chtít určitě zpestřit dobrým jídlem či pitím. Dávejte si ale pozor na divoké kombinace a množství.",
        "tips": "Telefonáty s přáteli, setkání s příbuznými, slavnostní oběd v restauraci, bruslení na městském kluzišti, aromatická koupel."
    },
    "leo": {
        "main": "Užívejte si sváteční den a vypusťte z hlavy občasné myšlenky na práci. Dobrý oběd a společnost vašich nejbližších je to, co vám dnes bude absolutně stačit. Můžete se jen zamyslet nad tím, jak bude vypadat vaše loučení s letošním rokem na konci týdne.",
        "love": "Nemáte se svým miláčkem problém naplánovat tento týden, včetně závěru roku 2022. Kompromisy budou jednoduché a přínosné.",
        "work": "Pusťte z hlavy vše, co vás v posledních dnech trápilo v práci. Dnes je sváteční den a podle toho se doma chovejte.",
        "relationships": "Vy už zřejmě máte na silvestrovské oslavy plány, ale není problém do nich zapojit i někoho z přátel nebo rodiny.",
        "health": "Jakmile se dnes vydáte na procházku, pamatujte na to, že musíte být dobře oblečení a obutí. Tedy především teple.",
        "tips": "Sledování vánočních pohádek s dětmi, setkání se sousedy, sváteční oběd, bruslení na stadionu, hraní deskových her."
    },
    "virgo": {
        "main": "Dali jste si opravdu záležet na letošních Vánocích a zatím to vypadá, že jste obstáli na výbornou. Vaše rodina vám dnes bude skládat jednu poklonu za druhou. Máte tedy splněno a nyní se můžete pustit do plánování silvestrovských oslav s partnerem.",
        "love": "S novým idolem se pustíte do plánování silvestrovské zábavy. Máte oba každý svůj nápad, ale sladit je nebude složité.",
        "work": "Vaše dosavadní snahy, aby sváteční dny proběhly v pořádku, se vyplatily. Dnešní den toho bude jen potvrzením.",
        "relationships": "Vánoce vás utvrdily v tom, že zvládnete i poslední týden tohoto roku. Plány již jistě máte, stačí je jen realizovat.",
        "health": "Vás vánoční přípravy moc o energii nepřipravily, takže stále disponujete obrovskými fyzickými i psychickými silami.",
        "tips": "Vydatný spánek, sváteční oběd u příbuzných, odpolední setkání s kamarády u kávy, zpívání koled s dětmi, četba."
    },
    "libra": {
        "main": "Rádi byste se dnes probírali tím, co jste dostali pod stromeček, ale dostanete se k tomu zřejmě až večer. Přes den vás čekají rodinné návštěvy a slavnostní oběd. Přesto se k zaslouženému odpočinku určitě dnes dostanete a pak si dárečky můžete prohlížet.",
        "love": "Stále se v mezilidských vztazích pohybujete v pozitivním směru a nic na tom nezmění ani konec současného roku.",
        "work": "Sice dnes budete mít chuť probrat se vánočními dárky, ale ještě byste se měli věnovat rodině. Stále je o čem společně mluvit.",
        "relationships": "S rodinou jste si během vánočních svátků upevnili vztahy a tento týden z toho můžete jen všichni čerpat to pozitivní.",
        "health": "Nezapomínejte na pravidelné dávky vitaminů, i když je dnes sváteční den a vy máte chuť na cukroví a vaječný koňak.",
        "tips": "Sváteční setkání s přáteli ve městě, oběd v restauraci, hraní deskových her s dětmi, sledování vánočních pohádek."
    },
    "scorpio": {
        "main": "Romantická nálada a chuť na něžnůstky vás neopouští ani dnes. Budete dychtit po každé společné prožité chvilce se svým milovaným protějškem. Pokud přežijete sváteční oběd s rodinou, večer už bude jen o vás dvou a vašich erotických fantaziích.",
        "love": "Máte romantickou náladu, která se vás nepustila ani přes Vánoce a vyhledáváte milostná dobrodružství se svou láskou.",
        "work": "Vaše nápady, jak prožít konec roku, jsou úžasné. Jen je musíte dobře odprezentovat zbytku rodiny, abyste dostali souhlas.",
        "relationships": "Vy rozhodně výzdobu domova měnit nemusíte. Máte dobrý vkus a zařídili jste se i na konec roku a tomu příslušné oslavy.",
        "health": "Pokud ani dnes nebudete mít klid od nejrůznějších zánětlivých procesů ve vašem těle, zítra bude nutné zavolat svému lékaři.",
        "tips": "Příprava slavnostního oběda s rodinou, odpolední procházka lesem, spánek, četba nových knížek, bruslení ve městě."
    },
    "sagittarius": {
        "main": "Dnes se můžete při svátečním obědě domluvit s ostatními příbuznými, jak si představují oslavy konce letošního roku. Možná někteří z nich budou potřebovat vaši pomoc s organizací nebo nákupy. Vyjděte jim bez řečí vstříc už jen proto, že jsou Vánoce.",
        "love": "Nebraňte se dnes setkáním s kamarády, se kterými je vám fajn. Možná je mezi nimi i váš nový objev. Plánujte si konec roku.",
        "work": "Domluvte se s příbuznými, jak chtějí trávit poslední den v roce, jestli nepotřebují vaši pomoc a také jak vše skloubit.",
        "relationships": "Pokuste se doma vytvořit příjemné prostředí na nadcházející konec roku. Máte k ruce výborné pomocníky z rodiny.",
        "health": "Dnes se nepouštějte do nějakých divokých sportů, které jste dosud nezkoušeli. Mohli byste si ublížit na celkem dlouhou dobu.",
        "tips": "Vaření svátečního oběda pro rodinu, telefonáty s přáteli, romantická procházka městem, fotografování přírody, odpočinek."
    },
    "capricorn": {
        "main": "Dnes se chcete věnovat pouze aktivitám, které náleží k vánočním svátkům, a nemáte tendence se zabývat něčím jiným. Nebudete mít ani chuť přemýšlet o tom, jak bude vypadat váš Silvestr. Vy se ale nemusíte ničeho obávat, vše zvládnete na poslední chvíli.",
        "love": "Vytoužená pohoda v mezilidských vztazích a lásce pokračuje i tento týden. Můžete se těšit na závěr roku a zábavnou párty.",
        "work": "Nebudete mít dnes myšlenky na to, jak skloubit všechny povinnosti před koncem roku. Nebojte se, vše zvládnete na výbornou.",
        "relationships": "Svátky pro vaši rodinu pokračují i v těchto dnech, proto nemusíte nijak zvlášť měnit výzdobu domova, což vám ubere práci.",
        "health": "Vyrážky se dnes mohou objevit po nějakém více pálivém jídle. Je možné, že trpíte silnou alergii na jistou kombinaci koření.",
        "tips": "Rodinné setkání u svátečního oběda v restauraci, poslech oblíbených vánočních písniček, sledování oblíbeného seriálu."
    },
    "aquarius": {
        "main": "Přestože je ještě druhý vánoční svátek, vy už jste myšlenkami opět někde o pár týdnů napřed. Přemýšlíte nejen o silvestrovských oslavách, ale také o tom, jak začnete nový rok 2023. Zkuste si některé myšlenky zaznamenat do diáře.",
        "love": "S vaším miláčkem si můžete s klidem plánovat tento týden a konec roku, protože se chcete bavit, ať už doma, nebo na večírku.",
        "work": "Vy máte opět vše pevně v rukou. Víte, co vás čeká a co máte udělat před začátkem nového roku. Nenechte se ničím stresovat",
        "relationships": "Váš domov mohl v posledních dnech získat novou podobu, a tak není nutné ho nyní nijak měnit jen kvůli Silvestru.",
        "health": "Lákat vás může bruslení po obědě. Dobře se oblečte a vydejte se za pohybem i přesto, že je dnes sváteční den.",
        "tips": "Romantické rande ve městě, hraní na hudební nástroje, psaní milostné poezie, plánování jarní dovolené na horách."
    },
    "pisces": {
        "main": "Bude vám moc dobře ve společnosti vašich nejbližších. Užívejte si sváteční oběd s dobrým jídlem, posezení a rozhovory s příbuznými. Nezapomeňte se vyptat ostatních, jaké plány mají na silvestrovské oslavy, mohou být pro vás velkou inspirací.",
        "love": "Měli byste si v tomto posledním týdnu najít čas na to, abyste si rozmysleli, s kým budete trávit silvestrovskou oslavu.",
        "work": "Konec roku je pro vás období, kdy se snažíte využít všech svých sil. Nenechte se zviklat, vše zvládnete na výbornou",
        "relationships": "Doma je nálada odpovídající vašemu rozpoložení. Pokračujte v dobrém tónu a bude tomu tak i nadále, aniž byste se museli snažit.",
        "health": "Pokud se nebudete cítit komfortně po jídle, uvařte si fenyklový nebo mátový čaj, který vám pomůže ulevit od bolesti.",
        "tips": "Rodinný sváteční oběd u příbuzných, setkání s přáteli ve městě, hledání letní dovolené, četba nových knížek, procházka."
    }
}