{
    "aries": {
        "main": "Pokud si ráno přivstanete, můžete na nejbližším farmářském trhu zakoupit čerstvé potraviny a připravit svým milovaným doma vydatnou snídani nebo výborný oběd. Uvidíte, že jim zlepšíte náladu a sobotní den pak bude probíhat mnohem příjemněji.",
        "love": "Lepší bude, pokud si dnes uděláte s protějškem jasno v tom, jak by měl váš vztah fungovat. Nezapomínejte jednat v klidu.",
        "work": "Máte sklony získávat potřebné finance riskantním způsobem. Zapomeňte na podezřele výhodné půjčky. Jsou to podvodné praktiky.",
        "relationships": "Neřešte to, že ostatní příbuzní mají jiné názory, které se vám nelíbí. Máte právo je odmítnout a dělat si věci po svém.",
        "health": "Dnes si v posteli poležte o něco déle. Můžete si dopřát také vydatnější snídani a den začněte v pomalejším tempu.",
        "tips": "Návštěva hudebního festivalu, setkání s přáteli, nákup podzimních dekorací, sbírání léčivých bylin, telefonát se sourozenci."
    },
    "taurus": {
        "main": "Jakmile se rozhodnete pro nějaké renovace domácnosti, pamatujte na to, že by s tím měli souhlasit všichni doma. Jistě mají také své nápady, které touží realizovat. Dejte šanci klidné debatě a kompromisům, které z ní vzejdou. Výsledek bude stát za to.",
        "love": "Nemá cenu dělat si těžkou hlavu z něčeho, co se dnes změnit nedá. Vytvořte si doma příjemnou atmosféru bez hádek.",
        "work": "Můžete se potýkat s menší finanční krizí. Je to dáno i tím, že plat v zaměstnání stagnuje a vy máte větší výdaje.",
        "relationships": "Razantní úpravy vašeho obydlí zatím nedělejte. Nejprve se spolu doma poraďte, co by asi bylo nejvhodnější pro začátek.",
        "health": "Nebojte se dnes experimentovat v kuchyni. Zkuste jídlo okořenit novými ingrediencemi. Jistě najdete svůj způsob.",
        "tips": "Návštěva příbuzných, hra na hudební nástroje s přáteli, fotografování přírody, odpolední grilování se sousedy."
    },
    "gemini": {
        "main": "Možná vám váš single život vyhovuje a rozhodně se nenudíte. Máte kolem sebe dost kamarádů a vyrazit si s nimi můžete prakticky kdykoliv. Dnes si také svůj program nastavíte podle přání. Ať už zůstanete doma s pěknou knížkou nebo vyrazíte do společnosti.",
        "love": "Pozitiva toho, že jsou někteří z vás stále single, pro vás zatím hrají prim. Máte chuť si svůj život plánovat sami.",
        "work": "Napadají vás celkem dobré myšlenky na to, jak ušetřit. Zapište si je a také je okamžitě zkuste přetavit do praxe.",
        "relationships": "Máte na výběr, jaký program si pro sebe a své blízké dnes zvolíte. Myslete i na ostatní, aby se jim zábava líbila.",
        "health": "Vaše vlasy si zaslouží perfektní střih a kvalitní barvu. Nechte se proto raději opečovávat těmi správnými profesionály.",
        "tips": "Cvičení jógy podle internetu, nákup ložního prádla, zahradnické práce, příprava rodinné večeře, relaxační masáže."
    },
    "cancer": {
        "main": "Den bude spíše pomalejší a rozvážnější. Nic si z toho nedělejte, zřejmě je potřeba více odpočívat a méně přemýšlet či pracovat. Aktivity si vyberte takové, které vám činí jen potěšení, a do ostatních se nehrňte. Vyrazit můžete na kvalitní masáž.",
        "love": "Dnes se od vás bude vyžadovat velká dávka trpělivosti. Musíte ostatním ukázat, že se uvnitř vás skrývá skvělá osobnost.",
        "work": "Kvůli únavě z celého pracovního týdne máte dnes sklony dělat chyby. Vyvarujte se tedy toho dělat závažnější rozhodnutí.",
        "relationships": "Úplně nevyhledáváte davy lidí, ale dnes si dovolíte vyrazit do společnosti. Záleží na tom, jakou příležitost si vyberete.",
        "health": "Ruce jsou vaší vizitkou. Snažte se udržovat pěknou manikúru a také hebkou kůži. Nakupte si vhodné a kvalitní přípravky.",
        "tips": "Práce na zahradě, nákup v hobbymarketu, servis automobilu, projížďka na elektrokoloběžce, karetní hry s rodinou."
    },
    "leo": {
        "main": "Rodina je pro vás důležitá a dnes si na ni budete muset udělat více času. Je možné, že společně prožijete příjemný den na výletech nebo jinou aktivitou. Pravděpodobně si pro vás děti připravily program, který byste jim neměli rozhodně kazit.",
        "love": "Den si můžete užít ve společnosti někoho nového nebo také jen sami se sebou. Záleží pouze na vás, pro co se rozhodnete.",
        "work": "Než se odhodláte k nějakým vážnějším rozhodnutím ve finanční sféře, nechte si poradit. Dnes to můžou být zkušenější přátelé.",
        "relationships": "Uvědomíte si, že svou rodinu byste zanedbávat neměli. Věnujte pozornost tomu, co si ostatní přejí, a dejte na to.",
        "health": "Na farmářském trhu si můžete pořídit něco dobrého. Sáhněte po trvanlivějším zboží, jako je koření nebo med. Budou se hodit.",
        "tips": "Sběratelství, kulinářské experimenty, nákup čerstvých potravin na trhu, výroba domácího sýru, sbírání léčivých bylinek."
    },
    "virgo": {
        "main": "I dnes budete mít spoustu prostoru na romantiku, vášně a vyznání lásky. Nic nedokládejte na jindy a užijte si to, dokud to jde. Máte si s partnerem stále co říct a vztah je třeba stále opečovávat. Radost vám udělají nákupy potravin na farmářském trhu.",
        "love": "Sobotní den je vhodný k tomu, abyste si našli chvilku pro vášně a romantiku. Nezapomínejte na to, že vztah je hlavně o tom.",
        "work": "Velmi výhodně se vám podaří nakoupit ve slevách. Nebojte se utratit nějakou tu korunu navíc. Jsou to dobré investice.",
        "relationships": "Mlsný jazýček vám nedá a vy vyrazíte pro laskominy na farmářské trhy. Přiberte rodinu a vyberte si to, na co máte dnes chuť.",
        "health": "Předcházejte bolestem hlavy správným pitným režimem. Během dne můžete střídat tekutiny s ovocnými šťávami nebo polévkami.",
        "tips": "Odpočinek na zahradě, hraní deskových her, četba detektivního románu, úprava dětského pokojíku, večeře s donáškou do domu."
    },
    "libra": {
        "main": "Dnes se rozhodně vyvarujte adrenalinových sportů a zábav. Koledujete si o velmi nepříjemný úraz, který by se navíc špatně léčil. Přednost by měly dostat klidnější aktivity, výlety do blízkého okolí nebo posezení s přáteli. Záleží pouze na vaší náladě.",
        "love": "Vypadá to, že nová známost se vás jen tak vzdát nechce. To je dobrá zpráva, že? Můžete snít o tom, jak ve vztahu dál.",
        "work": "Budete si nejistí v určité situaci, a tak přijdou na řadu rady přátel. Můžete se však na ně absolutně spolehnout.",
        "relationships": "Dávejte si pozor na to, abyste se nevrhali do příliš adrenalinových zábav. Hrozí vám bolestivé úrazy s dlouhým léčením.",
        "health": "Sportovní aktivity by měly být především takové, které máte osvědčené a nic vás nepřekvapí. Vyhněte se zbytečnému riskování.",
        "tips": "Plánování kratší dovolené, sledování vědomostní soutěže, luštění křížovek, odpočinek při poslechu audiotéky, venčení pejska."
    },
    "scorpio": {
        "main": "Nepříjemnou finanční situaci se rozhodně nesnažte řešit půjčkami od podezřelých osob nebo firem. Pokud požádáte o pomoc příbuzné či spolehlivé kamarády, vyjdou vám vstříc a vy se nezadlužíte u podvodníků. Svou finanční situaci si dejte do pořádku.",
        "love": "Ve vašem dnešním programu by neměla chybět chvilka, která bude jen pro vás a vašeho miláčka. Máte totiž co dohánět.",
        "work": "Nechcete-li se zadlužit u cizích, budete muset asi poprosit o finanční výpomoc někoho z rodiny. Nemějte obavy, pomohou vám.",
        "relationships": "Jestliže se rozhodnete pro výtvarnou tvorbu, musíte si také k tomu pořídit patřičnou výbavu. Porozhlédněte se na internetu.",
        "health": "Pozor dávejte při domácích pracích nebo úklidu. Mohli byste si ublížit nějakým nářadím nebo se nadýchat chemikálií.",
        "tips": "Příprava rodinného oběda, bezlepková strava, kardio cvičení v přírodě, příprava s dětmi do školy, taneční lekce s partnerem."
    },
    "sagittarius": {
        "main": "Máte-li možnost, vyjeďte si s rodinou nebo partnerem do pěkného wellness hotelu, kde si pořádně odpočinete. Nechte se hýčkat procedurami a užijte si zasloužený klid. Rozhodně se pobaví i vaše ratolesti. Změna prostředí je totiž nutná pro všechny.",
        "love": "Přátelé budou naléhat, abyste se dnes objevili ve společnosti. Protože je sobota, budete jejich nabídku hned zvažovat.",
        "work": "Udělejte si pořádný platební kalendář, kde si zapíšete všechny nutné platby. Jinak můžete zanedbat něco velmi důležitého.",
        "relationships": "Prospěla by vám změna prostředí. Pokud to jde, vyrazte si na chalupu nebo do wellness hotýlku. Relaxace bude zasloužená.",
        "health": "Připravte si jako malou svačinku zeleninové nebo ovocné smoothie. Přidejte vychlazené rostlinné mléko a chia semínka.",
        "tips": "Pečení ovocných koláčů, sledování humorného seriálu, poslech motivačního podcastu, návštěva u přátel, projížďka na longboardu."
    },
    "capricorn": {
        "main": "Váš partner by vás rád viděl usměvavější a spokojenější. Vy se ale zatím na svět tváříte moc přísně. Zamyslete se nad tím, jak vlastně na své okolí působíte. Uvnitř vás se skrývá vášnivá a milá osůbka, tak jí světu ukažte. A především vašemu miláčkovi.",
        "love": "Ukažte nové známosti také svou milou tvář a citlivou stránku. Uvnitř vás to totiž je. Nebojte se být lidštější.",
        "work": "Nedůvěřujte každému slovu, které je uvedeno v reklamách na nejrůznější předměty nebo služby. Máte sklon vše vidět výhodnější.",
        "relationships": "Jestliže to jde, vyhněte se společenským posezením v rodině. Máte jazyk ostrý jako břitvu a mohli byste se někoho dotknout.",
        "health": "Jako koření používejte raději čerstvé bylinky. Nebo také ty, které jste si nasušili v létě. Dodají pokrmům správnou chuť.",
        "tips": "Účast ve vědomostní soutěži, sledování detektivky, práce na zahradě, venčení pejska v lese, houbaření, rybaření."
    },
    "aquarius": {
        "main": "Budete se dnes hodně zaobírat obchodem a financemi. Především tedy, kam a jak investovat. Nutno říct, že nabídky jsou skvělé a váš obchodní cit vytříbený. Záleží na tom, čeho se chytnete. Na radu si přizvěte spolehlivého člověka, který se v oboru dobře vyzná.",
        "love": "Ani dnes se nevyhnete společenským setkáním. Tentokrát i v doprovodu partnera. Uvolněte se a pobavte se do sytosti.",
        "work": "Narazíte na zajímavé nabídky. Je fakt, že jsou i cenově výhodné. Zvažte, zda se toho zúčastnit. Nechte si poradit od přítele.",
        "relationships": "Dnes budete ostatní doma hodně a rádi kritizovat. Jim se to ale vůbec líbit nebude a hrozí vážné rodinné konflikty.",
        "health": "Vydáte-li se na houby, dejte pozor na nejrůznější parazity. Vybavte se správným repelentem a dobře se oblékejte.",
        "tips": "Příprava s dětmi do školy, plánování nového pracovního týdne, žhavé rande v centru města, změna vizáže, vaření."
    },
    "pisces": {
        "main": "Netlačte ve vztahu příliš na pilu. Máte tendence se před svým protějškem vychloubat a zapůsobit na něj za každou cenu. Ovšem ve výsledku to může mít pouze opačný účinek. Dejte si tedy pohov a buďte raději sami sebou. To zabere vždy spolehlivě.",
        "love": "Ve své snaze na někoho zapůsobit můžete zajít příliš daleko. Chce to znát své hranice. Jinak můžete působit křečovitě.",
        "work": "Můžete si přijít na hezkou částku peněz, a to zcela legálně. Zřejmě na vás čekají výhry v loterii nebo v nějaké soutěži.",
        "relationships": "Společnými silami si doma dnes můžete připravit dobrou večeři. Jistě se později najde čas na zábavné deskové hry.",
        "health": "Dbejte na správné čištění zubů. Kvalitní přípravky a pomůcky zakoupíte v dobré lékárně. Veďte k tomu i své děti.",
        "tips": "Nákup exotických surovin, příprava asijské kuchyně, venčení psa s přáteli, nakládání zeleniny, pečení slaných koláčů."
    }
}