{
    "aries": {
        "main": "Den volna navíc vám pomohl doplnit chybějící energii. Dnes budete zářit v práci i ve společnosti. Vy ale pravděpodobně budete toužit po společnosti partnera a nic jiného s vámi nehne. Pokud se ale nechcete o nic ochudit, partnera vezměte s sebou.",
        "love": "Včerejší den vás mohl velmi hezky nabudit a inspirovat. S protějškem dojdete k tomu, že si budete více užívat spolu.",
        "work": "Je nutné vše s kolegy probrat v klidu. Musíte najít společný kompromis. Musíte se více přizpůsobit, jiná varianta není.",
        "relationships": "Příbuzní velmi rychle zjistí, co si k vám mohou skutečně dovolit. Dáte jim to totiž velmi důrazně najevo a budete mít klid.",
        "health": "Dávejte si pozor na to, co dnes budete konzumovat. Ať už v tuhé, nebo tekuté podobě. Máte sklony rozházet si žlučník.",
        "tips": "Rozhovor s nadřízeným, zápis do nového kurzu, péče o vlasy, nákup kosmetiky a drogerie, sledování sportovního utkání."
    },
    "taurus": {
        "main": "Zatím máte stále dost sil na to, abyste ustáli náročné situace v zaměstnání. Jednáte zodpovědně a pro ostatní jste ten nejlepší vzor. Ovšem abyste takové závratné tempo vydrželi, musíte myslet především na své povinnosti. Kolegové si musí poradit sami.",
        "love": "Sice pozdě, ale přece se dnes začnete věnovat svému partnerskému vztahu. Uvědomíte si, že se musíte snažit i vy.",
        "work": "Kolegům jdete příkladem. Jste silní a odolní, a to mnohé může pozitivně motivovat. Vydržte, jste na cestě za vytouženým cílem.",
        "relationships": "Výstřelek, který se chystáte pořídit si domů, je opravdu zbytečný. Sice chcete okouzlit přátele, ale praktické to není.",
        "health": "Dbejte o své vlasy, pleť a zuby. Pro jejich kvalitu potřebujete vitaminy a kolagen. Nakupte si vše v dostatečném množství.",
        "tips": "Výroba domácích těstovin, návštěva sportovního parku s dětmi, třídění rodinných fotografií, rande naslepo, deskové hry."
    },
    "gemini": {
        "main": "Porozhlédněte se kolem sebe. Číhají na vás jisté šance, ale vy jako byste měli na očích klapky. Zkuste se vykroutit z nastaveného stereotypu a dejte svému životu nový směr. Třeba v práci. Jděte si za svým snem a nevzdávejte to. Hvězdy vás chrání.",
        "love": "Pokračovat mohou setkání s přáteli, mezi kterými je vám nyní velmi dobře. Jestliže máte partnera, doma ho nenechávejte.",
        "work": "Možná byste se měli zajímat o novou pozici v práci. Za poslední dny jste zjistili, že máte na víc. Poptejte se šéfa.",
        "relationships": "S rodinou dnes můžete prožít více volného času než v uplynulých dnech. Opět si uvědomíte, jak je pro vás důležitá.",
        "health": "Mohou vás pobolívat zuby. Objednejte se na preventivní prohlídku ke svému zubaři, ať něco nepodceníte nebo nezanedbáte.",
        "tips": "Odpočinek v sauně, plavání, běh v přírodě, nákup vegetariánských pokrmů, výroba domácí zmrzliny, úklid automobilu."
    },
    "cancer": {
        "main": "Touha po milostných prožitcích bude dnes silnější než vy. Neodoláte a partnera doslova uženete. To ale není vůbec nic proti ničemu. Protějšek se bude tetelit blahem, že jste konečně také převzali iniciativu. Je před vámi velmi zajímavý večer.",
        "love": "Dostali jste opět chuť užívat si více milostných prožitků s partnerem. Využijte toho, uděláte velkou službu vašemu vztahu.",
        "work": "Je nutné si po práci pořádně odpočinout. Máte stále snahu být dokonalí. Jenže vydržet takové tempo stále není vůbec snadné.",
        "relationships": "Po včerejším volném dni jste dnes opět nabití energií. Proměňte ji v úspěšně splněné pracovní povinnosti. Budete spokojení.",
        "health": "Střevům byste měli dopřát dostatek vlákniny a probiotických přípravků. Jsou základem správného fungování imunity.",
        "tips": "Příprava domácí pizzy, odpolední sport v přírodě, strečink, thajské masáže, psaní blogu, hledání nového partnera na seznamce."
    },
    "leo": {
        "main": "Objevují se trhliny ve vztazích na pracovišti. Vy to zrovna v lásce nemáte, ale bohužel se tomu dnes ani v následujících dnech nevyhnete. Je to pro vás velká výzva, jak se s tím poperete. Věřte si a uvidíte, že to zvládnete. Změníte pohled na ostatní.",
        "love": "Dnes vás doma nic neudrží. Hlavně pokud nemáte trvalý vztah. Samota není nic pro vás, toužíte po společnosti kamarádů.",
        "work": "Vztahy v kolektivu nejsou zrovna v pořádku. Musíte si dávat pozor na to, komu a co dnes říkáte. Závisí na tom vaše pověst.",
        "relationships": "Je na vás znát únava z toho, jak neustále odrážíte útoky příbuzných. V podstatě dnes na tuto situaci rezignujete.",
        "health": "Nechte se hýčkat v salonu na thajských masážích. Uleví vám od bolesti zad. Můžete vyzkoušet masáž s aromatickými esencemi.",
        "tips": "Tvorba domácích dekorací, péče o čtyřnohé mazlíčky, návštěva úřadů a bank, příprava na rodinný víkend, telefonát s rodiči."
    },
    "virgo": {
        "main": "Dostanete se do velmi komplikovaných situací, které jako by si vás samy vybraly. Něco na tom bude, protože jsou to samé výzvy. Vy v nich obstojíte na výbornou a díky tomu se vám absolutně změní nálada. K lepšímu. Není to náhodou prima pocit?",
        "love": "Situace bude vyžadovat menší změnu. Pro lepší rozhovor s partnerem bude dobré, pokud se uskuteční v neutrálním prostředí.",
        "work": "Konflikt, který způsobí váš nadřízený, se vám povede dnes zažehnat. Máte velmi dobré empatické cítění a víte, co funguje.",
        "relationships": "Zamrzí vás výčitky dětí, kterým hodně scházíte. Potřebují, abyste je nyní provedli novými školními povinnostmi.",
        "health": "Při sbírání hub byste si do košíku měli dávat jen ty plody, které dobře znáte. Jinak vám hrozí přinejmenším pokažený žaludek.",
        "tips": "Nákup vstupenek do kina, úklid kuchyně, třídění staršího oblečení a obuvi, nákup kancelářských potřeb, sportovní aktivity."
    },
    "libra": {
        "main": "V něčem se vám podaří dosáhnout jistých změn, v něčem se vrátíte zpět do starých kolejí. Musíte se podívat pravdě do očí a uvědomit si, co je ve vašich silách a co už ne. Pak můžete začít znovu na nepovedeném pracovat. Týká se to hlavně lásky.",
        "love": "Dnes se opět vrátíte do obvyklých kolejí a partnerský vztah budete zanedbávat. Partnera to může oprávněně rozčílit.",
        "work": "Den volna se významně podepsal na vaší náladě. Máte větší chuť do práce než předtím. Šéfa vaše snahy jistě potěší.",
        "relationships": "Dejte si pozor na zbrklé pohyby. Můžete si přivodit nepříjemný úraz, který by vás trápil dlouhou dobu a plány by vzaly za své.",
        "health": "Pečivo, těstoviny a bílá rýže. To jsou potraviny obsahující velké množství sacharidů. Je třeba je snížit, aby šla váha dolů.",
        "tips": "Četba cestopisů, práce se sociálními sítěmi, týmová spolupráce s kolegy, malování, modelářské hobby činnosti."
    },
    "scorpio": {
        "main": "Zlobí vás, že se nemůžete dostat v práci na vysněnou metu. Držíte, pracujete, vymýšlíte, ale šéf jako by měl na očích klapky. Nebojte se, jen si vás prověřuje, co jste schopní udělat. Nenechte se však dlouho trápit a v budoucnu se mu připomeňte.",
        "love": "Libido vám nedá spát. Nejraději byste v ložnici trávili celý den. Ovšem na to musíte být naladění s partnerem oba dva.",
        "work": "Nezalekněte se, pokud se zatím nemůžete dostat do vysněného cíle. Šéf si stále hlídá, co vše jste pro práci schopní obětovat.",
        "relationships": "Málokdo by do vás řekl, že máte výtvarné nadání. Své okolí můžete jen překvapit. Tak se do toho dejte, vyrazíte jim dech!",
        "health": "Zkuste se podívat na svůj jídelníček. Možná tam najdete potraviny, které nejsou z těch nejzdravějších. Musíte je omezit.",
        "tips": "Práce s keramikou, účast na novém workshopu, nákup kosmetiky a drogerie, úklid zahrady, oprava spotřebičů, koncert."
    },
    "sagittarius": {
        "main": "Vaše láska má vybraný vkus a ten vy dobře znáte. Nebude vám činit žádný problém pořídit svému protějšku milé překvapení. Trefíte se napoprvé a budete z toho nadšení. To samé ale čekejte u partnera. Uvědomí si, jak moc vám na něm i vztahu záleží.",
        "love": "Zamyslete se, čím byste svému drahouškovi udělali radost. Jistě víte, po čem touží. Není to zas takové úsilí přání vyplnit.",
        "work": "Svou práci berete vážně a je to doslova hmatatelné. Všímají si toho vaši kolegové i šéfové. Jste na cestě za velkým úspěchem.",
        "relationships": "Dobrá večeře je pro dnešek základ. Pokud doma nic připravovat nehodláte, zaručeně postačí dovážka z oblíbené pizzerie.",
        "health": "Konzumaci alkoholu omezte na minimum. Zrovna vy to umíte. Pokud budete mít chuť, dopřejte si půllitr kvalitního piva.",
        "tips": "Třídění rodinných fotoalb, hra na hudební nástroje, servis automobilu, projížďka na elektrokole v přírodě, cvičení jógy."
    },
    "capricorn": {
        "main": "Rádi byste se dál vzdělávali a pracovali na sobě. Ostatně je to jedna z vašich klíčových vlastností. Zvídavost a touha po informacích. Pokud se vám naskytne možnost, využijte ji. Může to být hlavně kurz, který vám změní pracovní budoucnost.",
        "love": "Kazí se komunikace mezi vámi a partnerem. Než dnes něco ostrého řeknete, počítejte raději do deseti. Pomáhá to.",
        "work": "Nebojte se požádat šéfa o nějaké nové školení nebo kurz. Je pravděpodobné, že ho ve své práci dobře zhodnotíte i do budoucna.",
        "relationships": "Máte stále sklony si upevňovat svou pozici v rodině. Ostatním se vaše snaha jeví jako přehnaná, ale vy nepolevíte.",
        "health": "Na krásné vlasy je třeba používat kvalitní kosmetiku. Dnes už ji naštěstí koupíte v každé drogerii. Vybírejte podle typu vlasů.",
        "tips": "Návštěva veterinární kliniky, příprava rodinného oběda, příprava s dětmi do školy, četba odborné literatury, péče o vlasy."
    },
    "aquarius": {
        "main": "Zřejmě jste přes léto moc pohybu neměli, takže nemáte pořádnou fyzičku. Rádi byste to změnili, ale nechce se vám do toho samotným. Zkuste nalákat ostatní nebo se k někomu přidejte. Nový sport přinese výsledky brzo. Jen musíte být více zodpovědní.",
        "love": "Dojde vám, že si sami sobě ve vztahu ubližujete. Hlavně tím, že vše necháváte na protějšku, který toho začíná mít dost.",
        "work": "Neradi byste měli s ostatními na pracovišti špatné vztahy, a tak se dnes raději stáhnete stranou a budete se starat o své.",
        "relationships": "Nečekaně se rozhodnete dnes přidat k ostatním doma, kteří pěstují nějaký sport. Zjistíte, že je to docela fajn pocit.",
        "health": "Dejte vale nejrůznějším neřestem, které máte. Počínaje kouřením, konzumací alkoholu konče. Nebude to tak těžké.",
        "tips": "Pracovní porada, nákup nové elektroniky, návštěva hobbymarketu, zpívání, hra na hudební nástroje s přáteli, strečink."
    },
    "pisces": {
        "main": "V práci se s kolegy rozhodnete zakopat válečnou sekeru a dáte se dohromady. Jako mávnutím kouzelného proutku se nálada hned změní a vy si můžete po dlouhé době popovídat po obědě u kávy. Dozvíte se mnoho nových věcí. Jen s nimi nakládejte opatrně.",
        "love": "Do cesty se nezadaným může připlést zajímavá osoba. Instinktivně zatoužíte po okamžitém sblížení. Absolutně vás to ovládne.",
        "work": "Veselá nálada s kolegy se podepíše na pracovních výkonech. Vše najednou půjde jak po másle a projekty se budou řešit snadněji.",
        "relationships": "U svých blízkých dnes najdete plnou podporu a pochopení. Uvědomíte si, že je k životu bezpodmínečně potřebujete.",
        "health": "Celkem jednoduše si dnes můžete rozházet žaludek. Tak pozor na potraviny s prošlým datem spotřeby. Tam vám hrozí průšvih.",
        "tips": "Příprava rodinné oslavy, domácí karaoke, pečení sladkých koláčků, péče o domácí mazlíčky, tanec, vědomostní hry."
    }
}