{
    "aries": {
        "main": "Nový pracovní týden zahájíte s mírnými obtížemi, bohatě to ale vyvážíte svými zásluhami. Z vaší hlavy vzejdou vynikající nápady, které by byla velká škoda nechat zapadnout. Když nadřízený uvidí vaše výsledky, určitě vám rád odpustí i pomalejší tempo.",
        "love": "Berani nacházejí potěšení ve vášnivém sexu, teď ale nebudete lásku prožívat tak tělesně. Dnes si prostě rádi povídáte.",
        "work": "V zaměstnání se dnes budete cítit rozvážní, rozumní, zkušení a zodpovědní. Sednou vám tak spíše intelektuální činnosti.",
        "relationships": "Partner vám slíbí účast na rodinném nákupu potravin a pak odřekne, případně nedodrží daný slib. Nebude na něho velké spolehnutí.",
        "health": "Těžké pokrmy vám budou v pondělí ubírat energii. Když budete průběžně uzobávat něco zdravého, zůstanete celý den fit.",
        "tips": "Zvládání náročných pracovních úkolů, přesčas, oslovení svého idolu pomocí smsky nebo telefonátu, učení se s dětmi."
    },
    "taurus": {
        "main": "Dnes si před vámi nemůže být nikdo jistý. Využijete každou příležitost k tomu, abyste si zaflirtovali. Určitě se ale nesnížíte k laciným přímočarým narážkám. Dokážete protistranu zaujmout vtipnými a nápaditými bonmoty, mnohdy vám ani nebude stačit.",
        "love": "Když jste protějšku stále v patách, bude se vám snažit uniknout. Stačí trocha hraného nezájmu a vaše role se obrátí.",
        "work": "Jarní úklid se nevyhne ani vašemu pracovnímu místu. Pečlivě uspořádáte vše, co potřebujete k práci a zbytečnosti odkliďte ze stolu.",
        "relationships": "Pokud jste se konečně dokopali do nějakého velkého životního rozhodnutí, dnes je ten správný čas oznámit to rodině.",
        "health": "Pokud se striktně držíte dietního plánu, tak dnes je dovoleno trošku zhřešit. Sladká odměna vám určitě zlepší náladu.",
        "tips": "Náročné činnosti v zaměstnání, řešení osobních problémů, telefonická konzultace s odborným lékařem, večeře s partnerem."
    },
    "gemini": {
        "main": "V pondělí budete v zaměstnání tak trochu k nepoužití. Vaše myšlenky se budou toulat v jiných sférách, než je plnění nudných povinností. V duchu si budete přehrávat romantické i vzrušující milostné chvíle s protějškem. Vyrazíte za ním co nejdříve.",
        "love": "Ve vztazích vás čeká porozumění. I ožehavou informaci dokážete podat tak bravurně, že ji protistrana přijme v klidu.",
        "work": "Nejste tak bohatí, abyste si mohli dovolit kupovat levné věci. Dnes tuto pravdu uznáte a budete se chovat podle toho.",
        "relationships": "U vašeho rodinného krbu se objeví komunikační problémy. Jestli nestojíte o mezigenerační spory, nepouštějte se do konverzace.",
        "health": "Zamyslete se nad tím, co jíte. Nepřeháníte to s konzumací tuků? Na jaře je třeba tělu naopak odlehčit, ulehčí se i duši.",
        "tips": "Dřívější odchod ze zaměstnání, rozmazlování protějšku, společná zábava i odpočinek, koupel, erotické experimenty."
    },
    "cancer": {
        "main": "Budete-li mít pondělní splíny, atmosféra na pracovišti vás jich rychle zbaví. Týmová spolupráce bude bez problémů plynout, stejně dobře si ale dokážete poradit i na vlastní pěst. Případné potíže budete vnímat jako drobnosti, které hravě odstraníte.",
        "love": "Dnes budete tím, kdo ustupuje, i když je jasně v právu. Protějšku by ovšem mnohem více zaimponovala vaše sebejistota.",
        "work": "V kolektivu budete šiřiteli dobré nálady. Díky vám si kolegové ani neuvědomí, že už si neužívají víkendu, ale pracují.",
        "relationships": "V druhých vzbuzujete velké sympatie, takže teď nemáte problém s navazováním nových známostí ani po internetu.",
        "health": "Vzájemné porozumění je dnes pro vás enormně důležité. Snažit se ze všech sil o udržení harmonie vás ale spíše unaví.",
        "tips": "Kolektivní spolupráce, online pracovní prezentace, pomoc novým kolegům, hledání nové práce, zaslání peněz na charitu."
    },
    "leo": {
        "main": "Současné konstelace vám dávají za úkol, abyste se učili tlumit svou přehnanou aktivitu. Vaše osobní síly jsou mocné, je však třeba rozlišovat, kdy vám mohou být spíše ke škodě. Nejlépe to asi vystihuje lidové moudro, že nic se nemá lámat přes koleno.",
        "love": "Rozhodnete se vnést do domácího sexu nějaké nové ohromující prvky. Partnerovi je ale naservírujte pomalu a něžně.",
        "work": "Nadřízený si vás nebude všímat, i kolegové si budou ve všem vědět rady a vystačí si sami. Můžete si připadat nevyužití.",
        "relationships": "Domácí práce dnes hodíte za hlavu. Ke svým výkonům potřebujete nadšené publikum a úklid asi nikoho zajímat nebude.",
        "health": "Potlačovat emoce není zdravé. Vynadat od plic šéfovi se nevyplácí, ale můžete svůj vztek ventilovat jinak a neškodně.",
        "tips": "Pozorné plnění pracovních povinností, home office, online přednáška o zdravém životním stylu, upřímné partnerské rozhovory."
    },
    "virgo": {
        "main": "Slunce se včera přesunulo do ohnivého znamení Býka a má na vás dosti rozporuplný vliv. Můžete cítit nutkání rázně ukončit některé mezilidské vztahy. Dosud jste s nimi byli docela spokojení, ale teď na nich vidíte jen to špatné. Bude to chtít rozvahu.",
        "love": "Chladná mysl zabrání tomu, abyste ve vztahu udělali nějakou botu. Rozhodnou výzvu k rozchodu už těžko budete brát zpět.",
        "work": "Pracovně byste rádi postoupili někam dál. Podání výpovědi si ale dobře rozmyslete, zítra byste se za to mohli proklínat.",
        "relationships": "Máte problém pochopit někoho z rodiny. Připadá vám, že jen skuhrá, i když se nemá tak špatně. Víte o něm opravdu vše?",
        "health": "Pomocí domácího pilates a power jógy procvičíte i skryté svaly, o kterých ani nevíte, že je máte. Vaše držení těla bude ukázkové.",
        "tips": "Cvičení z pohodlí domova, promýšlení veškerých budoucích kroků, sebereflexe, porada se starším příbuzným, karetní hry."
    },
    "libra": {
        "main": "V pondělí budete mít dostatek pracovní morálky, takže se dokážete přinutit i k neoblíbeným pracím. Uvědomujete si, že rutinní povinnosti nutně provázejí každou oblast lidské činnosti. Možná přijdete i na nový systém, který vám vše ještě více usnadní.",
        "love": "Při seznamování nebudete hrát žádné složité hry. Budete upřímní, místo taktizování protějšku naservírujete své pravé já.",
        "work": "Někoho z kolegů motivujete k práci na sobě. O rozšiřování vědomostí budete mluvit tak nadšeně, že vás rád následuje.",
        "relationships": "Telefonát s rodinou zabere jen pár minut, ale zdá se, že přinese mnoho novinek. Budete chtít vše probrat během návštěvy.",
        "health": "Stresové situace nefungují jako posilovna vaší psychické odolnosti, mají na vás opačný účinek. Pozor na časový pres.",
        "tips": "Rutinní povinnosti v zaměstnání, opravy v domácnosti, večerní lenošení, sledování televize, chat nebo telefonát s přáteli."
    },
    "scorpio": {
        "main": "V lásce se vám nebude příliš dařit a v zaměstnání to bude to samé v bledě modrém. Pomůže vám, když se zamyslíte nad svými loňskými zkušenostmi. Některé prvky z minulosti se teď zopakují až překvapivě stejně. Poučte se z nich a zapracujte na změně.",
        "love": "V milostných chvílích máte většinou hlavní slovo vy, ale dnes se rádi necháte vést. Na větší aktivitu už budete unavení.",
        "work": "Neodkládejte povinnosti, které vás otravují. Mohlo by se stát, že na ně úplně zapomenete, a problém by byl na světě.",
        "relationships": "Zkuste se postavit opakujícím se problémům neohroženě čelem. Na to, abyste házeli flintu do žita, je ještě spousta času.",
        "health": "Celkový pocit citlivějších jedinců bude záviset na počasí. Slunečno vás aktivizuje, nízký tlak naopak potáhne k zemi.",
        "tips": "Úvahy o životě, zábava s dětmi, dlouhá procházka přírodou, poslech oblíbené hudby, důvěrný telefonát s kamarádkou."
    },
    "sagittarius": {
        "main": "V současnosti máte značné pracovní ambice, ale celková situace vám příliš nenahrává. Okolí vás nepodpoří a něco vám kvůli tomu nevyjde tak, jak jste očekávali. Pondělí v zaměstnání může zabrnkat na vaše nervy. Bude třeba řešit neočekávané situace.",
        "love": "Dejte si s protějškem oddychový čas, i kdyby jen na pár hodin. Ponorková nemoc hrozí zvláště v dlouhodobých vztazích.",
        "work": "Dnešní povinnosti vám zvednou krevní tlak. Půjde i o činnosti, které vždycky odsouváte až na poslední myslitelný termín.",
        "relationships": "K rodině a příbuzným se budete chovat příjemně, ať se děje cokoliv. Negativní emoce ze zaměstnání na sobě nedáte znát.",
        "health": "Poslech meditační hudby vás uklidní, i když podobné kratochvíle asi nepatří k vašim nejoblíbenějším koníčkům.",
        "tips": "Četba zábavných magazínů, výběr interiérových doplňků přes internet, aktivity s rodinou, péče o pleť, relaxace."
    },
    "capricorn": {
        "main": "Pondělí vám na elánu neubere, budete patřit mezi nejvýkonnější pracovníky. Ani vás nenapadne stěžovat si, že už je zase po víkendu. Vaše úsilí vám ale může mařit netrpělivý, chybující či roztržitý kolega. Některé dílčí úkoly se nečekaně protáhnou.",
        "love": "Schůzky naslepo nejsou váš styl, rádi hned od začátku víte, na čem jste. Proto i dnes odmítnete nabídku tajného ctitele.",
        "work": "K práci některých kolegů máte určité výhrady, ale pozor na formu, jakou je podáte. Netvařte se při tom jako pan učitel.",
        "relationships": "Můžete nachytat své znuděné ratolesti, jak si za domem dávají cigaretku. Kázání si ale necháte až na doma.",
        "health": "Dnes si vezmete za svou povinnost poučit potomky o škodlivosti kouření. Nebudete zakazovat, ale promyšleně argumentovat.",
        "tips": "Debaty s nadřízeným, oběd s dětmi, investice do podílových fondů, přemýšlení nad vytvořením internetového obchodu."
    },
    "aquarius": {
        "main": "Zkuste se více ztotožnit sami se sebou a přijdete na to, že se nemusíte trápit žádnými věcmi, které za to nestojí. Vesmír je k vám velmi štědrý, tak mějte oči dokořán a nechte ho, aby vás překvapoval každý den! To si totiž opravdu zasloužíte, uvidíte.",
        "love": "Při flirtování dnes hýříte vtipem a sklidíte díky tomu značné úspěchy. Půjde totiž o vytříbený inteligentní humor.",
        "work": "Mezi vámi a kolegy druhého pohlaví to dnes může pěkně jiskřit. Lechtivé slovní přestřelky vám zpříjemní pondělní den.",
        "relationships": "Doma naleznete porozumění pro své pracovní aktivity, blízcí vám uleví od povinností. Ušetříte tak poměrně dost času.",
        "health": "Máte chuť zapomenout na všechny starosti. Budete proto vyhledávat jenom příjemné osoby i náměty k rozhovoru.",
        "tips": "Zábavné deskové hry a povídání s ratolestmi, online nákupy potravin, procházka jarní přírodou, shlédnutí rodinného filmu, pletení."
    },
    "pisces": {
        "main": "V rodině dnes nejste za žádného měkkotu, který raději skloní hlavu, než by čelil konfliktům. Umíte se v klidu, ale asertivně vymezovat vůči chybám druhých. Doma tak může být hodně rušno. Okolí bude jen horko těžko vydýchávat vaši nebývalou upřímnost.",
        "love": "Jisté jedince přestanete nazývat svými přáteli. Zjistíte, že to s vámi ne vždy mysleli tak upřímně, jak se nejdřív zdálo.",
        "work": "Výměna názorů na pracovišti proběhne díky vám v klidu. Už vás nebudou brzdit žádné nesmyslné hádky, které nikam nevedou.",
        "relationships": "Připomínky k jistým lidem dnes nebudete schopní jen tak pominout. Pokud někoho nemusíte, pak se nebudete přetvařovat.",
        "health": "Vašim střevům prospějí kvašené enzymatické nápoje - například z kombuchy, dále opravdu živý mléčný zákys a kysané zelí.",
        "tips": "Upřímný rozhovor s protějškem, domácí večeře v netradičním stylu, procházka, telefonická konzultace v manželské poradně."
    }
}