{
    "aries": {
        "main": "V lásce odsunete tělesná potěšení na druhou kolej a dáte přednost duševnímu sblížení. Budete se vyžívat v pocitu, že se spolu můžete upřímně bavit úplně o všem. Ale čeho je moc, toho je příliš. S úplně platonickou láskou se roztoužený protějšek asi nesmíří.",
        "love": "Debata s partnerem se asi protáhne, ale bude to stát za to. Shodnete se na mnoha budoucích krocích a získáte nový klid.",
        "work": "Potýkáte se s nechutí soustředit se na práci. Vaše mysl stále ulétává jinam, odpočítáváte minuty do konce pracovní doby.",
        "relationships": "Necháte se obletovat a rozmazlovat blízkými a vychutnáte si to, jako byste byli malé děti. Rodiče se ke hře rádi přidají.",
        "health": "Jakmile vám jde o lásku, klidně překonáte sami sebe. Kvůli svému idolu se klidně ze dne na den vzdáte třeba cigaret.",
        "tips": "Dřívější odchod ze zaměstnání, zajištění večeře z donáškové služby, romantický večer s protějškem, společná noc."
    },
    "taurus": {
        "main": "Ambiciózním Býkům právě nastávají zlaté časy. K přízni Marsu se dnes přidává vliv samotného Slunce z vašeho znamení. Můžete se těšit na nejlepší podmínky pro pracovní a kariérní směřování z celého zvěrokruhu. Tak si vyhrňte rukávy a směle do toho!",
        "love": "Dostanete se dnes k něčemu, co vás bude bavit a umožní vám sdílet s vaší láskou všechny starosti i radosti. Hurá do toho!",
        "work": "S nějakými konkurenty si dnes vůbec nebudete lámat hlavu. Cítíte, že mezi nimi najdete jen hrstku srovnatelných soupeřů.",
        "relationships": "Hrajte dnes fér se všemi členy vaší rodiny. Bude se to cenit, ale nesmíte to zase přehnat s vaší vyřídilkou. To by nešlo.",
        "health": "Zelenou u vás mají všechny meditační cvičení, u kterých se zároveň pobavíte. Jednou ranou posílíte své tělo i psychiku.",
        "tips": "Zastávání vedoucích funkcí, online obchodní jednání, rozhovor s partnerem, online sledování veřejných projevů, pozvání na rande."
    },
    "gemini": {
        "main": "Planeta lásky Venuše ve znamení Blíženců dává vaší výřečnosti křídla. Rádi toho využijete i během pracovní doby. Díky zájmu opačného pohlaví můžete zabodovat i v kariéře. Vždy instinktivně zvolíte ta správná slůvka, kterými protistranu okouzlíte.",
        "love": "Dnes vás potěší nějaká milá náhoda, která vám přihraje do cesty člověka, s nímž vám bude velmi dobře. Hezky se doplňujete.",
        "work": "I při práci můžete využít svého vyzařování. Příslušníci opačného pohlaví k vám budou vzhlížet, ostatní vás obdivovat.",
        "relationships": "Někteří lidé si o vás myslí, že jste namyšlení. Vaše sebevědomé vystupování jim nevoní, vykládají si ho jako aroganci.",
        "health": "Najdete způsob, jak se zbavit nepříjemných kožních onemocnění. Ekzémům a lupenkám svědčí konopný krém z lékárny.",
        "tips": "Rychlejší návrh pracovního postupu, telefonické jednání s klienty, pohovor s nadřízeným, péče o vzhled, přemýšlení o změně bydlení."
    },
    "cancer": {
        "main": "K partnerovi dnes budete přistupovat s láskou téměř rodičovskou. Budete ho starostlivě oprašovat a číst mu přání z očí. Svou úzkostlivou péčí byste ho ale mohli začít dusit. Místo společné domácí pohody by se pak mohl sebrat a utéct od vás.",
        "love": "V rodině vám bude nejlépe s miláčkem. Užíváte si přítomnost jeden druhého a svou láskou okouzlíte nejednoho z přítomných.",
        "work": "Pozměníte svůj pohled na ostatní kolegy. Místo toho, abyste zápolili o kariérní postup, dnes táhnete za jeden provaz.",
        "relationships": "Nemáte náladu na snobskou společnost svých namyšlených sourozenců a raději se jim dnes širokým obloukem vyhnete.",
        "health": "Zbytky pracovního stresu neodbourávejte mlsáním. Mnohem lépe vám poslouží přiměřená tělesná aktivita, například běhání.",
        "tips": "Telefonát rodičům, zkrášlovací procedury s kamarádkou, tvořivé ruční práce všeho druhu, relaxace, pilates."
    },
    "leo": {
        "main": "V lásce opustíte svůj styl rafinovaného lovce. Komunikace s opačným pohlavím pro vás nebude vzrušující hrou, ale příležitostí k upřímným diskusím. Budete pozorně naslouchat tomu, co vám protějšek sděluje. Nejdůležitější pro vás bude duševní sblížení.",
        "love": "Partner vás mile překvapí svou iniciativou. Má vás přečteného, a tak umí přesně odhadnout, jaký program na večer zvolit.",
        "work": "S oceněním to nebude žádná velká sláva. Vašemu okolí připadá, že se zbytečně zaměřujete na podružné detaily své práce.",
        "relationships": "Poskytněte svým příbuzným radu ve vzájemných sporech, ale nesnažte se je za ně vyřešit. To už bude především na nich.",
        "health": "Pylová alergie by vás mohla nepříjemně omezit. Vyplatí se mít vždy při sobě první pomoc - ověřené spreje i tabletky.",
        "tips": "Pracovní telefonáty, zrušení srazu vlastníků bytových jednotek, úklid společných prostor, péče o domácí mazlíčky."
    },
    "virgo": {
        "main": "Hvězdy vás vedou k úvahám, jak by mělo vypadat vaše partnerské soužití. Dnes máte sklon vidět na protistraně samé chyby, které si zaslouží pádnou kritiku. Dejte pozor, abyste partnera nepeskovali jako malé děcko. Bude se pak bránit všemi prostředky.",
        "love": "V komunikaci s partnerem dnes budete potřebovat množství tolerance a schopnost dělat kompromisy. Nervy máte jako struny.",
        "work": "Nyní by vám stačily i nižší příjmy. Přijímáte ale téměř všechny zakázky, abyste si zajistili dobré podmínky do budoucna.",
        "relationships": "Náročné pracovní úkoly budete zvládat také díky rodině. Blízcí vás ve všem podpoří a budou se radovat z vašich úspěchů.",
        "health": "Odpoledne si dávejte pozor na poranění o ostré předměty. Největší rizika na vás mohou číhat při kuchyňských pracích.",
        "tips": "Aktivity vyžadující soustředění a pečlivost, nákup pracovních pomůcek, záskok za nadřízeného, dřívější odchod domů, nákup."
    },
    "libra": {
        "main": "Hvězdy vnesou do vašeho vztahu novou harmonii. S protějškem budete ochotní o všem diskutovat. Dnes se nestane, že byste brali jeho připomínky a návrhy ke společnému soužití na lehkou váhu. Vaše partnerství může díky tomu udělat velký krok vpřed.",
        "love": "Dnes budete těmi nejpozornějšími milenci. Vaše polovička bude naprosto okouzlena a také vás zahrne projevy své lásky.",
        "work": "Pracující na volné noze by si měli dát dohromady administrativní záležitosti. Teď máte dost sil urovnat vládnoucí chaos.",
        "relationships": "Na rodinné zázemí jste dnes velmi fixovaní. Zásadní kariérní kroky proto budete promýšlet s ohledem na své nejbližší.",
        "health": "Užívejte všeho, co život přináší, a nemalujte čerta na zeď! Žít v přítomnosti je tím nejlepším receptem na spokojenost.",
        "tips": "Online nákupy nových svršků, očistná jarní kúra - detox, depilace nohou, úprava životosprávy, rychlá chůze či běh."
    },
    "scorpio": {
        "main": "Bude se vám zdát, že v domácnosti panuje naprostá anarchie. Zvláště pohodlnost mladších členů rodiny vám přijde do nebe volající. Teď záleží hlavně na tom, jak své požadavky podáte. Když se neudržíte a vybuchnete, mohou se potomci postavit na zadní.",
        "love": "V lásce nehledejte nadpozemskou dokonalost! Dnes od vás protějšky budou dostávat trestné body i za úplné maličkosti.",
        "work": "Nevíte, kde vám hlava stojí. Dnešní hektický den prověří vaši schopnost sebeovládání. Pevnou vůli budete brát z rezerv.",
        "relationships": "I když jste měli těžký den, nevybíjejte si emoce na své rodině. Nezaslouží si to a navíc se připravíte o klidné zázemí.",
        "health": "Samostudium lékařských knih může citlivé jedince vykolejit. Začnete na sobě nacházet všechny možné i nemožné příznaky.",
        "tips": "Investování ušetřených financí, žehlení, povídání o počasí, plnění povinností, online nákupy nových knih, jóga a meditace."
    },
    "sagittarius": {
        "main": "V lásce byste se teď mohli dopustit nebývalých faux-pas. V komunikaci ztratíte obvyklé zábrany i základní takt. Snažte se chovat více diplomaticky. Vaše vrozená otevřenost nebude mít žádné hranice a protějšek by některé výroky také nemusel rozdýchat.",
        "love": "Nepokoušejte se za každou cenu hrát hru na pravdu. I když si myslíte, že jste ji vhodně zaobalili, může být dost výbušná.",
        "work": "Dřívější odchod z práce může rozzlobit špatně naladěné nadřízené. Nedávejte jim dnes podnět ke kritice a sekejte latinu.",
        "relationships": "Více važte svá slova. Neuvědomujete si, že se můžete strefit do citlivého místa. Následky budou dlouhodobé a bolestivé.",
        "health": "Udržujte pozornost v pohotovosti a nervy v klidu. Jedině tak přežijete dnešní den bez úhony vy i lidé ve vašem okolí.",
        "tips": "Odpočinek ve společnosti rodiny, domácí ochutnávka vín, čtení knih, úklid domácnosti, rozhovor mezi čtyřma očima, pronájem bytu."
    },
    "capricorn": {
        "main": "Komunikace v rodině bude bezchybná. Jste ochotní každého vyslechnout a pobavit se s ním jako rovný s rovným. Dokážete si zaujatě popovídat s příbuzným se základním vzděláním i s kandidátem věd. Nad nikoho se nepovyšujete, před nikým se neponižujete.",
        "love": "Nedumejte, zda dáte večer přednost rodině či partnerovi. Vypadá to, že vaše polovička vás potřebuje mít vedle sebe.",
        "work": "Dařit se bude hlavně profesím, které nakládají s financemi. Budou mít správný nos na možnosti, kam nasměrovat investice.",
        "relationships": "Každý z rodiny má jinou představu o trávení volného času. Dnes si ale dokážete vyjít vstříc, jen abyste mohli být spolu.",
        "health": "Pokud vás trápí studené ruce a nohy, může za tím být špatné prokrvování koncových částí těla. Proberte to s lékařem.",
        "tips": "Nakoupení dárečků dětem za příkladné učení se, odpoledne s rodinou, společné plánování do budoucna, rozloučení se se zlozvyky."
    },
    "aquarius": {
        "main": "Na partnera se dnes podíváte trochu jinýma očima. Jaro s vámi dělá divy a nutí vás všímat si všech půvabů vašeho partnera, které vám jindy přijdou samozřejmé a trochu okoukané. Pokud se protějšek nějak vylepšil, budete už úplně nadšením bez sebe.",
        "love": "Dnes chcete být pro svého milého v širém kraji nejkrásnější. I u něj oceníte každý projev toho, že se vám chce líbit.",
        "work": "Vyčleníte nezanedbatelnou sumu na vylepšení svého šatníku. Víte, že ať se nám to líbí, nebo ne, šaty dělají člověka.",
        "relationships": "Dnes vás láká vše, co souvisí s estetikou. Rádi si pohrajete i s vylepšováním své vizáže, aby okolí úplně ztratilo dech.",
        "health": "Dnes bude vaším tělem proudit především energie sexuální. Každý impulz ze strany opačného pohlaví vnímáte velmi silně.",
        "tips": "Kreativní činnosti, vylepšování vizáže, rodinná večeře u jednoho stolu a povídání, intimní chvilky s partnerem, relaxační koupel."
    },
    "pisces": {
        "main": "Na pracovišti bude panovat ovzduší naprosté důvěry. Nebudete mít potřebu kohokoliv kontrolovat či podezřívat z nějakých nekalých úmyslů. Můžete se naplno věnovat své práci, která vás nyní velmi uspokojuje. Své nadšení budete přenášet i na ostatní.",
        "love": "Dnes nevidíte nic špatného na tom, když se obléknete trochu vyzývavěji. Obdivné i mlsné pohledy si vysloveně užijete.",
        "work": "Práce v týmu a setkávání s lidmi vám dnes sedí. Cítíte se přitažliví a přijde vám škoda schovávat si to jen pro sebe.",
        "relationships": "Doma bude panovat klid. I menší děti budou překvapivě vzorné a hodné, až z toho budete celí nesví. Takhle je neznáte.",
        "health": "Pracovní stres vám dnes vůbec nevadí. Je to pro vás příležitost předvést své schopnosti. Koupete se v obdivu okolí.",
        "tips": "Plnění náročných úkolů v zaměstnání, zaškolení nového kolegy, večeře s partnerem, domácí práce, rozhovory s rodinou."
    }
}