{
    "aries": {
        "main": "V sobotu máte velmi blízko k různým bláznivým nápadům. Na nějaký decentní rodinný program, jako je návštěva tetičky s nekonečným klábosením u kávy, nebudete mít ani pomyšlení. Chcete se aktivně bavit, cestovat a poznávat nová místa, lidi i zážitky.",
        "love": "Z mnohých jedinců se stanou rafinovaní svůdci. Nebudete mít problém zahrát na správnou emocionální strunu. Zabodujete.",
        "work": "Spekulace s nemovitostmi mohou na první pohled vypadat lákavě, ale nemusely by se vyplatit. Chcete opravdu riskovat?",
        "relationships": "Jisté domácí práce vás začínají neúměrně otravovat. Nepomohlo by vytvořit si lepší podmínky a pořídit moderní pomocníky?",
        "health": "Pokud to přeženete s konzumací alkoholu, mohlo by to vaše tělo silně pocítit. Zítřejší ráno by rozhodně nebylo růžové.",
        "tips": "Kontaktování přátel, vylepšování domácnosti, výlet do přírody, sportovní aktivity, milostné experimenty, úklid domácnosti."
    },
    "taurus": {
        "main": "Sobota pro vás bude zčásti pracovní, nebudete to ale nijak hrotit. Vyřídíte jen nutné práce, které vám připravila profese, domácnost či zahrádka. Pak uděláte ostrý střih a začnete si užívat volného času. Rodinu potěší, že si dnes dokážete říci dost.",
        "love": "Zaměření se na partnerský život bude velmi užitečné. Více než jindy teď pro vás platí, že co zasejete, to také sklidíte.",
        "work": "Pohodlné bydlení si vyžádá nemalé finanční částky. Nechcete však dělat žádné kompromisy, a tak bankovní konto nešetříte.",
        "relationships": "Toužíte udělat vše pro to, aby vaše domácí prostředí bylo příjemné. Někteří jedinci věnují péči o příbytek celý den.",
        "health": "V domácím prostředí si začnete zařizovat osobní relaxační koutek. Teď je vám hej, ale víte, že občas vítáte soukromí.",
        "tips": "Úklid, úpravy a malování interiéru, nákupy bytového vybavení a elektrospotřebičů, péče o pokojové rostliny, odpočinek."
    },
    "gemini": {
        "main": "Sobotu strávíte se svou milou polovičkou. Nejspíše se vydáte na zajímavá místa, kde si budete moci aktivně odpočinout a uvidět něco nového. Město a všechny stresy necháte daleko za zády. Budete mít spoustu času a klidu i na dlouhé pohodové rozhovory.",
        "love": "Oběma vám prospěje chvilková změna prostředí. Příjemný víkend strávený na chatě bude mít na váš vztah pozitivní vliv.",
        "work": "Sobotní policejní kontrola by vás mohla přijít docela draho, proto si při cestování automobilem dávejte pozor na rychlost.",
        "relationships": "Rodinnou pohodu by dnes mohla narušit zbytečná malichernost. Zaměřte se na to, abyste s příbuzenstvem vycházeli hladce.",
        "health": "Zamilovaným jedincům hvězdy přejí. Nebudou vás zatěžovat žádnými potížemi a nechají vás, abyste si společně užívali.",
        "tips": "Libovolné aktivity s partnerem, pobyt na chatě rodičů, společná zábava s dětmi, sportování a relaxace, praní."
    },
    "cancer": {
        "main": "K vašemu vnitřního klidu bude hojně přispívat domácí pohoda. Mnozí Raci se vydají na návštěvu k rodičům, prarodičům či jiným starším příbuzným. Rádi se na chvíli vrátíte do dětských let. Budete si povídat, vzpomínat a necháte se i trochu hýčkat.",
        "love": "S partnerovými rodiči se rádi pobavíte o tom, jaký byl ten váš miláček v dobách svého dětství. Úplně se rozněžníte.",
        "work": "Finanční stránku života dnes příliš neřešíte. Víte, co si můžete dovolit a jaké aktivity už jsou za vašimi možnostmi.",
        "relationships": "Přepadne vás sentimentální nálada a budete vzpomínat na bezstarostné dětství. Uznáte ale, že i dospělost má své výhody.",
        "health": "Především u starších jedinců se mohou ozvat klouby a krční páteř. Bolesti v těchto oblastech zmírníte vhodnými mastmi.",
        "tips": "Věštění a výklad karet, úklid domácnosti, povídání o počasí, čtení knih, hledání práce, rozhovor mezi čtyřma očima, spánek."
    },
    "leo": {
        "main": "Budete zábavní a kolem sebe budete šířit jenom pohodu. Rodina vás bude zvýšenou měrou vyhledávat, aby si ve vaší přítomnosti odpočinuli od běžných starostí. Na všechno se dnes díváte s optimismem a s dávkou neodolatelného humoru.",
        "love": "V lásce jste dnes naprosto nekritičtí. Budete svého milého obdarovávat svou pozorností, lichotkami i různými dárečky.",
        "work": "Finanční záležitosti vnímáte jako podružné, máte hlavu v oblacích. Pozor, ať nepropásnete termíny pro důležité platby.",
        "relationships": "Nezapomeňte dnes zaplatit nějaký důležitý rodinný účet. Jinak vám budou hrozit větší potíže, což pro vás bude potíž.",
        "health": "S partnerem si dopřejete posilovnu v ložnici. Nepotřebujete utrácet za hodiny ve fitness centru, dnes to zvládnete sami.",
        "tips": "Pohoda s partnerem, zkrášlování zevnějšku, večeře z donáškové služby, zhlédnutí nového filmu či divadelní hry, posezení na balkóně."
    },
    "virgo": {
        "main": "Protějšek vám může dát najevo, jakou má představu o vašem budoucím soužití. Možná vás překvapí, že bude mít i některé jasné výhrady. Dosud jste si mysleli, že nespokojenost je spíše na vaší straně. Teď si vše vyříkáte a vzájemně si vyjdete vstříc.",
        "love": "Váš vztah už není jen růžový a partnera si neidealizujete. Naštěstí stojíte o dorozumění, takže najdete společnou řeč.",
        "work": "Nezačínejte žádnou větší práci. I když si říkáte, že jí věnujete jen chvíli, bylo by z toho najednou celé odpoledne.",
        "relationships": "Partnerské hádky a konfrontace si nechte za zavřené dveře. Zvědavým potomkům by jinak neuniklo ani jediné ostré slůvko.",
        "health": "Spíše než fyzická kondice vás dnes bude brzdit ta psychická. Zkuste se dostat vnitřně do klidu, pomůže vám i spánek.",
        "tips": "Otevřený rozhovor s protějškem, urovnávání sporů, návštěva příbuzných, aktivity s dětmi, procházka, relaxační techniky."
    },
    "libra": {
        "main": "Budete přemýšlet, čím potěšit milovaný protějšek. Pokud by to šlo, snesli byste mu modré z nebe. Partneři si připomenou počáteční zamilovanost. Svou polovičku překvapíte večeří s romantickým průběhem, jakou jste si spolu nedopřáli už hodně dlouho.",
        "love": "Překvapíte partnera nějakou nečekanou událostí. Není vyloučeno, že se dokonce konečně rozhoupete a požádáte ho o ruku.",
        "work": "Postesknete si, že si své současné výdělky ani nemáte kdy užít. Pokud dnes nemusíte pracovat, hoďte povinnosti za hlavu!",
        "relationships": "Určitý krok vašeho sourozence vás asi dost překvapí, ale ovládnete se a nebudete situaci komentovat. Je to jeho život.",
        "health": "Zejména ženy pocítí tikot biologických hodin. Zatoužíte po rodině a není vyloučeno, že plány začnete ihned realizovat.",
        "tips": "Výlet či procházka s protějškem, společné posezení a povídání s rodinou, zábava s dětmi, malování chodby nebo ložnice."
    },
    "scorpio": {
        "main": "Pro dnešní den byste si měli připravit větší množství nadhledu. Víkendové dny slouží k odpočinku, nikoliv k další eskalaci stresu. Nechte členy rodiny, ať se třeba staví na hlavu, když jim to udělá radost. Vy zase určitě víte, co potěší právě vás.",
        "love": "Flirtování vám nedělá žádné problémy, nepostrádáte sebevědomí ani odvahu. Nepřipouštíte si, že by vám něco nevyšlo.",
        "work": "V rodině se dnes na všem zásadním dokážete shodnout. Spory ohledně běžného financování domácnosti nebudou stát za řeč.",
        "relationships": "Dnes si děláte starosti i s věcmi, které by v budoucnu mohly nastat opravdu jen čistě teoreticky. Vraťte se do reality!",
        "health": "Všechny splíny zkuste hodit za hlavu. V jarní přírodě najdete potřebnou psychickou rovnováhu a načerpáte ztracené síly.",
        "tips": "Procházka nebo běh po parku, rodinný oběd, fotografování, relaxace, aromaterapie, poslech hudby, cyklistika."
    },
    "sagittarius": {
        "main": "Hvězdy radí, abyste si udělali příjemný den, kdy nebudete mít žádné zvláštní nároky na sebe ani okolí. Vyzkoušejte meditace pro zklidnění mysli a získání nadhledu. Rtuťovité Střelce tento typ relaxace neláká, jejich neklidné duši ale velmi prospěje.",
        "love": "Klidně se dnes spolehněte na to, že se o vás partner postará. Udělá to rád, takže nemusíte mít žádné výčitky svědomí.",
        "work": "Nehodláte zruinovat rodinný rozpočet, ať se chystáte na cokoliv. Pro dnešek trávíte čas prohlížením akčních letáků.",
        "relationships": "Snaha obhájit vlastní stanoviska se dnes nejspíše mine účinkem. Raději si své argumenty šetřete na příhodnější chvíle.",
        "health": "Ignorování obtíží není hrdinství, ale hazard s vlastním zdravím. Každému občas nezbude nic jiného než zajít k lékaři.",
        "tips": "Zábavné aktivity s celou rodinou, oběd na zahradě, výlety a procházky, společné povídání s dětmi o rodinné historii, křížovky."
    },
    "capricorn": {
        "main": "Hvězdy podpoří vaši cílevědomost. Můžete být úspěšní ve všem, do čeho se pustíte. Dokážete si stanovit, jak se co nejefektivněji dostat ke svému cíli. Můžete pracovat, věnovat se koníčkům, tvůrčím činnostem či kutilství. Všechno dotáhnete do konce.",
        "love": "Máte ideální čas pro seznámení, i když doba tomu moc nepřeje. Nyní ale dokážete oslovit a zaujmout kohokoliv.",
        "work": "Při běžných nákupech zaútočí ratolesti na vaši peněženku. Ubránit její obsah bude nadlidský úkol, ale budete neústupní.",
        "relationships": "Zkontrolujete studijní plány svých potomků a budete spokojení. Můžete si říkat, že jablko nepadlo daleko od stromu.",
        "health": "Cítíte se skvěle a zdá se, že vás nic nemůže zastavit. Kamenem úrazu by mohla být špatná životospráva, tělo není stroj.",
        "tips": "Podnikání, aktivity se sourozenci, společný rodinný oběd, kreativní činnosti, domácí kutění, pěstování koníčků, horká koupel."
    },
    "aquarius": {
        "main": "Rozkvetlá příroda a sluníčko za okny vás přivedou na myšlenku útěku do přírody - třeba na chatu. Máte-li možnost vzdálit se na několik dní od pracovních starostí, držte se svého nápadu. Možná si ale ještě chvilku počkáte na některý z májových prodloužených víkendů.",
        "love": "Nezapomeňte, že láska kvete v každém věku. Není vyloučeno, že vás čeká osudové setkání s protějškem, který vás okouzlí.",
        "work": "Nebudete dnes příliš umět odpouštět, takže vám bude dělat velké problémy srovnat se s tím, co všechno se u vás bude dít.",
        "relationships": "Pohoda v náručí rodiny, procházka jarní přírodou a bříško plné dobrot. Přesně to dnes potřebujete k absolutní spokojenosti.",
        "health": "Naučte se čas od času děkovat za vše krásné, čeho se vám dostává, není to náboženství, ale o samém vděku za život.",
        "tips": "Online testy vašeho IQ, sledování televize, praní a žehlení, trénink, studium něčeho nového, úklid domácnosti, čtení novin."
    },
    "pisces": {
        "main": "V lásce dnes rádi necháte aktivitu na protějšku. Budete rádi dobýváni a sváděni. Zalichotí vám pocit, že atraktivní příslušníci druhého pohlaví usilují o vaši přízeň. Obratné lichotky by vám ale mohly zatemnit mozek, i když jindy se jim vysmíváte.",
        "love": "Začne se o vás pokoušet milostné dobrodružství. Věrnost by mohla být v sobotu ohrožena nějakým atraktivním protějškem.",
        "work": "Na utrácení vás dnes neužije. Máte penízky pěkně pod kontrolou a šetříte si na nějakou maličkost, po níž dlouho toužíte.",
        "relationships": "Jestliže budete dnes stát o to, aby se v rodině něco změnilo, tak za to budete muset vzít sami. Jinak se to určitě nehne!",
        "health": "Nemusíte mít dnes velké nároky na svůj tréninkový plán. Docela postačí zlatá střední cesta a úspěch se také dostaví.",
        "tips": "Snídaně do postele, sportování s partnerem a dětmi, rodinný výlet do přírody, vydatný spánek, milostné hrátky."
    }
}