{
    "aries": {
        "main": "Po práci zavoláte kamarádce a pozvěte ji domů na skleničku. Nebudete se ohlížet na to, že je teprve pondělí. Máte potřebu zapomenout v příjemné společnosti na všednodenní stereotyp. Jste připravení i na to, že se dospíte až o prodlouženém víkendu.",
        "love": "S protějškem si dnes dokážete donekonečna povídat o všem možném. Podobně jako v sexu nebudou ani zde platit žádná tabu.",
        "work": "Finanční situace vás nutí hodně šetřit. Do své rodiny ale klidně investujete, víte, že dokážete uspořit i někde jinde.",
        "relationships": "Blízcí nebudou sdílet vaši touhu po jarní přírodě a běhu. Doma je dnes nejspíše zanecháte v nehybné póze u televize.",
        "health": "Sil máte po víkendu dost na práci i na zábavu. Půjdete-li ovšem spát až se svítáním, zítřek v zaměstnání vám dá zabrat.",
        "tips": "Týmová práce, klábosení s kolegy a šéfem, telefonát s příbuznými, posezení s rodinou u večeře, procházka se psem."
    },
    "taurus": {
        "main": "V lásce i v práci se vám bude dařit. Pracovní úspěchy vám přinesou silné pozitivní emoce. Na své straně budete mít jak kolegy, tak nadřízené a spokojené klienty. I v soukromí s každým vyjdete na první pokus a opačné pohlaví budete vábit svým šarmem.",
        "love": "Do zaměstnání vám bude protějšek posílat žhavé zprávy. Zarazíte ho, až když vás jejich frekvence začne zdržovat v práci.",
        "work": "Od podnikavých jedinců se dnes můžete mnohé přiučit. S královskou velkorysostí vám předají své zkušenosti s cenou zlata.",
        "relationships": "Doma se nedostanete ke slovu, rodina vás zasype různými novinkami. Role posluchače vám ale po celém dni bude vyhovovat.",
        "health": "Po náročném dni vám ke klidnému spánku dopomůže partnerská masáž, která uvolní svaly. Poklesne i vaše duševní napětí.",
        "tips": "Podnikatelské aktivity, relaxační techniky, úklid a vylepšování příbytku, procházky přírodou, milostné schůzky, jóga."
    },
    "gemini": {
        "main": "Dnes se výborně vyznáte ve spletitých zákoutích mezilidských vztahů. Budete schopní uvažovat neprůstřelně logicky a přitom vidět do motivací, které druhé vedou k jejich jednání. Nic lidského vám nebude cizí. Dokážete pochopit, poradit i odpouštět.",
        "love": "Partner přijde domů se zaručenou zprávou, po pár slovech ale zpozorníte. Začnete tušit, že věc bude mít nějaký háček.",
        "work": "Musíte si uvědomit, že ne každý jedinec to s vámi myslí dobře. Své nápady a know-how si chraňte jako oko v hlavě.",
        "relationships": "Nebojte se toho, že nebudete až do poslední chvíle vědět, co s volným večerem. Zajímavý program se dnes naskytne sám.",
        "health": "Může vás obtěžovat lehká nervozita. Vybijte ji pohybovou aktivitou nebo odplavte relaxací. Jistě víte, co na vás platí.",
        "tips": "Inovativní řešení pracovních úkolů, umělecké činnosti, odborná četba, nácvik relaxačních technik, samostudium cizích jazyků."
    },
    "cancer": {
        "main": "V rodině budete považováni za přirozenou autoritu. Projeví se vaše vynalézavost. Objevíte efektivní systém vedení domácnosti, na který by mohl být hrdý každý zlepšovatel. Ušetříte všem síly, nervy a hlavně čas, který se dá využít mnohem příjemněji.",
        "love": "Nespokojenost s chováním protějšku si nenechte pro sebe. Mlčení bývá chápáno jako souhlas, tím byste nic nezměnili.",
        "work": "Hvězdy vám přihrají pracovní příležitost, která bude lépe finančně oceněna a zároveň i zajímavá. Mějte oči otevřené.",
        "relationships": "Podle Feng Shui není dobré mít doma rozbité a nefunkční předměty. Zbavte se jich, uvolníte místo pro nové, užitečné věci.",
        "health": "Důvod opakujících se bolestí hlavy dnes hledejte u krční páteře. Potřebovali byste se uvolnit při profesionální masáži.",
        "tips": "Rozhovor se šéfem o podání výpovědi, zavedení nového systému domácích prací a hospodaření, vylepšování příbytku."
    },
    "leo": {
        "main": "V zaměstnání bude dobré chovat se obezřetně a důkladně zvažovat každý krok. Vaší přirozeností je jednat spontánně a v konverzaci s klienty improvizovat. Teď ale poznáte, že bývá užitečné si složité úkony předem promyslet. Pohrajte si s přípravou.",
        "love": "Mnozí Lvi si ověří, že vztah s ženatým protějškem přináší víc starostí než radostí. Jak z toho ven, je ve hvězdách.",
        "work": "Střemhlavou aktivitou teď příliš nezmůžete. Nenaříkejte na osud a snažte se dočasnou pracovní nepřízeň důstojně přestát.",
        "relationships": "Pomoc rodinných příslušníků nebude automatická. Tam, kde ještě nedávno přiložili ruku k dílu, si musíte poradit sami.",
        "health": "Zařazujte odlehčovací den, kdy budete jíst jen ovoce a zeleninu. Tělo se zbaví tuků a škodlivin. Nezapomeňte hodně pít!",
        "tips": "Plánování pracovních úkolů, záskok za nepřítomného kolegu, přihláška k dalšímu studiu, sportování na čerstvém vzduchu."
    },
    "virgo": {
        "main": "Využijte zvýšenou energii Slunce ve znamení Býka pro posílení svých financí. Po poradě se zkušenými osobami se můžete pustit i do náročných obchodních tahů. Podnikavost se vám vyplatí, pokud se do ničeho nebudete vrhat s horkou hlavou.",
        "love": "Dostanete chuť vyrazit do jarní přírody. Partner vaše volání vyslyší a přidá se. Láskyplné štěbetání vás nabije energií.",
        "work": "I stydlivé Panny se budou v zaměstnání cítit jako doma. Nemáte zábrany navázat rozhovor s kýmkoliv, kdo vás zaujme.",
        "relationships": "Ve financích vám bude nápomocný rozvážný člen rodiny ve znamení Býka. Jeho rady vhodně vyváží vaši přehnané nadšení.",
        "health": "Běhání vám prospěje. Pro vaše klouby a páteř ale bude nejlepší, když si zaběháte po měkčím povrchu, který tlumí otřesy.",
        "tips": "Finanční kroky a investice, podnikatelské aktivity, založení spoření, jogging v přírodě, učení se s dětmi, vymýšlení her na zahradě."
    },
    "libra": {
        "main": "V zaměstnání raději nečekejte pohodový den bez stresu. Hlavně v dopoledních hodinách se zapotíte a budete muset vynaložit značné úsilí. Kvůli tlaku okolí můžete začít ztrácet přehled i hlavu. Vše bude záviset na tom, jak si dokážete určit priority.",
        "love": "Váš volný čas bude ukrácen kvůli pracovním povinnostem. Protějšek to může mrzet, doma už ale budete patřit jenom jemu.",
        "work": "Finanční stránka vám vynahradí všechny pracovní útrapy. Ohodnocení vašich schopností a výkonů bude více než štědré.",
        "relationships": "Povinnosti okolo domácnosti už budou nad vaše síly. Rodina je zvyklá na pravidelný servis, takže může reagovat mrzutě.",
        "health": "Pokud už nezvládáte stresové situace a vaše psychika trpí, zvolte přírodní léčbu. Vsaďte na bylinkové čajové směsi.",
        "tips": "Týmová práce, hádka s kolegou, vyřizování rutinních e-mailů a telefonátů, meditační cvičení, příprava zdravé večeře."
    },
    "scorpio": {
        "main": "Atmosféra ve vztahu bude plně záviset na tom, jak spolu dokážete komunikovat. O porozumění beze slov si můžete nechat jenom zdát. Vzájemné podprahové vnímání nebude fungovat, všechno si musíte říct pěkně po lopatě. Pro nemluvné Štíry to bude oříšek.",
        "love": "Nechcete-li být na partnera nepříjemní, dopřejte si před příchodem domů chvíli klidu jen pro sebe. Stres cestou vyprchá.",
        "work": "Ani v práci nebude komunikace snadná. Může vám připadat, že vás okolí přehlíží. Když se urazíte, ještě si vás vychutná.",
        "relationships": "S některými členy rodiny dnes bude domluva těžká, ba nemožná. Hlavně dospívající potomci vám můžou pořádně hnout žlučí.",
        "health": "Odpočinek večer potřebujete jako sůl. Pro vaši psychiku bude nutné odreagovat se od všech pracovních i domácích stresů.",
        "tips": "Příjemný oběd s partnerem, povídání si s blízkými a přáteli, procházky přírodou, přesazování květin, praní a žehlení, četba."
    },
    "sagittarius": {
        "main": "Měli byste se věnovat práci, která vyžaduje velkou míru samostatnosti. Zdá se, že práce v kolektivu dnes nepřinese očekávaný užitek. Právě naopak, někteří nešikovní kolegové by vás mohli rozptylovat, brzdit a odvádět od vašich vlastních záměrů.",
        "love": "Nechytejte partnera za slovo, k hádce je dnes blízko. Není příznivě naladěn a mohl by vás odměnit tichou domácností.",
        "work": "Zjistíte, že poskytování kapesného potomkům by mělo mít pevný řád. Jinak se nenaučí s financemi zodpovědně hospodařit.",
        "relationships": "Pro druhé chcete udělat maximum, klidně byste se pro ně rozkrájeli. Je ovšem otázka, zda by oni to samé udělali pro vás.",
        "health": "Začátkem týdne máte sklon přeceňovat své síly. Energii, kterou jste nasbírali o víkendu, vyplýtváte během jediného dne.",
        "tips": "Individuální činnosti, samostudium, preventivní prohlídka, kosmetické ošetření pleti pomocí domácího peelingu, relaxace."
    },
    "capricorn": {
        "main": "Slunce v Býku vás podpoří v tom, abyste o sobě v zaměstnání dali vědět. Nebojte se zveřejnit své postřehy. Zformulovat své myšlenky pro vás nebude žádný problém. Při pracovních pohovorech se dokážete skvěle prodat a stejné to bude i v osobním životě.",
        "love": "Protějšek vám představí své nové přátele, ale vy jeho nadšení sdílet nebudete. Své výtky mu ale sdělíte až v soukromí.",
        "work": "Dočkáte se uznání od kolegů, s nimiž nepřicházíte do styku každý den. Potěší vás, že se váš věhlas rozšířil tak daleko.",
        "relationships": "V rodině dnes můžete nanést jakékoliv téma a nemusíte se bát, že vzbudí rozruch. Dokážete se společně dohodnout na všem.",
        "health": "Energie vám neschází, takže se pohybu rozhodně nebudete vyhýbat. Náročné sporty teď ale oslabují váš kloubní aparát.",
        "tips": "Mezilidská komunikace, cizojazyčná konverzace, přednášky, debaty s partnerem a příbuznými, povídání s kolegy a přáteli."
    },
    "aquarius": {
        "main": "Bude se vám dařit při práci s moderními technologiemi, a to nemusíte být žádní profíci z oboru. Šanci proniknout do jejich tajů teď mají i jedinci, kteří bojují třeba s pouhým mobilem. Celkem snadno a rychle si osvojíte poznatky a postupy z této oblasti.",
        "love": "Venku partner s nelibostí okomentuje, že si můžete za druhým pohlavím hlavu ukroutit. Možná vás v tom ale ještě předčí.",
        "work": "Dnes vás extrémně baví přicházet věcem na kloub. Potřebujete intelektuálně stimulující úkoly, každá rutina vás ubíjí.",
        "relationships": "Rodinné, dlouho se táhnoucí problémy, vám dnes přijdou hloupé. Zkuste spolu najít kompromis, se kterým budou všichni souhlasit.",
        "health": "Do dnešního programu nezapomeňte zařadit také celkovou relaxaci. Nabraná energie se vám v dalších dnech bude hodit.",
        "tips": "Výlet do přírody, výběr vzdělávacích kurzů, práce s počítačem a moderními technologiemi, samostudium, zpěv."
    },
    "pisces": {
        "main": "Hvězdy vás obdarují zvýšeným milostným charismatem i sebevědomím. Pro opačné pohlaví se budete cítit přitažlivější. Nebudete pro to muset hnout ani prstem, postačí pouze svůdný pohled nebo úsměv. Obdivovatelé se dnes kolem vás budou jenom rojit.",
        "love": "Obdiv příslušníků opačného pohlaví vás může zaslepit. Snadno přehlédnete jasné známky toho, že něco není v pořádku.",
        "work": "Mezi vámi a blízkými kolegy panuje pohoda, z níž profitují všichni zúčastnění. Cítíte, že zde se falše bát nemusíte.",
        "relationships": "Všichni s vámi nehrají tak čistou hru, jak by se zdálo. Někteří jedinci by svým zájmem o vás rádi získali jisté výhody.",
        "health": "Vaše celková pohoda závisí na tom, jak se stravujete. Po těžkém jídle se budete cítit těžkopádní fyzicky i psychicky.",
        "tips": "Zaučování a školení spolupracovníků, domácí úklid, výběr a nákup nové četby, posezení s knihou na zahradě, meditace."
    }
}