{
    "aries": {
        "main": "Možná se vám bude chtít vyrazit spíše za zážitky než někde bloumat po nákupních centrech. A v případě, že zatoužíte po zhlédnutí filmu v kině, zkuste se podívat, zda ve vašem okolí není letní kino nebo autokino. To navodí správnou retro atmosféru.",
        "love": "Vám nehrozí, že byste si někoho nezískali. Naopak k sobě vábíte ostatní jako můra k lampě, protože jsou fascinováni vaším sex appealem.",
        "work": "Nemáte problém do něčeho zainvestovat, protože nyní sobě nebo někomu milému chcete dělat radost. To je chvályhodné.",
        "relationships": "Jestliže jste dlouho nebyli v letním kině, najděte nějaké a vyrazte. Mohou se vám vrátit nějaké pěkné vzpomínky na zážitky z dětství.",
        "health": "Do jídla si přidejte více čerstvých surovin. Průmyslově zpracované produkty nejsou zrovna výživově hodnotné a chutné.",
        "tips": "Dopoledne na farmářském trhu s rodinou, výroba ovocného likéru, badminton, lukostřelba, sledování seriálu online."
    },
    "taurus": {
        "main": "Změna prostředí je přesně to, co dnes potřebujete. Zaměřte se ale hlavně na zážitkové akce. Na vesnické pouti se můžete hezky pobavit s přáteli nebo rodinou, a sladkostí si domů také pár přinesete. Laskominy si můžete užít také na trzích nebo degustacích.",
        "love": "Pokud se rozhodnete dnes připojit k někomu a prožít zajímavý den mimo domov, je to správně. Potřebujete změnu prostředí.",
        "work": "Určitě dnes můžete nějaké korunky utratit při nákupu na trhu nebo při zábavě s rodinkou. A nebudete vůbec litovat.",
        "relationships": "Dobrý nápad je dnes vyrazit s rodinou na nejbližší vesnickou pouť, hudební nebo divadelní festival. Potřebujete zábavu.",
        "health": "Zlobit vás dnes může zažívání, hlavně kvůli tomu, že doslova splácáte vše, co potkáte. Jezte skromněji a nic se nestane.",
        "tips": "Výroba domácí zmrzliny, poslech gramofonových desek, registrace ve výtvarném kurzu, posezení s přáteli u táboráku."
    },
    "gemini": {
        "main": "Vaše nálada dnes bude spíše samotářská a přemýšlivá. Do společnosti a za zábavou se vám chtít nebude, raději byste se uhnízdili s dobrou knížkou na gauči. Poslechněte své pocity a nenechte se nutit do něčeho, co vám nesedí. Přetvařovat se opravdu neumíte.",
        "love": "Nemáte náhodou něco domluveného s kamarády? Pokud se vám nikam nechce, řekněte jim to hlavně včas, ať jim nekazíte plány.",
        "work": "I když začínají prázdniny a vše láká k výletům, vy si dnes asi rádi spočinete doma, v klidu. Na zábavu vám postačí film nebo knížka.",
        "relationships": "Určitě víte, co od rodinného života očekáváte. A to je klid a pohodová zábava. Dnes to může být kino a odpoledne s rodinou.",
        "health": "Na farmářském trhu najdete sice spoustu lahůdek, ale přesto si dávejte pozor na to, jaké a od koho budete konzumovat.",
        "tips": "Romantická procházka s partnerem, fotografování v minizoo, houbaření, posezení u řeky, návštěva divadelního představení."
    },
    "cancer": {
        "main": "Svému potenciálnímu novému protějšku máte co nabídnout. Přestaňte se tedy podceňovat a věřte si. Nesmíte se také neustále srovnávat s ostatními. Jste originál a to je dobře. Nebojte se toho, že by vás někdo nedocenil. Uvidíte, že budete překvapení.",
        "love": "Využívejte více svých předností. A nejen těch fyzických, ale i těch mentálních. Máte ostatním co nabídnout. Směle do toho.",
        "work": "Nepříjemného překvapení se můžete dočkat v záležitosti, kterou jste považovali dávnou za uzavřenou. Musíte se tomu věnovat.",
        "relationships": "Pokud se vám podaří zrealizovat alespoň některý z vašich původních plánů, budete rádi. Nakonec vám to bude stačit.",
        "health": "Vynechte dnes ze své stravy tučná jídla, především ta z české kuchyně. Snažte se tělu raději dodat potřebnou vlákninu.",
        "tips": "Oběd v oblíbené pizzerii, pořízení nového drobného nábytku, servis elektrokola, grilování s přáteli v přírodě, hra na kytaru."
    },
    "leo": {
        "main": "Jistou formou relaxu a uvolnění jsou pro vás dnes nákupy. Protože hluboko do kapsy momentálně nemáte a toužíte žít naplno, dopřejete si. I tak si ale po očku hlídejte výdaje, ať neskočíte rychle do červených čísel na účtech. Takové problémy nechcete.",
        "love": "Pokud si potřebujete uspořádat myšlenky, je možné, že si dnes uděláte den jen pro sebe. Po společnosti ostatních nezatoužíte.",
        "work": "Moc starostí s financemi si neděláte, máte něco naspořeno, a tak lehce sáhnete do peněženky a koupíte si to, co vás napadne.",
        "relationships": "Dávejte si dobrý pozor při sportu a neriskujte. Také mějte pod dohledem své děti, které mohou dělat vylomeniny.",
        "health": "Udělejte si doma čerstvou ovocnou limonádu. Využijte k tomu suroviny, které mají původ v naší zemi a jsou v bio kvalitě.",
        "tips": "Organizování třídního srazu, pořízení permanentky do fitness centra, hledání dovolené v tuzemsku, odpoledne u vody."
    },
    "virgo": {
        "main": "Sobota přímo vybízí k tomu, abyste čas prožili po boku těch, ke kterým máte nejblíž. Může to být rodina, ale i dobří přátelé a kamarádi. Program, který mají ostatní v plánu, zní dobře a dost lákavě. Tak se přidejte a užijte si společné zábavy.",
        "love": "Dnes vás nezklamou přátelé, kteří si připravili zajímavý program. Můžete s sebou také přibrat svého miláčka, pokud o to stojí.",
        "work": "Dobře a zodpovědně nakládat s rodinnými financemi se vám dnes dařit nebude. Raději předejte peněženku partnerovi.",
        "relationships": "Sobotní den může mít několik podob. Především jej ale prožijte pohromadě s těmi, které máte rádi a vážíte si jich.",
        "health": "Svým dětem jistě vylepšíte dnešní den domácí zmrzlinou. Dejte na jejich chutě a suroviny používejte výhradně čerstvé.",
        "tips": "Poslech oblíbené hudby, kolektivní sporty s přáteli, hledání letního přivýdělku nebo brigády, oblíbené wellness."
    },
    "libra": {
        "main": "Jakmile uslyšíte od někoho velkorysá prohlášení a sliby, hned vám v hlavě začnou blikat varovné kontrolky. Moc dobře víte, že takový člověk není spolehlivý ani zodpovědný. Udržte si odstup, abyste se znovu nespálili. Uvidíte, že to půjde skoro samo.",
        "love": "Udržujte si zdravý rozum a odstup, pokud vám někdo slibuje modré z nebe. Víte, že pokud uvěříte všemu, můžete se lehce spálit.",
        "work": "Máte dnes velké štěstí na super ceny v obchodech. Pokud potřebujete udělat velký nákup, v sobotu je ten správný den.",
        "relationships": "Dost by vám pomohla pomoc příbuzných v jisté komplikovanější situaci, ale bohužel se k tomu nikdo z nich nemá.",
        "health": "Pokud dnes vyrážíte na houby či na borůvky, bude třeba se chránit před parazity a klíšťaty vhodným repelentem a oděvem.",
        "tips": "Vědomostní a deskové hry, nákup vodních hraček pro děti, výroba domácí zmrzliny, projížďka na šlapadlech s kamarády."
    },
    "scorpio": {
        "main": "Hlavu vám zaberou jednoznačně myšlenky na osobu, která vás naprosto uchvátila svým vzhledem. Nebudete na toho člověka moct přestat myslet, dokud se s ním nesetkáte. Vaše touhy budou neovladatelné, tak jak je u zrozenců vašeho znamení zvykem.",
        "love": "Jakmile se ve vaší blízkosti vyskytne jistá atraktivní osoba, nebudete se moct ovládnout a neustále na ni budete myslet.",
        "work": "Dnes vás mohou celkem slušně rozčílit platby, které se na vaši domácnost valí. Rostoucí ceny všeho kolem jsou nepříjemné.",
        "relationships": "Cyklovýlety po naší zemi mohou být báječným způsobem, jak poznat co nejvíce památek a krás. Děti se mohou naučit mnohé.",
        "health": "Odpolednem u vody dnes nic nepokazíte. Tělo vystavte vstříc slunečním paprskům, ale přesto nezapomínejte na sluneční brýle.",
        "tips": "Příprava cizokrajných dezertů, designové úpravy v domácnosti, nákup balkonového nábytku, turnaj v pokeru s kamarády."
    },
    "sagittarius": {
        "main": "Pravděpodobně se dočkáte velkého zklamání, protože se nepovede uzavřít obchod, na který jste se dlouho připravovali. Na vině bude zřejmě nedostatek financí na vaší straně. Pokuste se na nastalou situaci podívat z jiného úhlu pohledu a uklidnit se.",
        "love": "Objeví se jisté náznaky toho, že byste se mohli se svým miláčkem konečně dobrat společné dohody a očekávaných kompromisů.",
        "work": "Rádi byste zřejmě investovali do domluveného obchodu, ale nemáte dostatek potřebných financí. Bude třeba to bohužel odložit.",
        "relationships": "Vaše ratolesti mohou mít díky vám a vašim originálním nápadům opravdu skvělé zážitky. Vzpomínat na ně budou dlouho.",
        "health": "Čerstvé léčivé bylinky mají svůj význam v kuchyni i v domácí lékárně. Máte-li možnost, ještě si nějaké zasaďte za okno.",
        "tips": "Romantická procházka v parku, výroba bylinného sirupu, studium ikebany, kolektivní sporty s přáteli, koupání v přírodním toku."
    },
    "capricorn": {
        "main": "Problémy ve vztahu budou pravděpodobně i finančního charakteru. Pokud máte s partnerem společný účet, moc radosti vám jeho zůstatek nedělá. Připravte se ale na to, že váš protějšek s vámi o svém utrácení nebude chtít mluvit. Bohužel s tím nic nenaděláte.",
        "love": "Rozčílit vás může rozhazovačnost vašeho partnera. Rádi byste usměrnili jeho choutky utrácet všude, kde se dá.",
        "work": "Děsíte se toho, že by si na vás někdy brousil zuby exekutor. Proto si dnes překontrolujete vše, co máte platit a co už ne.",
        "relationships": "Máte-li před sebou řešení nějakých rodinných záležitostí, určitě se nemusíte ničeho bát. Vše zvládnete na jedničku.",
        "health": "Zeleninové saláty vám dost dobře dochutí nejrůznější směsi ořechů a semínek. Uvidíte, že vám budou chutnat všechny varianty ořechů.",
        "tips": "Jóga s přáteli v parku, četba letního detektivního románu, rámování rodinných fotografií, návštěva vesnické pouti."
    },
    "aquarius": {
        "main": "Možná jste právě ukončili vztah, ale váš partner se z toho ještě neoklepal. Nezavdávejte mu příčinu, aby si na vás mohl vybít negativní emoce. Dejte si pozor na to, aby se po vašem boku zatím neobjevoval nový nápadník, než opadnou první dojmy.",
        "love": "Pokud si budete hledat někoho jiného, dávejte si dobrý pozor, aby se váš odvržený partner nic nedozvěděl. Bylo by to náročné.",
        "work": "Finanční problémy vám mohou hodně komplikovat život. Bude třeba, abyste se o nich poradili s odborníkem. Nebude to jednoduché.",
        "relationships": "Posezení na farmářském trhu je pro vás skoro povinnost. Také dnes si můžete dopřát mnoho vašich oblíbených lahůdek.",
        "health": "Přednost by dnes měly dostat doma vyrobené limonády s ovocem a bylinkami. Ostatní slazené průmyslové nápoje jsou škodlivé.",
        "tips": "Nákup plavek a plážového oblečení, pořízení zahradních hraček pro děti, zavařování ovoce a zeleniny, minigolf, pétanque."
    },
    "pisces": {
        "main": "Pokud se dnes rozhodnete k radikálním krokům v mezilidských vztazích, budete muset mít pevnou vůli. Není to jednoduché a můžete se tím dost trápit. Ale věřte, že pokud ukončíte toxický vztah, bude to pro vás dobře. Postupem času si to uvědomíte.",
        "love": "Některým z vás se asi uleví, když ukončí nevyhovující a destruktivní vztah. Jako by vám spadl kámen z krku. Nebude to snadné.",
        "work": "Nenechte se donutit k nějakému zbytečnému nákupu. Pokud odoláte naléhání prodejce, ušetříte si dost peněz a nervů.",
        "relationships": "Den prožitý venku s poznáváním něčeho nového a získávání informací, to vás bude bavit. Doma byste se již nudili.",
        "health": "Nemusíte se trápit a klidně si dejte nějakou tu skleničku alkoholu. Dejte si ale pozor na množství a také kombinace.",
        "tips": "Návštěva u starších příbuzných, pořízení vstupenek na veletrh, ruční mytí automobilu, výlet vlakem, odpoledne na minigolfu."
    }
}