{
    "aries": {
        "main": "Bude to ještě trochu drhnout mezi vámi a vašim okolím. Máte pocit, že děláte pro ostatní mnohem víc než oni pro vás. Proto mohou být některé jejich kroky pro vás zklamáním. Neměli byste ale soudit hned a napoprvé. Na kritiku máte ještě dost času.",
        "love": "V mezilidských vztazích někdo nebude jednat tak, jak jste si původně představovali. Nebude to pro vás jednoduché přijmout.",
        "work": "Držte se úkolů, které jste si předsevzali a neustupujte z cesty. Řešení je i přes mírné komplikace před vámi. Zvládnete to.",
        "relationships": "Zřejmě vám doma něco vadí na interiéru, a tak se rozhodnete to změnit. Asi na to ale zůstanete sami. Nikdo nemá chuť pracovat.",
        "health": "Hořčík je důležitým prvkem, který tělu pomáhá zbavovat se křečí a podporuje správnou funkci srdce. Doplníte ho z ořechů.",
        "tips": "Nový pracovní projekt, příprava obchodní prezentace, ruční čištění automobilu, grilování s kamarády, wellness."
    },
    "taurus": {
        "main": "Jestliže se vám podaří se odpoutat od všech dosavadních půtek a nedorozumění s příbuzenstvem, bude to pro vás jedno velké plus. Nálada v rodině se může rapidně změnit k dobrému a všem se tedy pořádně uleví. Zamyslete se nad tím, stojí to za snahu.",
        "love": "Nebojte se být více sami sebou a otevření novým poznáním. Prohloubí se tak city mezi vámi a současným partnerem.",
        "work": "Sice byste nejraději řekli naplno, jak vás to v práci štve, ale dnes to ještě nebude. Zkuste se přenést přes potíže.",
        "relationships": "Pokuste se hodit za hlavu dnes všechny rozpory, které máte s příbuznými. Vaše nálada se odráží na chování k ostatním.",
        "health": "Pokud trpíte nesnášenlivostí laktózy, vyzkoušejte rostlinná mléka. Mandlové je skvělou alternativou a navíc skvěle chutná.",
        "tips": "Nákup sportovního oblečení pro děti, kontrola cestovních zavazadel, práce na sociální sítích, prodej zboží přes internet."
    },
    "gemini": {
        "main": "Nesnižujte se za žádnou cenu k tomu, abyste svému protějšku prohledávali soukromou konverzaci na mobilním telefonu či v počítači. Podle všeho totiž není důvod k podezírání. To jen vaše nemalá fantazie vám v hlavě vytváří nebezpečné domněnky a scénáře.",
        "love": "Zapomeňte na to, že byste svému partnerovi prohledávali mobil nebo e-mail. Nemáte k tomu především ani žádný důvod.",
        "work": "K dobrým výsledkům ve vašem pracovním snažení napomáhá také velmi hezká a milá atmosféra na pracovišti. Jste za to vděční.",
        "relationships": "Mezi odpočinkové aktivity můžete dnes počítat i péči o svůj rozvoj nebo zevnějšek. Buďte v tomto ohledu sobečtí.",
        "health": "Pro to, aby vám střeva fungovala správně, potřebuje vaše tělo více vlákniny. Celozrnné pečivo by mělo být samozřejmostí.",
        "tips": "Procházka s přáteli, posezení v oblíbené pizzerii, ruční a kreativní práce, odpoledne u řeky, sportování v přírodě."
    },
    "cancer": {
        "main": "Díky vašim zkušenostem a odvaze si dnes troufnete na opravdu zapeklité pracovní projekty. Pokud jste navíc šéf, tak k vám budou vaši podřízení kolegové jen vzhlížet. Vaše konstruktivní rady a pracovní postupy jim ušetří mnoho práce. Výsledky budou skvělé.",
        "love": "Váš nový idol vás může pouze nabíjet pozitivní energií a nadějí, že mezi vámi je to v naprostém pořádku. To je skvělé.",
        "work": "Nedělá vám problém dnes zabrat a vzít si na starosti složitější úkoly. Jako vedoucí týmu jste uznávaní pro vaše zkušenosti.",
        "relationships": "Rodinku nebudete muset přemlouvat k tomu, aby se s vámi zúčastnila nějaké společenské akce. Naopak pozvánku přivítají.",
        "health": "Ledviny byste měli udržovat dnes v dobré kondici, především tedy dodržováním správného pitného režimu. Je třeba je čistit.",
        "tips": "Kontrola odvedené práce, projížďka na paddle boardu, návštěva festivalu, kontrola soukromých e-mailů, čištění nábytku."
    },
    "leo": {
        "main": "Nemusíte se stydět za to, že toužíte po pomstě a spravedlnosti. Jen to nežeňte až do krajností. To by se opravdu nemuselo vyplatit a vy byste na svou ješitnost mohli dojet. Pokud budete jednat na rovinu, ale zmírníte rétoriku, kdosi vás nečekaně podpoří.",
        "love": "I přesto, že máte obrovskou touhu po pomstě, nedělejte to. Vše špatné, co vyšlete, se vám také ve zlém vrátí. Myslete na to.",
        "work": "Dost by vám pomohlo, kdybyste si udělali od jisté situace odstup a nebyli v ní tolik emočně zainteresovaní. Nebudete chybovat.",
        "relationships": "Dejte šanci svým vizím a předneste doma, co máte za nápady. Možná najdete u někoho nečekanou podporu a zastání.",
        "health": "Ořechy nebo mandle konzumujte v přirozené podobě, nikoliv pražené či solené. Jedině tak vašemu tělu udělají službu.",
        "tips": "Nákup rybářského náčiní, golf, odpoledne v aquaparku, sledování oblíbené krimi, četba nových knížek, opalování."
    },
    "virgo": {
        "main": "Potěší vás to, jak s vámi komunikuje váš nadřízený. Je vidět, že jeho důvěra ve vaše schopnosti je zpět a vy se opět můžete radovat z upřímného a otevřeného vztahu. To znamená, že i vy jste na sobě dost zapracovali a jste zodpovědnější víc než dřív.",
        "love": "Sebevědomí vám dodávají pochvaly od vašeho miláčka za to, jak se k němu chováte a jak se staráte. Je vidět, že vše klape.",
        "work": "I přestože z posledních dní nemáte příliš dobrou pověst u nadřízeného, máte stále dost šancí, jak vše vylepšit a napravit.",
        "relationships": "Doma vám dnes bude nejlépe. Nechce se vám opouštět vaše milé jen kvůli pozvánkám do společnosti přátel nebo známých.",
        "health": "Pravidelný pohyb pomáhá vašemu trávicímu traktu víc, než si myslíte. Navíc skvěle tonizuje a prokrvuje vaše svaly.",
        "tips": "Hraní na nové hudební nástroje, sportovní aktivity s dětmi v přírodě, péče o domácí mazlíčky, luštění rébusů a hádanek."
    },
    "libra": {
        "main": "V zaměstnání se celkem jednoduše můžete dopustit malého trapasu. Naštěstí nejste tak upjatí, abyste z toho dělali drama. Naopak se tomu s kolegy od srdce zasmějete. V dobrém se tak díky tomu také předvedete jako obyčejný člověk se smyslem pro humor.",
        "love": "Nechte vše přirozeně plynout a nic nehroťte. Uvidíte, že se vám uleví, jakmile pustíte otěže z rukou a nebudete vše hlídat.",
        "work": "Pokud se dnes dopustíte nějakého přešlapu v práci, tak se tomu tak maximálně zasmějete a nebudete z toho dělat drama.",
        "relationships": "Dnes si vyjděte do kina. Ať už do letního, či do běžného. Jistě máte svůj seznam filmů, které chcete nyní vidět.",
        "health": "Ořechy a mandle jsou perfektním zdrojem vlákniny a potřebnými látkami. Oceníte je jako malé svačinky během dne.",
        "tips": "Kreativní a výtvarné techniky, malování olejovými barvami, sledování sociálních sítí, práce na zahradě, opalování."
    },
    "scorpio": {
        "main": "Na nového miláčka nesmíte tolik spěchat a tlačit. Poslouchejte pozorně, co vám o sobě vypráví, a buďte zdrženliví v pokládání otázek. Raději si nechte prostor na to, abyste se mohli dobře vzájemně poznat. Svou nedočkavostí byste ho mohli jen vyděsit.",
        "love": "Na první schůzce s novým objevem buďte zdrženlivější a naslouchejte. Nepospíchejte s otázkami a snažte se protějšek poznat.",
        "work": "Musíte se ovládat i dnes. Kdokoliv nechápe zadání úkolu, pro toho máte pramalé pochopení. Dejte si pozor na každé slovo!",
        "relationships": "Rádi byste si doma prosadili svou, i přestože někteří z rodiny jsou jiného názoru. Zkuste najít společný kompromis.",
        "health": "Dnes i zítra bude vaší hlavní starostí dobře pečovat o svůj trávicí trakt. Chce to více pohybu a střídmější stravy.",
        "tips": "Výroba letních dekorací do domu, péče o okrasné rostliny, sběr bylinek, koupání v řece, návštěva letního kina."
    },
    "sagittarius": {
        "main": "Jste velmi přátelsky orientovaní, a tak vám nedělá problém komukoliv podat pomocnou ruku. Jen bude těžké si vybrat společnost přátel pro dnešní den. Nejraději byste si vyrazili se všemi dohromady, ale to bohužel nejde. Musíte si dobře vybrat.",
        "love": "Jestliže si dnes máte vybrat, s kým budete trávit den, tak si nebudete skoro vědět rady. Přátel máte opravdu hodně.",
        "work": "Pokud si někdo z vašich kolegů v práci vyžádá vaši pomoc, naprosto samozřejmě mu ji poskytnete. Jde o společný výsledek.",
        "relationships": "Pokud jste objevili nové hobby, nebudete se ho chtít jen tak vzdát. Rodina bude mít kupodivu tentokrát velké pochopení.",
        "health": "Vypijte ráno sklenici vlažné vody, do které přidáte čerstvou citronovou šťávu. Uvidíte, jak skvěle upraví pH v těle.",
        "tips": "Aromatické masáže, plánování dovolené v zahraničí, hraní na hudební nástroj, zpěv, táborák s rodinou nebo přáteli."
    },
    "capricorn": {
        "main": "Váš partner zřejmě sahá daleko častěji a hlouběji do společné kasy než vy. A protože vás to rozčiluje, rádi byste tomu učinili přítrž. Bohužel nemáte šanci ani o tom společně hovořit, miláček se před tímto rozhovorem a vámi doslova schovává.",
        "love": "Zlobit vás může partnerova míra rozhazovačnosti vašich společných financí. V této nejisté době máte obavy o budoucnost.",
        "work": "Využijte toho, že můžete přednést nadřízenému nějaké své nápady. Ne všechny se chytnou, ale některé přece ano. Což je skvělé!",
        "relationships": "Zjistíte, že vám dělá opravdu dobře nějaká pohybová aktivita. Můžete se spojit s rodinkou a jít se hýbat společně.",
        "health": "Abyste se udrželi v dobré fyzické kondici, je třeba se dobře a zdravě stravovat a také dodržovat pitný režim.",
        "tips": "Nové vodní sporty, badminton, opalování, pečení sladkého koláče, zavařování zeleniny a hub, italská kuchyně, tanec."
    },
    "aquarius": {
        "main": "Mnozí z vás pocítí naprostý zmar nad tím, jakým směrem se vyvíjí váš vztah. Protože jste již mnohokrát sáhli do svých citových rezerv a dali partnerovi ještě šanci, jste nyní u konce sil. Budete si muset dobře rozmyslet, zda a jak budete pokračovat dál.",
        "love": "Jistě jste již vašemu vztahu dávali mnoho šancí na nápravu po krizích. Není divu, že začínáte vážně přemýšlet o rozchodu.",
        "work": "Udělejte si dobrý časový harmonogram, abyste věděli, kdy a jaký úkol odevzdáte. Můžete si také požádat o pomoc kolegy.",
        "relationships": "Nic nepřehánějte, a to ani sporty. Mohli byste si zbytečně ublížit při nějakém riskantním adrenalinovém sportu.",
        "health": "Vitamin C spolehlivě doplníte ze sezonního ovoce. Dopřejte si čerstvý rybíz nebo angrešt. Čistí krev a posilují cévy.",
        "tips": "Sledování sportovního přenosu s přáteli, hraní karetních her, odpoledne na vesnické pouti, příprava na dovolenou."
    },
    "pisces": {
        "main": "Vy můžete mít, na rozdíl od jiných znamení, radost. Tedy v milostném životě. Tam se vám fantasticky daří a vy jste nadšení. Podařilo se vám spojit dohromady s někým, kdo má stejné představy o lásce a společném soužití jako vy. Mohlo by se zadařit.",
        "love": "Máte vedle sebe člověka, který stejně jako vy nestojí o povrchní a krátkodobý vztah. Jste na začátku něčeho výjimečného.",
        "work": "Díky uvolněné atmosféře na pracovišti se vám daří také báječně zvládat vše, co jste si předsevzali. Domů půjdete spokojení.",
        "relationships": "Nebojte se dnes nějaké domácí práce svěřit také vaším dětem. Jistě už toho zatanou docela dost a můžete jim věřit.",
        "health": "Cvičením na uvolnění hrudní páteře dopřejete plicím dostatek prostoru na příjem vzduchu. Správné dýchání procvičujte.",
        "tips": "Turnaj v bridži, sepisování domácích receptů, kontrola rozpočtu za rodinu, telefonát s bývalým spolužákem, rande."
    }
}