{
    "aries": {
        "main": "Závěr týdne bude probíhat ve znamení zážitků z minulosti. Něco ve vás probudí téměř zapomenuté vzpomínky na neúspěšný vztah a nemusí to být právě příjemné myšlenky. Je načase dát expartnerovi sbohem a vykročit se vztyčenou hlavou vstříc nové lásce.",
        "love": "Nebojte se o svých pocitech mluvit nahlas. Byť byste dnes riskovali samomluvu, pomůže vám to utřídit si zmatené myšlení.",
        "work": "Ani v neděli se nevyhnete nečekaným výdajům. Hlavně domácnost spolyká víc financí, než jste si vůbec dokázali spočítat.",
        "relationships": "Přemýšlíte nad tím, jakých chyb a křivd jste se na svých nejbližších dopustili. Dnes jim to budete chtít vynahradit.",
        "health": "Mohou vás zaskočit nepříjemné bolestivé opary a afty. Nesnažte se je léčit zvenku. Jde hlavně o psychosomatický problém.",
        "tips": "Objednání podzimního someliérského kurzu, práce na zahradě, grilování s přáteli, nákup školních potřeb, čtení."
    },
    "taurus": {
        "main": "Své rodiče v neděli něčím příjemným překvapíte. Zatímco někteří Býci mají v rukávu pár hmotných radostí, jiní se pochlubí očekáváním dalšího přírůstku do rodiny. Ať tak či tak, společné setkání proběhne na výbornou. S příbuznými si opět rozumíte.",
        "love": "Seznámení partnera s rodinou bude ohromnou událostí. Trošce nervozity se nevyhnete, ale hvězdy slibují hladký průběh.",
        "work": "Pro druhé byste se dnes rozkrájeli a vydali klidně z poslední koruny. Měli byste si ale dát pozor, aby vás nevyužívali.",
        "relationships": "Oběd s rodinou odstartuje skvělou neděli. Můžete v domácnosti vyřešit mnoho nedorozumění. Všechno bude tak, jak má být.",
        "health": "Prožíváte maximálně spokojené období. Máte dost energie a neschází vám skvělá nálada. Optimismus vás drží nad vodou.",
        "tips": "Návštěva muzea nebo výstavy, rodinný výlet za kulturou, péče o rostliny, pozvánka rodičů na společný oběd, diskotéka."
    },
    "gemini": {
        "main": "V neděli se staráte pouze o své potíže a nepřínosné rozhovory s blízkými vám nic neříkají. Figurujete proto jen jako nezávislý pozorovatel a do debat se nebudete pouštět. Na druhé působíte nadřazeným dojmem, byť se k nim chováte přátelsky a chápavě.",
        "love": "Vztah na dálku vás ničím neuspokojuje. Najednou se vám zdá, že v lásce chcete něco jiného. Je třeba o tom začít mluvit.",
        "work": "Jednání s obchodními partnery přinese pozitivní výsledek. Dnes spojíte příjemné s užitečným a navážete nové kontakty.",
        "relationships": "Na příbuzenstvo nebudete mít pro své pracovní aktivity příliš času. Trochu vás zamrzí, že nedělní zábava jde mimo vás.",
        "health": "Při výletu do přírody si nezapomeňte přibalit repelent. Vyhnete se poštípání všudypřítomným hmyzem i návštěvě klíšťat.",
        "tips": "Organizace oslavy, rozjezd vlastního podnikání, výlet do přírody, nákup na farmářských trzích, golf, wellness služby."
    },
    "cancer": {
        "main": "Mars stojící ve Vahách dá příležitost vyniknout vašim vůdčím schopnostem. Dnes bude jasné, kdo je skutečnou hlavou rodiny, a ať půjde o práci, či zábavu, budete mít mezi příbuznými hlavní slovo. Ráznější jednání vám svědčí. Nikdo si nedovolí protestovat.",
        "love": "Na chatu nebo internetové seznamce můžete najít sympatický protějšek. Nesmí vám však záležet na vzhledu, ale na srdci.",
        "work": "Nákup nové elektroniky do domácnosti vám provětrá kapsu víc, než jste počítali. Bude třeba se na pár týdnů uskromnit.",
        "relationships": "Nemůžete si stěžovat na nedostatek pozornosti. Právě naopak. Dveře se dnes u vás netrhnou. Jste vyhledávanými hostiteli.",
        "health": "Na dovolenou přibalte kvalitní opalovací krém. Při dlouhém pobytu na slunci vám hrozí spáleniny či nepříjemná kopřivka.",
        "tips": "Hlídání sourozencových potomků, rybaření, kutilství, rezervace vstupenek na divadelní představení, squash s kamarády."
    },
    "leo": {
        "main": "Od rodinných příslušníků dnes očekáváte více uznání za své pracovní snahy a úspěchy. Nikdo se však neodhodlá k tomu, aby vám složil poklonu, a to vás znechutí a zamrzí. Ve skutečnosti by ale druhé nenapadlo, že potřebujete slova chvály vůbec slyšet.",
        "love": "Přátelé jsou pro vás vším a vždy si vážíte jejich názoru. Jen pozor, abyste nenarazili u partnera. Poraďte se i s ním!",
        "work": "Díky své zručnosti ušetříte nemalou sumu do rodinného rozpočtu. Spoustu věcí si dnes s příbuznými uděláte svépomocí.",
        "relationships": "Špatně vycházíte s lidmi bez špetky fantazie a humoru. V duchu je označujete jako suchary a vyhýbáte se jim obloukem.",
        "health": "Víte, co musíte udělat pro to, aby se vaší psychice ulevilo. Dnes se při plánování programu řídíte podle svého těla.",
        "tips": "Sraz s bývalými spolužáky, péče o domácí mazlíčky, výsadba bylinek, samostudium, táborák s dětmi, zpěv, moderní tanec."
    },
    "virgo": {
        "main": "V lásce dostanete během neděle příležitost volby. Zadaní jedinci si mohou užít nezávazný románek nebo se stát součástí milostného trojúhelníku. Ani svobodné Panny ovšem nezůstanou pozadu a bude záležet pouze na tom, co od partnerství očekáváte.",
        "love": "Mohly by se ozvat nějaké nedořešené potíže z minulosti, které by ovlivnily váš současný vztah. Raději je nepodceňujte.",
        "work": "Máte šanci pořádně zapracovat na svém kariérním kreditu. Získání nových zkušeností i znalostí vám dnes půjde lehce.",
        "relationships": "Rozvedená manželství si dnes užijí víkendovou péči o ratolesti. Snažíte se připravit pokud možno co nejlepší program.",
        "health": "Dejte si pozor na nevítané hmyzí návštěvníky a nechte se včas očkovat. Dnes vás pouze dostatečné oblečení neochrání.",
        "tips": "Kontakt s příbuznými, oslava pracovních úspěchů, jízda na inline bruslích, přestavba interiéru, adrenalinový sport."
    },
    "libra": {
        "main": "V lásce a milostných vztazích se dnes nevyplatí dělat razantní změny. Ačkoliv si myslíte, že máte ve všem jasno, později byste svých kroků litovali. Počkejte, až vychladnete, a poslechněte své srdce. To vám radí mnohem šťastnější cestu než rozum.",
        "love": "Setkání s přáteli vám poskytne skvělou příležitost k psychickému odpočinku. Nebude čas na stěžování ani na přemýšlení.",
        "work": "Přátelé vám umožní přivydělat si nějakou tu korunu navíc. Pokud se neštítíte práce, značně svému rozpočtu přilepšíte.",
        "relationships": "Celé rodině prospěje nedělní odpočinek bez větších plánů. Necháte čas plynout tak, jak přijde, a uvidíte, co přinese.",
        "health": "Je vhodná konstelace k tomu, abyste zatočili se závislostmi. Kouření a špatná životospráva se v těchto dnech rozplynou.",
        "tips": "Přehodnocení hospodaření domácnosti, otevřený rozhovor s partnerem, hledání občasného přivýdělku, houbaření, tenis."
    },
    "scorpio": {
        "main": "Jupiter v Býku pomůže začínajícím podnikatelům. Ani o víkendu byste neměli zahálet. Naopak se snažte soukromé záležitosti využít ku prospěchu svého zaměstnání. Na golfu nebo při společenských událostech dnes můžete navázat zajímavé známosti.",
        "love": "Kamarádi vám dnes připadají malicherní a příliš materiálně založení. Vy se zabýváte mnohem hlubšími životními hodnotami.",
        "work": "Při nákupu potravin dejte pozor na jejich kvalitu. Dnes byste mohli koupit zajíce v pytli a na reklamaci bude pozdě.",
        "relationships": "Tlachání o ničem dnes není pro vás. Raději se před okolím zavřete do tepla svého domova a užijete si hnípací neděli.",
        "health": "Do formy se dostanete díky pravidelnému a přirozenému pohybu. Dnes se však zatím nalaďte do pohody ve wellness centru.",
        "tips": "Výlet za krásami přírody, pěší turistika, projížďka na koni, rybaření, ochutnávková akce, vyvolávání fotografií, golf."
    },
    "sagittarius": {
        "main": "Rozčílí vás, když se situace nebude vyvíjet podle vašeho plánu. Hlavně v oblasti bydlení nejdou věci tak rychle, jak jste si představovali. Rekonstrukce bydlení ani stěhovaní nenabírají bleskové tempo. To vás zbytečně rozladí na celý zbytek dne.",
        "love": "Ustrnete pouze na svých problémech, takže vám na druhé nezůstává dostatek času a pozornosti. Dnes žijete jen pro sebe.",
        "work": "Je třeba rozvážit, zda chcete všechno hned, nebo si chvíli počkáte. V prvním případě musíte sáhnout hlouběji do kapsy.",
        "relationships": "Svůj vztek byste si mohli začít vybíjet na lidech, kteří si to nezaslouží. Ti se ovšem bojí jakkoliv ozvat a raději zmizí.",
        "health": "S únavou nebojujte energetickými nápoji ani kávou. Pokud se vám odpoledne zavírají víčka, prostě se chvilku natáhněte.",
        "tips": "Dopolední jogging, bojové sporty, fandění při sportovním utkání, opékání buřtů, pilates, fondue s přáteli, horolezectví."
    },
    "capricorn": {
        "main": "Neděle je příznivá hlavně pro domácí kutily a zahrádkáře. Postavení hvězd dovolí tvořivým schopnostem naplno se rozvinout a při rekonstrukci domácnosti i uměleckých činnostech vám jde práce sama od ruky. V lecčem překvapíte i sami sebe.",
        "love": "Je načase posunout se ve vztahu o nějaký krok dál. Společné bydlení, svatba nebo přírůstek do rodiny klepou na dveře.",
        "work": "Práci na doma dnes hodíte za hlavu. Dotkne se vás, že vaši přílišnou snahu nikdo neocení. Takže budete raději lenošit.",
        "relationships": "V rodině dnes nejste za jedničku, což se vás může dotknout. Těšili jste se, že vás blízcí budou kvůli něčemu zpovídat.",
        "health": "Odpočinek pro vás představuje větší problém než aktivita. Přitom by si tělo nutně potřebovalo na chvilku oddechnout.",
        "tips": "Pomoc sousedům, zajištění nejnutnějších nákupů, výlet do města, pouštění draka, fotografování, stříhání rodinného videa."
    },
    "aquarius": {
        "main": "Merkur v Panně vám umete cestičku, co se nedělních plánů týká. Žádná činnost pro vás nebude nedostupná, stačí jen chtít. Neděle bude příznivá hlavně pro jakékoliv práce v domácnosti. Generální úklid či třídění věcí v šatníku nebudou problémem.",
        "love": "Zdá se, že vám štěstí začíná přerůstat přes hlavu a nevážíte si jej. Jinak byste současnou lásku tolik neriskovali.",
        "work": "Při dnešních cestách automobilem dejte pozor na dodržování doporučené rychlosti. Mohlo by vás to přijít velmi draho.",
        "relationships": "Na drby dnes nedáte. Klepnám se vysmějete do tváře a informace berete jedním uchem tam a druhým ven. Nevěříte ničemu.",
        "health": "Máte ideální příležitost začít s razantní změnou životosprávy. Veškerá předsevzetí dodržíte snáz než v jiných dnech.",
        "tips": "Rodinné grilování, rozhovor s partnerem, důležité kroky ve vztahu, pohyb na čerstvém vzduchu, hudební festival, čajovna."
    },
    "pisces": {
        "main": "Žhavá novinka vás nenechá v klidu, ba právě naopak s vámi pořádně zacloumá. Týká-li se někoho z vašich blízkých, budete dvojnásobně šťastní. Z radosti druhých se totiž umíte radovat, byť ve vás hlodá i kapka závisti. Naštěstí ji v sobě umíte utlumit.",
        "love": "Krátkodobým románkům dnes dáte vale a porozhlédnete se po možnosti trvalého vztahu. Je ideální doba na to usadit se.",
        "work": "Finance dnes hodíte za hlavu a budete se zabývat podstatnějšími záležitostmi. Dokud máte co jíst, je všechno perfektní.",
        "relationships": "Nevypínejte si telefon a zkontrolujte došlou poštu. Dnes vás může překvapit nějaká senzační informace. Jen ji nepropást!",
        "health": "Do víkendového plánu zařadíte více přirozeného pohybu. Na svém organismu poznáte, že začal nebezpečně rychle lenivět.",
        "tips": "Snídaně do postele, ranní něžnosti s partnerem, čtení pohádek dětem, míčové hry s přáteli, výlet na kole, degustace vín."
    }
}