{
    "aries": {
        "main": "V zaměstnání nejsou vyloučeny intriky a na vaši pracovní pozici by si mohl někdo brousit zuby. V duchu hesla - podle sebe soudím tebe - si možná nebudete schopní představit, že by vás chtěl někdo nenápadně vyšachovat. Je zapotřebí vzít rozum do hrsti.",
        "love": "Lidem kolem sebe rádi důvěřujete. Ohledně jistých známých byste si ale měli dát pozor, možná sympatie jen předstírají.",
        "work": "Někdo z kolegů o vás může šířit pomluvy. Dejte si pozor, komu věnujete svou důvěru, a snažte se pracovat na maximum.",
        "relationships": "Dnes jste trochu naivní a toho by mohl nějaký podvodník lehce zneužít. Nedejte pouze na příjemnou vizáž a vystupování.",
        "health": "Můžete se těšit z dobrého zdraví. Vaše fyzická kondice je vynikající a stejně skvěle se cítíte i po psychické stránce.",
        "tips": "Zvládání pracovních povinností, vzdělávací kurzy, usmiřování s příbuznými, sbližování s protějškem, pohybové aktivity."
    },
    "taurus": {
        "main": "I kdyby se dnes v zaměstnání dělo cokoliv, po příchodu domů se vaše duše zklidní. Volné chvíle už budou patřit jenom vašim koníčkům. Dnes nehrozí, že byste si vzali práci domů. Už se nebudete moci dočkat, až nad svými zálibami ztratíte pojem o čase.",
        "love": "Dnes vám bude stačit pouhá přítomnost vašeho partnera, kterou si budete užívat. Na milostné hrátky přijde řada později.",
        "work": "Je-li vaše práce intelektuálního charakteru, zaměstnejte své ruce alespoň doma. Vytvářejte si pro radost hezké předměty.",
        "relationships": "Oblíbený koníček vás vtáhne tak, že nebudete koukat na hodinky. To je známka, že pro duševní pohodu děláte to nejlepší.",
        "health": "Pro vaši tělesnou i psychickou pohodu je důležitý také pravidelný pohyb. Pokud nechcete zakrnět, chtělo by to více akce.",
        "tips": "Výběr vhodné sportovní aktivity, procházka s přáteli, příprava večeře, kutilství, opravy v domácnosti, koníčky, četba."
    },
    "gemini": {
        "main": "Ožehavé rodinné záležitosti nebylo radno příliš pitvat, hrozily vleklé spory. Teď si však konečně oddechnete, dostáváte shůry větší dávku optimismu. Zejména s mužskými členy rodiny vzniká lepší soulad, opět budete jedna ruka. Užívejte domácí pohody!",
        "love": "Schůzky naslepo nejsou váš styl, rádi hned od začátku víte, na čem jste. Dnes si ale takový adrenalin klidně dopřejete.",
        "work": "Budete-li naprosto otevření novým podnětům, přivedou vás na objevné nápady. Dnes se aktivně chytnete každé příležitosti.",
        "relationships": "Máte zajímavé nápady, jak si zařídit svůj život, ale některé patří mezi fantazie. Sami to jistě v koutku duše tušíte.",
        "health": "Vaše kondice je v září na vrcholu a vy si nemůžete na nic stěžovat. I těžší úkoly zvládáte na jedničku a máte dobrý pocit.",
        "tips": "Oběd s nadřízeným, plánování důležitých schůzek, návštěva banky, četba knih, procházka do přírody, nákup domácího mazlíčka."
    },
    "cancer": {
        "main": "Ve vztahu budete bojovat se zhoršenou komunikací. Zkuste zapomenout na čistě intelektuální rozhovory a naslouchejte spíše svým pocitům. Nemusíte rozebírat každé slovo, které pronese vaše polovička! Uvolněte se a dejte prostor své vyvinuté intuici.",
        "love": "V novém partnerství nebudete opakovat chyby, kterých jste se dopustili dříve. Nic nebude bránit vzájemnému souznění.",
        "work": "Umíte velice dobře vydělávat, nyní ale máte sklon utrácet více, než je s vaším příjmem reálné. Myslete na zadní kolečka.",
        "relationships": "Doma cítíte trochu odstup. Mnozí nemají tolik pracovních zkušeností jako teď vy, takže si v tomto ohledu nemáte co říci.",
        "health": "Vaše psychika potřebuje zklidnit, ale s chemií na ni nechoďte. Zkuste přírodní léky - pohyb, meditaci a pobyt v přírodě.",
        "tips": "Administrativní práce, uspořádání složek v počítači, nácvik relaxačních technik, meditace o samotě, sebereflexe, spánek."
    },
    "leo": {
        "main": "Hvězdy vás nutí k nezávislému, až rebelskému chování. Trochu se vědomě kroťte, jinak si vytvoříte zbytečné nepřátele. Všichni zrozenci jsou dnes v argumentaci velmi živelní a takt či diplomacie jsou jim zcela cizí. Nepodřezávejte si pod sebou větev.",
        "love": "Na rozdíl od svého partnera máte dnes sklon jednat emotivně. Tichá domácnost či opatrné rozhovory nejsou nic pro vás.",
        "work": "Lidé vás mají rádi. Vyhledávají vás pro vaše služby, ale i proto, že je jim s vámi dobře. S kolegy jste jedna ruka.",
        "relationships": "Dnes by bylo záhodno více naslouchat a méně mluvit. Pro přehnanou výřečnost byste si totiž mohli nadělat řadu problémů.",
        "health": "Při sportování dejte pozor na nebezpečné pády. Riskovat kvůli adrenalinu se dnes nevyplatí, máte slabší pud sebezáchovy.",
        "tips": "Individuální práce, posezení s dobrými přáteli, návštěva oblíbené hospůdky, luštění křížovek, kulturní aktivity s dětmi."
    },
    "virgo": {
        "main": "Současné konstelace vám výrazně pomáhají s komunikací a navíc posilují váš intelekt. Můžete se proto pouštět do pracovních úkolů, které od vás vyžadují právě tyto schopnosti. Velice snadno se s nimi popasujete. Na koni budou také studující zrozenci.",
        "love": "V lásce budete poměrně nejistí, i když k tomu nemáte žádný důvod. Dnes se raději držíte zpět, abyste náhodou nenarazili.",
        "work": "Vaše schopnost pracovat je teď opravdu perfektní. Na trhu práce ale nemusí být po vašich službách odpovídající poptávka.",
        "relationships": "Je podpořena vaše komunikativnost. Do rozhovorů dokážete vtáhnout i osoby, které se ostýchají nebo se tváří nedůvěřivě.",
        "health": "Pokud se chystáte do přírody, nezapomeňte na repelent. Vyhnete se nejen poštípání, ale i nemocem přenášeným klíšťaty.",
        "tips": "Intelektuální pracovní činnosti a koníčky, mezilidská komunikace, navazování kontaktů, studium, psaní článků, relaxace."
    },
    "libra": {
        "main": "V zaměstnání si Váhy dají oddechový čas, i když možná trochu nedobrovolně. Vaše osobní kapacita bude nevyužitá. Na obzoru teď nejsou žádné neodkladné úkoly a ty ostatní vám nikam neutečou. Také doma vám prospěje menší pauza od všedních povinností.",
        "love": "Partner bude nesmyslně žárlit na někoho z vaší blízkosti. Raději mu ani nepředstavujte svého nového kolegu či kolegyni.",
        "work": "Ve svém oboru jste špička, ale cítíte se nedocenění. Zkuste se poohlédnout po možnosti kariérního růstu někde jinde.",
        "relationships": "Domácí atmosféra dnes bude velice harmonická. Využijte ji ke společnému plánování do budoucna, dodá vám to optimismus.",
        "health": "Potřebujete vypnout a přijít na nové myšlenky. Fyzická aktivita vám v tom určitě hodně prospěje a vy se budete cítit lépe.",
        "tips": "Den volna, výzdoba interiéru, výběr a nákup naučné literatury, aerobní cvičení, péče o zvířata, plánování budoucnosti."
    },
    "scorpio": {
        "main": "Blížící se novoluní v Panně bude příznivé pro váš kariérní růst a můžete se těšit na pracovní úspěchy. V práci budete k nezastavení, ale nezapomenete ani na opatrnost. Podaří se vám dostat pod kontrolu většinu překážek, které by vás brzdily v rozletu.",
        "love": "Jestli máte pocit, že jde vaše partnerství do háje, zkuste si s partnerem otevřeně promluvit o rozchodu. Uleví se vám!",
        "work": "Vaše dnešní pracovní činnost je pod drobnohledem nadřízeného. Vezměte mu vítr z plachet a pracujte nebývale svědomitě.",
        "relationships": "Pokud jste v poslední době neměli pro rodinu vlídné slovo, dnes byste měli udělat rázný krok a pochvalou rozhodně nešetřit!",
        "health": "Na žádné problémy v oblasti zdraví to nevypadá. Máte-li motivaci, nic vás nezastaví. Svého těla si přehnaně nevšímáte.",
        "tips": "Důležité kariérní kroky, služební cesta, nákup dárků, surfování po internetu, setkání s příbuznými, aktivity s dětmi."
    },
    "sagittarius": {
        "main": "V zaměstnání nebudete mít příležitost k velkým pracovním krokům, ke slovu se hlásí suchopárná rutina. Bude třeba věnovat více pozornosti úředním povinnostem, které mnohdy velkoryse opomíjíte. Pro mnohé Střelce to znamená ulovit bobříka pevné vůle.",
        "love": "Můžete se zamilovat do nesprávné osoby, brzy ale poznáte, že společný vztah by nedělal dobrotu. Na to jste moc odlišní.",
        "work": "Kdy jste naposledy kontrolovali své internetové bankovnictví? Lepším zabezpečením svého účtu předejdete problémům.",
        "relationships": "Domov a rodina pro vás představují klidné zázemí a jistotu. Dnes ale dáváte přednost zbrusu novým kontaktům a zážitkům.",
        "health": "Toužíte se ukázat v tom nejlepším světle, výsledkem ale může být trochu křeč. Uberte na snaze, přidejte na přirozenosti.",
        "tips": "Administrativní činnosti, návštěva kamarádů, organizace rodinné sešlosti, domácí práce, úklid interiéru, péče o pleť."
    },
    "capricorn": {
        "main": "Nadešel vhodný čas pro náročné pracovní aktivity. Díky Marsu ve Vahách se můžete stát hlavním iniciátorem různých změn na pracovišti. Máte dokonce šanci dostat se do vedoucího postavení. Podpora blízkých vás nenechá na pochybách, že na to máte.",
        "love": "Láska pro vás momentálně nemá takovou přitažlivost jako kariéra a finance. O víkendu naštěstí tento názor přehodnotíte.",
        "work": "Zaměstnanci budou patřičně vytížení. Také soukromníci budou mít nadbytek zakázek, a tím pádem i nadprůměrné příjmy.",
        "relationships": "Dnešek se pokusíte rozdělit mezi práci a rodinu. Bude se vám lépe pracovat, když se můžete těšit na společné zážitky.",
        "health": "Energie vám neschází, právě naopak. Snažíte se ji vynaložit účelně a zbytečně s ní neplýtvat. Dnes se bude určitě hodit.",
        "tips": "Zaškolení nového kolegy, kontakt se sourozenci, vedení pracovního týmu, zvyšování kvalifikace, firemní akce či večírek."
    },
    "aquarius": {
        "main": "Současné aspekty vám přinášejí jisté vnitřní napětí. Nebudete mít nejmenší chuť hrát si na něco, co nejste. Nebude se vám chtít předstírat srdečnost a nuceně se usmívat na lidi, kteří vám nesedí. Dnes vás bude okolí vnímat jako nemluvu nebo bručouna.",
        "love": "Dnes se vám vůbec nelíbí, když partner nestojí na vaší straně a má řadu výhrad. O své pravdě jste naprosto přesvědčení.",
        "work": "V práci dnes bude panovat klidná atmosféra, kterou mnozí využijí k poflakování. Dnes se ani vám nechce trhat rekordy.",
        "relationships": "Na společnost kamarádů ani partnera nemáte tu správnou náladu. Mnohem raději se dnes uchýlíte do dobrovolné samoty.",
        "health": "Před okolím budete jen neradi ukazovat své slabiny. Dnes chcete působit jako suveréni, kteří si se životem ví vždy rady.",
        "tips": "Pohovory s nadřízenými, obchodní schůzky, tolerantní přístup ke členům rodiny, prohlídka u dermatologa, péče o pleť."
    },
    "pisces": {
        "main": "V oblasti práce nebude nouze o šťastné náhody na schopné lidi. Můžete v nich získat nové kolegy či podřízené, nebo naopak investory či alespoň zkušené rádce. Pokud pátráte po zbrusu novém uplatnění, možná vám dohodí vhodnou pracovní příležitost.",
        "love": "Dnes se můžete spolehnout na své osobní kouzlo a talent přesvědčit kohokoliv o čemkoliv. Na okolí rozhodně zapůsobíte.",
        "work": "Pracovní plány vám může překazit nečekaný urgentní úkol. Nejdříve vás vyvede z konceptu, ale rychle se vzpamatujete.",
        "relationships": "Můžete pořádně pohnout se svým životem, i pokud jde o bydlení. Je vhodný čas pro rekonstrukci příbytku nebo stěhování.",
        "health": "Nezapomínejte v týdnu na pohodu u domácího krbu. Časová i citová investice do vašich blízkých se vám mnohonásobně vrátí.",
        "tips": "Reklamní a propagační akce, seznamování se a schůzky, silová a kondiční cvičení, pohyb na čerstvém vzduchu, otužování."
    }
}