{
    "aries": {
        "main": "Ve společnosti budete mít hlavní slovo. Stanete se zdrojem zábavy pro všechny zúčastněné. Zdá se, že máte nekonečné zásoby vtipných i senzačních historek. Bude vám dělat dobře, že mezi nadšenými posluchači budou hlavně příslušníci opačného pohlaví.",
        "love": "Pokud vám nového partnera celá rodina rozmlouvá, namítnete, že oni s ním žít nebudou. Řídíte se pouze vlastní hlavou.",
        "work": "Hrozí vám možnost finanční ztráty. Na vině ovšem nebude cizí nenechavá ruka, ale vaše vlastní lehkomyslné rozhazování.",
        "relationships": "Seznamování vám v těchto dnech přináší radost. Vůči okolí jste otevření a kontakt s neznámými lidmi navazujete snadno.",
        "health": "Přeslazené dobroty nedělají nikomu příliš dobře. Sladkosti si neodpírejte, ale jejich množství mějte pod kontrolou.",
        "tips": "Víkendové grilování s přáteli, návštěva společenské akce, seznamování se přes internetovou seznamku, tanec."
    },
    "taurus": {
        "main": "Je neděle a vy máte ideální čas pro lenošení. Užijte si pohodový den, který může plynout tak pomalu, jak jen si budete přát. Pokud se domácím povinnostem nemůžete vyhnout, alespoň je zredukujte na minimum. Přes týden jste se přece starali až dost.",
        "love": "Neumíte se zcela uvolnit a radovat se z přítomnosti. Optimistický partner nebo přátelé by vám v tom mohli hodně pomoci.",
        "work": "Budete vážně zvažovat práci z domova. Nejlepší bude vyzpovídat někoho, kdo má s jejími plusy i minusy osobní zkušenosti.",
        "relationships": "Vaši blízcí, a zejména partner, jsou dnes nadmíru vztahovační. Udělejte vše pro to, abyste předešli neúmyslným narážkám.",
        "health": "Původní nedělní plán klidně změníte, vypnete telefon a skryjete se před ostatními. Toužíte jenom nerušeně odpočívat.",
        "tips": "Dlouhý spánek, sledování filmů, poslech hudby, relaxace s knížkou, pěstování koníčků, oběd dovezený z dobré restaurace."
    },
    "gemini": {
        "main": "Dnes působíte jako čistí introverti, což se u vás tak často nevidí. Úplně si vystačíte sami se sebou a budete si spokojeně snít ve svém vnitřním světě. Bude na protějšku, aby na vás trochu dohlédl. Praktická stránka života vám dnes mnoho neříká.",
        "love": "Budete velebit monogamii a zároveň vás ani nenapadne podezírat svůj protějšek. Oboustranná důvěra bude zcela samozřejmá.",
        "work": "O svých příjmech i výdajích budete mlčenliví. Vhodná osoba by vám ale mohla dobře poradit, jak si vylepšit bilanci.",
        "relationships": "Nejednoho zrozence postihne trochu introvertní nálada. Rodina ale uvítá, že se dnes budete zdržovat jen u domácího krbu.",
        "health": "Nedělní program bude hodně ovlivněn vaší psychikou. Pokud se vám nechce nic dělat, zůstanete klidně zalezlí v pelíšku.",
        "tips": "Odpočinek vleže, koupel s relaxační bylinnou přísadou, procházka v přírodě, telefonát s přáteli, četba oblíbené knížky."
    },
    "cancer": {
        "main": "Máte dobré pracovní nápady, ale nic se nestane, když s jejich realizací ještě vyčkáte. Příští týden k vám budou hvězdy mnohem přívětivější a vaše kariéra dostane nový spád. Dnes se můžete zamyslet nad ideální strategií, k níž patří i úderná reklama.",
        "love": "Pokud se na to necítíte, měli byste odložit také vyznání lásky. Dokonalá příprava bude lepší než dnešní improvizace.",
        "work": "Při nakupování se striktně držte předem připraveného seznamu. Máte velké oči a mohli byste utratit několikrát více.",
        "relationships": "Ozvou se příbuzní, kteří bydlí dost daleko, a pozvou vás na návštěvu. Možná z toho bude celodenní výlet i s přespáním.",
        "health": "Budete řešit, jak se zbavit starých zlozvyků jednou provždy. Nezříkejte se přitom podpory svých blízkých ani odborníků.",
        "tips": "Pomoc přátelům s hlídáním dětí, plánování vlastní rodiny, úklid domácnosti, návštěva hudebního vystoupení, scrabble."
    },
    "leo": {
        "main": "Venuše ve vašem znamení vám rozproudí krev, tak se připravte na dechberoucí milostný život. Ani na dovolené či víkendovém pobytu nebudete ze společné postele pospíchat. Klidně oželíte oběd či předplacený výlet, vy dva máte atraktivnější program.",
        "love": "Vaše znamení obvykle patří mezi velmi požitkářské a libující si v sexu. Teď lze očekávat, že vaše sklony ještě zesílí.",
        "work": "Jestli vás bude někdo přemlouvat k ověřeným investicím, je zde na místě si prověřit, zda jsou opravdu ověřené a výhodné!",
        "relationships": "Děti vám budou dělat samou radost, i když víte, že to umějí i jinak! Dnes ale na žádné zlobení nedojde, jenom na zábavu.",
        "health": "Vaší sexuální energie nebude ubývat, budete přímo nenasytní. I netečnému partnerovi dokážete rozproudit krev v žilách.",
        "tips": "Dlouhý spánek, snídaně do postele, sladké lenošení s protějškem, milostné hrátky, oběd s donáškou z oblíbené restaurace."
    },
    "virgo": {
        "main": "Od svého protějšku dnes získáte mnoho obdivu a lásky. Jeho pozornost rozptýlí vaše znepokojivé představy, které jste o vašem vztahu mohli mít. Zatoužíte vidět i další vaše blízké. Zelenou mají nejrůznější rodinné akce, potěší vás i každá návštěva.",
        "love": "S novým partnerem prožíváte dokonalou souhru ve všech důležitých životních aspektech. Vypadá to s vámi velmi nadějně.",
        "work": "Shon pracovních dní je jen nepříjemnou vzpomínkou. V mezilidských vztazích zavládla harmonie, kterou tolik potřebujete.",
        "relationships": "Hvězdy podporují vaše zaměření na rodinu. Věnujete jí svou pozornost a postaráte se i o mlsné jazýčky jejích členů.",
        "health": "Číslovka, kterou ukazuje ručička na váze, je jen orientační. Důležitý je i váš celkový dobrý pocit a dostatek energie.",
        "tips": "Upevňování partnerských vztahů, svatební obřad, romantické schůzky, akce pro nezadané, aktivity s širší rodinou, oslavy."
    },
    "libra": {
        "main": "Dnes stočíte řeč na svou kariéru. Pracovní kroky budete konzultovat s rodinou. Víte, že vás blízcí potřebují a myslí to s vámi dobře. Na jejich radách něco bude. Dvojnásob to platí, pokud je dotyčný z vašeho oboru a může s vámi podebatovat zasvěceně.",
        "love": "Ve vztazích budete mít silnou potřebu harmonie. Dnes nemáte problém slevit ze svých nároků, jen když to povede ke shodě.",
        "work": "Pokud vám rodina nabízí finanční výpomoc, nemusíte se rozpakovat. Je přece jisté, že její dobroty nikdy nezneužíváte.",
        "relationships": "Když už se jednou pevně rozhodnete, nezabývejte se pak neplodným přemítáním o promarněných možnostech. Čas nevrátíte.",
        "health": "Sportování s dětmi vám nebude připadat jako nepříjemný pohyb. Ani vám nepřijde, že děláte něco dobrého pro svou kondici.",
        "tips": "Fyzická práce, náročné druhy sportů, generální úklid, vášnivé chvíle s protějškem, odpočinek, malování bytu, stěhování."
    },
    "scorpio": {
        "main": "Obnoví se vaše sebejistota i pocit, že lehce zvládnete ty nejobtížnější úkoly. Budete mít chuť vydávat hlavně své fyzické síly. S plnou vervou se vrhnete do práce, do sportu i do milování. Ponechte si ale nějaké rezervy, ať zítra nelezete po čtyřech.",
        "love": "Budete energičtí a plní vášně. Můžete se těšit na chvíle nespoutané erotiky, které mohou přinést i zcela nové zážitky.",
        "work": "Doma dnes budete řešit otázku kapesného. Potomci požadují jeho zvýšení a předhánějí se ve slibech vzorného chování.",
        "relationships": "Když se někdo začne plést do vašich soukromých záležitostí, rozladí vás to. Až budete chtít pomoc, tak si o ni řeknete.",
        "health": "Vydatný pohyb na čerstvém vzduchu vás příjemně unaví. Následný odpočinek v pohodlí domova si potom opravdu užijete.",
        "tips": "Popovídání s přáteli o životě, plánování finančního rozpočtu, hledání si brigády, rodinná porada, grilování s rodinou."
    },
    "sagittarius": {
        "main": "Vašemu vyladění dnes nejlépe odpovídá práce nebo studium, vyžadující racionální uvažování. Ani v neděli nenecháte svou mysl zahálet a rádi povedete dlouhé intelektuální debaty, ke kterým si budete hledat sobě rovné. Budete se v nich přímo vyžívat.",
        "love": "Na romantiku vás neužije, navrch má dnes váš rozum. Pokud partner čeká projevy vášně, bude si muset nechat zajít chuť.",
        "work": "Vaše myšlenkové pochody jsou tak brilantní, že by se za ně nemusel stydět ani Sherlock Holmes. Okolí jen s údivem zírá.",
        "relationships": "Ve volném čase vás bude lákat studium různých knih. Poohlédnete se i po nových zajímavých přírůstcích do své knihovny.",
        "health": "Chcete-li si udržet dobrou kondici, začněte s pravidelným cvičením. Nejde jen o vzhled, ale hlavně o zdraví vašeho těla.",
        "tips": "Dokončování pracovních restů, tvůrčí činnosti, nakupování knížek, svižná procházka, relaxace, kurz osobního rozvoje."
    },
    "capricorn": {
        "main": "V neděli na povinnosti ani nepomyslíte. Svou mysl úplně odpojíte a budete se intenzivně soustředit na zážitky, které si dopřejete. Nadchne vás divadelní představení či koncert stejně jako dlouhé toulky přírodou. Akčnější jedinci se odreagují sportem.",
        "love": "V lásce budete velice platoničtí. Místo přímého útoku teď zvolíte jemnější způsoby, které jsou vaší povaze nejbližší.",
        "work": "Peněz máte tolik, abyste si mohli bez starostí užívat volného času. To je pro vás důležité, dík tomu se cítíte svobodní.",
        "relationships": "Mezi členy rodiny panuje vzájemná úcta. Pokud něco popletete, můžete si být jistí, že se vám nikdo posmívat nebude.",
        "health": "Hudební aktivity pro vás představují skvělý způsob relaxace. Podle chuti zpívejte, tančete či se odreagujte bubnováním.",
        "tips": "Dopolední jogging, vydatná snídaně, výlet do přírody nebo do zoo, projížďka na kole, golf, lenošení, relaxace, meditace."
    },
    "aquarius": {
        "main": "Na povinnosti vám v hlavě příliš volného místa nezůstane. Hvězdy vás nutí věnovat plnou pozornost vašim emocím, kdy vše budete prožívat mnohem intenzivněji než jindy. V lásce se budete vznášet v oblacích a v sexu projevíte bezmála jižanský temperament.",
        "love": "Užijte si chvíle plné vášně. Pokud se nebudete bát experimentovat, zážitek bude pro vás i pro partnera nezapomenutelný.",
        "work": "Pokud dnes budete nakupovat přes internet, podaří se vám uloupit několik výhodných slev a ušetřit tak hodně peněz.",
        "relationships": "Bezdětné rozněžní ratolesti blízkých a zatouží po vlastních. Dnes vás neodradí ani představa nekončící řady povinností.",
        "health": "Harmonické vztahy se pozitivně odrazí na vašem zdravotním stavu. Netrápí vás žádné psychické potíže, jste veselé mysli.",
        "tips": "Společenské akce, párty s přáteli, vášnivé chvilky ve dvou, milování na netradičních místech, erotické experimenty."
    },
    "pisces": {
        "main": "Merkur v Panně po vás žádá, abyste mluvili pravdu a nic než pravdu. Dnes se klidně řiďte heslem - co na srdci, to na jazyku. Milosrdné lži nebo zbytečně uctivá slova můžete vynechat. Okolí ocení, že nemusí vaši řeč dešifrovat a okamžitě ví, na čem je.",
        "love": "Daří se vám přesně pojmenovat své emoce. Může vám to pomoci ve vztazích, budete-li se přitom zajímat i o pocity druhých.",
        "work": "Pokud jde o rozdávání dárečků, šetření půjde stranou. Jste velkorysí a rádi dopřejete nákladnější věc svému milovanému.",
        "relationships": "Dnes působíte na ostatní jako jasná autorita. Všechny vaše připomínky budou brány vážně a dotyčné přimějí k nápravě.",
        "health": "Tělo si dnes samo řekne, jak by měla vypadat vaše životospráva. Upravíte stravovací návyky, omezíte či stopnete nešvary.",
        "tips": "Nákupy s partnerem, společné aktivity s dětmi, posezení s kamarády, procházka na čerstvém vzduchu, rybaření, koupání."
    }
}