{
    "aries": {
        "main": "Stále vás mohou trápit nepříliš pěkné výsledky v práci. Pokud sami nemáte na toto odpověď, poraďte se s kolegou, kterému věříte. Možná i nadřízený by mohl uvést vše na pravou míru. Nebojte se dnes zeptat, jde přece o vaše zaměstnání a budoucnost.",
        "love": "I ve vášnivé lásce je důležité si udržet určitý stupeň nezávislosti a nastavit si osobní hranice. Buďte opatrní a tolerantní.",
        "work": "Bude třeba zjistit, co je příčinou vašich současných chabých pracovních výsledků, protože vás to hodně trápí.",
        "relationships": "Pokud je to potřeba, společně hledejte řešení pro jakýkoli problém nebo nejasnost, která vznikne během rozhovorů.",
        "health": "Špatná obuv může způsobit nepříjemné problémy, jako jsou puchýře nebo otlaky, a to může vést k dlouhodobým problémům.",
        "tips": "Schůzka s týmem ohledně nových projektů, příprava prezentace pro odpolední setkání s novými obchodní partnery."
    },
    "taurus": {
        "main": "Dobře se budou mít ti z vás, kteří ovládají alespoň jeden cizí jazyk nebo mají pracovní zkušenosti z mezinárodního prostředí. Můžete totiž všechno toto ve své profesi zužitkovat právě nyní a dosáhnout zajímavých výsledků. Nebojte se být aktivní.",
        "love": "Zkuste být více otevření a upřímnější, když budete dnes partnerovi sdělovat, jak se doopravdy cítíte. Bude vám naslouchat.",
        "work": "Vaše znalosti cizího prostředí nebo cizího jazyka vám mohou zaručit úspěch při jednání. Využijte všeho, co umíte.",
        "relationships": "Komunikujte s ostatními o svých hranicích. Měli byste být schopni jasně sdělit, co je pro vás komfortní a co ne.",
        "health": "Jezte konečně vyváženou stravu bohatou na ovoce, zeleninu, celozrnné obilniny, nízkotučné bílkoviny a zdravé tuky.",
        "tips": "Příprava a zorganizování úkolů na dnešní den, nákup dětského nábytku v obchodech nebo online, odpolední procházka městem."
    },
    "gemini": {
        "main": "Vedoucí pracovníci narození v Blížencích si dnešní pozornost okolí vynucují zvyšováním hlasu a ostřejšími výrazy. Rozohnění z pracovního prostředí si lehce přenesete do soukromí. Tam s podobnými excesy neuspějete. Blízcí očekávají jednání v rukavičkách.",
        "love": "Snažte se dnes být co nejvíce v přítomném okamžiku a vnímat všechny ty pozitivní zážitky, které vám nový vztah přináší.",
        "work": "Nenechte se otrávit nynějšími problémy v práci. Je to pro vás cenná lekce do budoucna. Snažte se vše pochopit a zlepšit se.",
        "relationships": "Nepředpokládejte, že víte, co druzí řeknou, nebo že máte na danou situaci hotový názor. Dejte jim prostor vyjádřit se.",
        "health": "Strava hraje klíčovou roli ve vašem fyzickém a duševním zdraví. Vyvážená strava bohatá na živiny může pomoci udržet vitalitu.",
        "tips": "Spolupráce s kolegy na projektu, registrace ve fitness centru, objednání k zubaři, nákup teplého oblečení v obchodě."
    },
    "cancer": {
        "main": "Se spolupracovníky jste dnes jedna ruka. Vzájemně si pomáháte a podporujete se, což dosud nebylo obvyklé. Vytáhnete-li nějakého kolegu z bryndy, najdete v něm spolehlivého spojence a přítele na život a na smrt. Alespoň co se pracovních úkolů týká.",
        "love": "Zamyslete se dnes nad tím, co do vztahu přinášíte. Je možné, že i vaše vlastní postoje a jednání vyvolávají nedorozumění.",
        "work": "Vaše pokroky v práci vám zajistí nové vědomosti. Zapište se do kurzů nebo školení. Uvidíte, že se to vyplatí.",
        "relationships": "Když budete připraveni doma pokračovat v konverzaci, domluvte se kdy a kde budete moci klidně diskutovat a hledat řešení.",
        "health": "Existují potraviny, které jsou známé pro svůj příznivý vliv na trávení, jako jsou jogurt s probiotiky, kvašené zelí a kefír.",
        "tips": "Rodinný oběd v restauraci, příprava raw zákusků, sjednání obchodní schůzky, úklid a údržba venkovního bazénu."
    },
    "leo": {
        "main": "Vám stále přejí hvězdy v milostné oblasti, takže se není čeho bát. Užívejte si s partnerem všechno, co vám momentálně láska přináší, a nemyslete příliš dopředu. Jinak vám utečou velmi malé, ale velmi důležité detaily a okamžiky, což by vás později mrzelo.",
        "love": "Nádherné prožitky, které nyní zažíváte společně s partnerem, jsou těžko popsatelné slovy. Doba bude plná zážitků a radosti.",
        "work": "Nesmíte zaměňovat zdravé soutěžení a motivaci v práci za nekalé způsoby, jak se dostat nahoru. Mohlo by se vám to vrátit.",
        "relationships": "Tím, že se naučíte novým dovednostem, můžete posílit svou víru v sebe sama a otevřít si nové příležitosti do budoucna.",
        "health": "Pokud nejste zvyklí na vysoký příjem vlákniny, začněte pomalu a postupně zvyšujte její množství ve stravě, aby to tělo zvládlo.",
        "tips": "Dopolední procházka s dětmi, večerní hraní deskových her s rodinou, úklid domácí pracovny, objednání na veterinu."
    },
    "virgo": {
        "main": "S přáteli se můžete dnes dostat do menšího konfliktu, protože máte na jisté věci odlišné názory. Pokud oni ne, buďte alespoň vy tolerantní a nedělejte z komára velblouda. Uvidíte, že za pár dní bude po starostech a opět se budete bavit normálně.",
        "love": "Každý má své chyby a někdy může dojít k nedorozuměním. To samé se může stát i dnes mezi vámi a přáteli. Učte se odpouštět.",
        "work": "Není nač čekat, raději si udělejte harmonogram prací na celý tento týden již dnes. Budete ve výhodě a s časovým náskokem.",
        "relationships": "V mnoha městských částech existují různé společnosti, které se věnují zajímavým koníčkům. Možná by se vám tam líbilo.",
        "health": "Při práci s chemikáliemi používejte příslušné ochranné prostředky, jako jsou rukavice, brýle, či dokonce ochranný oděv.",
        "tips": "Naplánování pracovní porady, online rezervace zimní rodinné dovolené, pečení slaného koláče, telefonát s prarodiči."
    },
    "libra": {
        "main": "S novou láskou máte zřejmě mnoho plánů, ale bude třeba zjistit, co máte především společného. Na tom budete dnes stavět a od toho se budou odvíjet vaše společné aktivity. V práci se také musíte snažit, tady dnes nemáte opravdu nic zadarmo, ale nevadí.",
        "love": "Zajímejte se také o to, co máte společného s novým nápadníkem. Zda sdílíte hodnoty, zájmy a cíle, které jsou pro vás důležité.",
        "work": "Pokud se budete dostatečně snažit, uvidíte, že píle se vám vyplatí. Sice to nebude hned, ale v blízké budoucnosti ano.",
        "relationships": "Těžké období v zaměstnání si kompenzujete úspěchy doma. Blízcí k vám vzhlížejí a mladší jedinci vás považují za vzor.",
        "health": "Pravidelný mírný, až středně náročný fyzický pohyb, jako je chůze, plavání nebo jóga, podporuje imunitní systém.",
        "tips": "Plánování pracovní cesty, večerní četba detektivních příběhů, údržba zahrady, třídění dětského oblečení, úklid spižírny."
    },
    "scorpio": {
        "main": "Vaše city mohou být momentálně raněné a rozbouřené. Zřejmě budete potřebovat podporu někoho z rodiny nebo dobrých přátel. Když se jim svěříte se svým trápením, uleví se vám a ještě mohou mít pro vás dobrou radu. Není hanba požádat o pomoc.",
        "love": "Obrňte se podporou od přátel či rodiny, pokud se snažíte vyrovnat s bolestivými emocemi. Musíte mít někoho, kdo vám pomůže.",
        "work": "Spolupráce s kolegy na novém projektu by pro vás měla být radostná. Sestavte si tedy takový tým, který vám bude vyhovovat.",
        "relationships": "Důležitým aspektem rodinného času je také komunikace. Mluvte spolu o svých plánech na další dny a hned je začněte realizovat.",
        "health": "Udržování zdravé hmotnosti je důležité pro prevenci srdečních onemocnění a pomůže snížit riziko srdečních problémů.",
        "tips": "Cvičení v přírodě s kamarády, kontrola pracovních e-mailů, večerní sledování vědomostní soutěže, zápis dětí na kroužky."
    },
    "sagittarius": {
        "main": "Zásluhou partnera dnes přijdete k nemalým financím. Hvězdy neukazují, zda jste šťastnými výherci loterie, nebo jste na půdě objevili poklad po dědečkovi. Se získanými penězi máte své plány. Nehodláte je bezmyšlenkovitě utratit, ale výhodně zúročit.",
        "love": "Přistupujte k novému protějšku bez předsudků. Nechte se překvapit a objevujte nové aspekty jeho osobnosti. Bude se vám líbit.",
        "work": "Dobrý plán na nový projekt nebo obchod je základem vašeho úspěchu. Nenechte se od toho odradit a něco zanedbat nebo vynechat.",
        "relationships": "Místo mnoha menších aktivit se zaměřte na několik opravdu zajímavých hobby. Přidat se může i vaše nejbližší rodina.",
        "health": "Pít kofein pozdě odpoledne nebo večer může narušit váš spánek a způsobit problémy s usínáním. Vynechte ho, pokud to jde.",
        "tips": "Servis automobilu, příprava vydatné snídaně, údržba hudebních nástrojů, vybarvování antistresových omalovánek."
    },
    "capricorn": {
        "main": "Jestliže se i dnes cítíte v partnerském vztahu v napětí a hrozí vážnější konflikt, dohodněte se s protějškem na chvilkové pauze nebo méně intenzivním kontaktu. Ani jeden z vás pravděpodobně nechce vztah ukončit, ale něco je vážně již přežité.",
        "love": "Někdy může být prospěšné udělat si krátkou přestávku ve vztahu a dát si čas na zklidnění emocí a získání jasné perspektivy.",
        "work": "Mohou vás trápit takové nepříjemnosti, jako jsou nevydařené obchodní schůzky, horší kvalita odevzdaných úkolů nebo málo času.",
        "relationships": "Poslouchejte, co má druhá strana na srdci, a snažte se jí plně porozumět. Někdy i jednoduché naslouchání může vyjasnit situaci.",
        "health": "Zajistěte si vyváženou stravu, která obsahuje dostatek vápníku, vitaminu D a dalších živin důležitých pro zdraví kostí.",
        "tips": "Cyklovýlet do přírody, příprava teplé večeře, ranní výlet do přírody, nákup papírnických potřeb pro domácnost."
    },
    "aquarius": {
        "main": "Vy, kteří jste stále single, ale už byste si přáli mít opět lásku po boku, můžete vyzkoušet tradiční a vyzkoušené online seznamovací agentury. Možná právě tam na vás čeká ta vaše spřízněná duše. Směle do toho. Brzy můžete mít nového partnera do života.",
        "love": "Pokud jste zadobře s online prostředím, můžete vyzkoušet seznamky na internetu. Ty vám umožní najít lidi se stejnými zájmy.",
        "work": "Pokuste se v zaměstnání propojit vše, co umíte a znáte. Výsledkem toho budou skvělé počiny, kde uplatníte svou kreativitu.",
        "relationships": "Některé aktivity mohou vyžadovat více fyzické nebo mentální energie. Uvažujte, pro koho z rodiny se to může hodit.",
        "health": "Můžete se pokusit předcházet zánětu močových cest tím, že dodržujete správnou hygienu a pijete dostatek vody.",
        "tips": "Nákupy v online knihkupectví, vaření oběda z čerstvých lesních hub, nerušená příprava obchodní prezentace, týmová spolupráce."
    },
    "pisces": {
        "main": "Hodně špatně se vám nyní zvládá koncentrace na pracovní povinnosti. V hlavě se vám honí mnoho myšlenek a vy skáčete z jedné věci na druhou. Navíc trpíte i větší únavou, což výkonu zrovna nepřidává. I na soustředění pomůže dostatečný a kvalitní odpočinek.",
        "love": "Zdržte se soudů nebo předsudků během konverzace s vaším protějškem. Umožněte mu sdělit svůj pohled, aniž by se cítil špatně.",
        "work": "Musíte se naučit lepšímu soustředění na své povinnosti. Jelikož vám to nyní dělá problémy, můžete být nervózní a ve stresu.",
        "relationships": "Někdy můžete z neúspěšné aktivity získat i směšné nebo zábavné vzpomínky, které budete sdílet a smát se jim v budoucnu.",
        "health": "Dostatečný příjem vody je klíčový pro udržení vitality. Pitný režim by měl zahrnovat vodu a také neslazené nápoje.",
        "tips": "Nákup specifických školních potřeb pro děti, rezervace vstupenek do muzea, uzavření pracovního projektu a plánování nového."
    }
}