{
    "aries": {
        "main": "Vás osobitý smysl pro humor je pro ostatní dnes živou vodou. Dokážete rozesmát okolí i v těchto náročných dnech. Díky tomu se těšíte oblibě u svých kolegů, přátel i příbuzných. Dobrou náladu vám dodává i pocit jisté finanční nezávislosti.",
        "love": "Smysl pro humor a nadhled je to, čím dnes zaujmete ostatní. Máte ho stále dostatek, tak se osmělte a nebojte se.",
        "work": "Peněz si momentálně můžete užít více než kdy jindy. Zaměřte se například na investice do domácí elektroniky a spotřebičů.",
        "relationships": "Zřejmě vás začaly nudit vaše současné koníčky. Tak se zkuste inspirovat u přátel nebo na internetu něčím novým, co by vám šlo.",
        "health": "Jste občas horká hlava, a tak vám může rychle stoupnout krevní tlak. Hlídejte si nervy a nerozčilujte se zbytečně.",
        "tips": "Rozhovor s nadřízeným, nové pracovní příležitosti, oprava domácího spotřebiče, odpolední odpočinek u televize."
    },
    "taurus": {
        "main": "Jestliže si dnes zvolíte jistý pracovní postup, ujistěte se, že o tom včas budete informovat své šéfy. Pokud na to zapomenete, hrozí, že se na vás rozzlobí. Nespravíte to ničím jiným než klidným jednáním a přiznáním své viny. Nakonec je přesvědčíte.",
        "love": "Nová známost má oči jen pro vás. Není načase si ji pustit blíže k tělu, milí Býci? Není důvod ztrácet čas zbytečnými úvahami.",
        "work": "Nadřízeného může popudit, že jste se rozhodli postupovat jinak, než od vás požadoval. Na místě je klidný, asertivní rozhovor.",
        "relationships": "Jistý člen rodiny se vám názorově dost vzdaluje. Dnes si to během telefonátu uvědomíte naplno. Chce to nějaké klidné řešení.",
        "health": "Zinek je důležitým prvkem v pomoci proti nejrůznějším virovým onemocněním. Zakupte si kvalitní přípravek v lékárně.",
        "tips": "Domácí kino s dětmi, příprava bylinných čajů a odvarů, doplnění domácí lékárničky, praní ložního prádla, úklid ložnice."
    },
    "gemini": {
        "main": "Názory máte, jaké máte, a tak se nedivte, že se dnes jen tak s někým neshodnete. Snažte se ale vyhnout bojůvkám a žabomyším válkám na pracovišti. Díky tomu, že se nenecháte vtáhnout do šarvátek, si ušetříte mnoho nervů. Stejně to platí i pro domov.",
        "love": "Nezávazné užívání si přináší nejen radost, ale také značná úskalí. Zvažte své možnosti a také dopady, které vaše chování má.",
        "work": "Vaše názory nebudou dnes korespondovat s názory někoho z kolegů. Na místě je ale spíše odejít z bojiště beze slova a hádek.",
        "relationships": "Úsměv na tváři vám mohou vyvolat všetečné dotazy vašich ratolestí. Rostou vám před očima, tak si to pořádně užívejte.",
        "health": "Oči byste si měli slunečními brýlemi chránit i v zimě. Pořiďte si takové, které mají vhodný ochranný filtr a budou vám slušet.",
        "tips": "Čištění čalouněného nábytku, renovace domácnosti, péče o domácí mazlíčky, výcvik psa v přírodě, četba detektivního románu."
    },
    "cancer": {
        "main": "Docela se vám dnešní den bude dařit a před vámi jsou samé příjemné události. Ve všech oblastech života najdete něco, co vám vykouzlí úsměv na tváři. Nechte se nést osudem a jen přihlížejte, co vše hezkého vám pro dnešek hvězdy nachystaly, milí Raci.",
        "love": "Máte šanci svůj vytoužený protějšek potkat kdesi, kde se bude dnes odehrávat něco kulturního. Postačí i jen venkovní výstava.",
        "work": "Nadřízený se rozhoduje, jaké prémie vám nadělí. Do karet vám hraje váš zodpovědný přístup k plnění veškerých úkolů.",
        "relationships": "Kdosi z blízkých příbuzných se na vás obrátí s prosbou o radu. Neodmítejte ho a udělejte si pro něj dostatek času.",
        "health": "Bolesti zubů patří mezi jedny z nejhorších. Nezanedbávejte v této době svůj chrup. Zbytečně byste pak měli velké problémy.",
        "tips": "Studium nového oboru, hledání rekvalifikačních možností, nákup řezaných květin, výroba domácích dekorací, nákup elektroniky."
    },
    "leo": {
        "main": "Snažte se být více aktivní v milostném život, milí Lvi. Partner již delší dobu sleduje, jak pomalu váš vztah stagnuje, a celkem ho to děsí. Je načase ukázat protějšku, že vám na vztahu stále záleží a máte chuť udělat něco pro jeho zlepšení.",
        "love": "Jakákoliv aktivita z vaší strany bude jen vítána. Protějšek počítá s tím, že mu ukážete také svou vlídnější tvář, milí Lvi.",
        "work": "Dostane se vám ocenění od někoho, ke komu chováte velký respekt. Tím se ujistíte o tom, že vaše nápady jsou na vysoké úrovni.",
        "relationships": "U vás doma i dnes může být docela živo. Obejděte se již bez křiku a velkých hádek. To ocení v domácnosti všichni.",
        "health": "Naučte se pár nových zeleninových salátů. Zapojit můžete fantazii nebo se inspirujte v moderních kuchařkách a na internetu.",
        "tips": "Hra na hudební nástroje s dětmi, tanec, domácí karaoke, sledování oblíbeného dokumentu, péče o pleť, manikúra."
    },
    "virgo": {
        "main": "Nikdo není bez chyby, dokonce ani vy, milé Panny. Tak přestaňte klást vysoké nároky na své okolí, konkrétně na svého partnera. I on má své slabší dny a dnešek může být jedním z nich. Poděkujte za to, co pro vás udělá, ale nekritizujte ho zbytečně.",
        "love": "Není třeba vztekat se dnes na partnera, pokud nedodrží vše, co vám slíbil. Stačí, že vám splní to nejdůležitější.",
        "work": "Zvažte, do jakých projektů se pustíte. Je možné, že některé jsou opravdu nad vaše možnosti. Uvažujte s chladnou hlavou.",
        "relationships": "Nevyplatí se vám, abyste se vyhranili proti názorům ostatních. Došlo by k hádkám, které byste nemuseli zvládnout.",
        "health": "Starejte se o své vlasy stejně pečlivě jako v létě. Sychravé a mrazivé počasí jim dává opravdu zabrat. Potřebují výživu.",
        "tips": "Servis automobilu, nákup úklidových a hygienických prostředků, čtení knih s dětmi, fotografování domácích mazlíčků."
    },
    "libra": {
        "main": "Pracovní výsledky a vaše nekonfliktní povaha vám zaručují stálé místo v pracovním kolektivu. Není tedy nutné se dnes obávat o svou pozici v zaměstnání. Ale není také od věci si vylepšit vědomosti nebo zkušenosti novými kurzy v oboru. Najděte si nějaký.",
        "love": "Komunikace mezi vámi a vaším partnerem je na výborné úrovni. Hlavně díky tomu, že se snažíte trávit volný čas jen spolu.",
        "work": "Nemusíte se obávat o svou budoucnost ve firmě. Jste stabilní zaměstnanec, který má za sebou vynikající výsledky.",
        "relationships": "Začínající jaro vás stále láká ven. Nebraňte se tomu a vyrazte si na procházku. Nezapomínejte na své psí kamarády.",
        "health": "Očím prospěje alespoň malý digitální detox. Na suché a podrážděné oči pomohou kapičky z lékárny. Mějte je po ruce.",
        "tips": "Cvičení v přírodě, nákup sportovního oblečení na jaro, úklid ložnice, péče o starší příbuzné, videohovor s přáteli, domácí lázně."
    },
    "scorpio": {
        "main": "S partnerem vás spojují stejné morální hodnoty a také stejné zájmové činnosti. Díky tomu si stále máte o čem povídat a váš vztah nebude nikdy stereotypní. Možná že si časem najdete ještě nějaké nové koníčky, které vás budou provázet společně životem.",
        "love": "Máte mnoho témat k hovorům se svým partnerem a to je velké štěstí. Můžete tím vyplnit dny, kdy nemáte chuť na jiné aktivity.",
        "work": "Nadřízený vám dnes může vrátit projekt, o kterém jste měli ty nejlepší představy. Nevěšte hlavu, máte šanci se blýsknout.",
        "relationships": "Jestliže se potýkáte s momentální náladovostí potomků, nemusí jít jen o revoltu vůči vám. Možná mají svá trápení.",
        "health": "Vynechte dnes smažené pokrmy a fast food. Dejte přednost raději asijské kuchyni, kde máte na výběr zdravější jídla.",
        "tips": "Psaní fejetonů, hledání nové brigády, servis automobilu, hra na hudební nástroje, cvičení jógy podle internetu."
    },
    "sagittarius": {
        "main": "Dnes se nepokoušejte oponovat nadřízenému. Máte sice zřejmě pravdu, ale to neznamená, že mu ji musíte vmést do tváře. Pokud je situace vážnější, dejte přednost klidnému rozhovoru v soukromí, tak aby u toho nebyla celá kancelář. Jedině tak můžete obstát.",
        "love": "Možná jste se vy svobodní netrefili do výběru momentální partnera. Nevadí, budete mít šanci na nápravu velmi brzy.",
        "work": "Nesouhlas s názorem nadřízeného si dnes nechte pro sebe. Přijde vhodnější doba na otevřený rozhovor. Nyní to tak není.",
        "relationships": "Nenechte se pohltit pracovními povinnostmi. Máte také kolem sebe lidi, kteří potřebují vaši pozornost, pomoc či péči.",
        "health": "Vlasy jsou korunou krásy. I v domácích podmínkách lze účes udržet v dobré kvalitě. Nezapomínejte na vitaminy a kondicionéry.",
        "tips": "Četba sci-fi literatury, studium nového cizího jazyka, rozhovor s přáteli, práce se sociálními sítěmi, běh v přírodě."
    },
    "capricorn": {
        "main": "Nový směr v kariéře je to, co vás zajímá delší dobu. Dnes však pocítíte příval energie a nových nápadů. Rozhodněte se pro nové aktivity co nejdříve. Jinak s vámi bude dále cloumat nervozita a nejistota. Ku pomoci vám může být rada přítele.",
        "love": "Na cestách můžete narazit na velmi zajímavou osobu. Nemusí z toho hned být vážný vztah, ale dobré přátelství ano.",
        "work": "Blížíte se stále rychleji k novému směru v profesním životě. Dívejte se pozorně po všech znameních, která dnes potkáte.",
        "relationships": "Překvapí vás reakce někoho z blízkých na vaše rozhodnutí. V podstatě vám mluví do života. Zvažovat budete další kontakt.",
        "health": "I vám prospěje nějaká fyzická aktivita. Na zklidnění mysli udělá dobře ale pomalejší cvičení. Zkuste například jógu.",
        "tips": "Vaření nových receptů, sledování dokumentárního pořadu, třídění cd a dvd, poslech vážné hudby, cvičení v prostředí domova."
    },
    "aquarius": {
        "main": "V této náročné době máte jistě své starosti. Ale rozhodně nezapomínejte na své starší příbuzné, kteří se bez vaší pomoci již neobejdou. Jsou na vás v podstatě závislí, tak jim věnujte dostatek času a prostoru. Jednou budete na jejich místě vy.",
        "love": "S novým objevem zjistíte, že máte dost společných zájmů. Zjistěte, které koníčky můžete sdílet a věnovat se jim ve dvou.",
        "work": "Jestliže zatoužíte po dalších metách v kariéře, je dobré se více v oboru vzdělávat. Začněte s hledáním kurzů již dnes.",
        "relationships": "Nezanedbávejte své starší rodinné příslušníky. Ti jsou v tyto dny nejvíce izolovaní a potřebují kontakt a péči.",
        "health": "Neopomínejte do těla stále dodávat i vitaminy v tabletkách. Důležité v této době jsou C, D a také zinek a hořčík.",
        "tips": "Kardio cvičení v přírodě, nákup potravin v kamenném obchodě, psaní fejetonu, venčení a výcvik pejska, online seznamka."
    },
    "pisces": {
        "main": "Čeká vás celkem nervózní den, plný zásadních rozhodnutích. Vše je ale jen o klidné a prozíravé úvaze. Jistě si svá rozhodnutí dokážete obhájit, takže se nebojte dělat závěry a přednést svůj pohled na věc. Máte rozhodně právo projevit svůj názor.",
        "love": "Jestliže se rozhodnete dnes ukončit nevyhovující vztah, není to konec světa. Máte před sebou jiné a nadějné možnosti.",
        "work": "Situace v zaměstnání může být dnes opravdu náročná. Bohužel pro vás je to i dnes o vytrvalosti a sebekontrole.",
        "relationships": "Vylepšit svůj domov něčím pěkným nemusí být jen váš nápad. Pokud s tím přijde někdo z rodiny, jeho názor si vyslechněte.",
        "health": "Zuby by vás mohly brzy pozlobit. Objednejte se na preventivní prohlídku ke svému stomatologovi, ať nic nezanedbáte.",
        "tips": "Online výuka s dětmi, nové pracovní příležitosti, nákup sportovních potřeb na jaro, četba cizojazyčné literatury."
    }
}