{
    "aries": {
        "main": "Hvězdy vám přichystaly vhodnou půdu pro nové pracovní tahy. Nebojíte se být velkorysí a rozmáchnout se pěkně do široka. Nebudete vyčkávat a sami si vyberete, koho z vaší branže oslovit. Můžete najít nové pracovní partnery, klienty i zaměstnavatele.",
        "love": "Také na poli lásky dnes budete mít ohromné množství sil. Ani velmi vyčerpávající den v zaměstnání na tom nic nezmění.",
        "work": "Budete se po hlavě vrhat do nových kariérních vod. Netušíte, co vás čeká, a přesto nabídky přijímáte. Vítáte adrenalin.",
        "relationships": "Z bezpečí domova dnes budete utíkat, jak jen to půjde. Raději než trávit večer s rodinou si někam vyrazíte s přáteli.",
        "health": "Jste sice ve formě, ale nepřetěžujte se příliš. Doplňujte vitamíny a stopové prvky formou lehkých zeleninových pokrmů.",
        "tips": "Prezentace profesních schopností, realizace podnikatelských plánů, oprava automobilu, založení spoření, masáž, pedikúra."
    },
    "taurus": {
        "main": "V oblasti práce dojde k posunu. Vaše situace se změní, nemusí to ale bohužel být vždy k lepšímu. Patrně zjistíte, že jste na něco důležitého zapomněli. Bude třeba urychleně uvést vše do pořádku, aby se na vaše pochybení nenabalily další problémy.",
        "love": "Názory vašeho protějšku dnes mohou být příliš citově zabarvené. Měli byste si vzít k srdci spíše slova blízkých přátel.",
        "work": "Pokud se můžete o pracovních otázkách radit s více lidmi, udělejte to. Dnes platí více než jindy, že více hlav více ví.",
        "relationships": "Vůči rodině budete nároční, hlavně na potomky dnes kladete vysoké nároky. Mohli by pak získat pocit, že vás zklamali.",
        "health": "Žaludek jako na vodě nemusíte mít jenom kvůli stresu. Nelíbí se mu, když ho nalačno zaléváte konvemi silné černé kávy.",
        "tips": "Obhlídka nabídky bazarů a second handů, darování na charitu, procházka s dětmi zimní přírodou, deskové hry, šachy, dáma."
    },
    "gemini": {
        "main": "Začnou se objevovat nové pracovní možnosti. Jedinci, kteří už dlouho čekají na vhodnou příležitost, se mohou konečně dočkat. Je dokonce možné, že najednou nebudete vědět, které nabídce dát přednost. Bude užitečné to s někým probrat ze všech stran.",
        "love": "Vyhnete se vztahům bez perspektivy. Zapomenete na vzorec, podle něhož jste si doposud vybírali stejné typy partnerů.",
        "work": "Vaše schopnost pracovat je vynikající. Pokuste se ale všechny své zásadnější kroky konzultovat s životním partnerem.",
        "relationships": "Rádi byste podrobili vaši domácnost rozsáhlé rekonstrukci. Zchlaďte své nadšení a nepouštějte se do zbytečných prací.",
        "health": "Jako samostatný pokrm, přílohu, i do polévek zkuste pohanku. Vysoký obsah rutinu je maximální posilou pro cévní systém.",
        "tips": "Rozhovory s nadřízenými, prezentace vlastních odborných kvalit, účast na společenských událostech, navazování kontaktů."
    },
    "cancer": {
        "main": "Nepatříte k lidem, kteří by na sebe upozorňovali. Vaši spokojenost v zaměstnání může zkalit zjištění, že méně originální kolegové jsou lépe hodnocení než vy. Neprůbojné jedince tento fakt přiměje k tomu, že se budou snažit své výkony více vystavovat.",
        "love": "Svému protějšku dnes budete velmi pozorným a trpělivým posluchačem. Můžete si spolu popovídat na všechna možná témata.",
        "work": "Asi máte pocit, že za stejnou práci dostáváte zaplaceno méně. Vaše pracovní snahy by se měly zhodnotit za několik týdnů.",
        "relationships": "Situace se může začít vyvíjet ve váš prospěch. Měli byste se ovšem samostatně rozhodovat a pak si za svými názory stát.",
        "health": "Najdete způsob, jak si dokonale psychicky odpočinout. Možná vyzkoušíte zcela novou formu relaxace a už se jí nepustíte.",
        "tips": "Studium nových pracovních postupů, týmová spolupráce, obchodní jednání a telefonáty, skládání zkoušek, obnova šatníku."
    },
    "leo": {
        "main": "Vaše pozitivní rozpoložení se z víkendu přenese i do začátku pracovního týdne. V zaměstnání se budete cítit velmi dobře, nahrává vám totiž Mars v ohnivém Beranu. Pro vás to znamená nezdolnost a vytrvalost. Žádný úkol dnes pro vás nebude dost obtížný.",
        "love": "Vaše erotická fantazie dnes nezná mezí. Partnera zaskočíte novým dráždivým prádlem nebo dokonce hračkami pro dospělé.",
        "work": "V oblasti práce se nyní těšíte výjimečné nebeské přízni. Byl by hřích toho nevyužít a lenošit, to vás ale ani nenapadne.",
        "relationships": "Silným sebevědomím můžete ostatní jak okouzlit, tak vyprovokovat. V kontaktu s okolím proto volte promyšlený přístup.",
        "health": "V sauně nastartujete imunitu, která pak snadno čelí různým nákazám. Užívejte si ještě saunování, než skončí jeho sezóna.",
        "tips": "Zavádění nových pracovních postupů, oběd s nadřízeným, posezení v kavárně, výběr a nákup nových knížek, večerní četba."
    },
    "virgo": {
        "main": "Energie a elánu máte na rozdávání. V zaměstnání projevíte nebývalou samostatnost a rozhodnost. Díky zdravému sebevědomí si budete své nápady prosazovat zcela sami a i jejich realizaci zajistíte vlastními silami. I doma dnes budete mít hlavní slovo.",
        "love": "Dnešek přeje odvážným chvílím ve dvou. Svůj protějšek potěšíte milostným nábojem a zvýšenou chutí k experimentování.",
        "work": "Dnes se určitě nedržíte skromně v pozadí. Vyskytujete se tam, kde máte nejlepší šance navázat slibné pracovní kontakty.",
        "relationships": "Od svých blízkých budete požadovat málem nadlidskou dokonalost. Zvláště dospívající ratolesti to můžou nazvat drezúrou.",
        "health": "Rychlé pracovní tempo by mohlo narušit váš obvyklý stravovací plán. Nesnažte se oběd nahradit nekvalitním fastfoodem.",
        "tips": "Samostatné pracovní činnosti, vedení týmu, podnikání, záskok za nemocného kolegu, pohybové aktivity, večerní relaxace."
    },
    "libra": {
        "main": "Na druhé dnes budete pohlížet přehnaně kriticky. K lidem ve vašem okolí budete mít spoustu výhrad a pocítíte potřebu navést je na správnou cestu, ideálně podle vašeho vlastního vzoru. Nechte si své názory raději pro sebe, vděku byste se nedočkali.",
        "love": "Protějšek se vám raději klidí z očí, nestojí o žádný cholerický výbuch. Má vás přečtené a pozná, když uvnitř soptíte.",
        "work": "Pracovně si budete připadat trochu přehlížení, či naopak terčem závisti. Začátek nového týdne tedy nebude nejrůžovější.",
        "relationships": "Dnes se snažte být tichým posluchačem a o sobě příliš nemluvte. Na sobě uvidíte jenom klady, zato na druhých samé chyby.",
        "health": "Mlsání čokolády není hřích. Druhy s vysokým obsahem kakaa ukojí vaši chuť na sladké, posílí nervy a svědčí i cévám.",
        "tips": "Kontrola hospodaření s domácími financemi, údržba auta, cvičení v rychlém tempu, aerobic, zumba, bruslení, plavání."
    },
    "scorpio": {
        "main": "Na pracovišti oceníte přátelskou atmosféru a kamarádské vztahy s kolegy. Dostanete-li se do časové tísně, spolupracovníci vás v tom nenechají. V kolektivu zvládnete téměř jakoukoliv povinnost. Díky tomu přijdete domů včas a vyhnete se přesčasům.",
        "love": "Každý den nemůže být posvícení. Sice vás to zamrzí, ale necháte si něžnosti na jindy. Nechcete na partnera naléhat.",
        "work": "Na začátku nového týdne budete trochu v útlumu. Budete proto vyhledávat klid a dostatek času na plnění svých úkolů.",
        "relationships": "Budete se snažit s každým člověkem vycházet jenom v tom nejlepším. Konfliktům a hádkám se dokážete obratně vyhnout.",
        "health": "Nedostatek některých vitamínů a minerálů ve stravě působí fyzickou i duševní únavu. Zauvažujte o pestřejším jídelníčku.",
        "tips": "Káva s kolegy, týmová práce, studium, kolektivní sporty, setkání s přáteli, telefonát příbuzným a pozvání na Velikonoce."
    },
    "sagittarius": {
        "main": "Hvězdy vám budou dodávat iniciativu a sílu se prosadit. Po profesní stránce vám nebude co vytknout. Vaše schopnosti i výsledky vaší práce budou ceněny velmi vysoko. Ve svém oboru si teď můžete vybudovat dobré jméno, na kterém budete dále stavět.",
        "love": "Přeje vám ohnivá Venuše ve znamení Berana. Pokuste se vyznat své city, teď není na místě tajnůstkařit ani vyčkávat.",
        "work": "Mělo by se vám naskytnout více vhodných pracovních příležitostí. Při hledání nového místa máte velkou naději na úspěch.",
        "relationships": "Přesvědčíte svou rodinu o tom, že má ve vašem srdci své pevné místo, přestože máte i jiné povinnosti. Určitě to pochopí.",
        "health": "Pokud jste se dosud potýkali s určitou únavou, uleví se vám. Už si nebudete muset odpírat pohyb a sportovní aktivity.",
        "tips": "Plnění náročných úkolů, prezentace osobních kvalit, pracovní pohovory, procházka cestou domů, chvíle s oblíbeným hobby."
    },
    "capricorn": {
        "main": "Práce vám v pondělí půjde od ruky skoro sama. Hvězdy jsou na vaší straně, a tak prvním pracovním dnem proplujete bez potíží. Na stole nemáte z poslední doby téměř žádné resty a do nových úkolů se pustíte s elánem. Ještě se budete na všechny usmívat.",
        "love": "Seznamování vám nebude dělat žádný problém. Znáte své kvality, a tak s druhými flirtujete s naprostou samozřejmostí.",
        "work": "Tušíte, že by stačilo málo a byli byste ve svém oboru ještě váženější či bohatší než teď. Jde jenom o vaše priority.",
        "relationships": "Může se vám ozvat někdo, na koho poslední dobou hodně myslíte. Jakmile se spolu dáte do hovoru, bude to určitě nadlouho.",
        "health": "Všechno půjde jako na drátkách. Dnes určitě nebudete skuhrat, že už je zase pondělí. Do práce se naopak budete těšit.",
        "tips": "Vedení týmu spolupracovníků, kontrola internetového bankovnictví, studium odborné literatury, domácí práce, procházka."
    },
    "aquarius": {
        "main": "Pondělí vás zastihne ve vynikající formě. Je ideální čas pro pracovní záležitosti, ovšem s jedinou podmínkou. Kroťte svou přebujelou výřečnost, jinak by se snadno mohla vyhrotit ve váš neprospěch. Pro dnešek se zuby nehty držte hesla - mlčeti zlato.",
        "love": "V lásce je střídavě oblačno, výjimkou může být krátkodobý flirt. Silná vyzývavost ale může přitáhnout podezřelé osoby.",
        "work": "Při finančních operacích a sepisování důležitých dokumentů buďte opatrní. Mějte na paměti, že se nevyplatí spěchat.",
        "relationships": "Když už se jednou pevně rozhodnete, nezabývejte se pak neplodným přemítáním o promarněných možnostech. Čas nevrátíte.",
        "health": "Váš organismus nyní potřebuje určité ohledy. Bude třeba dodržovat pravidelné životní tempo, každý extrém vám škodí.",
        "tips": "Řešení praktických záležitostí, samostudium či vzdělávací kurzy, konzultace s finančním poradcem, návštěva příbuzných."
    },
    "pisces": {
        "main": "V pracovní oblasti budete moci trochu polevit. V základní strategii máte jasno a řada věcí bude běžet samospádem. Díky tomu budete už jen dolaďovat provozní detaily. Svou pozornost dnes věnujete ideální organizaci a řízení svých pracovních úkonů.",
        "love": "V čerstvých vztazích dnes převáží fyzická přitažlivost a sexuální radovánky. Delší partnerství naopak ovládne stereotyp.",
        "work": "Většina Ryb bude v zaměstnání zažívat poklidné chvíle. Ačkoliv je pondělí, nikdo po vás nebude žádat vyhrocené výkony.",
        "relationships": "Budete se s potěšením věnovat společenskému životu. Rádi si prodloužíte víkend a zúčastníte se nějaké atraktivní akce.",
        "health": "Svaly na nohách posilujte přirozeným způsobem. Věnujte více času procházkám, zabruslete si nebo si vyšlápněte schody.",
        "tips": "Úklid pracovního stolu, administrativní činnosti, přebrání a uspořádání písemností, pohodové posezení s dobrými přáteli."
    }
}