{
    "aries": {
        "main": "Hvězdy podporují vaši vytrvalost v práci i v lásce. Využijte jejich přízně pro realizaci náročných profesních plánů. Ozáří také oblast milostných vztahů a rozpustí všechny ledy. Pokud jste usilovali o něčí přízeň, teď by vám to mohlo konečně vyjít.",
        "love": "Budete si gratulovat, že po svém boku máte tak skvělého partnera. V jisté situaci by se každý druhý zachoval jinak.",
        "work": "Je vhodný čas pro vytrvalostní činnosti. S trpělivostí dokončíte, co jste započali, a uspějete v soutěživém kolektivu.",
        "relationships": "V mezilidských vztazích bude všechno plynout hladce a v poklidu. S kýmkoliv teď budete schopní se přátelsky domluvit.",
        "health": "Snažte se o dobrou koordinaci pohybů, nadměrná zbrklost by mohla vést k úrazům. Náchylné jsou zvláště končetiny a hlava.",
        "tips": "Realizace náročných profesních plánů, zahájení podnikání, oslovení zbožňovaného protějšku, návrh sestěhování či sňatku."
    },
    "taurus": {
        "main": "V zaměstnání se posunete v poznání svých spolupracovníků. Někteří z nich se nečekaně vybarví k lepšímu. Možná máte pocit, že mrháte časem, protože váš přínos nikdo nevidí. O to víc vás překvapí kolega, který vyzdvihne vaše výsledky před ostatními.",
        "love": "V lásce dnes máte sklon jít na všechno rozumem. Bude se vám dařit spíše milostná komunikace než spontánní projevy citů.",
        "work": "Ve čtvrtek upevníte kolektiv spolupracovníků. Dáte se do společného díla a při plnění povinností se stihnete i pobavit.",
        "relationships": "S členy širší rodiny budete dobře vycházet. Vážíte si toho, protože ze zkušeností víte, že to není samozřejmá situace.",
        "health": "Dlouhé hodiny práce na počítači přetěžují vaše záda i ruce. Dopřejte jim pravidelně uvolnění pomocí cílených cviků.",
        "tips": "Navazování pracovních kontaktů, seznamování s novými lidmi, pracovní pohovor, sledování veseloher a zábavných skečů."
    },
    "gemini": {
        "main": "Budete se cítit zamilovaní, jako by paprsky předjarního sluníčka rozehřívaly i vaše srdce. Partner vás začne přitahovat novým kouzlem či se můžete do někoho platonicky zakoukat. Nezadaní budou silně vnímat signály, které k nim vysílá opačné pohlaví.",
        "love": "Amorovy šípy vás zasáhnou přímo do srdce. Dlouhodobě zadaní Blíženci budou prožívat rozechvění jako na začátku vztahu.",
        "work": "Nezaměstnaní mohou narazit na ideální místo. Nejde vám pouze o finanční stránku, ale také o uplatnění vašich zkušeností.",
        "relationships": "Partner ocení, když mu pomůžete s obvyklými povinnostmi v domácnosti. Budete mít pak mnohem více času jeden na druhého.",
        "health": "Zdravý a pravidelný milostný život vám zajišťuje dobrou náladu a hlavně pevné zdraví. Žádnou posilovnu nepotřebujete.",
        "tips": "Tvůrčí činnosti, práce s mezilidským kontaktem, večerní intimní chvíle ve dvou, důvěrné rozhovory, vyznání citů, rande."
    },
    "cancer": {
        "main": "Potíže s kolegy nebo s nadřízeným nebudou mít ve čtvrtek dlouhého trvání. Vše se během krátké chvíle vyjasní. Nemáte problém uznat svou chybu nebo druhým vyjít vstříc. To vám dnes mezilidskou komunikaci výrazně usnadňuje, a to nejen na pracovišti.",
        "love": "Někdo z vašich známých se vám stále více duševně přibližuje. Je otázkou, zda vzklíčí přátelství, nebo láskyplný cit.",
        "work": "Většina Raků si v práci nejvíce cení mezilidských vztahů a materiální ohodnocení řeší až druhotně. Platí to i dnes.",
        "relationships": "Hvězdy vám dávají schopnost bezproblémové komunikace. Můžete bez obav absolvovat veřejné projevy, přednášky či jednání.",
        "health": "Dlouhé vysedávání u počítače příliš nesvědčí vašim očím. Nezřídka zjistíte, že potřebujete silnější dioptrické brýle.",
        "tips": "Vylepšování vztahů na pracovišti, zaškolení nového kolegy, úklid kanceláře, péče o pokojové rostliny, školení, sauna."
    },
    "leo": {
        "main": "Vaše pracovní výkony budou i dnes vynikající. Nadřízeným nedáte jediný důvod, aby si vás povolali na kobereček. Právě naopak, budou si vás a vašich výsledků mimořádně považovat. Uvědomují si, jaké s vámi udělali terno, a ocení vás ústně i finančně.",
        "love": "Je ideální den pro partnerské vztahy, proto si vyhraďte dostatek času pro svůj protějšek. Užijete si vzrušující večer.",
        "work": "V práci jste na výsluní zájmu. Ve svém oboru jste nenahraditelní a nadřízení se mohou přetrhnout, aby si vás naklonili.",
        "relationships": "Budete se zajímat o životy svých blízkých, rádi se dozvíte i jejich plány do budoucna. Povídání se docela protáhne.",
        "health": "Vyšší hladinu energie využijte ke sportování všeho druhu. Možná, že si na víkend zajistíte i lyžařský zájezd na hory.",
        "tips": "Zodpovědné pracovní činnosti, pohodová procházka v přírodě, návštěva příbuzných, výstava, domácí aromaterapie, meditace."
    },
    "virgo": {
        "main": "V práci máte sklon být na sebe příliš tvrdí. Opatrně, hrozí vám přepracování a následná podrážděnost, kterou by nejvíce odnesli vaši nejbližší. Když pojedete na doraz, síly vás brzy opustí. Efekt pak bude zcela opačný, než byste si představovali.",
        "love": "Mezi vámi a partnerem může dojít k ostřejší výměně názorů. Slovní přestřelka by mohla vyústit až v tichou domácnost.",
        "work": "Nadřízení na vás mohou mít požadavky, které by znamenaly hodiny práce navíc. Než kývnete, posuďte své reálné možnosti.",
        "relationships": "Toužíte se věnovat činnostem, které jsou prospěšné pro více lidí. Chcete být užiteční a pomáhat podle svých možností.",
        "health": "Křehčí osobnostní typy Pannen by si měly dobře rozvrhnout síly. Nechcete přece pod silným pracovním tlakem zkolabovat.",
        "tips": "Administrativní činnosti, servis a mytí automobilu, kontrola jeho vybavení, zábavné aktivity s dětmi, zdravotní cvičení."
    },
    "libra": {
        "main": "Je příhodný čas vypustit trochu horké páry. Mnoho jedinců bude bublat jako Papinův hrnec, který už už hrozí výbuchem. Když zmírníte svůj vnitřní přetlak, ochráníte sebe i okolí před hysterickou scénou. Ulevilo by se vám, ale vůbec byste si nepomohli.",
        "love": "Komplikované to dnes mají páry, které se vyskytují na jednom pracovišti. Budete potřebovat notnou dávku trpělivosti.",
        "work": "V mezilidských vztazích dnes nemáte daleko k pověstnému slonovi v porcelánu. Mohli byste někoho urazit, než se nadějete.",
        "relationships": "Lidi vás dnes nějak rozčilují. Chtěli jste nakupovat, ale tlačenice v obchodech vás natolik otráví, že to raději vzdáte.",
        "health": "Sport na čerstvém vzduchu na vás bude mít okamžitý pozitivní dopad. Jen pasivně nečekejte, až se vám nálada zvedne sama.",
        "tips": "Procházka na čerstvém vzduchu, netradiční sporty, nákup vonných olejů, domácí aromaterapie či koupel ke zmírnění napětí."
    },
    "scorpio": {
        "main": "Bude dobré věnovat se zaměstnání s velkou pozorností a vážností. Měli byste na sobě stále pracovat, aby vás nezaskočily žádné náročné výzvy. Alespoň se o to pokuste. I pouhou snahu nadřízení zaregistrují a mohou ji brát v potaz při ohodnocování.",
        "love": "Partnera se dnes můžete něčím dotknout, takže začne trucovat. Nezbude vám asi nic jiného, než přijít za ním s omluvou.",
        "work": "Kvalitní odborné či jazykové kurzy nebývají levné. Vzhledem k vaší práci či podnikání ale mohou být skvělou investici.",
        "relationships": "Někdo z rodiny vás zaskočí svou sloní pamětí. Předhodí vám vaše dávné chování či slova, která byste nejraději zapomněli.",
        "health": "Něco vás trápí, což se může odrazit na vašem trávicím ústrojí. Budete se cítit podle rčení, že vám něco leží v žaludku.",
        "tips": "Zavádění nových pracovních postupů, samostudium, přednášky, vyučování ostatních, nákupy svršků, sport s protějškem."
    },
    "sagittarius": {
        "main": "Budete mít velkou potřebu společenských kontaktů. Pokud vás čekají jakékoliv povinnosti, bude vám vyhovovat kolektivní práce. O samotě byste se dnes unudili. Také po práci si nejlépe odpočinete tam, kde jsou lidé. Budete vyhledávaným společníkem.",
        "love": "Dnes se budete nejlépe cítit mezi kamarády. Nejspíše vyhledáte společnost starých přátel, které znáte už od dětství.",
        "work": "Všechno se daří, máte výtečnou náladu a okolí bavíte různými žerty. Některé mrzouty ve vaší blízkosti to může otrávit.",
        "relationships": "Poučování od starších příbuzných ustojíte s ledovým klidem. Možná pak sami pro sebe uznáte, že mají v mnohém pravdu.",
        "health": "Dnes budete potřebovat více času, abyste se patřičně zklidnili a mohli se soustředit na práci. Budete silně neposední.",
        "tips": "Setkání s přáteli, probírání novinek, společná návštěva kina či koncertu, večer v hospůdce, plánování třídního srazu."
    },
    "capricorn": {
        "main": "Jste trochu na vážkách, zda se nemáte pustit do milostného dobrodružství. Přepadají vás nebývale hříšné myšlenky. Je ale pravděpodobné, že u těchto vzrušujících představ také zůstane. Budete mít zábrany udělat rozhodující krok a nevěru zrealizovat.",
        "love": "Venuše ve znamení Berana nastolila zásadní otázky. Je třeba, abyste si uvědomili, co pro vás znamená láska a co sex.",
        "work": "Jistá zkušená osoba vám bude nápomocná ve vašich pracovních záměrech. Přinejmenším vám přispěje radou k nezaplacení.",
        "relationships": "Kontrolu domácích úkolů ratolestí přenechte partnerovi. Dnes nemáte dost trpělivosti na to, abyste potomky poučovali.",
        "health": "Neuvážené vztahy na jednu noc by vás mohly stát nejenom dobrou pověst, ale hlavně dobré zdraví. Buďte proto opatrní.",
        "tips": "Uspořádání pracovního stolu a dat v počítači, důležité porady, plánování studijních aktivit, krásné chvíle s protějškem."
    },
    "aquarius": {
        "main": "Po pracovní stránce vám bude vyhovovat spíše rodinné klima. Pokud pracujete v malé firmě, kde se osobně zná každý s každým, budete ve svém živlu. Vše by mělo plynout zcela hladce. Vedete-li rodinný podnik, budete se cítit jako člověk na svém místě.",
        "love": "S partnerem si promluvíte o věcech, na které jindy nemáte čas. Oba jste velmi vstřícně naladění, takže hádky nehrozí.",
        "work": "V zaměstnání nedáte dopustit na týmovou práci, mezi kolegy vám bude nejlépe. Jako nadřízení budete vstřícní a shovívaví.",
        "relationships": "Dobře víte, co na druhé platí. Dnes se v lidech skvěle vyznáte, takže máte šanci uspět i v té nejsložitější komunikaci.",
        "health": "Nezapomeňte pravidelně doplňovat tekutiny. Dehydratace by měla za následek nepříjemné bolesti hlavy a nesoustředěnost.",
        "tips": "Preventivní prohlídka u lékaře, týmová práce, oběd s kolegy, vyzvednutí dětí ze školy, karetní hry s rodinou, kino."
    },
    "pisces": {
        "main": "Je ideální čas pro tvůrčí rozlet. Budete mít přebytek nápadů pro kreativní pracovní činnosti. Pokud vám vaše profese může nabídnout jen rutinu, budete se realizovat třeba v nápadité úpravě svého pracovního prostoru či při jarní výzdobě příbytku.",
        "love": "Přátelství se daří, ale partnerství pro vás bude spíše neznámou půdou. Chování protějšku dnes nebude moc průhledné.",
        "work": "Mnozí zrozenci se dnes ujistí, že jsou v mnohých tvůrčích oborech nadprůměrně talentovaní. Zvýší jim to sebevědomí.",
        "relationships": "Uděláte vše pro to, aby vaše domácí prostředí bylo na jaro útulné a harmonické. Zapojíte svou fantazii i tvořivost.",
        "health": "Od rána vás bude honit mlsná. Oběd v práci vás neuspokojí. Cestou domů nakoupíte a překvapíte rodinu labužnickou večeří.",
        "tips": "Kreativní pracovní činnosti a koníčky, vylepšování pracoviště, vytřídění složek v počítači, malování, tvůrčí psaní."
    }
}