{
    "aries": {
        "main": "Nechoďte dnes kolem něčeho jako kolem horké kaše a věnujte se tomu, co je pro vás opravdu důležité. Je lepší jít s pravdou ven a neotálet, jinak budete muset čelit zbytečným výčitkám z prodlení, a to by vám rozhodně vůbec nepřidalo.",
        "love": "Dnes se pokuste stát za vaším milovaným, i když nebudou všechny věci tak jednoduché, jak byste si přáli. Zlepší se to.",
        "work": "Pracovně toho zvládnete tolik, že se sami budete divit, proč se vlastně neděli říká neděle. A budete se mít čím chlubit.",
        "relationships": "Neděle pro vás bude ve znamení rodinných akcí. Tak si je pěkně všechny užívejte a netrapte se stále minulými strastmi.",
        "health": "Budete vás bavit pečovat o vaše zdraví, tak se věnujte tomu, co vám dělá radost a nezapomínejte se jaksepatří rozmazlovat.",
        "tips": "Odpouštění, učení se novým věcem, seznamování s novými lidmi, nákupy v akcích, sport, nakupování v akcích, pečení."
    },
    "taurus": {
        "main": "Pokuste se být dnes předvídavější a netrápit se tolik tím, co si o vás myslí okolí. Důležité je, abyste byli vnitřně ztotožněni s tím co děláte. Jedině tak nebudete mít večer hlavu v dlaních a v mysli několik filozofických otázek ohledně svého konání.",
        "love": "Nebude vás dnes bavit se přizpůsobovat, ale na druhou stranu nebudete chtít o vašeho milovaného prostě vůbec přijít.",
        "work": "Pokud někdo bude tápat a požádá váš o pomoc, tak byste ho neměli nechávat na holičkách a pokusit se tu být pro něj.",
        "relationships": "Dnešek pro vás bude mít spoustu zajímavých situací a vy budete mít radost, že si můžete dopřát, na co máte chuť.",
        "health": "Dnešek pro vás bude převratný v tom, že se konečně dozvíte nějakou opravdu zásadní informaci ohledně vašeho zdraví.",
        "tips": "Relax, seznamování s novými lidmi, nakupování v akcích, sledování oblíbených filmů, povídání o životě, odpouštění."
    },
    "gemini": {
        "main": "Udělejte si dnes ve svých věcech jasno. Pokud mezi vámi a vašimi blízkými vzniklo nějaké zbytečné napětí, zkuste si všechno vyjasnit a nemuset se potom trápit všemi těmi otazníky okolo. Jděte si za svým a nehleďte stále jen na to, co bylo kdysi.",
        "love": "Náročné situace budete dnes zakoušet ve vztahu, protože nebudete příliš ochotní dělat kompromisy. Ono se to srovná.",
        "work": "Dnes byste měli jít do nějaké zajímavé akce, která by vám umožnila cítit se dobře. Pracovně byste si mohli polepšit.",
        "relationships": "Dnes byste se neměli stresovat tím, že nemůžete některé věci doma zvládnout dostat pod kontrolu. Dejte tomu více času.",
        "health": "Nemějte dnes přílišnou péči o to, co si o vás myslí okolí. Důležité je, aby vám bylo dobře. Tak o sebe dobře pečujte.",
        "tips": "Zkoušení nových cest, sledování nedělní pohádky, výlet do ciziny, procházka v přírodě, uklízení obydlí, lyžování, sport."
    },
    "cancer": {
        "main": "Nebudete mít dnes nikde stání, protože vás bude pohánět k činnosti nějaký rest. Ať už se bude jednat o nedodělek na pracovní nebo domácí půdě, bude vás to trápit a není vyloučeno, že kvůli tomu vznikne i nějaká zbytečná hádka, tak obezřetně.",
        "love": "Pokud vám dnes bude líto, že vám v lásce nějaké věci v současnosti příliš nefungují, zkuste na změnách pracovat spolu.",
        "work": "Pokud vám dnes bude smutno, že nějaké věci nevycházejí tak, jak byste si přáli, tak se pokuste odhodlat ke změnám a bude.",
        "relationships": "Bude vás bavit číst si knihy svého mládí a budete mít radost, když budete moci tuto dovednost někomu opravdově předat.",
        "health": "Dnes vás nebude bavit dělat věci, které vám nic neříkají. Vaše psychika je opravdu velmi důležité, tak opatrně na vše.",
        "tips": "Odpočinek u přátel, seznamování s novými lidmi, povídání o životě, poslech muziky, hra na hudební nástroj, relax."
    },
    "leo": {
        "main": "Krůček za krůčkem se dnes budete blížit ke svému vytyčenému cíli a pokud se jednalo o cíl milostný, pak vás může osud spojit s někým, s kým se znáte už dávno ze svých snů. Nyní budete mít konečně pocit, že se váš sen zhmotnil a bude vám skvěle.",
        "love": "Budete smutní, že poslední dobou máte o nápadníky nouzi. Ale už velmi brzo se to může změnit, tak nepropadejte panice.",
        "work": "Jestliže byste potřebovali delší čas na nějaké vaše věci, tak si ho vyžádejte. Je totiž opravdu zapotřebí přičinit se.",
        "relationships": "Nemějte velké trápení s tím, co byste mohli nebo nemohli. Jděte si prostě za svým a užívejte si, že věci běží samospádem.",
        "health": "Nebudete dnes vědět, jak byste měli lépe zapracovat na svojí kondičce. Nakonec ale dobrá myšlenka opravdu přijde.",
        "tips": "Poslech muziky, nakupování v akcích, seznamování s novými lidmi, povídání o životě, pouštění se do nových věcí."
    },
    "virgo": {
        "main": "Vůči pomoci někoho z rodiny dnes nebudete mít žádné námitky. I když vám bude trochu žinantní, že vám pomáhá někdo, kdo má sám velmi mnoho práce. Když mu nicméně dovolíte, aby vám pomohl, bude mít hned mnohem lepší pocit a vy nakonec také.",
        "love": "Nehrajte si s ohněm jenom kvůli tomu, že se chcete s vaší láskou poměřovat, to by vedlo akorát do pekel, kam nechcete.",
        "work": "Bavit vás dnes budou všechny kreativní činnosti, tak se do nich pusťte a uvidíte, jaké z vás budou padat nečekané perly.",
        "relationships": "Nemračte se na lidi okolo vás, to by vám nic dobrého nepřineslo a zbytečně byste se trápili tím, že věci neklapou.",
        "health": "Pusťte se do cvičení. Ukáže se totiž, že byste opravdu potřebovali více pohybu a neměli byste už otálet s utužováním kondice.",
        "tips": "Učení se novému, poslech muziky, nakupování v akcích, výlet do přírody, rozhovory mezi čtyřma očima, sportování, relax."
    },
    "libra": {
        "main": "Nedělejte dnes z komára velblouda, některé věci mají svůj čas, tak jim ho musíte dopřát. Mohli byste si ale v nějakém směru nepříjemně naběhnout, tak opatrně važte slova, protože jinak se pak budete muset zbytečně omlouvat, což právě nemilujete.",
        "love": "Nebudete dnes umět říci někomu důrazné ne, což může vést k mnoha náročným situacím, kterých byste se mohli vyvarovat.",
        "work": "Něco byste dnes měli využít jako příležitost a ne se stále trápit kvůli hloupostem. Nebojte se jít si za svým a odpouštět.",
        "relationships": "Odpusťte někomu z blízkých, že vám cosi důležitého zatajil. Nebylo to nic proti vám, ale příčiny mohly být všelijaké.",
        "health": "Netrapte se dnes kvůli tomu, že máte často migrénu. Zkuste spíše změnit životní styl a uvidíte, že vám hned bude líp.",
        "tips": "Sex, seznamování s novými lidmi, poslech muziky, hraní na hudební nástroj, sledování oblíbených filmů, nakupování."
    },
    "scorpio": {
        "main": "Nesmutněte dnes kvůli nějaké minulé záležitosti. Minulost už je skončená a nic na ní nezměníte. Zkuste si odpustit a tak to udělejte si s vaším okolím. Jedině tak vám bude zase dobře a dovedete si více užívat přítomnost. Je to už opravdu zapotřebí.",
        "love": "Nebojte se dnes udělat přítrž něčemu, co vás již delší dobu trápí. Budete se pak cítit mnohem lépe a také klidněji.",
        "work": "Vaši kolegové vás dnes podpoří ve vašich věcech a vy se budete divit, co všechno se dá zvládnout, když opravdu zaberete.",
        "relationships": "Nebudete mít dnes čas řešit drobné závady v domácnosti, ale nakonec se s nimi stejně budete muset zabývat ve volném čase.",
        "health": "Někdo vám dnes trochu rozhodí obvyklý životní styl a vám bude trvat, než se zase srovnáte do svojí pohodové rutiny.",
        "tips": "Příprava dobrého jídla, poslech muziky, seznamování s novými lidmi, povídání o životě, fotografování, nakupování."
    },
    "sagittarius": {
        "main": "Dnešek pro vás bude mít mnoho možností, jenom se musíte odpovědně rozhodnout, na kterou budete chtít kývnout a která už bude mimo obor vašeho zájmu. Všechno totiž rozhodně nemáte šanci stihnout. Chce to rozhodnout se raději odpovědně a včas.",
        "love": "Spokojenost v lásce pro vás bude velkou hodnotou, které si budete cenit a bude mít pro vás svou cenu. I cenu hádky.",
        "work": "Dnešek pro vás bude v něčem opravdu přelomový. Tak se nebojte jít si za svým a netrápit se kvůli starým možnostem.",
        "relationships": "Pokud vás dnes někdo z rodiny požádá o pomoc, neměli byste ho nechat na holičkách, to byste si později opravdu vyčítali.",
        "health": "Nemračte se dnes na někoho jenom proto, že bude upřímný. Není vyloučeno, že byste mohli se svojí váhou něco dělat.",
        "tips": "Zkoušení nového oblečení, dekorování domácnosti, odpočinek u přátel, poslech muziky, učení se novému, povídání."
    },
    "capricorn": {
        "main": "Budete si dnes muset s blízkými vážně pohovořit, protože budete mít pocit, že si v poslední době příliš nerozumíte. Bude to pro vás nejdůležitější část dne, ale je otázka nakolik budou vaším plánem na rodinnou poradu nadšeni také přímo vaši blízcí.",
        "love": "Pokud byste potřebovali dnes něco dodělat a váš miláček měl docela jiné plány, tak se nebojte být k němu víc upřímní.",
        "work": "I když nebude ještě všechno docela ideální, i tak dovedete spoustu věcí dotáhnout a nebudete se trápit kvůli maličkostem.",
        "relationships": "Dnešek pro vás bude mít spoustu nových možností, vy byste si je mohli pěkně užít. Jenom to chce být trpěliví a vše půjde.",
        "health": "Nebudete-li mít dnes moc nabitý program, tak si udělejte více volna a pusťte se do nějaké fyzické aktivity. To je třeba.",
        "tips": "Seznamování s novými lidmi, poslech muziky, relaxování, sportování, tancování, pronájem či půjčování, nakupování."
    },
    "aquarius": {
        "main": "Někdo vám dnes projeví svou přízeň a vy budete mít radost, že máte nové přátele. Užívejte si nového a nesklouzávejte vzpomínkami stále k minulosti. Přítomnost pro vás bude mít mnohem více lákadel a budete mít opravdu radost, že si je můžete užívat.",
        "love": "Zkuste dnes vůbec nemarnit čas s těmi, s nimiž vám není dobře, a buďte s těmi, s nimiž vám dobře naopak je, a to velmi.",
        "work": "Někdo pro vás bude mít dnes v práci pochopení, což vás přivede na myšlenku, že byste mohli společně něco i dokázat.",
        "relationships": "Dnes buďte obezřetní s tím, jak se chováte k blízkým. Mohli by si nějaké vaše jednání vykládat jinak, než si přejete.",
        "health": "Přidejte si do jídelníčku více ovoce a zeleniny a uvidíte, jak vaše energie zase vystoupí o kousíček více, je to třeba.",
        "tips": "Sledování oblíbených filmů, poslech muziky, ochutnávání nových pokrmů, seznamování s novými lidmi, nakupování, sport."
    },
    "pisces": {
        "main": "Užívejte si dnes volných chvilek, které jste si dovedli vyšetřit a nemyslete stále jenom na starosti. To by vám rozhodně v ničem nepomohlo a cítili byste se akorát pod psa. A vy si naopak zasloužíte onen báječný pocit, že všechno běží tak, jak má.",
        "love": "Dnešek vás přesvědčí o tom, že láska na první pohled existuje a může se připlést do cesty i přímo vám. Uvidíte sami.",
        "work": "Nemarněte dnes čas zbytečným vyptáváním, protože potřebujete udělat spoustu důležitějších věcí, které už dlouho hoří.",
        "relationships": "Společně zhlédnutá nedělní pohádka vás všechny zklidní a umožní vám užívat si rodinné pohody, kdy nikam nechvátáte.",
        "health": "Dnešek pro vás bude v něčem velmi zásadní. Můžete se dozvědět nějaké informace o tom, jak o něco vylepšit své zdraví.",
        "tips": "Nakupování v akcích, seznamování s novými lidmi, poslech muziky, učení se hře na hudební nástroj, odpočinek u krbu."
    }
}