{
    "aries": {
        "main": "Užijte si dnešní úplňkový den nějakým speciálním způsobem, který vás naplní radostí ze života. Pokud pojedete ve stále stejných kolejích, můžete se cítit bez nálady jako tomu bylo poslední dobou stále. Nějaké novinky už jsou totiž opravdu nutné.",
        "love": "Láska pro vás dnes bude mít příchuť zakázaného ovoce, a to i když se bude jednat o dlouhodobý vztah. Bude to situací.",
        "work": "Nelamte si dnes hlavu s tím, že nebude právě jednoduché nějaké projekty dotáhnout do konce, nakonec to dáte dobře.",
        "relationships": "Ve vaší rodině dnes dojde k několika zajímavým událostem, tak si je užívejte a zapomeňte chvíli na minulost, to je třeba.",
        "health": "Nebudete dnes vědět, zda řešit nejdříve nějakou zdravotní indispozici nebo pracovní resty. Začněte ale raději zdravím.",
        "tips": "Nakupování, pronájem či půjčování, seznamování s novými lidmi, poslech muziky, výlet do jiného města, odpočinek."
    },
    "taurus": {
        "main": "Dnes byste neměli váhat s nějakými činnostmi, které už jste delší dobu odkládali. Využijte sílu jarního úplňku, která vám dodá energii a umožní vám mít velkou intuici. Ta vám ukáže kudy kam a dovedete díky ní správně odhadnout, co a jak udělat.",
        "love": "Dnešek pro vás bude mít spoustu milostných lákadel, ale neměli byste zcela zapomínat na opatrnost. Ta je opravdu důležitá.",
        "work": "Pokuste se být dnes těmi, kdo jdou v práci příkladem a netrapte se kvůli hloupostem. To by vám totiž vůbec neprospělo.",
        "relationships": "Dnešek pro vás bude mít mnoho novinek v oblasti rodinných vztahů a vy budete velmi vděčni za vše, čeho se vám dostane.",
        "health": "Cosi vás dnes poučí, že zdraví by mělo být na první místě. Neváhejte jít si za tím, co považujete opravdu za nutné.",
        "tips": "Zkoušení nových věcí, povídání o životě, seznamování s novými lidmi, odpočinek u přátel, práce na nějakých restech."
    },
    "gemini": {
        "main": "Dnes byste si mohli užít příjemně úplňkového dne i noci, aniž by na vás sedala obvyklá deprese. To, že jste citlivější, nemusí vždycky totiž znamenat negativa. Naopak, pokud nasměrujete své nitro ke kreativitě, můžete stvořit i velmi zajímavá díla.",
        "love": "Pokud pro vás dnes něco bude mít v lásce velkou váhu, pak to bude důvěra. Té byste si měli cenit a nezapomínat na ní.",
        "work": "Práce budete mít dnes až nad hlavu, ale pokud nepolevíte, můžete mít velmi dobré výsledky, které vás ve finále potěší.",
        "relationships": "Nebojte se dnes opřít do nějaké rodinné aktivity, která pro vás bude mít velký význam. Dostane se vám velké cti, uvidíte.",
        "health": "Pokud vás dnes někdo zklame, tak se mu pokuste odpustit. Čím více se tím budete užírat, tím vám bude hůře. Pozor na to.",
        "tips": "Odpočinek u přátel, seznamování s novými lidmi, odpouštění, povídání mezi čtyřma očima, zkoušení nového oblečení."
    },
    "cancer": {
        "main": "Nebudete dnes věřit svým očím, protože celý den k vám budou směřovat velmi zajímavé informace. Prověřování jejich pravosti však nechte ještě na později. Dnešní úplněk vás totiž zve k nějaké umělecké činnosti, v níž můžete při dnešku vynikat.",
        "love": "Nemějte dnes velké výčitky svědomí kvůli tomu, že jste nějakou drobnost před partnerem zatajili. Však on vám odpustí.",
        "work": "Když si dnes vezmete v práci něco do hlavy, málokdo vám to vymluví. Tak si jděte za svým, odpouštějte a nedejte se.",
        "relationships": "Pokud budete toužit po nějakých nových rodinných událostech, tak se pokuste také přičinit. Může se vám leccos podařit.",
        "health": "Nebojte se dnes udělat i nějaké odvážnější kroky v oblasti zdraví. Poděkuje vám za to a vám bude zase o dost lépe.",
        "tips": "Zkoušení nového oblečení, seznamování s novými lidmi, odpočinek u přátel, nakupování v akcích, sportování, povídání."
    },
    "leo": {
        "main": "Nebudete dnes muset dlouho váhat, zda kývnout někomu na schůzku. Pokud ale dotyčného neznáte, volte nějaké neutrální a bezpečné území, pak vám svit úplňku bude připadat romantický, a ne jako kulisa v nějakém počínajícím hororu. Radši opatrně.",
        "love": "Dnes byste něco mohli pokazit hloupou poznámkou, kterou tak ani myslet nebudete, ale toho druhého se může dotknout.",
        "work": "Dnes toho můžete hodně dosáhnout, chce to jenom nebát se jít si za svým a následovat svoje sny. To je opravdu důležité.",
        "relationships": "Neměli byste se bát nějaké věci dotáhnout přesně k takovému výsledku, po kterém již delší dobu toužíte. Doma to ocení.",
        "health": "Než dnes někomu kývnete na nabídku, měli byste si radši dobře promyslet, zda je to pro vás zásadní či naopak.",
        "tips": "Seznamování s novými lidmi, poslech hudby, zkoušení nových věcí, rozhovory mezi čtyřma očima, sportování, nakupování."
    },
    "virgo": {
        "main": "Úplněk vás dnes bude ovlivňovat mnohem více, než byste si mysleli, můžete to ale využít pozitivně. Nebojte se nových projektů, které pro vás budou dostatečnou tvůrčí výzvou. Nepokoušejte se ale prorazit v oblasti kalkulu, to by příliš neklaplo.",
        "love": "Nemračte se na vašeho miláčka, protože se můžete dočkat nemilých překvapení, kterým bude lepší čelit s větším úsměvem.",
        "work": "Nebojte se dnes udělat něco více pro to, aby se vám sny začaly plnit. Potěší vás to a budete pak hnedle spokojenější.",
        "relationships": "Vřelé objetí někdy zmůže více než tisíce slov, nebojte se dát najevo vaše emoce. Máte na to, abyste všechno zvládli.",
        "health": "Vaše zdraví bude dnes nepříliš dobré, ale měli byste si více věřit. Všechno se zlepší, když budete chtít, uvidíte to.",
        "tips": "Nákup jarního oblečení, hledání nového kroužku pro děti, postelové hrátky s partnerem, relax u dobrého filmu, vaření."
    },
    "libra": {
        "main": "Udělejte si dnes pěkný výlet. Zvedne vám to náladu a budete moci pozorovat úplněk z netradičního místa. Chce to dobře volit, kam se vydáte, ale úplňková energie vás zdárně povede, tak se neste na vlně inspirace a čerpejte raději z nových zážitků.",
        "love": "Dobrá pohoda pro vás dnes bude základem, a pokud bude váš milovaný stejně dělat vlny, tak buďte raději dosti opatrní.",
        "work": "I když se vám bude zdát, že se nějaké věci vlečou, je zapotřebí nenechat se spoutat do starých stereotypů a jít dále.",
        "relationships": "Dnes byste měli věřit v sílu pozitivních emocí, na zoufání je vždycky dost času, nyní věřte v sebe i sílu rodinných pout.",
        "health": "Pokud budete mít dnes napilno, tak se nebojte udělat si pořádnou svačinu, která vám umožní, abyste vydrželi a byli fit.",
        "tips": "Podání si seznamovacího inzerátu, práce na zahradě, společenské hry s rodinou, odpočinek u příbuzných, tanec."
    },
    "scorpio": {
        "main": "Dnešek pro vás bude velmi inspirativní. Úplňková noc právě tak, ta vás bude motivovat k tomu, abyste si dnes vyšetřili více času na odpočinek a nešli spát až nad ránem, i když takový západ měsíce by pro vás mohl být také totiž velmi fascinující.",
        "love": "Nezahrávejte si dnes s vaším vztahem, protože by vás mohlo hodně mrzet, kdy byste přišli o vašeho milovaného partnera.",
        "work": "Pokud dnes budete moci o něčem rozhodovat, tak rozhodujte především srdcem, to vám velmi dobře poradí kudy kam jít.",
        "relationships": "Pokuste se dnes udělat něco pro to, abyste mohli se svým životem pohnout lepším směrem. Zvláště pokud už víte kterým.",
        "health": "Dnešek pro vás bude náročný, ale vy zvládnete všechno, co pro vás bude zajímavé, tak se radši odměňte zdravou večeří.",
        "tips": "Nakupování v akcích, seznamování s novými lidmi, výlet do přírody, odpočinek u přátel, zkoušení nových věcí, vaření."
    },
    "sagittarius": {
        "main": "Objevíte dnes v sobě nějaké nové schopnosti a není vyloučeno, že je budete přičítat i prvnímu jarnímu úplňku, který má obecně velké síly. Tak se nechte inspirovat nebeským děním a stejně jako měsíc je ve vrcholné fázi, tak vy budete také fascinovat.",
        "love": "Dnešek pro vás bude ve všech směrech zajímavý a vy budete mít radost, že se vám všechno vede a nemáte velké starosti.",
        "work": "Nebojte se návratů, i když nebývají lehké. Kam vás to táhne, tam byste měli skutečně být. Okliky by dnes nebyly dobré.",
        "relationships": "Dnešek pro vás může být rodinným přelomem, tak se pusťte do všeho, co vám pomůže nasměrovat váš život tam, kam chcete.",
        "health": "Možná byste mohli začít cvičit jógu nebo nějaké jiné cvičení, které vám umožnit cítit se dobře a netrápit se ničím.",
        "tips": "Odpočinek s přáteli, telefonát vzdálenější rodině, procházky městem, poslech muziky, online nakupování."
    },
    "capricorn": {
        "main": "Můžete dnes narazit na někoho, kdo vám bude velmi blízký už na první pohled. Seznámení ve znamení úplňku bude trochu magické a vy budete mít v sobě ono seznámení jako velmi příjemný okamžik, který vás naplní velkou radostí z běžného všedního dne.",
        "love": "Udělejte si dnes volnější den a nebojte se přizvat vašeho milovaného, aby vám dělal v lenošení společnost. Bude vám líp.",
        "work": "Nějaká šlamastyka vás v práci nenadchne, což neznamená, že byste měli zanevřít na to, co je vám opravdu velmi blízké.",
        "relationships": "Nějaká milá rodinná událost vám dnes zpestří jindy všední den a vy se budete cítit opravdu velmi dobře. Nebojte se snít.",
        "health": "Pokud vám dnes bude smutno, tak byste se mohli rozmazlit něčím dobrým, co uklidní vaše nervy i posílí vaše zdraví.",
        "tips": "Učení se novým věcem, plnění si starých snů, poslech muziky, seznamování s novými lidmi, uklízení, nakupování v akcích."
    },
    "aquarius": {
        "main": "Pokud vám dnes bude scházet nějaká tvůrčí práce, nastává nyní ideální doba se k ní vrátit nebo s ní úplně poprvé začít. První jarní úplněk má velkou moc a mimo jiné se to bude projevovat i na vašich tvůrčích schopnostech, které rozhodně nebudou malé.",
        "love": "Budete mít dnes dostatek pochopení, abyste se nemuseli bát různě těžkých potíží s vaším nejmilovanějším protějškem.",
        "work": "Pokuste se dnes mluvit se všemi co nejvíce narovinu. Je to cesta za tím, co je vám opravdu blízké a co je zapotřebí.",
        "relationships": "Rodinná oslava se dnes může velmi vydařit, tak si ji užívejte naplno a netrapte se žádnými starostmi, které vy vás rušily.",
        "health": "Nebojte se dnes udělat něco více pro vaše zdraví, i když to bude třeba na první pohled náročné. Všechno zvládnete.",
        "tips": "Nakupování v akcích, zkoušení nových věcí, poslech muziky, čtení oblíbených knih, zkoušení nových věcí, odpočinek."
    },
    "pisces": {
        "main": "Dnešek pro vás bude mít velkou váhu, protože se vám konečně podaří vyřešit nějakou otázku, na kterou se snažíte už velmi dlouho najít odpověď a podaří se vám to natolik báječně, že si za svitu úplňku už budete zaslouženě lebedit a také odpočívat.",
        "love": "Nemračte se dnes na svého milovaného jenom pro to, že má jiný názor, to by vám rozhodně neprospělo, na to dejte pozor.",
        "work": "Můžete dnes hodně věcí zanedbat, pokud si neuděláte jasný seznam povinností. Tak zkuste myslet na všechno, co je třeba.",
        "relationships": "Nyní byste měli pečovat o čísi blaho, protože jinak si budete vyčítat, že jste jistého rodinného příslušníka nechali na holičkách.",
        "health": "Budete mít dnes více energie, tak se věnujte všemu, co vám ji umožní správně využít. Díky tomu se budete cítit fit.",
        "tips": "Výlet do přírody, poslech muziky, seznamování s novými lidmi, rozhovory mezi čtyřma očima, tanec, nakupování."
    }
}