{
    "aries": {
        "main": "Budete dnes mít chuť na nějakou zábavu, kterou už jste se dlouho nezkusili, ale dovedete se rychle dostat zase zpátky do sedla. Měli byste nyní mluvit o tom, co je pro vás zásadní i v jiných oblastech. Chce to mít doma čistý stůl a nemuset se ničeho bát.",
        "love": "Nějaké plány dnes nevyjdou, tak jak jste si představovali, ale i tak můžete prožít zajímavý milostný začátek víkendu.",
        "work": "Práce bude dnes jako na kostele a vy nebudete vědět, co dělat dříve. Pokud si uděláte seznam, půjde všechno snadněji.",
        "relationships": "Nemusíte si nakládat na svá bedra domácí povinnosti i za další členy rodiny. Pokuste se vyhradit si nějaký čas i pro sebe.",
        "health": "Pokud budete mít dnes náladu, mohli byste zkusit nějaký nový sport, který by vám mohl zdravotně přispět a bude lépe.",
        "tips": "Vzájemná partnerská masáž, nákup kosmetiky, velký rodinný nákup, úklid lednice, chatování, telefonát příbuzným."
    },
    "taurus": {
        "main": "Pokud vás dnes někdo bude odrazovat od toho, po čem budete toužit, tak se nebojte ohradit. Máte na to, abyste zabojovali a dotáhli všechny svoje sny kupředu. Nepokoušejte se ovšem následovat je slepě, je třeba se dobře rozhlížet okolo, ať vám je dobře.",
        "love": "Dnes byste neměli malovat čerta na zeď jenom proto, jak budou některé věci budou na první pohled vypadat. Vše se zlepší.",
        "work": "Pokud vám dnes udělá něco starosti, tak se to pokuste rozebrat s vašimi kolegy. To vám pomůže cítit se mnohem lépe.",
        "relationships": "Dnešek pro vás bude v mnoha směrech podnětný. Doma můžete narazit na spoustu zajímavých věcí, které vás dosti obohatí.",
        "health": "Pokud budete rozvažovat, do jaké aktivity se pustit, tak zvolte takovou, která vás moc nevyčerpá a umožní vám být fit.",
        "tips": "Výlet do přírody, poslech muziky, péče o domácí mazlíčky, zkoušení nových aktivit, nácvik nových dovedností, odpočinek doma."
    },
    "gemini": {
        "main": "Nemusíte mít dnes velké výčitky svědomí kvůli tomu, že jste nestihli všechnu práci. Pokud jste se činili opravdu pilně, tak se držte toho, co cítíte v srdci a nenechte se rozhodit jenom kvůli nějakým kvótám či požadavkům vašeho okolí, to není správná cesta.",
        "love": "Láska je pro vás velmi důležitá, ale nepodřizujte jí úplně celý život. Chce to najít rozumnou míru, pak bude vše dobré.",
        "work": "Dnešek pro vás bude v mnohém magický, jenom musíte správně vystihnout atmosféru. Pak půjde všechno dobře, uvidíte.",
        "relationships": "Bude vám dnes líto, že už doma trávíte tak málo času spolu. Pokuste se s tím něco udělat a hned budete spokojenější.",
        "health": "Vaše zdraví dnes bude potřebovat větší čas, tak mu ho dopřejte a nežeňte se stále jenom za tím, co je pro vás nutné.",
        "tips": "Zkoušení nových aktivit, učení se novým dovednostem, poslech muziky, odpočinek u hořícího krbu, výlet do přírody."
    },
    "cancer": {
        "main": "Potřebovali byste dovolenou. Zkuste si vyrazit někam, kam vás to táhne nezávisle na tom, co si o tom bude myslet vaše okolí. Nebojte se dělat také někdy to, co chcete vy samotní. To samozřejmě neznamená, že zapomenete na blízké nebo povinnosti.",
        "love": "Budete mít dnes mnoho starostí, ale na polibky mezi povinnostmi si čas vždycky najdete a večer možná i na něco více.",
        "work": "Pokud vám bude dnes smutno, měli byste se soustředit na to, co byste měli udělat v práci prioritně, a také to udělat.",
        "relationships": "Dnešek pro vás bude mít mnoho zajímavých novinek, tak se nebojte šířit je, ať z nich mají radost i rodinní příslušníci.",
        "health": "Nepokoušejte se dnes lhát sami sobě. Vaše zdraví také potřebuje, abyste se na něj podívali a pokusili se o nápravy.",
        "tips": "Poslech muziky, sledování filmů, nakupování přes internet, povídání o životě, učení se novým věcem, odpočinek u přátel."
    },
    "leo": {
        "main": "Budete dnes muset nějaké věci předělávat několikrát a můžete ke konci dnes už bublat jako papiňák. Potřebovali byste mít na sobě cedulku, pozor, nemluvit, netvářit se hloupě a radši jít zcela jinou cestou - protože jinak to může schytat kdokoliv.",
        "love": "První rande pro vás bude dnes v mnoha ohledech zavádějící, ale nebude se vám chtít tak brzo měnit názor na miláčka.",
        "work": "Můžete dnes v práci mnohého dosáhnout, jenom se nesmíte dlouze rozpakovat. Je třeba se do všeho opřít a být sami sebou.",
        "relationships": "Neměli byste spoléhat jen na to, co vám kdo z rodiny prozradí, ale věnovat se tomu, co je teď nejdůležitější pro všechny.",
        "health": "Pokud dnes zanedbáte nějaké signály svého těla, můžete skončit s malou virózou. Na to je třeba dát radši pozor.",
        "tips": "Nakupování v akcích, zkoušení nových receptů, výlet do přírody, seznamování s novými lidmi, odpočinek u přátel."
    },
    "virgo": {
        "main": "Dnes budete mít pocit, že se nikomu nezavděčíte. I když se budete snažit sebevíce, požadavky budou náročné a vy budete již unavení. Malá pauza by vám rozhodně prospěla, tak se nebojte si ji udělat. Prospěje vám i dobré jídlo nebo také dobré pití.",
        "love": "Pokud vám bude dnes smutno, tak se pokuste nalézt nový elán v náručí vašeho nejmilovanějšího, to vám rozhodně pomůže.",
        "work": "Dnešek pro vás bude mít velkou pracovní energii, když se odhodláte, můžete změnit i směr svých dalších profesních kroků.",
        "relationships": "Můžete dnes na cosi důležitého zapomenout, třeba zaplatit pojistku za domácnost. Pokuste se zhodnotit, zda máte vše v pořádku.",
        "health": "Nebojte se udělat si dnes větší radost, protože radost působí velmi dobře na vaše zdraví. Tak se toho držte a bude.",
        "tips": "Pouštění se do nových aktivit, povídání o životě, zkoušení nových receptů, nakupování v akcích, jarní úklid domácnosti."
    },
    "libra": {
        "main": "Naučíte se dnes dostatek věcí, které se vám budou hodit do dalších dní. Tak mějte oči otevřené a sledujte všechno, co pro vás bude užitečné. Můžete se toho hodně dovědět a hodně naučit i pro budoucnost. Jenom buďte učenlivými a trpělivými žáky.",
        "love": "Udělejte dnes něco pro sebe a nemyslete stále jenom na to, co by si o vás myslel váš partner. On vás pochopí, uvidíte.",
        "work": "Dnes se můžete seznámit s někým novým, kdo pro vás bude zajímavý. Pracovně díky němu můžete vyrůst opravdu o hodně.",
        "relationships": "Dnešek pro vás bude v něčem přínosný. Můžete se o někom z rodiny dozvědět něco, co už jste delší dobu toužili znát.",
        "health": "Pokud pro vás bude něco náročné, tak si na to dejte dostatek času a nezapomínejte na zdravé stravování, to je třeba.",
        "tips": "Nakupování přes internet, výlet do přírody, povídání o životě, poslech muziky, seznamování s novými lidmi, relax."
    },
    "scorpio": {
        "main": "Jarní inspirace vás dnes bude opájet a vy si budete užívat všech radostí jarního času, které se vám budou nabízet. Nesmutněte kvůli tomu, co někdo říká a zaměřte se na to, co je skutečně důležité. Pak vám bude den přinášet hodně radosti.",
        "love": "Jsou věci, které se dají odpustit jen těžko, tak buďte obezřetní a nedělejte nic, za co byste se museli později stydět.",
        "work": "Nebojte se dnes udělat něco pro změny, které už jsou třeba. Sedět stále na stejné židli vás totiž dlouho bavit nebude.",
        "relationships": "Dnes nebude o citové zážitky nouze. Může vás to vyčerpat, proto se nebojte večer jen relaxovat a starosti pustit z hlavy.",
        "health": "Udělejte dnes něco pro vaše zdraví a bude vám hned mnohem lépe. Tak se nebojte jít do toho naplno a budete spokojení.",
        "tips": "Nové sportovní aktivity, večeře s přáteli, povídání o životě, sportování, relax ve vířivce, návštěva sauny."
    },
    "sagittarius": {
        "main": "Zažijete dnes spoustu zajímavých okamžiků, které vás přesvědčí o tom, že aktivita je pro vás opravdu velmi dobrou cestou. Sezení doma pro vás není, rozhodně ne dlouhodobě. Nový vítr do plachet, navíc ten jarní, vám udělá moc dobře, a vy můžete plout.",
        "love": "Dnes vám může vstoupit do života cosi nemilého a vy nebudete mít ani pomyšlení na erotiku. Večer se to může zlepšit.",
        "work": "Pokud vám dnes v práci bude něco nejasné, tak se na všechno přeptejte, abyste se potom neptali, když už bude pozdě.",
        "relationships": "Nebudete mít dnes příliš čas odpočívat, ale to neznamená, že byste si nenašli čas na rodinu. To pro vás bude důležité.",
        "health": "Netrapte se dnes ničím, co byste mohli udělat lépe, ale věnujte se raději tomu, co byste dělat pro zdraví opravdu chtěli.",
        "tips": "Fotografování, zkoušení nových aktivit, seznamování s novými lidmi, poslech muziky, učení se novým dovednostem, relax."
    },
    "capricorn": {
        "main": "Pokud budete mít dnes hned několik otazníků ve své mysli, tak si zkuste najít klidné místo a nad vším podumat. Nebo si můžete raději najít někoho, kdo s vámi všechno probere jedno za druhým a vy si uděláte ve věcech jasno díky jeho odstupu.",
        "love": "Pokud vás dnes nebude bavit milostné tokání, nepochybně za tím bude nějaký větší blok v citové oblasti. Prověřte to.",
        "work": "Dnešek pro vás bude velmi zajímavým dnem, který vám ukáže, že v práci se můžete vydat docela jiným profesním směrem.",
        "relationships": "Nemračte se dnes na své domácí zázemí, i když mu k dokonalosti bude leccos chybět. Důležité je především, že ho máte.",
        "health": "Některé věci pro vás budou dnes příjemnou výzvou, ale chce to nezapomínat ani na pitný režim a dobré jídlo. To je třeba.",
        "tips": "Zkoušení nových dovedností, poslech muziky, fotografování, povídání o životě, sledování oblíbených filmů, sportování."
    },
    "aquarius": {
        "main": "Dnešek pro vás může být v něčem náročný. Může to být tím, že se přepínáte více, než je zdrávo. Nebo se o slovo může přihlásit jarní únava, každopádně budete potřebovat doping v podobě nějaké dobré šťávy, ideálně v kvalitě bio, to vám udělá dobře.",
        "love": "Nebudete mít dnes příliš mnoho volného času, tak se ho pokuste vyšetřit alespoň trochu na vašeho nejmilovanějšího.",
        "work": "Můžete v sobě objevit docela jiný talent, než jaký jste tušili. Tak si jděte za svým a uvidíte, jak se bude dařit.",
        "relationships": "Udělejte si dnes více času na sebe a svůj volný čas. Vaši blízcí si jednou bez vás také poradí a vy naberete spoustu sil.",
        "health": "Bude dnes zapotřebí obrnit se proti případným výčitkám ze strany vašich blízkých. Psychická nepohoda by nepomohla.",
        "tips": "Nakupování, seznamování s novými lidmi, sportování, povídání o životě, poslech muziky, učení se novým dovednostem."
    },
    "pisces": {
        "main": "Nějaké přátelství dnes prověří určitá situace a vy si nebudete jisti, zda můžete říci s klidným svědomím, že opravdu obstálo. Neházejte ale žádný vztah přes palubu. Chce to zůstat velkorysí a naučit se odpouštět, jedině tak se dovedete zase uklidnit.",
        "love": "S milostnými zdrobnělinami to dnes raději nepřehánějte, jinak vám ten váš broučínek zvedne krovky a rychle odletí.",
        "work": "Dnes si dejte pozor na to, co budete slibovat. Nějaké plané sliby by se vám totiž mohly vymstít, tak buďte opatrní.",
        "relationships": "Rodina není jenom o pokrevním příbuzenství, často jsou to prostě lidé s nimiž je vám dobře a patří do vašeho života.",
        "health": "Dnes si dávejte pozor na nachlazení. I když počasí už bude lákat ven, neměli byste podcenit situaci a být obezřetní.",
        "tips": "Povídání o životě, poslech muziky, učení se novým aktivitám, sportování, filozofování, fotografování, jarní úklid."
    }
}