{
    "aries": {
        "main": "Nebudete mít dnes tolik povinností, jako jste měli minulý týden, takže budete mít čas sami na sebe. Nemluvte ale v něčem do větru. Bude zapotřebí mít kontrolu nad svými sliby, jedině tak se budete cítit dobře a nebudete muset mít výčitky svědomí.",
        "love": "Zamilovat se dnes můžete zčista jasna, tak se nebojte udělat pro lásku všechno, co jenom půjde. Pak vám bude dobře.",
        "work": "Udělejte si dnes pořádek na pracovním stole. Jedině tak budete mít přehled a nebudete se muset obávat, že něco nenajdete.",
        "relationships": "Budete dnes mít co dělat, abyste zvládli všechny úkoly, které na vás doma navalí. Ale všechno nakonec docela klapne.",
        "health": "Zaměřte se dnes na zdravé bio potraviny, ty vám pomohou k tomu, abyste se cítili dobře. Počkejte si na lepší příležitosti.",
        "tips": "Povídání o ratolestech, zkoušení nových dovedností, poslech muziky, nakupování v akcích, odpočinek u přátel, sport."
    },
    "taurus": {
        "main": "Někdo si z vás bude dnes dělat legraci a vy byste měli zachovat chladnou hlavu, protože oplácet mu stejnou mincí, by vám dnes plusové body nepřineslo. Zkuste se více zapřít a držet se toho, co je pro vás nyní nejdůležitější. Tak radši opatrně.",
        "love": "Ohledně nějaké záležitosti dnes můžete mít s partnerem rozdílné názory, tak se pokuste je nějak sjednotit s tolerancí.",
        "work": "Dnes pro vás bude mít něco velkou váhu, tak se nebojte přičinit, abyste dosáhli všeho, co pro vás bude zajímavé.",
        "relationships": "Pokud vám dnes bude líto, že nějaké věci doma ještě nejsou takové, jaké by měly být, tak se přičiňte, aby bylo lépe.",
        "health": "Nezapomeňte dnes na pravidelný jídelníček, ten pro vás bude opravdu zásadní. Pokuste se dodržovat všechno, co půjde.",
        "tips": "Rande naslepo, rodinný výlet do přírody, plavání, relax, zkoušení nových dovedností, povídání o životě, čtení."
    },
    "gemini": {
        "main": "Na piknik bude ještě chladno, ale procházka vám rozhodně prospěje, tak ji neodkládejte zase až na příští den. Je zapotřebí věnovat se tomu, co vám udělá dobře, protože příroda uklidňuje a kondička je pro vás nepostradatelnou součástí života.",
        "love": "Ačkoliv se dnes budete snažit, mohou mezi vámi vzniknout třenice, které budete muset retušovat především vy, tak do toho.",
        "work": "Nebojte se dnes mluvit otevřeně o tom, co vás v zaměstnání rozčiluje. Jenom volte diplomatická slova, to je zapotřebí.",
        "relationships": "Nedělejte si dnes zbytečné starosti s tím, co bylo, ale zaměřte se radši na to, co teprve bude. Vaše rodina vás podpoří.",
        "health": "Netrapte se dnes kvůli všemu, řešte jenom podstatné věci, které pro vás budou opravdu důležité. Ty ostatní vypusťte.",
        "tips": "Sportování, seznamování s novými lidmi, poslech muziky, zkoušení nových aktivit, sportování, telefonování blízkým."
    },
    "cancer": {
        "main": "Nemluvte dnes o tom, co byste si nepřáli, aby se stalo. Neznamená to být pověrčiví, ale věnovat se raději pozitivním stránkám života a pozitivním afirmacím. Ty vás budou držet nad vodou. Negativa by vás naopak stahovaly rychle dolů pod hladinu.",
        "love": "Pokud vám dnes bude smutno, tak se nebojte stulit do náruče vašeho milovaného, jedině tak vám bude zase opravdu dobře.",
        "work": "Dnešek vám ukáže spoustu pozitivních věcí v životě a vy budete mít radost, že se vám poměrně daří a můžete si užívat.",
        "relationships": "Budete mít dnes hodně důvodů k rodinným radostem, ale stejně může vaše štěstí něco malinko kalit. Odpouštějte více.",
        "health": "Neměli byste dnes nějaké věci zbytečně řešit přes míru, psychická pohoda pro vás bude opravdu důležitá, tak se jí držte.",
        "tips": "Poslech muziky, seznamování s novými lidmi, povídání o životě, vaření podle nových receptů, uklízení domácnosti."
    },
    "leo": {
        "main": "Budete mít radost z toho, jak se vám vede v práci, i z dalších věcí, které se vám budou dařit. Jenom některé věci z minulosti vás budou trápit a nebudete vědět, jak s nimi naložit. Dejte si pozor na to, abyste minulým vzpomínkám příliš nepodléhali.",
        "love": "Dnes byste se neměli věnovat žádným žabomyším válkám, to by vám neudělalo dobře a cítili byste se velmi zle, tak pozor.",
        "work": "Dnes to nepřehánějte s prací přesčas, to by vám nepřineslo žádnou dobrou energii, právě naopak přineslo by to potíže.",
        "relationships": "Pokud se dnes s někým pohádáte, neměli byste z toho ještě dělat konec světa. Ono se to zase mezi vámi urovná, uvidíte.",
        "health": "Dnes byste se měli držet toho, že zdraví je pro vás opravdu důležité, a některé méně důležité věci prostě vypusťte.",
        "tips": "Plánování nových aktivit, nakupování v akcích, seznamování s novými lidmi, poslech muziky, výlet za kulturou, relax."
    },
    "virgo": {
        "main": "Udělejte dnes jarní průvan ve skříních. Přijdete na to, že toho máte poměrně dost, jenom to chce připravit si nějaké zajímavé modely, které vystihnou jarní energii a budou se hodit pro nové okamžiky. Ty vás opravdu čekají, tak se radši otevřete.",
        "love": "Někdo, koho považujte za přítele, se dnes ukáže spíše jako ten, kdo je do vás zamilovaný, a to vás může poněkud zaskočit.",
        "work": "Dnes bude důležité promyslet si, co je pro vás opravdu důležité a co již méně. Věnujte se jenom těm nejnutnějším úkolům.",
        "relationships": "Nedejte dnes na pomluvy, zbytečně by ve vás vyvolávaly vztek. Vaši blízcí budou stejně na vaší straně, tak se netrapte.",
        "health": "Zaměřte se dnes na to, aby váš jídelníček byl pestrý. To je opravdu důležité. Jedině tak se budete cítit opravdu fit.",
        "tips": "Sledování oblíbených filmů, zkoušení nových, vaření, pečení, nakupování v akcích, odpočinek u přátel, jarní úklid."
    },
    "libra": {
        "main": "Budete mít dostatek energie na všechno, co byste si přáli dotáhnout. Nebojte se jít si za svým více, než tomu bylo dříve. I když to nebude úplně jednoduché, měli byste se držet svých snů a tužeb. Ty vás povedou dále a dovedou vás inspirovat.",
        "love": "Buďte dnes obezřetní s vyznáváním citů, protože byste si mohli zbytečně naběhnout a cítit se pak nedobře, když to nesedne.",
        "work": "Potřebovali byste v práci více volna, tak se pokuste se trochu více šetřit a nenechávat všechno až na poslední chvíli.",
        "relationships": "Pokud doma dnes budou vládnout negativní emoce, zkuste udělat něco pro zlepšení. Jedině tak budete zase klidnější.",
        "health": "Někdo vás bude inspirovat v oblasti zdraví. Nepokoušejte se ho ale napodobit zcela. Některé věci si dělejte dle svého.",
        "tips": "Poslech dobré muziky, povídání si o životě, mytí oken, vaření, pečení, posílání jarních pohlednic, sport, telefonování."
    },
    "scorpio": {
        "main": "Někdo z vašich blízkých nebude mít dnes pochopení pro vaše aktivity. Neberte si to ale osobně, protože to by vás zbytečně sebralo. Nějaké věci pro vás budou náročné, ale několik podporovatelů se stejně nakonec najde, i když trochu překvapivých.",
        "love": "Dnes byste si měli na sebe s vaším miláčkem udělat více času, protože jedině tak vám bude zase dobře a porozumíte si."
    },
    "sagittarius": {
        "main": "Zažijete dnes spoustu zajímavých okamžiků, které vás přesvědčí o tom, že aktivita je pro vás opravdu velmi dobrou cestou. Sezení doma pro vás není, rozhodně ne dlouhodobě. Nový vítr do plachet, navíc ten jarní, vám udělá moc dobře, a vy můžete plout.",
        "love": "Dnes vám může vstoupit do života cosi nemilého a vy nebudete mít ani pomyšlení na erotiku. Večer se to může zlepšit.",
        "work": "Pokud vám dnes v práci bude něco nejasné, tak se na všechno přeptejte, abyste se potom neptali, když už bude pozdě.",
        "relationships": "Nebudete mít dnes příliš čas odpočívat, ale to neznamená, že byste si nenašli čas na rodinu. To pro vás bude důležité.",
        "health": "Netrapte se dnes ničím, co byste mohli udělat lépe, ale věnujte se raději tomu, co byste dělat pro zdraví opravdu chtěli.",
        "tips": "Fotografování, zkoušení nových aktivit, seznamování s novými lidmi, poslech muziky, učení se novým dovednostem, relax."
    },
    "capricorn": {
        "main": "Pokud budete mít dnes hned několik otazníků ve své mysli, tak si zkuste najít klidné místo a nad vším podumat. Nebo si můžete raději najít někoho, kdo s vámi všechno probere jedno za druhým a vy si uděláte ve věcech jasno díky jeho odstupu.",
        "love": "Pokud vás dnes nebude bavit milostné tokání, nepochybně za tím bude nějaký větší blok v citové oblasti. Prověřte to.",
        "work": "Dnešek pro vás bude velmi zajímavým dnem, který vám ukáže, že v práci se můžete vydat docela jiným profesním směrem.",
        "relationships": "Nemračte se dnes na své domácí zázemí, i když mu k dokonalosti bude leccos chybět. Důležité je především, že ho máte.",
        "health": "Některé věci pro vás budou dnes příjemnou výzvou, ale chce to nezapomínat ani na pitný režim a dobré jídlo. To je třeba.",
        "tips": "Zkoušení nových dovedností, poslech muziky, fotografování, povídání o životě, sledování oblíbených filmů, sportování."
    },
    "aquarius": {
        "main": "Dnešek pro vás může být v něčem náročný. Může to být tím, že se přepínáte více, než je zdrávo. Nebo se o slovo může přihlásit jarní únava, každopádně budete potřebovat doping v podobě nějaké dobré šťávy, ideálně v kvalitě bio, to vám udělá dobře.",
        "love": "Nebudete mít dnes příliš mnoho volného času, tak se ho pokuste vyšetřit alespoň trochu na vašeho nejmilovanějšího.",
        "work": "Můžete v sobě objevit docela jiný talent, než jaký jste tušili. Tak si jděte za svým a uvidíte, jak se bude dařit.",
        "relationships": "Udělejte si dnes více času na sebe a svůj volný čas. Vaši blízcí si jednou bez vás také poradí a vy naberete spoustu sil.",
        "health": "Bude dnes zapotřebí obrnit se proti případným výčitkám ze strany vašich blízkých. Psychická nepohoda by nepomohla.",
        "tips": "Nakupování, seznamování s novými lidmi, sportování, povídání o životě, poslech muziky, učení se novým dovednostem."
    },
    "pisces": {
        "main": "Nějaké přátelství dnes prověří určitá situace a vy si nebudete jisti, zda můžete říci s klidným svědomím, že opravdu obstálo. Neházejte ale žádný vztah přes palubu. Chce to zůstat velkorysí a naučit se odpouštět, jedině tak se dovedete zase uklidnit.",
        "love": "S milostnými zdrobnělinami to dnes raději nepřehánějte, jinak vám ten váš broučínek zvedne krovky a rychle odletí.",
        "work": "Dnes si dejte pozor na to, co budete slibovat. Nějaké plané sliby by se vám totiž mohly vymstít, tak buďte opatrní.",
        "relationships": "Rodina není jenom o pokrevním příbuzenství, často jsou to prostě lidé s nimiž je vám dobře a patří do vašeho života.",
        "health": "Dnes si dávejte pozor na nachlazení. I když počasí už bude lákat ven, neměli byste podcenit situaci a být obezřetní.",
        "tips": "Povídání o životě, poslech muziky, učení se novým aktivitám, sportování, filozofování, fotografování, jarní úklid."
    }
}